timeInMin,trip_id,service_id,tipas,numeris,pirmadienis,antradienis,treciadienis,ketvirtadienis,penktadienis,sestadienis,sekmadienis 
325,15635,10409,bus,87,1,1,1,1,1,0,0
357,15636,10409,bus,87,1,1,1,1,1,0,0
387,15637,10409,bus,87,1,1,1,1,1,0,0
421,15638,10409,bus,87,1,1,1,1,1,0,0
458,15639,10409,bus,87,1,1,1,1,1,0,0
495,15640,10409,bus,87,1,1,1,1,1,0,0
526,15641,10409,bus,87,1,1,1,1,1,0,0
558,15642,10409,bus,87,1,1,1,1,1,0,0
588,15643,10409,bus,87,1,1,1,1,1,0,0
625,15644,10409,bus,87,1,1,1,1,1,0,0
680,15645,10409,bus,87,1,1,1,1,1,0,0
712,15646,10409,bus,87,1,1,1,1,1,0,0
744,15647,10409,bus,87,1,1,1,1,1,0,0
776,15648,10409,bus,87,1,1,1,1,1,0,0
829,15649,10409,bus,87,1,1,1,1,1,0,0
851,15650,10409,bus,87,1,1,1,1,1,0,0
884,15651,10409,bus,87,1,1,1,1,1,0,0
915,15652,10409,bus,87,1,1,1,1,1,0,0
961,15653,10409,bus,87,1,1,1,1,1,0,0
996,15654,10409,bus,87,1,1,1,1,1,0,0
1025,15655,10409,bus,87,1,1,1,1,1,0,0
1056,15656,10409,bus,87,1,1,1,1,1,0,0
1090,15657,10409,bus,87,1,1,1,1,1,0,0
1130,15658,10409,bus,87,1,1,1,1,1,0,0
1180,15659,10409,bus,87,1,1,1,1,1,0,0
1219,15660,10409,bus,87,1,1,1,1,1,0,0
1253,15661,10409,bus,87,1,1,1,1,1,0,0
1283,15662,10409,bus,87,1,1,1,1,1,0,0
1331,15663,10409,bus,87,1,1,1,1,1,0,0
1378,15664,10409,bus,87,1,1,1,1,1,0,0
442,15665,10410,bus,87,0,0,0,0,0,1,1
503,15666,10410,bus,87,0,0,0,0,0,1,1
568,15667,10410,bus,87,0,0,0,0,0,1,1
633,15668,10410,bus,87,0,0,0,0,0,1,1
720,15669,10410,bus,87,0,0,0,0,0,1,1
786,15670,10410,bus,87,0,0,0,0,0,1,1
846,15671,10410,bus,87,0,0,0,0,0,1,1
912,15672,10410,bus,87,0,0,0,0,0,1,1
977,15673,10410,bus,87,0,0,0,0,0,1,1
1043,15674,10410,bus,87,0,0,0,0,0,1,1
1103,15675,10410,bus,87,0,0,0,0,0,1,1
1169,15676,10410,bus,87,0,0,0,0,0,1,1
1255,15677,10410,bus,87,0,0,0,0,0,1,1
1320,15678,10410,bus,87,0,0,0,0,0,1,1
1381,15679,10410,bus,87,0,0,0,0,0,1,1
