timeInMin,trip_id,service_id,tipas,numeris,pirmadienis,antradienis,treciadienis,ketvirtadienis,penktadienis,sestadienis,sekmadienis 
328,15588,10409,bus,87,1,1,1,1,1,0,0
360,15589,10409,bus,87,1,1,1,1,1,0,0
399,15590,10409,bus,87,1,1,1,1,1,0,0
432,15591,10409,bus,87,1,1,1,1,1,0,0
465,15592,10409,bus,87,1,1,1,1,1,0,0
500,15593,10409,bus,87,1,1,1,1,1,0,0
532,15594,10409,bus,87,1,1,1,1,1,0,0
569,15595,10409,bus,87,1,1,1,1,1,0,0
624,15596,10409,bus,87,1,1,1,1,1,0,0
653,15597,10409,bus,87,1,1,1,1,1,0,0
683,15598,10409,bus,87,1,1,1,1,1,0,0
720,15599,10409,bus,87,1,1,1,1,1,0,0
755,15600,10409,bus,87,1,1,1,1,1,0,0
788,15601,10409,bus,87,1,1,1,1,1,0,0
819,15602,10409,bus,87,1,1,1,1,1,0,0
846,15603,10409,bus,87,1,1,1,1,1,0,0
900,15604,10409,bus,87,1,1,1,1,1,0,0
935,15605,10409,bus,87,1,1,1,1,1,0,0
966,15606,10409,bus,87,1,1,1,1,1,0,0
999,15607,10409,bus,87,1,1,1,1,1,0,0
1033,15608,10409,bus,87,1,1,1,1,1,0,0
1073,15609,10409,bus,87,1,1,1,1,1,0,0
1122,15610,10409,bus,87,1,1,1,1,1,0,0
1155,15611,10409,bus,87,1,1,1,1,1,0,0
1191,15612,10409,bus,87,1,1,1,1,1,0,0
1227,15613,10409,bus,87,1,1,1,1,1,0,0
1275,15614,10409,bus,87,1,1,1,1,1,0,0
1314,15615,10409,bus,87,1,1,1,1,1,0,0
1348,15616,10409,bus,87,1,1,1,1,1,0,0
1378,15617,10409,bus,87,1,1,1,1,1,0,0
1401,15618,10409,bus,87,1,1,1,1,1,0,0
383,15619,10410,bus,87,0,0,0,0,0,1,1
444,15620,10410,bus,87,0,0,0,0,0,1,1
509,15621,10410,bus,87,0,0,0,0,0,1,1
574,15622,10410,bus,87,0,0,0,0,0,1,1
661,15623,10410,bus,87,0,0,0,0,0,1,1
727,15624,10410,bus,87,0,0,0,0,0,1,1
787,15625,10410,bus,87,0,0,0,0,0,1,1
853,15626,10410,bus,87,0,0,0,0,0,1,1
918,15627,10410,bus,87,0,0,0,0,0,1,1
984,15628,10410,bus,87,0,0,0,0,0,1,1
1044,15629,10410,bus,87,0,0,0,0,0,1,1
1110,15630,10410,bus,87,0,0,0,0,0,1,1
1195,15631,10410,bus,87,0,0,0,0,0,1,1
1261,15632,10410,bus,87,0,0,0,0,0,1,1
1322,15633,10410,bus,87,0,0,0,0,0,1,1
1400,15634,10410,bus,87,0,0,0,0,0,1,1
