timeInMin,trip_id,service_id,tipas,numeris,pirmadienis,antradienis,treciadienis,ketvirtadienis,penktadienis,sestadienis,sekmadienis 
300,17862,10657,trol,4,1,1,1,1,1,0,0
310,17863,10657,trol,4,1,1,1,1,1,0,0
318,17864,10657,trol,4,1,1,1,1,1,0,0
328,17865,10657,trol,4,1,1,1,1,1,0,0
335,17866,10657,trol,4,1,1,1,1,1,0,0
343,17867,10657,trol,4,1,1,1,1,1,0,0
350,17868,10657,trol,4,1,1,1,1,1,0,0
355,17869,10657,trol,4,1,1,1,1,1,0,0
358,17870,10656,trol,4,1,1,1,1,1,0,0
369,17871,10657,trol,4,1,1,1,1,1,0,0
373,17872,10657,trol,4,1,1,1,1,1,0,0
376,17873,10657,trol,4,1,1,1,1,1,0,0
390,17874,10657,trol,4,1,1,1,1,1,0,0
394,17875,10657,trol,4,1,1,1,1,1,0,0
404,17876,10657,trol,4,1,1,1,1,1,0,0
397,17877,10657,trol,4,1,1,1,1,1,0,0
409,17878,10657,trol,4,1,1,1,1,1,0,0
418,17879,10657,trol,4,1,1,1,1,1,0,0
421,17880,10657,trol,4,1,1,1,1,1,0,0
432,17881,10657,trol,4,1,1,1,1,1,0,0
438,17882,10657,trol,4,1,1,1,1,1,0,0
440,17883,10657,trol,4,1,1,1,1,1,0,0
448,17884,10657,trol,4,1,1,1,1,1,0,0
457,17885,10657,trol,4,1,1,1,1,1,0,0
464,17886,10657,trol,4,1,1,1,1,1,0,0
472,17887,10657,trol,4,1,1,1,1,1,0,0
480,17888,10657,trol,4,1,1,1,1,1,0,0
494,17889,10657,trol,4,1,1,1,1,1,0,0
500,17890,10657,trol,4,1,1,1,1,1,0,0
508,17891,10657,trol,4,1,1,1,1,1,0,0
532,17892,10657,trol,4,1,1,1,1,1,0,0
530,17893,10657,trol,4,1,1,1,1,1,0,0
553,17894,10657,trol,4,1,1,1,1,1,0,0
567,17895,10657,trol,4,1,1,1,1,1,0,0
579,17896,10657,trol,4,1,1,1,1,1,0,0
591,17897,10657,trol,4,1,1,1,1,1,0,0
604,17898,10657,trol,4,1,1,1,1,1,0,0
613,17899,10657,trol,4,1,1,1,1,1,0,0
623,17900,10657,trol,4,1,1,1,1,1,0,0
633,17901,10657,trol,4,1,1,1,1,1,0,0
634,17902,10657,trol,4,1,1,1,1,1,0,0
651,17903,10657,trol,4,1,1,1,1,1,0,0
663,17904,10657,trol,4,1,1,1,1,1,0,0
656,17905,10657,trol,4,1,1,1,1,1,0,0
670,17906,10657,trol,4,1,1,1,1,1,0,0
681,17907,10657,trol,4,1,1,1,1,1,0,0
692,17908,10657,trol,4,1,1,1,1,1,0,0
705,17909,10657,trol,4,1,1,1,1,1,0,0
714,17910,10657,trol,4,1,1,1,1,1,0,0
723,17911,10657,trol,4,1,1,1,1,1,0,0
734,17912,10657,trol,4,1,1,1,1,1,0,0
745,17913,10657,trol,4,1,1,1,1,1,0,0
753,17914,10657,trol,4,1,1,1,1,1,0,0
765,17915,10657,trol,4,1,1,1,1,1,0,0
773,17916,10657,trol,4,1,1,1,1,1,0,0
783,17917,10657,trol,4,1,1,1,1,1,0,0
793,17918,10657,trol,4,1,1,1,1,1,0,0
803,17919,10657,trol,4,1,1,1,1,1,0,0
813,17920,10657,trol,4,1,1,1,1,1,0,0
822,17921,10657,trol,4,1,1,1,1,1,0,0
832,17922,10657,trol,4,1,1,1,1,1,0,0
841,17923,10657,trol,4,1,1,1,1,1,0,0
854,17924,10657,trol,4,1,1,1,1,1,0,0
864,17925,10657,trol,4,1,1,1,1,1,0,0
875,17926,10657,trol,4,1,1,1,1,1,0,0
884,17927,10657,trol,4,1,1,1,1,1,0,0
896,17928,10657,trol,4,1,1,1,1,1,0,0
904,17929,10657,trol,4,1,1,1,1,1,0,0
904,17930,10657,trol,4,1,1,1,1,1,0,0
917,17931,10657,trol,4,1,1,1,1,1,0,0
916,17932,10657,trol,4,1,1,1,1,1,0,0
928,17933,10657,trol,4,1,1,1,1,1,0,0
925,17934,10657,trol,4,1,1,1,1,1,0,0
933,17935,10657,trol,4,1,1,1,1,1,0,0
939,17936,10657,trol,4,1,1,1,1,1,0,0
946,17937,10657,trol,4,1,1,1,1,1,0,0
956,17938,10657,trol,4,1,1,1,1,1,0,0
962,17939,10657,trol,4,1,1,1,1,1,0,0
969,17940,10657,trol,4,1,1,1,1,1,0,0
978,17941,10657,trol,4,1,1,1,1,1,0,0
988,17942,10657,trol,4,1,1,1,1,1,0,0
997,17943,10657,trol,4,1,1,1,1,1,0,0
1003,17944,10657,trol,4,1,1,1,1,1,0,0
1010,17945,10657,trol,4,1,1,1,1,1,0,0
1017,17946,10657,trol,4,1,1,1,1,1,0,0
1024,17947,10657,trol,4,1,1,1,1,1,0,0
1029,17948,10657,trol,4,1,1,1,1,1,0,0
1036,17949,10657,trol,4,1,1,1,1,1,0,0
1044,17950,10657,trol,4,1,1,1,1,1,0,0
1051,17951,10657,trol,4,1,1,1,1,1,0,0
1057,17952,10657,trol,4,1,1,1,1,1,0,0
1080,17953,10657,trol,4,1,1,1,1,1,0,0
1093,17954,10657,trol,4,1,1,1,1,1,0,0
1110,17955,10657,trol,4,1,1,1,1,1,0,0
1103,17956,10657,trol,4,1,1,1,1,1,0,0
1130,17957,10657,trol,4,1,1,1,1,1,0,0
1147,17958,10657,trol,4,1,1,1,1,1,0,0
1157,17959,10657,trol,4,1,1,1,1,1,0,0
1172,17960,10657,trol,4,1,1,1,1,1,0,0
1186,17961,10657,trol,4,1,1,1,1,1,0,0
1198,17962,10657,trol,4,1,1,1,1,1,0,0
1211,17963,10657,trol,4,1,1,1,1,1,0,0
1211,17964,10657,trol,4,1,1,1,1,1,0,0
1229,17965,10657,trol,4,1,1,1,1,1,0,0
1238,17966,10657,trol,4,1,1,1,1,1,0,0
1229,17967,10657,trol,4,1,1,1,1,1,0,0
1243,17968,10657,trol,4,1,1,1,1,1,0,0
1263,17969,10657,trol,4,1,1,1,1,1,0,0
1256,17970,10657,trol,4,1,1,1,1,1,0,0
1267,17971,10657,trol,4,1,1,1,1,1,0,0
1281,17972,10657,trol,4,1,1,1,1,1,0,0
1292,17973,10657,trol,4,1,1,1,1,1,0,0
1306,17974,10657,trol,4,1,1,1,1,1,0,0
1325,17975,10657,trol,4,1,1,1,1,1,0,0
1336,17976,10657,trol,4,1,1,1,1,1,0,0
1359,17977,10657,trol,4,1,1,1,1,1,0,0
322,17978,10444,trol,4,0,0,0,0,0,1,0
361,17979,10445,trol,4,0,0,0,0,0,0,1
387,17980,10445,trol,4,0,0,0,0,0,0,1
402,17981,10445,trol,4,0,0,0,0,0,0,1
420,17982,10445,trol,4,0,0,0,0,0,0,1
432,17983,10445,trol,4,0,0,0,0,0,0,1
447,17984,10445,trol,4,0,0,0,0,0,0,1
459,17985,10445,trol,4,0,0,0,0,0,0,1
474,17986,10445,trol,4,0,0,0,0,0,0,1
492,17987,10445,trol,4,0,0,0,0,0,0,1
508,17988,10445,trol,4,0,0,0,0,0,0,1
523,17989,10445,trol,4,0,0,0,0,0,0,1
525,17990,10445,trol,4,0,0,0,0,0,0,1
537,17991,10445,trol,4,0,0,0,0,0,0,1
559,17992,10445,trol,4,0,0,0,0,0,0,1
574,17993,10445,trol,4,0,0,0,0,0,0,1
589,17994,10445,trol,4,0,0,0,0,0,0,1
596,17995,10445,trol,4,0,0,0,0,0,0,1
613,17996,10445,trol,4,0,0,0,0,0,0,1
626,17997,10445,trol,4,0,0,0,0,0,0,1
638,17998,10445,trol,4,0,0,0,0,0,0,1
631,17999,10445,trol,4,0,0,0,0,0,0,1
657,18000,10445,trol,4,0,0,0,0,0,0,1
646,18001,10445,trol,4,0,0,0,0,0,0,1
659,18002,10445,trol,4,0,0,0,0,0,0,1
683,18003,10445,trol,4,0,0,0,0,0,0,1
696,18004,10445,trol,4,0,0,0,0,0,0,1
714,18005,10445,trol,4,0,0,0,0,0,0,1
708,18006,10445,trol,4,0,0,0,0,0,0,1
727,18007,10445,trol,4,0,0,0,0,0,0,1
745,18008,10445,trol,4,0,0,0,0,0,0,1
761,18009,10445,trol,4,0,0,0,0,0,0,1
760,18010,10445,trol,4,0,0,0,0,0,0,1
777,18011,10445,trol,4,0,0,0,0,0,0,1
772,18012,10445,trol,4,0,0,0,0,0,0,1
784,18013,10445,trol,4,0,0,0,0,0,0,1
795,18014,10445,trol,4,0,0,0,0,0,0,1
808,18015,10445,trol,4,0,0,0,0,0,0,1
823,18016,10445,trol,4,0,0,0,0,0,0,1
831,18017,10445,trol,4,0,0,0,0,0,0,1
841,18018,10445,trol,4,0,0,0,0,0,0,1
847,18019,10445,trol,4,0,0,0,0,0,0,1
856,18020,10445,trol,4,0,0,0,0,0,0,1
870,18021,10445,trol,4,0,0,0,0,0,0,1
879,18022,10445,trol,4,0,0,0,0,0,0,1
891,18023,10445,trol,4,0,0,0,0,0,0,1
902,18024,10445,trol,4,0,0,0,0,0,0,1
910,18025,10445,trol,4,0,0,0,0,0,0,1
924,18026,10445,trol,4,0,0,0,0,0,0,1
933,18027,10445,trol,4,0,0,0,0,0,0,1
942,18028,10445,trol,4,0,0,0,0,0,0,1
951,18029,10445,trol,4,0,0,0,0,0,0,1
964,18030,10445,trol,4,0,0,0,0,0,0,1
974,18031,10445,trol,4,0,0,0,0,0,0,1
986,18032,10445,trol,4,0,0,0,0,0,0,1
996,18033,10445,trol,4,0,0,0,0,0,0,1
1005,18034,10445,trol,4,0,0,0,0,0,0,1
1014,18035,10445,trol,4,0,0,0,0,0,0,1
1027,18036,10445,trol,4,0,0,0,0,0,0,1
1045,18037,10445,trol,4,0,0,0,0,0,0,1
1058,18038,10445,trol,4,0,0,0,0,0,0,1
1101,18039,10445,trol,4,0,0,0,0,0,0,1
1122,18040,10445,trol,4,0,0,0,0,0,0,1
1147,18041,10445,trol,4,0,0,0,0,0,0,1
1162,18042,10445,trol,4,0,0,0,0,0,0,1
1170,18043,10445,trol,4,0,0,0,0,0,0,1
1190,18044,10445,trol,4,0,0,0,0,0,0,1
1191,18045,10445,trol,4,0,0,0,0,0,0,1
1216,18046,10445,trol,4,0,0,0,0,0,0,1
1231,18047,10445,trol,4,0,0,0,0,0,0,1
1248,18048,10445,trol,4,0,0,0,0,0,0,1
1259,18049,10445,trol,4,0,0,0,0,0,0,1
1277,18050,10445,trol,4,0,0,0,0,0,0,1
1293,18051,10445,trol,4,0,0,0,0,0,0,1
1311,18052,10445,trol,4,0,0,0,0,0,0,1
1341,18053,10445,trol,4,0,0,0,0,0,0,1
361,18054,10444,trol,4,0,0,0,0,0,1,0
387,18055,10444,trol,4,0,0,0,0,0,1,0
389,18056,10444,trol,4,0,0,0,0,0,1,0
416,18057,10444,trol,4,0,0,0,0,0,1,0
432,18058,10444,trol,4,0,0,0,0,0,1,0
447,18059,10444,trol,4,0,0,0,0,0,1,0
459,18060,10444,trol,4,0,0,0,0,0,1,0
474,18061,10444,trol,4,0,0,0,0,0,1,0
492,18062,10444,trol,4,0,0,0,0,0,1,0
508,18063,10444,trol,4,0,0,0,0,0,1,0
523,18064,10444,trol,4,0,0,0,0,0,1,0
525,18065,10444,trol,4,0,0,0,0,0,1,0
537,18066,10444,trol,4,0,0,0,0,0,1,0
559,18067,10444,trol,4,0,0,0,0,0,1,0
574,18068,10444,trol,4,0,0,0,0,0,1,0
589,18069,10444,trol,4,0,0,0,0,0,1,0
596,18070,10444,trol,4,0,0,0,0,0,1,0
613,18071,10444,trol,4,0,0,0,0,0,1,0
626,18072,10444,trol,4,0,0,0,0,0,1,0
638,18073,10444,trol,4,0,0,0,0,0,1,0
631,18074,10444,trol,4,0,0,0,0,0,1,0
657,18075,10444,trol,4,0,0,0,0,0,1,0
646,18076,10444,trol,4,0,0,0,0,0,1,0
659,18077,10444,trol,4,0,0,0,0,0,1,0
683,18078,10444,trol,4,0,0,0,0,0,1,0
696,18079,10444,trol,4,0,0,0,0,0,1,0
714,18080,10444,trol,4,0,0,0,0,0,1,0
708,18081,10444,trol,4,0,0,0,0,0,1,0
727,18082,10444,trol,4,0,0,0,0,0,1,0
745,18083,10444,trol,4,0,0,0,0,0,1,0
761,18084,10444,trol,4,0,0,0,0,0,1,0
760,18085,10444,trol,4,0,0,0,0,0,1,0
777,18086,10444,trol,4,0,0,0,0,0,1,0
772,18087,10444,trol,4,0,0,0,0,0,1,0
784,18088,10444,trol,4,0,0,0,0,0,1,0
795,18089,10444,trol,4,0,0,0,0,0,1,0
808,18090,10444,trol,4,0,0,0,0,0,1,0
823,18091,10444,trol,4,0,0,0,0,0,1,0
831,18092,10444,trol,4,0,0,0,0,0,1,0
841,18093,10444,trol,4,0,0,0,0,0,1,0
847,18094,10444,trol,4,0,0,0,0,0,1,0
856,18095,10444,trol,4,0,0,0,0,0,1,0
870,18096,10444,trol,4,0,0,0,0,0,1,0
879,18097,10444,trol,4,0,0,0,0,0,1,0
891,18098,10444,trol,4,0,0,0,0,0,1,0
902,18099,10444,trol,4,0,0,0,0,0,1,0
910,18100,10444,trol,4,0,0,0,0,0,1,0
924,18101,10444,trol,4,0,0,0,0,0,1,0
933,18102,10444,trol,4,0,0,0,0,0,1,0
942,18103,10444,trol,4,0,0,0,0,0,1,0
951,18104,10444,trol,4,0,0,0,0,0,1,0
964,18105,10444,trol,4,0,0,0,0,0,1,0
974,18106,10444,trol,4,0,0,0,0,0,1,0
986,18107,10444,trol,4,0,0,0,0,0,1,0
996,18108,10444,trol,4,0,0,0,0,0,1,0
1005,18109,10444,trol,4,0,0,0,0,0,1,0
1014,18110,10444,trol,4,0,0,0,0,0,1,0
1027,18111,10444,trol,4,0,0,0,0,0,1,0
1045,18112,10444,trol,4,0,0,0,0,0,1,0
1058,18113,10444,trol,4,0,0,0,0,0,1,0
1101,18114,10444,trol,4,0,0,0,0,0,1,0
1122,18115,10444,trol,4,0,0,0,0,0,1,0
1147,18116,10444,trol,4,0,0,0,0,0,1,0
1162,18117,10444,trol,4,0,0,0,0,0,1,0
1170,18118,10444,trol,4,0,0,0,0,0,1,0
1190,18119,10444,trol,4,0,0,0,0,0,1,0
1191,18120,10444,trol,4,0,0,0,0,0,1,0
1216,18121,10444,trol,4,0,0,0,0,0,1,0
1231,18122,10444,trol,4,0,0,0,0,0,1,0
1248,18123,10444,trol,4,0,0,0,0,0,1,0
1259,18124,10444,trol,4,0,0,0,0,0,1,0
1277,18125,10444,trol,4,0,0,0,0,0,1,0
1293,18126,10444,trol,4,0,0,0,0,0,1,0
1311,18127,10444,trol,4,0,0,0,0,0,1,0
1341,18128,10444,trol,4,0,0,0,0,0,1,0
551,18129,10657,trol,4,1,1,1,1,1,0,0
558,18130,10657,trol,4,1,1,1,1,1,0,0
357,18131,10656,trol,4,1,1,1,1,1,0,0
375,18132,10657,trol,4,1,1,1,1,1,0,0
396,18133,10657,trol,4,1,1,1,1,1,0,0
408,18134,10657,trol,4,1,1,1,1,1,0,0
420,18135,10657,trol,4,1,1,1,1,1,0,0
431,18136,10657,trol,4,1,1,1,1,1,0,0
439,18137,10657,trol,4,1,1,1,1,1,0,0
447,18138,10657,trol,4,1,1,1,1,1,0,0
456,18139,10657,trol,4,1,1,1,1,1,0,0
463,18140,10657,trol,4,1,1,1,1,1,0,0
471,18141,10657,trol,4,1,1,1,1,1,0,0
479,18142,10657,trol,4,1,1,1,1,1,0,0
486,18143,10657,trol,4,1,1,1,1,1,0,0
493,18144,10657,trol,4,1,1,1,1,1,0,0
499,18145,10657,trol,4,1,1,1,1,1,0,0
507,18146,10657,trol,4,1,1,1,1,1,0,0
515,18147,10657,trol,4,1,1,1,1,1,0,0
522,18148,10657,trol,4,1,1,1,1,1,0,0
529,18149,10657,trol,4,1,1,1,1,1,0,0
535,18150,10657,trol,4,1,1,1,1,1,0,0
545,18151,10657,trol,4,1,1,1,1,1,0,0
550,18152,10657,trol,4,1,1,1,1,1,0,0
557,18153,10657,trol,4,1,1,1,1,1,0,0
565,18154,10657,trol,4,1,1,1,1,1,0,0
570,18155,10657,trol,4,1,1,1,1,1,0,0
581,18156,10657,trol,4,1,1,1,1,1,0,0
587,18157,10657,trol,4,1,1,1,1,1,0,0
597,18158,10657,trol,4,1,1,1,1,1,0,0
605,18159,10657,trol,4,1,1,1,1,1,0,0
612,18160,10657,trol,4,1,1,1,1,1,0,0
624,18161,10657,trol,4,1,1,1,1,1,0,0
633,18162,10657,trol,4,1,1,1,1,1,0,0
644,18163,10657,trol,4,1,1,1,1,1,0,0
655,18164,10657,trol,4,1,1,1,1,1,0,0
669,18165,10657,trol,4,1,1,1,1,1,0,0
680,18166,10657,trol,4,1,1,1,1,1,0,0
691,18167,10657,trol,4,1,1,1,1,1,0,0
704,18168,10657,trol,4,1,1,1,1,1,0,0
713,18169,10657,trol,4,1,1,1,1,1,0,0
722,18170,10657,trol,4,1,1,1,1,1,0,0
733,18171,10657,trol,4,1,1,1,1,1,0,0
744,18172,10657,trol,4,1,1,1,1,1,0,0
752,18173,10657,trol,4,1,1,1,1,1,0,0
764,18174,10657,trol,4,1,1,1,1,1,0,0
772,18175,10657,trol,4,1,1,1,1,1,0,0
782,18176,10657,trol,4,1,1,1,1,1,0,0
792,18177,10657,trol,4,1,1,1,1,1,0,0
802,18178,10657,trol,4,1,1,1,1,1,0,0
812,18179,10657,trol,4,1,1,1,1,1,0,0
821,18180,10657,trol,4,1,1,1,1,1,0,0
831,18181,10657,trol,4,1,1,1,1,1,0,0
840,18182,10657,trol,4,1,1,1,1,1,0,0
853,18183,10657,trol,4,1,1,1,1,1,0,0
863,18184,10657,trol,4,1,1,1,1,1,0,0
874,18185,10657,trol,4,1,1,1,1,1,0,0
883,18186,10657,trol,4,1,1,1,1,1,0,0
895,18187,10657,trol,4,1,1,1,1,1,0,0
903,18188,10657,trol,4,1,1,1,1,1,0,0
915,18189,10657,trol,4,1,1,1,1,1,0,0
924,18190,10657,trol,4,1,1,1,1,1,0,0
932,18191,10657,trol,4,1,1,1,1,1,0,0
938,18192,10657,trol,4,1,1,1,1,1,0,0
945,18193,10657,trol,4,1,1,1,1,1,0,0
955,18194,10657,trol,4,1,1,1,1,1,0,0
961,18195,10657,trol,4,1,1,1,1,1,0,0
968,18196,10657,trol,4,1,1,1,1,1,0,0
977,18197,10657,trol,4,1,1,1,1,1,0,0
987,18198,10657,trol,4,1,1,1,1,1,0,0
996,18199,10657,trol,4,1,1,1,1,1,0,0
1002,18200,10657,trol,4,1,1,1,1,1,0,0
1009,18201,10657,trol,4,1,1,1,1,1,0,0
1016,18202,10657,trol,4,1,1,1,1,1,0,0
1023,18203,10657,trol,4,1,1,1,1,1,0,0
1028,18204,10657,trol,4,1,1,1,1,1,0,0
1035,18205,10657,trol,4,1,1,1,1,1,0,0
1043,18206,10657,trol,4,1,1,1,1,1,0,0
1050,18207,10657,trol,4,1,1,1,1,1,0,0
1056,18208,10657,trol,4,1,1,1,1,1,0,0
1067,18209,10657,trol,4,1,1,1,1,1,0,0
1073,18210,10657,trol,4,1,1,1,1,1,0,0
1079,18211,10657,trol,4,1,1,1,1,1,0,0
1086,18212,10657,trol,4,1,1,1,1,1,0,0
1092,18213,10657,trol,4,1,1,1,1,1,0,0
1102,18214,10657,trol,4,1,1,1,1,1,0,0
1110,18215,10657,trol,4,1,1,1,1,1,0,0
1117,18216,10657,trol,4,1,1,1,1,1,0,0
1124,18217,10657,trol,4,1,1,1,1,1,0,0
1131,18218,10657,trol,4,1,1,1,1,1,0,0
1139,18219,10657,trol,4,1,1,1,1,1,0,0
1148,18220,10657,trol,4,1,1,1,1,1,0,0
1155,18221,10657,trol,4,1,1,1,1,1,0,0
1162,18222,10657,trol,4,1,1,1,1,1,0,0
1169,18223,10657,trol,4,1,1,1,1,1,0,0
1175,18224,10657,trol,4,1,1,1,1,1,0,0
1188,18225,10657,trol,4,1,1,1,1,1,0,0
1198,18226,10657,trol,4,1,1,1,1,1,0,0
1210,18227,10657,trol,4,1,1,1,1,1,0,0
1219,18228,10657,trol,4,1,1,1,1,1,0,0
1228,18229,10657,trol,4,1,1,1,1,1,0,0
1242,18230,10657,trol,4,1,1,1,1,1,0,0
1255,18231,10657,trol,4,1,1,1,1,1,0,0
1266,18232,10657,trol,4,1,1,1,1,1,0,0
1280,18233,10657,trol,4,1,1,1,1,1,0,0
1291,18234,10657,trol,4,1,1,1,1,1,0,0
1305,18235,10657,trol,4,1,1,1,1,1,0,0
1316,18236,10657,trol,4,1,1,1,1,1,0,0
1324,18237,10657,trol,4,1,1,1,1,1,0,0
1335,18238,10657,trol,4,1,1,1,1,1,0,0
1344,18239,10657,trol,4,1,1,1,1,1,0,0
1351,18240,10657,trol,4,1,1,1,1,1,0,0
1358,18241,10657,trol,4,1,1,1,1,1,0,0
1368,18242,10657,trol,4,1,1,1,1,1,0,0
1377,18243,10657,trol,4,1,1,1,1,1,0,0
1393,18244,10657,trol,4,1,1,1,1,1,0,0
1404,18245,10657,trol,4,1,1,1,1,1,0,0
1415,18246,10657,trol,4,1,1,1,1,1,0,0
1428,18247,10657,trol,4,1,1,1,1,1,0,0
388,18248,10444,trol,4,0,0,0,0,0,1,0
415,18249,10444,trol,4,0,0,0,0,0,1,0
431,18250,10445,trol,4,0,0,0,0,0,0,1
446,18251,10445,trol,4,0,0,0,0,0,0,1
458,18252,10445,trol,4,0,0,0,0,0,0,1
473,18253,10445,trol,4,0,0,0,0,0,0,1
491,18254,10445,trol,4,0,0,0,0,0,0,1
507,18255,10445,trol,4,0,0,0,0,0,0,1
524,18256,10445,trol,4,0,0,0,0,0,0,1
536,18257,10445,trol,4,0,0,0,0,0,0,1
553,18258,10445,trol,4,0,0,0,0,0,0,1
570,18259,10445,trol,4,0,0,0,0,0,0,1
582,18260,10445,trol,4,0,0,0,0,0,0,1
595,18261,10445,trol,4,0,0,0,0,0,0,1
606,18262,10445,trol,4,0,0,0,0,0,0,1
618,18263,10445,trol,4,0,0,0,0,0,0,1
630,18264,10445,trol,4,0,0,0,0,0,0,1
645,18265,10445,trol,4,0,0,0,0,0,0,1
658,18266,10445,trol,4,0,0,0,0,0,0,1
671,18267,10445,trol,4,0,0,0,0,0,0,1
682,18268,10445,trol,4,0,0,0,0,0,0,1
695,18269,10445,trol,4,0,0,0,0,0,0,1
707,18270,10445,trol,4,0,0,0,0,0,0,1
715,18271,10445,trol,4,0,0,0,0,0,0,1
726,18272,10445,trol,4,0,0,0,0,0,0,1
734,18273,10445,trol,4,0,0,0,0,0,0,1
744,18274,10445,trol,4,0,0,0,0,0,0,1
759,18275,10445,trol,4,0,0,0,0,0,0,1
771,18276,10445,trol,4,0,0,0,0,0,0,1
783,18277,10445,trol,4,0,0,0,0,0,0,1
794,18278,10445,trol,4,0,0,0,0,0,0,1
807,18279,10445,trol,4,0,0,0,0,0,0,1
822,18280,10445,trol,4,0,0,0,0,0,0,1
830,18281,10445,trol,4,0,0,0,0,0,0,1
840,18282,10445,trol,4,0,0,0,0,0,0,1
846,18283,10445,trol,4,0,0,0,0,0,0,1
855,18284,10445,trol,4,0,0,0,0,0,0,1
869,18285,10445,trol,4,0,0,0,0,0,0,1
878,18286,10445,trol,4,0,0,0,0,0,0,1
890,18287,10445,trol,4,0,0,0,0,0,0,1
901,18288,10445,trol,4,0,0,0,0,0,0,1
909,18289,10445,trol,4,0,0,0,0,0,0,1
923,18290,10445,trol,4,0,0,0,0,0,0,1
932,18291,10445,trol,4,0,0,0,0,0,0,1
941,18292,10445,trol,4,0,0,0,0,0,0,1
950,18293,10445,trol,4,0,0,0,0,0,0,1
963,18294,10445,trol,4,0,0,0,0,0,0,1
973,18295,10445,trol,4,0,0,0,0,0,0,1
985,18296,10445,trol,4,0,0,0,0,0,0,1
995,18297,10445,trol,4,0,0,0,0,0,0,1
1004,18298,10445,trol,4,0,0,0,0,0,0,1
1013,18299,10445,trol,4,0,0,0,0,0,0,1
1026,18300,10445,trol,4,0,0,0,0,0,0,1
1035,18301,10445,trol,4,0,0,0,0,0,0,1
1044,18302,10445,trol,4,0,0,0,0,0,0,1
1057,18303,10445,trol,4,0,0,0,0,0,0,1
1068,18304,10445,trol,4,0,0,0,0,0,0,1
1077,18305,10445,trol,4,0,0,0,0,0,0,1
1087,18306,10445,trol,4,0,0,0,0,0,0,1
1097,18307,10445,trol,4,0,0,0,0,0,0,1
1112,18308,10445,trol,4,0,0,0,0,0,0,1
1125,18309,10445,trol,4,0,0,0,0,0,0,1
1146,18310,10445,trol,4,0,0,0,0,0,0,1
1169,18311,10445,trol,4,0,0,0,0,0,0,1
1190,18312,10445,trol,4,0,0,0,0,0,0,1
1215,18313,10445,trol,4,0,0,0,0,0,0,1
1230,18314,10445,trol,4,0,0,0,0,0,0,1
1247,18315,10445,trol,4,0,0,0,0,0,0,1
1258,18316,10445,trol,4,0,0,0,0,0,0,1
1276,18317,10445,trol,4,0,0,0,0,0,0,1
1292,18318,10445,trol,4,0,0,0,0,0,0,1
1310,18319,10445,trol,4,0,0,0,0,0,0,1
1327,18320,10445,trol,4,0,0,0,0,0,0,1
1340,18321,10445,trol,4,0,0,0,0,0,0,1
1357,18322,10445,trol,4,0,0,0,0,0,0,1
1375,18323,10445,trol,4,0,0,0,0,0,0,1
1396,18324,10445,trol,4,0,0,0,0,0,0,1
431,18325,10444,trol,4,0,0,0,0,0,1,0
446,18326,10444,trol,4,0,0,0,0,0,1,0
458,18327,10444,trol,4,0,0,0,0,0,1,0
473,18328,10444,trol,4,0,0,0,0,0,1,0
491,18329,10444,trol,4,0,0,0,0,0,1,0
507,18330,10444,trol,4,0,0,0,0,0,1,0
524,18331,10444,trol,4,0,0,0,0,0,1,0
536,18332,10444,trol,4,0,0,0,0,0,1,0
553,18333,10444,trol,4,0,0,0,0,0,1,0
570,18334,10444,trol,4,0,0,0,0,0,1,0
582,18335,10444,trol,4,0,0,0,0,0,1,0
595,18336,10444,trol,4,0,0,0,0,0,1,0
606,18337,10444,trol,4,0,0,0,0,0,1,0
618,18338,10444,trol,4,0,0,0,0,0,1,0
630,18339,10444,trol,4,0,0,0,0,0,1,0
645,18340,10444,trol,4,0,0,0,0,0,1,0
658,18341,10444,trol,4,0,0,0,0,0,1,0
671,18342,10444,trol,4,0,0,0,0,0,1,0
682,18343,10444,trol,4,0,0,0,0,0,1,0
695,18344,10444,trol,4,0,0,0,0,0,1,0
707,18345,10444,trol,4,0,0,0,0,0,1,0
715,18346,10444,trol,4,0,0,0,0,0,1,0
726,18347,10444,trol,4,0,0,0,0,0,1,0
734,18348,10444,trol,4,0,0,0,0,0,1,0
744,18349,10444,trol,4,0,0,0,0,0,1,0
759,18350,10444,trol,4,0,0,0,0,0,1,0
771,18351,10444,trol,4,0,0,0,0,0,1,0
783,18352,10444,trol,4,0,0,0,0,0,1,0
794,18353,10444,trol,4,0,0,0,0,0,1,0
807,18354,10444,trol,4,0,0,0,0,0,1,0
822,18355,10444,trol,4,0,0,0,0,0,1,0
830,18356,10444,trol,4,0,0,0,0,0,1,0
840,18357,10444,trol,4,0,0,0,0,0,1,0
846,18358,10444,trol,4,0,0,0,0,0,1,0
855,18359,10444,trol,4,0,0,0,0,0,1,0
869,18360,10444,trol,4,0,0,0,0,0,1,0
878,18361,10444,trol,4,0,0,0,0,0,1,0
890,18362,10444,trol,4,0,0,0,0,0,1,0
901,18363,10444,trol,4,0,0,0,0,0,1,0
909,18364,10444,trol,4,0,0,0,0,0,1,0
923,18365,10444,trol,4,0,0,0,0,0,1,0
932,18366,10444,trol,4,0,0,0,0,0,1,0
941,18367,10444,trol,4,0,0,0,0,0,1,0
950,18368,10444,trol,4,0,0,0,0,0,1,0
963,18369,10444,trol,4,0,0,0,0,0,1,0
973,18370,10444,trol,4,0,0,0,0,0,1,0
985,18371,10444,trol,4,0,0,0,0,0,1,0
995,18372,10444,trol,4,0,0,0,0,0,1,0
1004,18373,10444,trol,4,0,0,0,0,0,1,0
1013,18374,10444,trol,4,0,0,0,0,0,1,0
1026,18375,10444,trol,4,0,0,0,0,0,1,0
1035,18376,10444,trol,4,0,0,0,0,0,1,0
1044,18377,10444,trol,4,0,0,0,0,0,1,0
1057,18378,10444,trol,4,0,0,0,0,0,1,0
1068,18379,10444,trol,4,0,0,0,0,0,1,0
1077,18380,10444,trol,4,0,0,0,0,0,1,0
1087,18381,10444,trol,4,0,0,0,0,0,1,0
1097,18382,10444,trol,4,0,0,0,0,0,1,0
1112,18383,10444,trol,4,0,0,0,0,0,1,0
1125,18384,10444,trol,4,0,0,0,0,0,1,0
1146,18385,10444,trol,4,0,0,0,0,0,1,0
1169,18386,10444,trol,4,0,0,0,0,0,1,0
1190,18387,10444,trol,4,0,0,0,0,0,1,0
1215,18388,10444,trol,4,0,0,0,0,0,1,0
1230,18389,10444,trol,4,0,0,0,0,0,1,0
1247,18390,10444,trol,4,0,0,0,0,0,1,0
1258,18391,10444,trol,4,0,0,0,0,0,1,0
1276,18392,10444,trol,4,0,0,0,0,0,1,0
1292,18393,10444,trol,4,0,0,0,0,0,1,0
1310,18394,10444,trol,4,0,0,0,0,0,1,0
1327,18395,10444,trol,4,0,0,0,0,0,1,0
1340,18396,10444,trol,4,0,0,0,0,0,1,0
1357,18397,10444,trol,4,0,0,0,0,0,1,0
1375,18398,10444,trol,4,0,0,0,0,0,1,0
1396,18399,10444,trol,4,0,0,0,0,0,1,0
1036,18402,10445,trol,4,0,0,0,0,0,0,1
1078,18403,10445,trol,4,0,0,0,0,0,0,1
1098,18404,10445,trol,4,0,0,0,0,0,0,1
1328,18405,10445,trol,4,0,0,0,0,0,0,1
1358,18406,10445,trol,4,0,0,0,0,0,0,1
1376,18407,10445,trol,4,0,0,0,0,0,0,1
1397,18408,10445,trol,4,0,0,0,0,0,0,1
1074,18409,10657,trol,4,1,1,1,1,1,0,0
1125,18410,10657,trol,4,1,1,1,1,1,0,0
1140,18411,10657,trol,4,1,1,1,1,1,0,0
1156,18412,10657,trol,4,1,1,1,1,1,0,0
1170,18413,10657,trol,4,1,1,1,1,1,0,0
1317,18414,10657,trol,4,1,1,1,1,1,0,0
1345,18415,10657,trol,4,1,1,1,1,1,0,0
1352,18416,10657,trol,4,1,1,1,1,1,0,0
1369,18417,10657,trol,4,1,1,1,1,1,0,0
1378,18418,10657,trol,4,1,1,1,1,1,0,0
1394,18419,10657,trol,4,1,1,1,1,1,0,0
1405,18420,10657,trol,4,1,1,1,1,1,0,0
1416,18421,10657,trol,4,1,1,1,1,1,0,0
1429,18422,10657,trol,4,1,1,1,1,1,0,0
1036,18423,10444,trol,4,0,0,0,0,0,1,0
1078,18424,10444,trol,4,0,0,0,0,0,1,0
1098,18425,10444,trol,4,0,0,0,0,0,1,0
1328,18426,10444,trol,4,0,0,0,0,0,1,0
1358,18427,10444,trol,4,0,0,0,0,0,1,0
1376,18428,10444,trol,4,0,0,0,0,0,1,0
1397,18429,10444,trol,4,0,0,0,0,0,1,0
360,18434,10445,trol,4,0,0,0,0,0,0,1
386,18435,10445,trol,4,0,0,0,0,0,0,1
401,18436,10445,trol,4,0,0,0,0,0,0,1
419,18437,10445,trol,4,0,0,0,0,0,0,1
522,18438,10445,trol,4,0,0,0,0,0,0,1
558,18439,10445,trol,4,0,0,0,0,0,0,1
573,18440,10445,trol,4,0,0,0,0,0,0,1
299,18441,10657,trol,4,1,1,1,1,1,0,0
309,18442,10657,trol,4,1,1,1,1,1,0,0
317,18443,10657,trol,4,1,1,1,1,1,0,0
327,18444,10657,trol,4,1,1,1,1,1,0,0
334,18445,10657,trol,4,1,1,1,1,1,0,0
342,18446,10657,trol,4,1,1,1,1,1,0,0
349,18447,10657,trol,4,1,1,1,1,1,0,0
354,18448,10657,trol,4,1,1,1,1,1,0,0
368,18449,10657,trol,4,1,1,1,1,1,0,0
372,18450,10657,trol,4,1,1,1,1,1,0,0
389,18451,10657,trol,4,1,1,1,1,1,0,0
393,18452,10657,trol,4,1,1,1,1,1,0,0
403,18453,10657,trol,4,1,1,1,1,1,0,0
417,18454,10657,trol,4,1,1,1,1,1,0,0
437,18455,10657,trol,4,1,1,1,1,1,0,0
321,18456,10444,trol,4,0,0,0,0,0,1,0
360,18457,10444,trol,4,0,0,0,0,0,1,0
386,18458,10444,trol,4,0,0,0,0,0,1,0
522,18459,10444,trol,4,0,0,0,0,0,1,0
558,18460,10444,trol,4,0,0,0,0,0,1,0
573,18461,10444,trol,4,0,0,0,0,0,1,0
368,20406,10457,trol,10,0,0,0,0,0,0,1
398,20407,10457,trol,10,0,0,0,0,0,0,1
419,20408,10457,trol,10,0,0,0,0,0,0,1
438,20409,10457,trol,10,0,0,0,0,0,0,1
464,20410,10457,trol,10,0,0,0,0,0,0,1
493,20411,10457,trol,10,0,0,0,0,0,0,1
516,20412,10457,trol,10,0,0,0,0,0,0,1
532,20413,10457,trol,10,0,0,0,0,0,0,1
548,20414,10457,trol,10,0,0,0,0,0,0,1
571,20415,10457,trol,10,0,0,0,0,0,0,1
589,20416,10457,trol,10,0,0,0,0,0,0,1
606,20417,10457,trol,10,0,0,0,0,0,0,1
620,20418,10457,trol,10,0,0,0,0,0,0,1
640,20419,10457,trol,10,0,0,0,0,0,0,1
652,20420,10457,trol,10,0,0,0,0,0,0,1
665,20421,10457,trol,10,0,0,0,0,0,0,1
681,20422,10457,trol,10,0,0,0,0,0,0,1
695,20423,10457,trol,10,0,0,0,0,0,0,1
711,20424,10457,trol,10,0,0,0,0,0,0,1
731,20425,10457,trol,10,0,0,0,0,0,0,1
746,20426,10457,trol,10,0,0,0,0,0,0,1
762,20427,10457,trol,10,0,0,0,0,0,0,1
780,20428,10457,trol,10,0,0,0,0,0,0,1
799,20429,10457,trol,10,0,0,0,0,0,0,1
815,20430,10457,trol,10,0,0,0,0,0,0,1
829,20431,10457,trol,10,0,0,0,0,0,0,1
842,20432,10457,trol,10,0,0,0,0,0,0,1
855,20433,10457,trol,10,0,0,0,0,0,0,1
868,20434,10457,trol,10,0,0,0,0,0,0,1
886,20435,10457,trol,10,0,0,0,0,0,0,1
902,20436,10457,trol,10,0,0,0,0,0,0,1
916,20437,10457,trol,10,0,0,0,0,0,0,1
934,20438,10457,trol,10,0,0,0,0,0,0,1
947,20439,10457,trol,10,0,0,0,0,0,0,1
963,20440,10457,trol,10,0,0,0,0,0,0,1
975,20441,10457,trol,10,0,0,0,0,0,0,1
987,20442,10457,trol,10,0,0,0,0,0,0,1
1001,20443,10457,trol,10,0,0,0,0,0,0,1
1016,20444,10457,trol,10,0,0,0,0,0,0,1
1032,20445,10457,trol,10,0,0,0,0,0,0,1
1046,20446,10457,trol,10,0,0,0,0,0,0,1
1064,20447,10457,trol,10,0,0,0,0,0,0,1
1100,20448,10457,trol,10,0,0,0,0,0,0,1
1127,20449,10457,trol,10,0,0,0,0,0,0,1
1159,20450,10457,trol,10,0,0,0,0,0,0,1
1186,20451,10457,trol,10,0,0,0,0,0,0,1
1206,20452,10457,trol,10,0,0,0,0,0,0,1
1230,20453,10457,trol,10,0,0,0,0,0,0,1
1257,20454,10457,trol,10,0,0,0,0,0,0,1
1283,20455,10457,trol,10,0,0,0,0,0,0,1
1309,20456,10457,trol,10,0,0,0,0,0,0,1
1335,20457,10457,trol,10,0,0,0,0,0,0,1
1377,20458,10457,trol,10,0,0,0,0,0,0,1
328,20459,10455,trol,10,1,1,1,1,1,0,0
344,20460,10455,trol,10,1,1,1,1,1,0,0
363,20461,10455,trol,10,1,1,1,1,1,0,0
379,20462,10455,trol,10,1,1,1,1,1,0,0
389,20463,10455,trol,10,1,1,1,1,1,0,0
398,20464,10455,trol,10,1,1,1,1,1,0,0
407,20465,10455,trol,10,1,1,1,1,1,0,0
415,20466,10455,trol,10,1,1,1,1,1,0,0
428,20467,10455,trol,10,1,1,1,1,1,0,0
437,20468,10455,trol,10,1,1,1,1,1,0,0
447,20469,10455,trol,10,1,1,1,1,1,0,0
461,20470,10455,trol,10,1,1,1,1,1,0,0
472,20471,10455,trol,10,1,1,1,1,1,0,0
487,20472,10455,trol,10,1,1,1,1,1,0,0
502,20473,10455,trol,10,1,1,1,1,1,0,0
516,20474,10455,trol,10,1,1,1,1,1,0,0
534,20475,10455,trol,10,1,1,1,1,1,0,0
547,20476,10455,trol,10,1,1,1,1,1,0,0
558,20477,10455,trol,10,1,1,1,1,1,0,0
567,20478,10455,trol,10,1,1,1,1,1,0,0
577,20479,10455,trol,10,1,1,1,1,1,0,0
590,20480,10455,trol,10,1,1,1,1,1,0,0
606,20481,10455,trol,10,1,1,1,1,1,0,0
628,20482,10455,trol,10,1,1,1,1,1,0,0
640,20483,10455,trol,10,1,1,1,1,1,0,0
652,20484,10455,trol,10,1,1,1,1,1,0,0
667,20485,10455,trol,10,1,1,1,1,1,0,0
687,20486,10455,trol,10,1,1,1,1,1,0,0
703,20487,10455,trol,10,1,1,1,1,1,0,0
718,20488,10455,trol,10,1,1,1,1,1,0,0
734,20489,10455,trol,10,1,1,1,1,1,0,0
748,20490,10455,trol,10,1,1,1,1,1,0,0
767,20491,10455,trol,10,1,1,1,1,1,0,0
782,20492,10455,trol,10,1,1,1,1,1,0,0
797,20493,10455,trol,10,1,1,1,1,1,0,0
811,20494,10455,trol,10,1,1,1,1,1,0,0
826,20495,10455,trol,10,1,1,1,1,1,0,0
842,20496,10455,trol,10,1,1,1,1,1,0,0
865,20497,10455,trol,10,1,1,1,1,1,0,0
881,20498,10455,trol,10,1,1,1,1,1,0,0
898,20499,10455,trol,10,1,1,1,1,1,0,0
912,20500,10455,trol,10,1,1,1,1,1,0,0
923,20501,10455,trol,10,1,1,1,1,1,0,0
937,20502,10455,trol,10,1,1,1,1,1,0,0
947,20503,10455,trol,10,1,1,1,1,1,0,0
955,20504,10455,trol,10,1,1,1,1,1,0,0
965,20505,10455,trol,10,1,1,1,1,1,0,0
980,20506,10455,trol,10,1,1,1,1,1,0,0
990,20507,10455,trol,10,1,1,1,1,1,0,0
1001,20508,10455,trol,10,1,1,1,1,1,0,0
1013,20509,10455,trol,10,1,1,1,1,1,0,0
1030,20510,10455,trol,10,1,1,1,1,1,0,0
1043,20511,10455,trol,10,1,1,1,1,1,0,0
1053,20512,10455,trol,10,1,1,1,1,1,0,0
1065,20513,10455,trol,10,1,1,1,1,1,0,0
1084,20514,10455,trol,10,1,1,1,1,1,0,0
1099,20515,10455,trol,10,1,1,1,1,1,0,0
1116,20516,10455,trol,10,1,1,1,1,1,0,0
1133,20517,10455,trol,10,1,1,1,1,1,0,0
1147,20518,10455,trol,10,1,1,1,1,1,0,0
1161,20519,10455,trol,10,1,1,1,1,1,0,0
1181,20520,10455,trol,10,1,1,1,1,1,0,0
1198,20521,10455,trol,10,1,1,1,1,1,0,0
1212,20522,10455,trol,10,1,1,1,1,1,0,0
1223,20523,10455,trol,10,1,1,1,1,1,0,0
1236,20524,10455,trol,10,1,1,1,1,1,0,0
1249,20525,10455,trol,10,1,1,1,1,1,0,0
1270,20526,10455,trol,10,1,1,1,1,1,0,0
1282,20527,10455,trol,10,1,1,1,1,1,0,0
1303,20528,10455,trol,10,1,1,1,1,1,0,0
1319,20529,10455,trol,10,1,1,1,1,1,0,0
1332,20530,10455,trol,10,1,1,1,1,1,0,0
1356,20531,10455,trol,10,1,1,1,1,1,0,0
342,20532,10456,trol,10,0,0,0,0,0,1,0
368,20533,10456,trol,10,0,0,0,0,0,1,0
398,20534,10456,trol,10,0,0,0,0,0,1,0
419,20535,10456,trol,10,0,0,0,0,0,1,0
438,20536,10456,trol,10,0,0,0,0,0,1,0
464,20537,10456,trol,10,0,0,0,0,0,1,0
493,20538,10456,trol,10,0,0,0,0,0,1,0
516,20539,10456,trol,10,0,0,0,0,0,1,0
532,20540,10456,trol,10,0,0,0,0,0,1,0
548,20541,10456,trol,10,0,0,0,0,0,1,0
571,20542,10456,trol,10,0,0,0,0,0,1,0
589,20543,10456,trol,10,0,0,0,0,0,1,0
606,20544,10456,trol,10,0,0,0,0,0,1,0
620,20545,10456,trol,10,0,0,0,0,0,1,0
640,20546,10456,trol,10,0,0,0,0,0,1,0
652,20547,10456,trol,10,0,0,0,0,0,1,0
665,20548,10456,trol,10,0,0,0,0,0,1,0
681,20549,10456,trol,10,0,0,0,0,0,1,0
695,20550,10456,trol,10,0,0,0,0,0,1,0
711,20551,10456,trol,10,0,0,0,0,0,1,0
731,20552,10456,trol,10,0,0,0,0,0,1,0
746,20553,10456,trol,10,0,0,0,0,0,1,0
762,20554,10456,trol,10,0,0,0,0,0,1,0
780,20555,10456,trol,10,0,0,0,0,0,1,0
799,20556,10456,trol,10,0,0,0,0,0,1,0
815,20557,10456,trol,10,0,0,0,0,0,1,0
829,20558,10456,trol,10,0,0,0,0,0,1,0
842,20559,10456,trol,10,0,0,0,0,0,1,0
855,20560,10456,trol,10,0,0,0,0,0,1,0
868,20561,10456,trol,10,0,0,0,0,0,1,0
886,20562,10456,trol,10,0,0,0,0,0,1,0
902,20563,10456,trol,10,0,0,0,0,0,1,0
916,20564,10456,trol,10,0,0,0,0,0,1,0
934,20565,10456,trol,10,0,0,0,0,0,1,0
947,20566,10456,trol,10,0,0,0,0,0,1,0
963,20567,10456,trol,10,0,0,0,0,0,1,0
975,20568,10456,trol,10,0,0,0,0,0,1,0
987,20569,10456,trol,10,0,0,0,0,0,1,0
1001,20570,10456,trol,10,0,0,0,0,0,1,0
1016,20571,10456,trol,10,0,0,0,0,0,1,0
1032,20572,10456,trol,10,0,0,0,0,0,1,0
1046,20573,10456,trol,10,0,0,0,0,0,1,0
1064,20574,10456,trol,10,0,0,0,0,0,1,0
1100,20575,10456,trol,10,0,0,0,0,0,1,0
1127,20576,10456,trol,10,0,0,0,0,0,1,0
1159,20577,10456,trol,10,0,0,0,0,0,1,0
1186,20578,10456,trol,10,0,0,0,0,0,1,0
1206,20579,10456,trol,10,0,0,0,0,0,1,0
1230,20580,10456,trol,10,0,0,0,0,0,1,0
1257,20581,10456,trol,10,0,0,0,0,0,1,0
1283,20582,10456,trol,10,0,0,0,0,0,1,0
1309,20583,10456,trol,10,0,0,0,0,0,1,0
1335,20584,10456,trol,10,0,0,0,0,0,1,0
1377,20585,10456,trol,10,0,0,0,0,0,1,0
916,20767,10455,trol,10,1,1,1,1,1,0,0
932,20768,10455,trol,10,1,1,1,1,1,0,0
960,20769,10455,trol,10,1,1,1,1,1,0,0
920,23528,10475,trol,19,1,1,1,1,1,0,0
935,23529,10475,trol,19,1,1,1,1,1,0,0
