timeInMin,trip_id,service_id,tipas,numeris,pirmadienis,antradienis,treciadienis,ketvirtadienis,penktadienis,sestadienis,sekmadienis 
382,3149,9930,bus,5,1,1,1,1,1,0,0
406,3150,9930,bus,5,1,1,1,1,1,0,0
434,3151,9930,bus,5,1,1,1,1,1,0,0
461,3152,9930,bus,5,1,1,1,1,1,0,0
485,3153,9930,bus,5,1,1,1,1,1,0,0
514,3154,9930,bus,5,1,1,1,1,1,0,0
539,3155,9930,bus,5,1,1,1,1,1,0,0
563,3156,9930,bus,5,1,1,1,1,1,0,0
593,3157,9930,bus,5,1,1,1,1,1,0,0
642,3158,9930,bus,5,1,1,1,1,1,0,0
666,3159,9930,bus,5,1,1,1,1,1,0,0
695,3160,9930,bus,5,1,1,1,1,1,0,0
718,3161,9930,bus,5,1,1,1,1,1,0,0
742,3162,9930,bus,5,1,1,1,1,1,0,0
771,3163,9930,bus,5,1,1,1,1,1,0,0
794,3164,9930,bus,5,1,1,1,1,1,0,0
818,3165,9930,bus,5,1,1,1,1,1,0,0
847,3166,9930,bus,5,1,1,1,1,1,0,0
875,3167,9930,bus,5,1,1,1,1,1,0,0
899,3168,9930,bus,5,1,1,1,1,1,0,0
928,3169,9930,bus,5,1,1,1,1,1,0,0
951,3170,9930,bus,5,1,1,1,1,1,0,0
975,3171,9930,bus,5,1,1,1,1,1,0,0
1005,3172,9930,bus,5,1,1,1,1,1,0,0
1031,3173,9930,bus,5,1,1,1,1,1,0,0
1056,3174,9930,bus,5,1,1,1,1,1,0,0
1086,3175,9930,bus,5,1,1,1,1,1,0,0
1112,3176,9930,bus,5,1,1,1,1,1,0,0
1142,3177,9930,bus,5,1,1,1,1,1,0,0
1188,3178,9930,bus,5,1,1,1,1,1,0,0
1211,3179,9930,bus,5,1,1,1,1,1,0,0
1238,3180,9930,bus,5,1,1,1,1,1,0,0
1260,3181,9930,bus,5,1,1,1,1,1,0,0
1285,3182,9930,bus,5,1,1,1,1,1,0,0
1309,3183,9930,bus,5,1,1,1,1,1,0,0
1333,3184,9930,bus,5,1,1,1,1,1,0,0
1353,3185,9930,bus,5,1,1,1,1,1,0,0
1378,3186,9930,bus,5,1,1,1,1,1,0,0
378,3187,9600,bus,5,0,0,0,0,0,1,0
445,3188,9600,bus,5,0,0,0,0,0,1,0
514,3189,9600,bus,5,0,0,0,0,0,1,0
575,3190,9600,bus,5,0,0,0,0,0,1,0
607,3191,9600,bus,5,0,0,0,0,0,1,0
645,3192,9600,bus,5,0,0,0,0,0,1,0
703,3193,9600,bus,5,0,0,0,0,0,1,0
741,3194,9600,bus,5,0,0,0,0,0,1,0
773,3195,9600,bus,5,0,0,0,0,0,1,0
811,3196,9600,bus,5,0,0,0,0,0,1,0
854,3197,9600,bus,5,0,0,0,0,0,1,0
906,3198,9600,bus,5,0,0,0,0,0,1,0
934,3199,9600,bus,5,0,0,0,0,0,1,0
978,3200,9600,bus,5,0,0,0,0,0,1,0
1008,3201,9600,bus,5,0,0,0,0,0,1,0
1048,3202,9600,bus,5,0,0,0,0,0,1,0
1103,3203,9600,bus,5,0,0,0,0,0,1,0
1172,3204,9600,bus,5,0,0,0,0,0,1,0
1239,3205,9600,bus,5,0,0,0,0,0,1,0
1306,3206,9600,bus,5,0,0,0,0,0,1,0
1372,3207,9600,bus,5,0,0,0,0,0,1,0
378,3208,9601,bus,5,0,0,0,0,0,0,1
445,3209,9601,bus,5,0,0,0,0,0,0,1
514,3210,9601,bus,5,0,0,0,0,0,0,1
575,3211,9601,bus,5,0,0,0,0,0,0,1
607,3212,9601,bus,5,0,0,0,0,0,0,1
645,3213,9601,bus,5,0,0,0,0,0,0,1
703,3214,9601,bus,5,0,0,0,0,0,0,1
741,3215,9601,bus,5,0,0,0,0,0,0,1
773,3216,9601,bus,5,0,0,0,0,0,0,1
811,3217,9601,bus,5,0,0,0,0,0,0,1
854,3218,9601,bus,5,0,0,0,0,0,0,1
906,3219,9601,bus,5,0,0,0,0,0,0,1
934,3220,9601,bus,5,0,0,0,0,0,0,1
978,3221,9601,bus,5,0,0,0,0,0,0,1
1008,3222,9601,bus,5,0,0,0,0,0,0,1
1048,3223,9601,bus,5,0,0,0,0,0,0,1
1103,3224,9601,bus,5,0,0,0,0,0,0,1
1172,3225,9601,bus,5,0,0,0,0,0,0,1
1239,3226,9601,bus,5,0,0,0,0,0,0,1
1306,3227,9601,bus,5,0,0,0,0,0,0,1
1372,3228,9601,bus,5,0,0,0,0,0,0,1
313,3236,9930,bus,5,1,1,1,1,1,0,0
336,3237,9930,bus,5,1,1,1,1,1,0,0
359,3238,9930,bus,5,1,1,1,1,1,0,0
314,3239,9600,bus,5,0,0,0,0,0,1,0
354,7341,10356,bus,24,1,1,1,1,1,0,0
383,7342,10356,bus,24,1,1,1,1,1,0,0
396,7343,10356,bus,24,1,1,1,1,1,0,0
409,7344,10356,bus,24,1,1,1,1,1,0,0
422,7345,10356,bus,24,1,1,1,1,1,0,0
435,7346,10356,bus,24,1,1,1,1,1,0,0
447,7347,10356,bus,24,1,1,1,1,1,0,0
458,7348,10356,bus,24,1,1,1,1,1,0,0
469,7349,10356,bus,24,1,1,1,1,1,0,0
482,7350,10356,bus,24,1,1,1,1,1,0,0
492,7351,10356,bus,24,1,1,1,1,1,0,0
504,7352,10356,bus,24,1,1,1,1,1,0,0
515,7353,10356,bus,24,1,1,1,1,1,0,0
524,7354,10356,bus,24,1,1,1,1,1,0,0
534,7355,10356,bus,24,1,1,1,1,1,0,0
543,7356,10356,bus,24,1,1,1,1,1,0,0
556,7357,10356,bus,24,1,1,1,1,1,0,0
572,7358,10356,bus,24,1,1,1,1,1,0,0
581,7359,10356,bus,24,1,1,1,1,1,0,0
594,7360,10356,bus,24,1,1,1,1,1,0,0
607,7361,10356,bus,24,1,1,1,1,1,0,0
620,7362,10356,bus,24,1,1,1,1,1,0,0
650,7363,10356,bus,24,1,1,1,1,1,0,0
671,7364,10356,bus,24,1,1,1,1,1,0,0
692,7365,10356,bus,24,1,1,1,1,1,0,0
733,7366,10356,bus,24,1,1,1,1,1,0,0
758,7367,10356,bus,24,1,1,1,1,1,0,0
784,7368,10356,bus,24,1,1,1,1,1,0,0
816,7369,10356,bus,24,1,1,1,1,1,0,0
842,7370,10356,bus,24,1,1,1,1,1,0,0
868,7371,10356,bus,24,1,1,1,1,1,0,0
899,7372,10356,bus,24,1,1,1,1,1,0,0
930,7373,10356,bus,24,1,1,1,1,1,0,0
948,7374,10356,bus,24,1,1,1,1,1,0,0
964,7375,10356,bus,24,1,1,1,1,1,0,0
978,7376,10356,bus,24,1,1,1,1,1,0,0
988,7377,10356,bus,24,1,1,1,1,1,0,0
999,7378,10356,bus,24,1,1,1,1,1,0,0
1009,7379,10356,bus,24,1,1,1,1,1,0,0
1019,7380,10356,bus,24,1,1,1,1,1,0,0
1030,7381,10356,bus,24,1,1,1,1,1,0,0
1041,7382,10356,bus,24,1,1,1,1,1,0,0
1054,7383,10356,bus,24,1,1,1,1,1,0,0
1065,7384,10356,bus,24,1,1,1,1,1,0,0
1076,7385,10356,bus,24,1,1,1,1,1,0,0
1088,7386,10356,bus,24,1,1,1,1,1,0,0
1099,7387,10356,bus,24,1,1,1,1,1,0,0
1110,7388,10356,bus,24,1,1,1,1,1,0,0
1120,7389,10356,bus,24,1,1,1,1,1,0,0
1131,7390,10356,bus,24,1,1,1,1,1,0,0
1144,7391,10356,bus,24,1,1,1,1,1,0,0
1162,7392,10356,bus,24,1,1,1,1,1,0,0
1189,7393,10356,bus,24,1,1,1,1,1,0,0
1224,7394,10356,bus,24,1,1,1,1,1,0,0
1246,7395,10356,bus,24,1,1,1,1,1,0,0
1267,7396,10356,bus,24,1,1,1,1,1,0,0
1300,7397,10356,bus,24,1,1,1,1,1,0,0
1322,7398,10356,bus,24,1,1,1,1,1,0,0
1344,7399,10356,bus,24,1,1,1,1,1,0,0
1376,7400,10356,bus,24,1,1,1,1,1,0,0
1398,7401,10356,bus,24,1,1,1,1,1,0,0
1421,7402,10356,bus,24,1,1,1,1,1,0,0
382,7403,9984,bus,24,0,0,0,0,0,1,0
419,7404,9984,bus,24,0,0,0,0,0,1,0
460,7405,9984,bus,24,0,0,0,0,0,1,0
500,7406,9984,bus,24,0,0,0,0,0,1,0
540,7407,9984,bus,24,0,0,0,0,0,1,0
580,7408,9984,bus,24,0,0,0,0,0,1,0
636,7409,9984,bus,24,0,0,0,0,0,1,0
658,7410,9984,bus,24,0,0,0,0,0,1,0
694,7411,9984,bus,24,0,0,0,0,0,1,0
719,7412,9984,bus,24,0,0,0,0,0,1,0
737,7413,9984,bus,24,0,0,0,0,0,1,0
777,7414,9984,bus,24,0,0,0,0,0,1,0
819,7415,9984,bus,24,0,0,0,0,0,1,0
833,7416,9984,bus,24,0,0,0,0,0,1,0
871,7417,9984,bus,24,0,0,0,0,0,1,0
901,7418,9984,bus,24,0,0,0,0,0,1,0
932,7419,9984,bus,24,0,0,0,0,0,1,0
957,7420,9984,bus,24,0,0,0,0,0,1,0
982,7421,9984,bus,24,0,0,0,0,0,1,0
1008,7422,9984,bus,24,0,0,0,0,0,1,0
1034,7423,9984,bus,24,0,0,0,0,0,1,0
1058,7424,9984,bus,24,0,0,0,0,0,1,0
1090,7425,9984,bus,24,0,0,0,0,0,1,0
1133,7426,9984,bus,24,0,0,0,0,0,1,0
1171,7427,9984,bus,24,0,0,0,0,0,1,0
1206,7428,9984,bus,24,0,0,0,0,0,1,0
1243,7429,9984,bus,24,0,0,0,0,0,1,0
1279,7430,9984,bus,24,0,0,0,0,0,1,0
1315,7431,9984,bus,24,0,0,0,0,0,1,0
1351,7432,9984,bus,24,0,0,0,0,0,1,0
1387,7433,9984,bus,24,0,0,0,0,0,1,0
419,7434,9985,bus,24,0,0,0,0,0,0,1
460,7435,9985,bus,24,0,0,0,0,0,0,1
500,7436,9985,bus,24,0,0,0,0,0,0,1
540,7437,9985,bus,24,0,0,0,0,0,0,1
580,7438,9985,bus,24,0,0,0,0,0,0,1
636,7439,9985,bus,24,0,0,0,0,0,0,1
658,7440,9985,bus,24,0,0,0,0,0,0,1
694,7441,9985,bus,24,0,0,0,0,0,0,1
719,7442,9985,bus,24,0,0,0,0,0,0,1
737,7443,9985,bus,24,0,0,0,0,0,0,1
777,7444,9985,bus,24,0,0,0,0,0,0,1
819,7445,9985,bus,24,0,0,0,0,0,0,1
833,7446,9985,bus,24,0,0,0,0,0,0,1
871,7447,9985,bus,24,0,0,0,0,0,0,1
901,7448,9985,bus,24,0,0,0,0,0,0,1
932,7449,9985,bus,24,0,0,0,0,0,0,1
957,7450,9985,bus,24,0,0,0,0,0,0,1
982,7451,9985,bus,24,0,0,0,0,0,0,1
1008,7452,9985,bus,24,0,0,0,0,0,0,1
1034,7453,9985,bus,24,0,0,0,0,0,0,1
1058,7454,9985,bus,24,0,0,0,0,0,0,1
1090,7455,9985,bus,24,0,0,0,0,0,0,1
1133,7456,9985,bus,24,0,0,0,0,0,0,1
1171,7457,9985,bus,24,0,0,0,0,0,0,1
1206,7458,9985,bus,24,0,0,0,0,0,0,1
1243,7459,9985,bus,24,0,0,0,0,0,0,1
1279,7460,9985,bus,24,0,0,0,0,0,0,1
1315,7461,9985,bus,24,0,0,0,0,0,0,1
1351,7462,9985,bus,24,0,0,0,0,0,0,1
1387,7463,9985,bus,24,0,0,0,0,0,0,1
463,12102,10294,bus,52,0,0,0,0,0,0,1
542,12103,10294,bus,52,0,0,0,0,0,0,1
621,12104,10294,bus,52,0,0,0,0,0,0,1
725,12105,10294,bus,52,0,0,0,0,0,0,1
804,12106,10294,bus,52,0,0,0,0,0,0,1
888,12107,10294,bus,52,0,0,0,0,0,0,1
967,12108,10294,bus,52,0,0,0,0,0,0,1
1046,12109,10294,bus,52,0,0,0,0,0,0,1
1150,12110,10294,bus,52,0,0,0,0,0,0,1
1225,12111,10294,bus,52,0,0,0,0,0,0,1
1299,12112,10294,bus,52,0,0,0,0,0,0,1
337,12113,9642,bus,52,1,1,1,1,1,0,0
365,12114,9642,bus,52,1,1,1,1,1,0,0
390,12115,9642,bus,52,1,1,1,1,1,0,0
415,12116,9642,bus,52,1,1,1,1,1,0,0
445,12117,9642,bus,52,1,1,1,1,1,0,0
480,12118,9642,bus,52,1,1,1,1,1,0,0
503,12119,9642,bus,52,1,1,1,1,1,0,0
535,12120,9642,bus,52,1,1,1,1,1,0,0
562,12121,9642,bus,52,1,1,1,1,1,0,0
610,12122,9642,bus,52,1,1,1,1,1,0,0
641,12123,9642,bus,52,1,1,1,1,1,0,0
668,12124,9642,bus,52,1,1,1,1,1,0,0
695,12125,9642,bus,52,1,1,1,1,1,0,0
730,12126,9642,bus,52,1,1,1,1,1,0,0
749,12127,9642,bus,52,1,1,1,1,1,0,0
777,12128,9642,bus,52,1,1,1,1,1,0,0
812,12129,9642,bus,52,1,1,1,1,1,0,0
830,12130,9642,bus,52,1,1,1,1,1,0,0
866,12131,9642,bus,52,1,1,1,1,1,0,0
898,12132,9642,bus,52,1,1,1,1,1,0,0
915,12133,9642,bus,52,1,1,1,1,1,0,0
948,12134,9642,bus,52,1,1,1,1,1,0,0
983,12135,9642,bus,52,1,1,1,1,1,0,0
1001,12136,9642,bus,52,1,1,1,1,1,0,0
1033,12137,9642,bus,52,1,1,1,1,1,0,0
1078,12138,9642,bus,52,1,1,1,1,1,0,0
1114,12139,9642,bus,52,1,1,1,1,1,0,0
1145,12140,9642,bus,52,1,1,1,1,1,0,0
1191,12141,9642,bus,52,1,1,1,1,1,0,0
1222,12142,9642,bus,52,1,1,1,1,1,0,0
1248,12143,9642,bus,52,1,1,1,1,1,0,0
1279,12144,9642,bus,52,1,1,1,1,1,0,0
1300,12145,9642,bus,52,1,1,1,1,1,0,0
1322,12146,9642,bus,52,1,1,1,1,1,0,0
1362,12147,9642,bus,52,1,1,1,1,1,0,0
463,12148,9643,bus,52,0,0,0,0,0,1,0
542,12149,9643,bus,52,0,0,0,0,0,1,0
621,12150,9643,bus,52,0,0,0,0,0,1,0
725,12151,9643,bus,52,0,0,0,0,0,1,0
804,12152,9643,bus,52,0,0,0,0,0,1,0
888,12153,9643,bus,52,0,0,0,0,0,1,0
967,12154,9643,bus,52,0,0,0,0,0,1,0
1046,12155,9643,bus,52,0,0,0,0,0,1,0
1150,12156,9643,bus,52,0,0,0,0,0,1,0
1225,12157,9643,bus,52,0,0,0,0,0,1,0
1299,12158,9643,bus,52,0,0,0,0,0,1,0
305,15635,10409,bus,87,1,1,1,1,1,0,0
337,15636,10409,bus,87,1,1,1,1,1,0,0
367,15637,10409,bus,87,1,1,1,1,1,0,0
401,15638,10409,bus,87,1,1,1,1,1,0,0
438,15639,10409,bus,87,1,1,1,1,1,0,0
475,15640,10409,bus,87,1,1,1,1,1,0,0
506,15641,10409,bus,87,1,1,1,1,1,0,0
538,15642,10409,bus,87,1,1,1,1,1,0,0
568,15643,10409,bus,87,1,1,1,1,1,0,0
605,15644,10409,bus,87,1,1,1,1,1,0,0
660,15645,10409,bus,87,1,1,1,1,1,0,0
692,15646,10409,bus,87,1,1,1,1,1,0,0
724,15647,10409,bus,87,1,1,1,1,1,0,0
756,15648,10409,bus,87,1,1,1,1,1,0,0
809,15649,10409,bus,87,1,1,1,1,1,0,0
831,15650,10409,bus,87,1,1,1,1,1,0,0
864,15651,10409,bus,87,1,1,1,1,1,0,0
895,15652,10409,bus,87,1,1,1,1,1,0,0
941,15653,10409,bus,87,1,1,1,1,1,0,0
976,15654,10409,bus,87,1,1,1,1,1,0,0
1005,15655,10409,bus,87,1,1,1,1,1,0,0
1036,15656,10409,bus,87,1,1,1,1,1,0,0
1070,15657,10409,bus,87,1,1,1,1,1,0,0
1110,15658,10409,bus,87,1,1,1,1,1,0,0
1160,15659,10409,bus,87,1,1,1,1,1,0,0
1199,15660,10409,bus,87,1,1,1,1,1,0,0
1233,15661,10409,bus,87,1,1,1,1,1,0,0
1263,15662,10409,bus,87,1,1,1,1,1,0,0
1311,15663,10409,bus,87,1,1,1,1,1,0,0
1358,15664,10409,bus,87,1,1,1,1,1,0,0
422,15665,10410,bus,87,0,0,0,0,0,1,1
483,15666,10410,bus,87,0,0,0,0,0,1,1
548,15667,10410,bus,87,0,0,0,0,0,1,1
613,15668,10410,bus,87,0,0,0,0,0,1,1
700,15669,10410,bus,87,0,0,0,0,0,1,1
766,15670,10410,bus,87,0,0,0,0,0,1,1
826,15671,10410,bus,87,0,0,0,0,0,1,1
892,15672,10410,bus,87,0,0,0,0,0,1,1
957,15673,10410,bus,87,0,0,0,0,0,1,1
1023,15674,10410,bus,87,0,0,0,0,0,1,1
1083,15675,10410,bus,87,0,0,0,0,0,1,1
1149,15676,10410,bus,87,0,0,0,0,0,1,1
1235,15677,10410,bus,87,0,0,0,0,0,1,1
1300,15678,10410,bus,87,0,0,0,0,0,1,1
1361,15679,10410,bus,87,0,0,0,0,0,1,1
