timeInMin,trip_id,service_id,tipas,numeris,pirmadienis,antradienis,treciadienis,ketvirtadienis,penktadienis,sestadienis,sekmadienis 
340,4490,10336,bus,7,1,1,1,1,1,0,0
357,4491,10336,bus,7,1,1,1,1,1,0,0
374,4492,10336,bus,7,1,1,1,1,1,0,0
389,4493,10336,bus,7,1,1,1,1,1,0,0
405,4494,10336,bus,7,1,1,1,1,1,0,0
422,4495,10336,bus,7,1,1,1,1,1,0,0
434,4496,10336,bus,7,1,1,1,1,1,0,0
452,4497,10336,bus,7,1,1,1,1,1,0,0
470,4498,10336,bus,7,1,1,1,1,1,0,0
491,4499,10336,bus,7,1,1,1,1,1,0,0
507,4500,10336,bus,7,1,1,1,1,1,0,0
524,4501,10336,bus,7,1,1,1,1,1,0,0
540,4502,10336,bus,7,1,1,1,1,1,0,0
557,4503,10336,bus,7,1,1,1,1,1,0,0
575,4504,10336,bus,7,1,1,1,1,1,0,0
592,4505,10336,bus,7,1,1,1,1,1,0,0
610,4506,10336,bus,7,1,1,1,1,1,0,0
631,4507,10336,bus,7,1,1,1,1,1,0,0
658,4508,10336,bus,7,1,1,1,1,1,0,0
679,4509,10336,bus,7,1,1,1,1,1,0,0
700,4510,10336,bus,7,1,1,1,1,1,0,0
722,4511,10336,bus,7,1,1,1,1,1,0,0
753,4512,10336,bus,7,1,1,1,1,1,0,0
775,4513,10336,bus,7,1,1,1,1,1,0,0
799,4514,10336,bus,7,1,1,1,1,1,0,0
822,4515,10336,bus,7,1,1,1,1,1,0,0
855,4516,10336,bus,7,1,1,1,1,1,0,0
878,4517,10336,bus,7,1,1,1,1,1,0,0
901,4518,10336,bus,7,1,1,1,1,1,0,0
919,4519,10336,bus,7,1,1,1,1,1,0,0
947,4520,10336,bus,7,1,1,1,1,1,0,0
973,4521,10336,bus,7,1,1,1,1,1,0,0
994,4522,10336,bus,7,1,1,1,1,1,0,0
1010,4523,10336,bus,7,1,1,1,1,1,0,0
1032,4524,10336,bus,7,1,1,1,1,1,0,0
1050,4525,10336,bus,7,1,1,1,1,1,0,0
1067,4526,10336,bus,7,1,1,1,1,1,0,0
1086,4527,10336,bus,7,1,1,1,1,1,0,0
1107,4528,10336,bus,7,1,1,1,1,1,0,0
1128,4529,10336,bus,7,1,1,1,1,1,0,0
1147,4530,10336,bus,7,1,1,1,1,1,0,0
1166,4531,10336,bus,7,1,1,1,1,1,0,0
1187,4532,10336,bus,7,1,1,1,1,1,0,0
1209,4533,10336,bus,7,1,1,1,1,1,0,0
1233,4534,10336,bus,7,1,1,1,1,1,0,0
1256,4535,10336,bus,7,1,1,1,1,1,0,0
1280,4536,10336,bus,7,1,1,1,1,1,0,0
1304,4537,10336,bus,7,1,1,1,1,1,0,0
1329,4538,10336,bus,7,1,1,1,1,1,0,0
1355,4539,10336,bus,7,1,1,1,1,1,0,0
1376,4540,10336,bus,7,1,1,1,1,1,0,0
400,4541,9236,bus,7,0,0,0,0,0,1,1
441,4542,9236,bus,7,0,0,0,0,0,1,1
485,4543,9236,bus,7,0,0,0,0,0,1,1
526,4544,9236,bus,7,0,0,0,0,0,1,1
570,4545,9236,bus,7,0,0,0,0,0,1,1
587,4546,9236,bus,7,0,0,0,0,0,1,1
615,4547,9236,bus,7,0,0,0,0,0,1,1
646,4548,9236,bus,7,0,0,0,0,0,1,1
671,4549,9236,bus,7,0,0,0,0,0,1,1
687,4550,9236,bus,7,0,0,0,0,0,1,1
721,4551,9236,bus,7,0,0,0,0,0,1,1
740,4552,9236,bus,7,0,0,0,0,0,1,1
775,4553,9236,bus,7,0,0,0,0,0,1,1
806,4554,9236,bus,7,0,0,0,0,0,1,1
832,4555,9236,bus,7,0,0,0,0,0,1,1
846,4556,9236,bus,7,0,0,0,0,0,1,1
879,4557,9236,bus,7,0,0,0,0,0,1,1
898,4558,9236,bus,7,0,0,0,0,0,1,1
924,4559,9236,bus,7,0,0,0,0,0,1,1
950,4560,9236,bus,7,0,0,0,0,0,1,1
966,4561,9236,bus,7,0,0,0,0,0,1,1
989,4562,9236,bus,7,0,0,0,0,0,1,1
1009,4563,9236,bus,7,0,0,0,0,0,1,1
1035,4564,9236,bus,7,0,0,0,0,0,1,1
1051,4565,9236,bus,7,0,0,0,0,0,1,1
1074,4566,9236,bus,7,0,0,0,0,0,1,1
1094,4567,9236,bus,7,0,0,0,0,0,1,1
1121,4568,9236,bus,7,0,0,0,0,0,1,1
1156,4569,9236,bus,7,0,0,0,0,0,1,1
1200,4570,9236,bus,7,0,0,0,0,0,1,1
1260,4571,9236,bus,7,0,0,0,0,0,1,1
1306,4572,9236,bus,7,0,0,0,0,0,1,1
1345,4573,9236,bus,7,0,0,0,0,0,1,1
1392,4574,9236,bus,7,0,0,0,0,0,1,1
1406,4582,10336,bus,7,1,1,1,1,1,0,0
1435,4583,10336,bus,7,1,1,1,1,1,0,0
1431,4584,9236,bus,7,0,0,0,0,0,1,1
1435,7086,10355,bus,22,1,1,1,1,1,0,0
369,11104,10383,bus,46,0,0,0,0,0,0,1
400,11105,10383,bus,46,0,0,0,0,0,0,1
420,11106,10383,bus,46,0,0,0,0,0,0,1
441,11107,10383,bus,46,0,0,0,0,0,0,1
463,11108,10383,bus,46,0,0,0,0,0,0,1
483,11109,10383,bus,46,0,0,0,0,0,0,1
504,11110,10383,bus,46,0,0,0,0,0,0,1
525,11111,10383,bus,46,0,0,0,0,0,0,1
545,11112,10383,bus,46,0,0,0,0,0,0,1
566,11113,10383,bus,46,0,0,0,0,0,0,1
606,11114,10383,bus,46,0,0,0,0,0,0,1
634,11115,10383,bus,46,0,0,0,0,0,0,1
655,11116,10383,bus,46,0,0,0,0,0,0,1
675,11117,10383,bus,46,0,0,0,0,0,0,1
695,11118,10383,bus,46,0,0,0,0,0,0,1
716,11119,10383,bus,46,0,0,0,0,0,0,1
738,11120,10383,bus,46,0,0,0,0,0,0,1
757,11121,10383,bus,46,0,0,0,0,0,0,1
778,11122,10383,bus,46,0,0,0,0,0,0,1
800,11123,10383,bus,46,0,0,0,0,0,0,1
819,11124,10383,bus,46,0,0,0,0,0,0,1
840,11125,10383,bus,46,0,0,0,0,0,0,1
862,11126,10383,bus,46,0,0,0,0,0,0,1
881,11127,10383,bus,46,0,0,0,0,0,0,1
902,11128,10383,bus,46,0,0,0,0,0,0,1
924,11129,10383,bus,46,0,0,0,0,0,0,1
943,11130,10383,bus,46,0,0,0,0,0,0,1
964,11131,10383,bus,46,0,0,0,0,0,0,1
987,11132,10383,bus,46,0,0,0,0,0,0,1
1009,11133,10383,bus,46,0,0,0,0,0,0,1
1030,11134,10383,bus,46,0,0,0,0,0,0,1
1068,11135,10383,bus,46,0,0,0,0,0,0,1
1093,11136,10383,bus,46,0,0,0,0,0,0,1
1117,11137,10383,bus,46,0,0,0,0,0,0,1
1150,11138,10383,bus,46,0,0,0,0,0,0,1
1175,11139,10383,bus,46,0,0,0,0,0,0,1
1199,11140,10383,bus,46,0,0,0,0,0,0,1
1219,11141,10383,bus,46,0,0,0,0,0,0,1
1238,11142,10383,bus,46,0,0,0,0,0,0,1
1260,11143,10383,bus,46,0,0,0,0,0,0,1
1282,11144,10383,bus,46,0,0,0,0,0,0,1
1303,11145,10383,bus,46,0,0,0,0,0,0,1
1324,11146,10383,bus,46,0,0,0,0,0,0,1
1350,11147,10383,bus,46,0,0,0,0,0,0,1
1369,11148,10383,bus,46,0,0,0,0,0,0,1
1388,11149,10383,bus,46,0,0,0,0,0,0,1
334,11150,10381,bus,46,1,1,1,1,1,0,0
348,11151,10381,bus,46,1,1,1,1,1,0,0
362,11152,10381,bus,46,1,1,1,1,1,0,0
376,11153,10381,bus,46,1,1,1,1,1,0,0
389,11154,10381,bus,46,1,1,1,1,1,0,0
403,11155,10381,bus,46,1,1,1,1,1,0,0
416,11156,10381,bus,46,1,1,1,1,1,0,0
427,11157,10381,bus,46,1,1,1,1,1,0,0
438,11158,10381,bus,46,1,1,1,1,1,0,0
450,11159,10381,bus,46,1,1,1,1,1,0,0
461,11160,10381,bus,46,1,1,1,1,1,0,0
474,11161,10381,bus,46,1,1,1,1,1,0,0
488,11162,10381,bus,46,1,1,1,1,1,0,0
501,11163,10381,bus,46,1,1,1,1,1,0,0
513,11164,10381,bus,46,1,1,1,1,1,0,0
525,11165,10381,bus,46,1,1,1,1,1,0,0
536,11166,10381,bus,46,1,1,1,1,1,0,0
548,11167,10381,bus,46,1,1,1,1,1,0,0
562,11168,10381,bus,46,1,1,1,1,1,0,0
580,11169,10381,bus,46,1,1,1,1,1,0,0
606,11170,10381,bus,46,1,1,1,1,1,0,0
638,11171,10381,bus,46,1,1,1,1,1,0,0
657,11172,10381,bus,46,1,1,1,1,1,0,0
676,11173,10381,bus,46,1,1,1,1,1,0,0
696,11174,10381,bus,46,1,1,1,1,1,0,0
715,11175,10381,bus,46,1,1,1,1,1,0,0
733,11176,10381,bus,46,1,1,1,1,1,0,0
750,11177,10381,bus,46,1,1,1,1,1,0,0
768,11178,10381,bus,46,1,1,1,1,1,0,0
786,11179,10381,bus,46,1,1,1,1,1,0,0
804,11180,10381,bus,46,1,1,1,1,1,0,0
822,11181,10381,bus,46,1,1,1,1,1,0,0
840,11182,10381,bus,46,1,1,1,1,1,0,0
856,11183,10381,bus,46,1,1,1,1,1,0,0
874,11184,10381,bus,46,1,1,1,1,1,0,0
893,11185,10381,bus,46,1,1,1,1,1,0,0
911,11186,10381,bus,46,1,1,1,1,1,0,0
925,11187,10381,bus,46,1,1,1,1,1,0,0
938,11188,10381,bus,46,1,1,1,1,1,0,0
951,11189,10381,bus,46,1,1,1,1,1,0,0
963,11190,10381,bus,46,1,1,1,1,1,0,0
976,11191,10381,bus,46,1,1,1,1,1,0,0
990,11192,10381,bus,46,1,1,1,1,1,0,0
1004,11193,10381,bus,46,1,1,1,1,1,0,0
1017,11194,10381,bus,46,1,1,1,1,1,0,0
1030,11195,10381,bus,46,1,1,1,1,1,0,0
1041,11196,10381,bus,46,1,1,1,1,1,0,0
1055,11197,10381,bus,46,1,1,1,1,1,0,0
1069,11198,10381,bus,46,1,1,1,1,1,0,0
1083,11199,10381,bus,46,1,1,1,1,1,0,0
1096,11200,10381,bus,46,1,1,1,1,1,0,0
1110,11201,10381,bus,46,1,1,1,1,1,0,0
1122,11202,10381,bus,46,1,1,1,1,1,0,0
1146,11203,10381,bus,46,1,1,1,1,1,0,0
1169,11204,10381,bus,46,1,1,1,1,1,0,0
1188,11205,10381,bus,46,1,1,1,1,1,0,0
1206,11206,10381,bus,46,1,1,1,1,1,0,0
1224,11207,10381,bus,46,1,1,1,1,1,0,0
1243,11208,10381,bus,46,1,1,1,1,1,0,0
1260,11209,10381,bus,46,1,1,1,1,1,0,0
1277,11210,10381,bus,46,1,1,1,1,1,0,0
1295,11211,10381,bus,46,1,1,1,1,1,0,0
1313,11212,10381,bus,46,1,1,1,1,1,0,0
1330,11213,10381,bus,46,1,1,1,1,1,0,0
1347,11214,10381,bus,46,1,1,1,1,1,0,0
1365,11215,10381,bus,46,1,1,1,1,1,0,0
1385,11216,10381,bus,46,1,1,1,1,1,0,0
337,11217,10382,bus,46,0,0,0,0,0,1,0
358,11218,10382,bus,46,0,0,0,0,0,1,0
379,11219,10382,bus,46,0,0,0,0,0,1,0
400,11220,10382,bus,46,0,0,0,0,0,1,0
420,11221,10382,bus,46,0,0,0,0,0,1,0
441,11222,10382,bus,46,0,0,0,0,0,1,0
463,11223,10382,bus,46,0,0,0,0,0,1,0
483,11224,10382,bus,46,0,0,0,0,0,1,0
504,11225,10382,bus,46,0,0,0,0,0,1,0
525,11226,10382,bus,46,0,0,0,0,0,1,0
545,11227,10382,bus,46,0,0,0,0,0,1,0
566,11228,10382,bus,46,0,0,0,0,0,1,0
606,11229,10382,bus,46,0,0,0,0,0,1,0
634,11230,10382,bus,46,0,0,0,0,0,1,0
655,11231,10382,bus,46,0,0,0,0,0,1,0
675,11232,10382,bus,46,0,0,0,0,0,1,0
695,11233,10382,bus,46,0,0,0,0,0,1,0
716,11234,10382,bus,46,0,0,0,0,0,1,0
738,11235,10382,bus,46,0,0,0,0,0,1,0
757,11236,10382,bus,46,0,0,0,0,0,1,0
778,11237,10382,bus,46,0,0,0,0,0,1,0
800,11238,10382,bus,46,0,0,0,0,0,1,0
819,11239,10382,bus,46,0,0,0,0,0,1,0
840,11240,10382,bus,46,0,0,0,0,0,1,0
862,11241,10382,bus,46,0,0,0,0,0,1,0
881,11242,10382,bus,46,0,0,0,0,0,1,0
902,11243,10382,bus,46,0,0,0,0,0,1,0
924,11244,10382,bus,46,0,0,0,0,0,1,0
943,11245,10382,bus,46,0,0,0,0,0,1,0
964,11246,10382,bus,46,0,0,0,0,0,1,0
987,11247,10382,bus,46,0,0,0,0,0,1,0
1009,11248,10382,bus,46,0,0,0,0,0,1,0
1030,11249,10382,bus,46,0,0,0,0,0,1,0
1068,11250,10382,bus,46,0,0,0,0,0,1,0
1093,11251,10382,bus,46,0,0,0,0,0,1,0
1117,11252,10382,bus,46,0,0,0,0,0,1,0
1150,11253,10382,bus,46,0,0,0,0,0,1,0
1175,11254,10382,bus,46,0,0,0,0,0,1,0
1199,11255,10382,bus,46,0,0,0,0,0,1,0
1219,11256,10382,bus,46,0,0,0,0,0,1,0
1238,11257,10382,bus,46,0,0,0,0,0,1,0
1260,11258,10382,bus,46,0,0,0,0,0,1,0
1282,11259,10382,bus,46,0,0,0,0,0,1,0
1303,11260,10382,bus,46,0,0,0,0,0,1,0
1324,11261,10382,bus,46,0,0,0,0,0,1,0
1350,11262,10382,bus,46,0,0,0,0,0,1,0
1369,11263,10382,bus,46,0,0,0,0,0,1,0
1388,11264,10382,bus,46,0,0,0,0,0,1,0
1402,11426,10383,bus,46,0,0,0,0,0,0,1
1421,11427,10383,bus,46,0,0,0,0,0,0,1
1440,11428,10383,bus,46,0,0,0,0,0,0,1
1161,11429,10381,bus,46,1,1,1,1,1,0,0
1182,11430,10381,bus,46,1,1,1,1,1,0,0
1389,11431,10381,bus,46,1,1,1,1,1,0,0
1405,11432,10381,bus,46,1,1,1,1,1,0,0
1424,11433,10381,bus,46,1,1,1,1,1,0,0
1441,11434,10381,bus,46,1,1,1,1,1,0,0
1402,11435,10382,bus,46,0,0,0,0,0,1,0
1421,11436,10382,bus,46,0,0,0,0,0,1,0
1440,11437,10382,bus,46,0,0,0,0,0,1,0
355,11528,10384,bus,48,1,1,1,1,1,0,0
396,11529,10384,bus,48,1,1,1,1,1,0,0
450,11530,10384,bus,48,1,1,1,1,1,0,0
484,11531,10384,bus,48,1,1,1,1,1,0,0
519,11532,10384,bus,48,1,1,1,1,1,0,0
546,11533,10384,bus,48,1,1,1,1,1,0,0
577,11534,10384,bus,48,1,1,1,1,1,0,0
607,11535,10384,bus,48,1,1,1,1,1,0,0
662,11536,10384,bus,48,1,1,1,1,1,0,0
693,11537,10384,bus,48,1,1,1,1,1,0,0
720,11538,10384,bus,48,1,1,1,1,1,0,0
749,11539,10384,bus,48,1,1,1,1,1,0,0
778,11540,10384,bus,48,1,1,1,1,1,0,0
807,11541,10384,bus,48,1,1,1,1,1,0,0
839,11542,10384,bus,48,1,1,1,1,1,0,0
866,11543,10384,bus,48,1,1,1,1,1,0,0
896,11544,10384,bus,48,1,1,1,1,1,0,0
930,11545,10384,bus,48,1,1,1,1,1,0,0
954,11546,10384,bus,48,1,1,1,1,1,0,0
989,11547,10384,bus,48,1,1,1,1,1,0,0
1019,11548,10384,bus,48,1,1,1,1,1,0,0
1055,11549,10384,bus,48,1,1,1,1,1,0,0
1078,11550,10384,bus,48,1,1,1,1,1,0,0
1116,11551,10384,bus,48,1,1,1,1,1,0,0
1149,11552,10384,bus,48,1,1,1,1,1,0,0
1172,11553,10384,bus,48,1,1,1,1,1,0,0
1205,11554,10384,bus,48,1,1,1,1,1,0,0
1257,11555,10384,bus,48,1,1,1,1,1,0,0
1279,11556,10384,bus,48,1,1,1,1,1,0,0
1313,11557,10384,bus,48,1,1,1,1,1,0,0
1338,11558,10384,bus,48,1,1,1,1,1,0,0
1369,11559,10384,bus,48,1,1,1,1,1,0,0
1394,11560,10384,bus,48,1,1,1,1,1,0,0
1419,11561,10384,bus,48,1,1,1,1,1,0,0
361,11562,10385,bus,48,0,0,0,0,0,1,0
398,11563,10385,bus,48,0,0,0,0,0,1,0
443,11564,10385,bus,48,0,0,0,0,0,1,0
483,11565,10385,bus,48,0,0,0,0,0,1,0
526,11566,10385,bus,48,0,0,0,0,0,1,0
569,11567,10385,bus,48,0,0,0,0,0,1,0
635,11568,10385,bus,48,0,0,0,0,0,1,0
685,11569,10385,bus,48,0,0,0,0,0,1,0
732,11570,10385,bus,48,0,0,0,0,0,1,0
778,11571,10385,bus,48,0,0,0,0,0,1,0
815,11572,10385,bus,48,0,0,0,0,0,1,0
863,11573,10385,bus,48,0,0,0,0,0,1,0
904,11574,10385,bus,48,0,0,0,0,0,1,0
951,11575,10385,bus,48,0,0,0,0,0,1,0
989,11576,10385,bus,48,0,0,0,0,0,1,0
1037,11577,10385,bus,48,0,0,0,0,0,1,0
1074,11578,10385,bus,48,0,0,0,0,0,1,0
1121,11579,10385,bus,48,0,0,0,0,0,1,0
1184,11580,10385,bus,48,0,0,0,0,0,1,0
1231,11581,10385,bus,48,0,0,0,0,0,1,0
1274,11582,10385,bus,48,0,0,0,0,0,1,0
1309,11583,10385,bus,48,0,0,0,0,0,1,0
1349,11584,10385,bus,48,0,0,0,0,0,1,0
1386,11585,10385,bus,48,0,0,0,0,0,1,0
398,11586,10386,bus,48,0,0,0,0,0,0,1
443,11587,10386,bus,48,0,0,0,0,0,0,1
483,11588,10386,bus,48,0,0,0,0,0,0,1
526,11589,10386,bus,48,0,0,0,0,0,0,1
569,11590,10386,bus,48,0,0,0,0,0,0,1
635,11591,10386,bus,48,0,0,0,0,0,0,1
685,11592,10386,bus,48,0,0,0,0,0,0,1
732,11593,10386,bus,48,0,0,0,0,0,0,1
778,11594,10386,bus,48,0,0,0,0,0,0,1
815,11595,10386,bus,48,0,0,0,0,0,0,1
863,11596,10386,bus,48,0,0,0,0,0,0,1
904,11597,10386,bus,48,0,0,0,0,0,0,1
951,11598,10386,bus,48,0,0,0,0,0,0,1
989,11599,10386,bus,48,0,0,0,0,0,0,1
1037,11600,10386,bus,48,0,0,0,0,0,0,1
1074,11601,10386,bus,48,0,0,0,0,0,0,1
1121,11602,10386,bus,48,0,0,0,0,0,0,1
1184,11603,10386,bus,48,0,0,0,0,0,0,1
1231,11604,10386,bus,48,0,0,0,0,0,0,1
1274,11605,10386,bus,48,0,0,0,0,0,0,1
1309,11606,10386,bus,48,0,0,0,0,0,0,1
1349,11607,10386,bus,48,0,0,0,0,0,0,1
1386,11608,10386,bus,48,0,0,0,0,0,0,1
1405,13138,10395,bus,55,1,1,1,1,1,0,0
1402,13139,10193,bus,55,0,0,0,0,0,1,0
1402,13140,10194,bus,55,0,0,0,0,0,0,1
1182,14323,10616,bus,68,1,1,1,1,1,0,0
1388,14324,10616,bus,68,1,1,1,1,1,0,0
1426,14325,10616,bus,68,1,1,1,1,1,0,0
1097,14326,9989,bus,68,0,0,0,0,0,1,0
1421,14327,9989,bus,68,0,0,0,0,0,1,0
1097,14328,9990,bus,68,0,0,0,0,0,0,1
1421,14329,9990,bus,68,0,0,0,0,0,0,1
386,14470,10499,bus,73,0,0,0,0,0,0,1
428,14471,10499,bus,73,0,0,0,0,0,0,1
470,14472,10499,bus,73,0,0,0,0,0,0,1
521,14473,10499,bus,73,0,0,0,0,0,0,1
560,14474,10499,bus,73,0,0,0,0,0,0,1
597,14475,10499,bus,73,0,0,0,0,0,0,1
637,14476,10499,bus,73,0,0,0,0,0,0,1
674,14477,10499,bus,73,0,0,0,0,0,0,1
707,14478,10499,bus,73,0,0,0,0,0,0,1
736,14479,10499,bus,73,0,0,0,0,0,0,1
766,14480,10499,bus,73,0,0,0,0,0,0,1
799,14481,10499,bus,73,0,0,0,0,0,0,1
827,14482,10499,bus,73,0,0,0,0,0,0,1
860,14483,10499,bus,73,0,0,0,0,0,0,1
887,14484,10499,bus,73,0,0,0,0,0,0,1
922,14485,10499,bus,73,0,0,0,0,0,0,1
957,14486,10499,bus,73,0,0,0,0,0,0,1
996,14487,10499,bus,73,0,0,0,0,0,0,1
1017,14488,10499,bus,73,0,0,0,0,0,0,1
1049,14489,10499,bus,73,0,0,0,0,0,0,1
1092,14490,10499,bus,73,0,0,0,0,0,0,1
1139,14491,10499,bus,73,0,0,0,0,0,0,1
1175,14492,10499,bus,73,0,0,0,0,0,0,1
1226,14493,10499,bus,73,0,0,0,0,0,0,1
1285,14494,10499,bus,73,0,0,0,0,0,0,1
1329,14495,10499,bus,73,0,0,0,0,0,0,1
1372,14496,10499,bus,73,0,0,0,0,0,0,1
338,14497,10497,bus,73,1,1,1,1,1,0,0
369,14498,10497,bus,73,1,1,1,1,1,0,0
388,14499,10497,bus,73,1,1,1,1,1,0,0
419,14500,10497,bus,73,1,1,1,1,1,0,0
438,14501,10497,bus,73,1,1,1,1,1,0,0
455,14502,10497,bus,73,1,1,1,1,1,0,0
476,14503,10497,bus,73,1,1,1,1,1,0,0
499,14504,10497,bus,73,1,1,1,1,1,0,0
523,14505,10497,bus,73,1,1,1,1,1,0,0
543,14506,10497,bus,73,1,1,1,1,1,0,0
565,14507,10497,bus,73,1,1,1,1,1,0,0
601,14508,10497,bus,73,1,1,1,1,1,0,0
632,14509,10497,bus,73,1,1,1,1,1,0,0
663,14510,10497,bus,73,1,1,1,1,1,0,0
689,14511,10497,bus,73,1,1,1,1,1,0,0
720,14512,10497,bus,73,1,1,1,1,1,0,0
752,14513,10497,bus,73,1,1,1,1,1,0,0
776,14514,10497,bus,73,1,1,1,1,1,0,0
807,14515,10497,bus,73,1,1,1,1,1,0,0
839,14516,10497,bus,73,1,1,1,1,1,0,0
863,14517,10497,bus,73,1,1,1,1,1,0,0
899,14518,10497,bus,73,1,1,1,1,1,0,0
922,14519,10497,bus,73,1,1,1,1,1,0,0
938,14520,10497,bus,73,1,1,1,1,1,0,0
955,14521,10497,bus,73,1,1,1,1,1,0,0
973,14522,10497,bus,73,1,1,1,1,1,0,0
992,14523,10497,bus,73,1,1,1,1,1,0,0
1020,14524,10497,bus,73,1,1,1,1,1,0,0
1043,14525,10497,bus,73,1,1,1,1,1,0,0
1064,14526,10497,bus,73,1,1,1,1,1,0,0
1082,14527,10497,bus,73,1,1,1,1,1,0,0
1103,14528,10497,bus,73,1,1,1,1,1,0,0
1137,14529,10497,bus,73,1,1,1,1,1,0,0
1176,14530,10497,bus,73,1,1,1,1,1,0,0
1201,14531,10497,bus,73,1,1,1,1,1,0,0
1232,14532,10497,bus,73,1,1,1,1,1,0,0
1264,14533,10497,bus,73,1,1,1,1,1,0,0
1291,14534,10497,bus,73,1,1,1,1,1,0,0
1328,14535,10497,bus,73,1,1,1,1,1,0,0
1355,14536,10497,bus,73,1,1,1,1,1,0,0
1379,14537,10497,bus,73,1,1,1,1,1,0,0
340,14538,10498,bus,73,0,0,0,0,0,1,0
386,14539,10498,bus,73,0,0,0,0,0,1,0
428,14540,10498,bus,73,0,0,0,0,0,1,0
470,14541,10498,bus,73,0,0,0,0,0,1,0
521,14542,10498,bus,73,0,0,0,0,0,1,0
560,14543,10498,bus,73,0,0,0,0,0,1,0
597,14544,10498,bus,73,0,0,0,0,0,1,0
637,14545,10498,bus,73,0,0,0,0,0,1,0
674,14546,10498,bus,73,0,0,0,0,0,1,0
707,14547,10498,bus,73,0,0,0,0,0,1,0
736,14548,10498,bus,73,0,0,0,0,0,1,0
766,14549,10498,bus,73,0,0,0,0,0,1,0
799,14550,10498,bus,73,0,0,0,0,0,1,0
827,14551,10498,bus,73,0,0,0,0,0,1,0
860,14552,10498,bus,73,0,0,0,0,0,1,0
887,14553,10498,bus,73,0,0,0,0,0,1,0
922,14554,10498,bus,73,0,0,0,0,0,1,0
957,14555,10498,bus,73,0,0,0,0,0,1,0
996,14556,10498,bus,73,0,0,0,0,0,1,0
1017,14557,10498,bus,73,0,0,0,0,0,1,0
1049,14558,10498,bus,73,0,0,0,0,0,1,0
1092,14559,10498,bus,73,0,0,0,0,0,1,0
1139,14560,10498,bus,73,0,0,0,0,0,1,0
1175,14561,10498,bus,73,0,0,0,0,0,1,0
1226,14562,10498,bus,73,0,0,0,0,0,1,0
1285,14563,10498,bus,73,0,0,0,0,0,1,0
1329,14564,10498,bus,73,0,0,0,0,0,1,0
1372,14565,10498,bus,73,0,0,0,0,0,1,0
1602,16351,9970,nightbus,102N,0,0,0,0,1,1,0
1650,16352,9970,nightbus,102N,0,0,0,0,1,1,0
