timeInMin,trip_id,service_id,tipas,numeris,pirmadienis,antradienis,treciadienis,ketvirtadienis,penktadienis,sestadienis,sekmadienis 
1112,2330,10327,expressbus,3G,1,1,1,1,1,0,0
1118,2331,10327,expressbus,3G,1,1,1,1,1,0,0
1137,2332,10327,expressbus,3G,1,1,1,1,1,0,0
1157,2333,10327,expressbus,3G,1,1,1,1,1,0,0
1162,2334,10327,expressbus,3G,1,1,1,1,1,0,0
1171,2335,10327,expressbus,3G,1,1,1,1,1,0,0
1183,2336,10327,expressbus,3G,1,1,1,1,1,0,0
1192,2337,10327,expressbus,3G,1,1,1,1,1,0,0
1321,2338,10327,expressbus,3G,1,1,1,1,1,0,0
1329,2339,10327,expressbus,3G,1,1,1,1,1,0,0
1338,2340,10327,expressbus,3G,1,1,1,1,1,0,0
1356,2341,10327,expressbus,3G,1,1,1,1,1,0,0
1364,2342,10327,expressbus,3G,1,1,1,1,1,0,0
1372,2343,10327,expressbus,3G,1,1,1,1,1,0,0
1380,2344,10327,expressbus,3G,1,1,1,1,1,0,0
1388,2345,10327,expressbus,3G,1,1,1,1,1,0,0
1401,2346,10327,expressbus,3G,1,1,1,1,1,0,0
1413,2347,10327,expressbus,3G,1,1,1,1,1,0,0
1426,2348,10327,expressbus,3G,1,1,1,1,1,0,0
1440,2349,10327,expressbus,3G,1,1,1,1,1,0,0
1065,2350,10329,expressbus,3G,0,0,0,0,0,0,1
1108,2351,10329,expressbus,3G,0,0,0,0,0,0,1
1118,2352,10329,expressbus,3G,0,0,0,0,0,0,1
1317,2353,10329,expressbus,3G,0,0,0,0,0,0,1
1353,2354,10329,expressbus,3G,0,0,0,0,0,0,1
1381,2355,10329,expressbus,3G,0,0,0,0,0,0,1
1398,2356,10329,expressbus,3G,0,0,0,0,0,0,1
1414,2357,10329,expressbus,3G,0,0,0,0,0,0,1
1429,2358,10329,expressbus,3G,0,0,0,0,0,0,1
1444,2359,10329,expressbus,3G,0,0,0,0,0,0,1
1065,2360,10328,expressbus,3G,0,0,0,0,0,1,0
1108,2361,10328,expressbus,3G,0,0,0,0,0,1,0
1118,2362,10328,expressbus,3G,0,0,0,0,0,1,0
1317,2363,10328,expressbus,3G,0,0,0,0,0,1,0
1353,2364,10328,expressbus,3G,0,0,0,0,0,1,0
1381,2365,10328,expressbus,3G,0,0,0,0,0,1,0
1398,2366,10328,expressbus,3G,0,0,0,0,0,1,0
1414,2367,10328,expressbus,3G,0,0,0,0,0,1,0
1429,2368,10328,expressbus,3G,0,0,0,0,0,1,0
1444,2369,10328,expressbus,3G,0,0,0,0,0,1,0
1080,7464,10356,bus,24,1,1,1,1,1,0,0
1103,7465,10356,bus,24,1,1,1,1,1,0,0
1125,7466,10356,bus,24,1,1,1,1,1,0,0
1145,7467,10356,bus,24,1,1,1,1,1,0,0
1201,7468,10356,bus,24,1,1,1,1,1,0,0
1387,7469,10356,bus,24,1,1,1,1,1,0,0
1410,7470,10356,bus,24,1,1,1,1,1,0,0
1432,7471,10356,bus,24,1,1,1,1,1,0,0
1102,7472,9984,bus,24,0,0,0,0,0,1,0
1363,7473,9984,bus,24,0,0,0,0,0,1,0
1397,7474,9984,bus,24,0,0,0,0,0,1,0
1102,7475,9985,bus,24,0,0,0,0,0,0,1
1363,7476,9985,bus,24,0,0,0,0,0,0,1
1397,7477,9985,bus,24,0,0,0,0,0,0,1
367,12229,10394,bus,53,0,0,0,0,0,0,1
382,12230,10394,bus,53,0,0,0,0,0,0,1
397,12231,10394,bus,53,0,0,0,0,0,0,1
412,12232,10394,bus,53,0,0,0,0,0,0,1
427,12233,10394,bus,53,0,0,0,0,0,0,1
442,12234,10394,bus,53,0,0,0,0,0,0,1
457,12235,10394,bus,53,0,0,0,0,0,0,1
472,12236,10394,bus,53,0,0,0,0,0,0,1
487,12237,10394,bus,53,0,0,0,0,0,0,1
503,12238,10394,bus,53,0,0,0,0,0,0,1
518,12239,10394,bus,53,0,0,0,0,0,0,1
529,12240,10394,bus,53,0,0,0,0,0,0,1
540,12241,10394,bus,53,0,0,0,0,0,0,1
550,12242,10394,bus,53,0,0,0,0,0,0,1
559,12243,10394,bus,53,0,0,0,0,0,0,1
569,12244,10394,bus,53,0,0,0,0,0,0,1
579,12245,10394,bus,53,0,0,0,0,0,0,1
591,12246,10394,bus,53,0,0,0,0,0,0,1
604,12247,10394,bus,53,0,0,0,0,0,0,1
614,12248,10394,bus,53,0,0,0,0,0,0,1
623,12249,10394,bus,53,0,0,0,0,0,0,1
632,12250,10394,bus,53,0,0,0,0,0,0,1
643,12251,10394,bus,53,0,0,0,0,0,0,1
655,12252,10394,bus,53,0,0,0,0,0,0,1
666,12253,10394,bus,53,0,0,0,0,0,0,1
676,12254,10394,bus,53,0,0,0,0,0,0,1
686,12255,10394,bus,53,0,0,0,0,0,0,1
698,12256,10394,bus,53,0,0,0,0,0,0,1
711,12257,10394,bus,53,0,0,0,0,0,0,1
728,12258,10394,bus,53,0,0,0,0,0,0,1
737,12259,10394,bus,53,0,0,0,0,0,0,1
748,12260,10394,bus,53,0,0,0,0,0,0,1
757,12261,10394,bus,53,0,0,0,0,0,0,1
763,12262,10394,bus,53,0,0,0,0,0,0,1
774,12263,10394,bus,53,0,0,0,0,0,0,1
782,12264,10394,bus,53,0,0,0,0,0,0,1
791,12265,10394,bus,53,0,0,0,0,0,0,1
799,12266,10394,bus,53,0,0,0,0,0,0,1
809,12267,10394,bus,53,0,0,0,0,0,0,1
823,12268,10394,bus,53,0,0,0,0,0,0,1
833,12269,10394,bus,53,0,0,0,0,0,0,1
846,12270,10394,bus,53,0,0,0,0,0,0,1
856,12271,10394,bus,53,0,0,0,0,0,0,1
865,12272,10394,bus,53,0,0,0,0,0,0,1
874,12273,10394,bus,53,0,0,0,0,0,0,1
883,12274,10394,bus,53,0,0,0,0,0,0,1
893,12275,10394,bus,53,0,0,0,0,0,0,1
902,12276,10394,bus,53,0,0,0,0,0,0,1
912,12277,10394,bus,53,0,0,0,0,0,0,1
925,12278,10394,bus,53,0,0,0,0,0,0,1
939,12279,10394,bus,53,0,0,0,0,0,0,1
952,12280,10394,bus,53,0,0,0,0,0,0,1
962,12281,10394,bus,53,0,0,0,0,0,0,1
971,12282,10394,bus,53,0,0,0,0,0,0,1
981,12283,10394,bus,53,0,0,0,0,0,0,1
992,12284,10394,bus,53,0,0,0,0,0,0,1
1003,12285,10394,bus,53,0,0,0,0,0,0,1
1018,12286,10394,bus,53,0,0,0,0,0,0,1
1034,12287,10394,bus,53,0,0,0,0,0,0,1
1050,12288,10394,bus,53,0,0,0,0,0,0,1
1071,12289,10394,bus,53,0,0,0,0,0,0,1
1092,12290,10394,bus,53,0,0,0,0,0,0,1
1107,12291,10394,bus,53,0,0,0,0,0,0,1
1132,12292,10394,bus,53,0,0,0,0,0,0,1
1156,12293,10394,bus,53,0,0,0,0,0,0,1
1173,12294,10394,bus,53,0,0,0,0,0,0,1
1190,12295,10394,bus,53,0,0,0,0,0,0,1
1210,12296,10394,bus,53,0,0,0,0,0,0,1
1222,12297,10394,bus,53,0,0,0,0,0,0,1
1234,12298,10394,bus,53,0,0,0,0,0,0,1
1249,12299,10394,bus,53,0,0,0,0,0,0,1
1263,12300,10394,bus,53,0,0,0,0,0,0,1
1279,12301,10394,bus,53,0,0,0,0,0,0,1
1294,12302,10394,bus,53,0,0,0,0,0,0,1
1308,12303,10394,bus,53,0,0,0,0,0,0,1
1322,12304,10394,bus,53,0,0,0,0,0,0,1
1335,12305,10394,bus,53,0,0,0,0,0,0,1
1351,12306,10394,bus,53,0,0,0,0,0,0,1
1369,12307,10394,bus,53,0,0,0,0,0,0,1
317,12308,10392,bus,53,1,1,1,1,1,0,0
328,12309,10392,bus,53,1,1,1,1,1,0,0
339,12310,10392,bus,53,1,1,1,1,1,0,0
350,12311,10392,bus,53,1,1,1,1,1,0,0
362,12312,10392,bus,53,1,1,1,1,1,0,0
369,12313,10392,bus,53,1,1,1,1,1,0,0
375,12314,10392,bus,53,1,1,1,1,1,0,0
381,12315,10392,bus,53,1,1,1,1,1,0,0
387,12316,10392,bus,53,1,1,1,1,1,0,0
393,12317,10392,bus,53,1,1,1,1,1,0,0
400,12318,10392,bus,53,1,1,1,1,1,0,0
407,12319,10392,bus,53,1,1,1,1,1,0,0
413,12320,10392,bus,53,1,1,1,1,1,0,0
420,12321,10392,bus,53,1,1,1,1,1,0,0
426,12322,10392,bus,53,1,1,1,1,1,0,0
432,12323,10392,bus,53,1,1,1,1,1,0,0
439,12324,10392,bus,53,1,1,1,1,1,0,0
446,12325,10392,bus,53,1,1,1,1,1,0,0
454,12326,10392,bus,53,1,1,1,1,1,0,0
462,12327,10392,bus,53,1,1,1,1,1,0,0
469,12328,10392,bus,53,1,1,1,1,1,0,0
478,12329,10392,bus,53,1,1,1,1,1,0,0
486,12330,10392,bus,53,1,1,1,1,1,0,0
495,12331,10392,bus,53,1,1,1,1,1,0,0
503,12332,10392,bus,53,1,1,1,1,1,0,0
512,12333,10392,bus,53,1,1,1,1,1,0,0
522,12334,10392,bus,53,1,1,1,1,1,0,0
530,12335,10392,bus,53,1,1,1,1,1,0,0
539,12336,10392,bus,53,1,1,1,1,1,0,0
548,12337,10392,bus,53,1,1,1,1,1,0,0
558,12338,10392,bus,53,1,1,1,1,1,0,0
569,12339,10392,bus,53,1,1,1,1,1,0,0
579,12340,10392,bus,53,1,1,1,1,1,0,0
591,12341,10392,bus,53,1,1,1,1,1,0,0
601,12342,10392,bus,53,1,1,1,1,1,0,0
611,12343,10392,bus,53,1,1,1,1,1,0,0
620,12344,10392,bus,53,1,1,1,1,1,0,0
630,12345,10392,bus,53,1,1,1,1,1,0,0
641,12346,10392,bus,53,1,1,1,1,1,0,0
654,12347,10392,bus,53,1,1,1,1,1,0,0
666,12348,10392,bus,53,1,1,1,1,1,0,0
677,12349,10392,bus,53,1,1,1,1,1,0,0
685,12350,10392,bus,53,1,1,1,1,1,0,0
693,12351,10392,bus,53,1,1,1,1,1,0,0
701,12352,10392,bus,53,1,1,1,1,1,0,0
711,12353,10392,bus,53,1,1,1,1,1,0,0
721,12354,10392,bus,53,1,1,1,1,1,0,0
731,12355,10392,bus,53,1,1,1,1,1,0,0
741,12356,10392,bus,53,1,1,1,1,1,0,0
752,12357,10392,bus,53,1,1,1,1,1,0,0
763,12358,10392,bus,53,1,1,1,1,1,0,0
775,12359,10392,bus,53,1,1,1,1,1,0,0
785,12360,10392,bus,53,1,1,1,1,1,0,0
794,12361,10392,bus,53,1,1,1,1,1,0,0
804,12362,10392,bus,53,1,1,1,1,1,0,0
813,12363,10392,bus,53,1,1,1,1,1,0,0
821,12364,10392,bus,53,1,1,1,1,1,0,0
831,12365,10392,bus,53,1,1,1,1,1,0,0
840,12366,10392,bus,53,1,1,1,1,1,0,0
850,12367,10392,bus,53,1,1,1,1,1,0,0
861,12368,10392,bus,53,1,1,1,1,1,0,0
873,12369,10392,bus,53,1,1,1,1,1,0,0
882,12370,10392,bus,53,1,1,1,1,1,0,0
891,12371,10392,bus,53,1,1,1,1,1,0,0
897,12372,10392,bus,53,1,1,1,1,1,0,0
904,12373,10392,bus,53,1,1,1,1,1,0,0
912,12374,10392,bus,53,1,1,1,1,1,0,0
920,12375,10392,bus,53,1,1,1,1,1,0,0
927,12376,10392,bus,53,1,1,1,1,1,0,0
934,12377,10392,bus,53,1,1,1,1,1,0,0
941,12378,10392,bus,53,1,1,1,1,1,0,0
949,12379,10392,bus,53,1,1,1,1,1,0,0
955,12380,10392,bus,53,1,1,1,1,1,0,0
961,12381,10392,bus,53,1,1,1,1,1,0,0
967,12382,10392,bus,53,1,1,1,1,1,0,0
974,12383,10392,bus,53,1,1,1,1,1,0,0
982,12384,10392,bus,53,1,1,1,1,1,0,0
990,12385,10392,bus,53,1,1,1,1,1,0,0
998,12386,10392,bus,53,1,1,1,1,1,0,0
1007,12387,10392,bus,53,1,1,1,1,1,0,0
1016,12388,10392,bus,53,1,1,1,1,1,0,0
1026,12389,10392,bus,53,1,1,1,1,1,0,0
1036,12390,10392,bus,53,1,1,1,1,1,0,0
1047,12391,10392,bus,53,1,1,1,1,1,0,0
1059,12392,10392,bus,53,1,1,1,1,1,0,0
1074,12393,10392,bus,53,1,1,1,1,1,0,0
1087,12394,10392,bus,53,1,1,1,1,1,0,0
1095,12395,10392,bus,53,1,1,1,1,1,0,0
1103,12396,10392,bus,53,1,1,1,1,1,0,0
1111,12397,10392,bus,53,1,1,1,1,1,0,0
1122,12398,10392,bus,53,1,1,1,1,1,0,0
1134,12399,10392,bus,53,1,1,1,1,1,0,0
1147,12400,10392,bus,53,1,1,1,1,1,0,0
1158,12401,10392,bus,53,1,1,1,1,1,0,0
1169,12402,10392,bus,53,1,1,1,1,1,0,0
1179,12403,10392,bus,53,1,1,1,1,1,0,0
1190,12404,10392,bus,53,1,1,1,1,1,0,0
1197,12405,10392,bus,53,1,1,1,1,1,0,0
1205,12406,10392,bus,53,1,1,1,1,1,0,0
1214,12407,10392,bus,53,1,1,1,1,1,0,0
1222,12408,10392,bus,53,1,1,1,1,1,0,0
1231,12409,10392,bus,53,1,1,1,1,1,0,0
1240,12410,10392,bus,53,1,1,1,1,1,0,0
1253,12411,10392,bus,53,1,1,1,1,1,0,0
1264,12412,10392,bus,53,1,1,1,1,1,0,0
1274,12413,10392,bus,53,1,1,1,1,1,0,0
1283,12414,10392,bus,53,1,1,1,1,1,0,0
1291,12415,10392,bus,53,1,1,1,1,1,0,0
1299,12416,10392,bus,53,1,1,1,1,1,0,0
1309,12417,10392,bus,53,1,1,1,1,1,0,0
1318,12418,10392,bus,53,1,1,1,1,1,0,0
1327,12419,10392,bus,53,1,1,1,1,1,0,0
1335,12420,10392,bus,53,1,1,1,1,1,0,0
1344,12421,10392,bus,53,1,1,1,1,1,0,0
1355,12422,10392,bus,53,1,1,1,1,1,0,0
1364,12423,10392,bus,53,1,1,1,1,1,0,0
1373,12424,10392,bus,53,1,1,1,1,1,0,0
313,12425,10393,bus,53,0,0,0,0,0,1,0
339,12426,10393,bus,53,0,0,0,0,0,1,0
352,12427,10393,bus,53,0,0,0,0,0,1,0
367,12428,10393,bus,53,0,0,0,0,0,1,0
382,12429,10393,bus,53,0,0,0,0,0,1,0
397,12430,10393,bus,53,0,0,0,0,0,1,0
412,12431,10393,bus,53,0,0,0,0,0,1,0
427,12432,10393,bus,53,0,0,0,0,0,1,0
442,12433,10393,bus,53,0,0,0,0,0,1,0
457,12434,10393,bus,53,0,0,0,0,0,1,0
472,12435,10393,bus,53,0,0,0,0,0,1,0
487,12436,10393,bus,53,0,0,0,0,0,1,0
503,12437,10393,bus,53,0,0,0,0,0,1,0
518,12438,10393,bus,53,0,0,0,0,0,1,0
529,12439,10393,bus,53,0,0,0,0,0,1,0
540,12440,10393,bus,53,0,0,0,0,0,1,0
550,12441,10393,bus,53,0,0,0,0,0,1,0
559,12442,10393,bus,53,0,0,0,0,0,1,0
569,12443,10393,bus,53,0,0,0,0,0,1,0
579,12444,10393,bus,53,0,0,0,0,0,1,0
591,12445,10393,bus,53,0,0,0,0,0,1,0
604,12446,10393,bus,53,0,0,0,0,0,1,0
614,12447,10393,bus,53,0,0,0,0,0,1,0
623,12448,10393,bus,53,0,0,0,0,0,1,0
632,12449,10393,bus,53,0,0,0,0,0,1,0
643,12450,10393,bus,53,0,0,0,0,0,1,0
655,12451,10393,bus,53,0,0,0,0,0,1,0
666,12452,10393,bus,53,0,0,0,0,0,1,0
676,12453,10393,bus,53,0,0,0,0,0,1,0
686,12454,10393,bus,53,0,0,0,0,0,1,0
698,12455,10393,bus,53,0,0,0,0,0,1,0
711,12456,10393,bus,53,0,0,0,0,0,1,0
728,12457,10393,bus,53,0,0,0,0,0,1,0
737,12458,10393,bus,53,0,0,0,0,0,1,0
748,12459,10393,bus,53,0,0,0,0,0,1,0
757,12460,10393,bus,53,0,0,0,0,0,1,0
763,12461,10393,bus,53,0,0,0,0,0,1,0
774,12462,10393,bus,53,0,0,0,0,0,1,0
782,12463,10393,bus,53,0,0,0,0,0,1,0
791,12464,10393,bus,53,0,0,0,0,0,1,0
799,12465,10393,bus,53,0,0,0,0,0,1,0
809,12466,10393,bus,53,0,0,0,0,0,1,0
823,12467,10393,bus,53,0,0,0,0,0,1,0
833,12468,10393,bus,53,0,0,0,0,0,1,0
846,12469,10393,bus,53,0,0,0,0,0,1,0
856,12470,10393,bus,53,0,0,0,0,0,1,0
865,12471,10393,bus,53,0,0,0,0,0,1,0
874,12472,10393,bus,53,0,0,0,0,0,1,0
883,12473,10393,bus,53,0,0,0,0,0,1,0
893,12474,10393,bus,53,0,0,0,0,0,1,0
902,12475,10393,bus,53,0,0,0,0,0,1,0
912,12476,10393,bus,53,0,0,0,0,0,1,0
925,12477,10393,bus,53,0,0,0,0,0,1,0
939,12478,10393,bus,53,0,0,0,0,0,1,0
952,12479,10393,bus,53,0,0,0,0,0,1,0
962,12480,10393,bus,53,0,0,0,0,0,1,0
971,12481,10393,bus,53,0,0,0,0,0,1,0
981,12482,10393,bus,53,0,0,0,0,0,1,0
992,12483,10393,bus,53,0,0,0,0,0,1,0
1003,12484,10393,bus,53,0,0,0,0,0,1,0
1018,12485,10393,bus,53,0,0,0,0,0,1,0
1034,12486,10393,bus,53,0,0,0,0,0,1,0
1050,12487,10393,bus,53,0,0,0,0,0,1,0
1071,12488,10393,bus,53,0,0,0,0,0,1,0
1092,12489,10393,bus,53,0,0,0,0,0,1,0
1107,12490,10393,bus,53,0,0,0,0,0,1,0
1132,12491,10393,bus,53,0,0,0,0,0,1,0
1156,12492,10393,bus,53,0,0,0,0,0,1,0
1173,12493,10393,bus,53,0,0,0,0,0,1,0
1190,12494,10393,bus,53,0,0,0,0,0,1,0
1210,12495,10393,bus,53,0,0,0,0,0,1,0
1222,12496,10393,bus,53,0,0,0,0,0,1,0
1234,12497,10393,bus,53,0,0,0,0,0,1,0
1249,12498,10393,bus,53,0,0,0,0,0,1,0
1263,12499,10393,bus,53,0,0,0,0,0,1,0
1279,12500,10393,bus,53,0,0,0,0,0,1,0
1294,12501,10393,bus,53,0,0,0,0,0,1,0
1308,12502,10393,bus,53,0,0,0,0,0,1,0
1322,12503,10393,bus,53,0,0,0,0,0,1,0
1335,12504,10393,bus,53,0,0,0,0,0,1,0
1351,12505,10393,bus,53,0,0,0,0,0,1,0
1369,12506,10393,bus,53,0,0,0,0,0,1,0
1129,12783,10392,bus,53,1,1,1,1,1,0,0
1163,12784,10392,bus,53,1,1,1,1,1,0,0
1176,12785,10392,bus,53,1,1,1,1,1,0,0
1186,12786,10392,bus,53,1,1,1,1,1,0,0
1199,12787,10392,bus,53,1,1,1,1,1,0,0
1384,12788,10392,bus,53,1,1,1,1,1,0,0
1395,12789,10392,bus,53,1,1,1,1,1,0,0
1405,12790,10392,bus,53,1,1,1,1,1,0,0
1418,12791,10392,bus,53,1,1,1,1,1,0,0
1431,12792,10392,bus,53,1,1,1,1,1,0,0
1440,12793,10392,bus,53,1,1,1,1,1,0,0
1045,12794,10394,bus,53,0,0,0,0,0,0,1
1055,12795,10394,bus,53,0,0,0,0,0,0,1
1087,12796,10394,bus,53,0,0,0,0,0,0,1
1114,12797,10394,bus,53,0,0,0,0,0,0,1
1384,12798,10394,bus,53,0,0,0,0,0,0,1
1404,12799,10394,bus,53,0,0,0,0,0,0,1
1425,12800,10394,bus,53,0,0,0,0,0,0,1
1045,12801,10393,bus,53,0,0,0,0,0,1,0
1055,12802,10393,bus,53,0,0,0,0,0,1,0
1087,12803,10393,bus,53,0,0,0,0,0,1,0
1114,12804,10393,bus,53,0,0,0,0,0,1,0
1384,12805,10393,bus,53,0,0,0,0,0,1,0
1404,12806,10393,bus,53,0,0,0,0,0,1,0
1425,12807,10393,bus,53,0,0,0,0,0,1,0
365,13159,9466,bus,56,0,0,0,0,0,0,1
400,13160,9466,bus,56,0,0,0,0,0,0,1
433,13161,9466,bus,56,0,0,0,0,0,0,1
466,13162,9466,bus,56,0,0,0,0,0,0,1
508,13163,9466,bus,56,0,0,0,0,0,0,1
562,13164,9466,bus,56,0,0,0,0,0,0,1
612,13165,9466,bus,56,0,0,0,0,0,0,1
643,13166,9466,bus,56,0,0,0,0,0,0,1
681,13167,9466,bus,56,0,0,0,0,0,0,1
712,13168,9466,bus,56,0,0,0,0,0,0,1
750,13169,9466,bus,56,0,0,0,0,0,0,1
788,13170,9466,bus,56,0,0,0,0,0,0,1
823,13171,9466,bus,56,0,0,0,0,0,0,1
862,13172,9466,bus,56,0,0,0,0,0,0,1
897,13173,9466,bus,56,0,0,0,0,0,0,1
931,13174,9466,bus,56,0,0,0,0,0,0,1
966,13175,9466,bus,56,0,0,0,0,0,0,1
1001,13176,9466,bus,56,0,0,0,0,0,0,1
1043,13177,9466,bus,56,0,0,0,0,0,0,1
1095,13178,9466,bus,56,0,0,0,0,0,0,1
1141,13179,9466,bus,56,0,0,0,0,0,0,1
1188,13180,9466,bus,56,0,0,0,0,0,0,1
1210,13181,9466,bus,56,0,0,0,0,0,0,1
1253,13182,9466,bus,56,0,0,0,0,0,0,1
1281,13183,9466,bus,56,0,0,0,0,0,0,1
1322,13184,9466,bus,56,0,0,0,0,0,0,1
1347,13185,9466,bus,56,0,0,0,0,0,0,1
301,13186,10396,bus,56,1,1,1,1,1,0,0
322,13187,10396,bus,56,1,1,1,1,1,0,0
344,13188,10396,bus,56,1,1,1,1,1,0,0
367,13189,10396,bus,56,1,1,1,1,1,0,0
383,13190,10396,bus,56,1,1,1,1,1,0,0
398,13191,10396,bus,56,1,1,1,1,1,0,0
412,13192,10396,bus,56,1,1,1,1,1,0,0
427,13193,10396,bus,56,1,1,1,1,1,0,0
442,13194,10396,bus,56,1,1,1,1,1,0,0
457,13195,10396,bus,56,1,1,1,1,1,0,0
474,13196,10396,bus,56,1,1,1,1,1,0,0
489,13197,10396,bus,56,1,1,1,1,1,0,0
507,13198,10396,bus,56,1,1,1,1,1,0,0
524,13199,10396,bus,56,1,1,1,1,1,0,0
550,13200,10396,bus,56,1,1,1,1,1,0,0
581,13201,10396,bus,56,1,1,1,1,1,0,0
604,13202,10396,bus,56,1,1,1,1,1,0,0
631,13203,10396,bus,56,1,1,1,1,1,0,0
655,13204,10396,bus,56,1,1,1,1,1,0,0
678,13205,10396,bus,56,1,1,1,1,1,0,0
702,13206,10396,bus,56,1,1,1,1,1,0,0
729,13207,10396,bus,56,1,1,1,1,1,0,0
751,13208,10396,bus,56,1,1,1,1,1,0,0
778,13209,10396,bus,56,1,1,1,1,1,0,0
803,13210,10396,bus,56,1,1,1,1,1,0,0
824,13211,10396,bus,56,1,1,1,1,1,0,0
856,13212,10396,bus,56,1,1,1,1,1,0,0
881,13213,10396,bus,56,1,1,1,1,1,0,0
904,13214,10396,bus,56,1,1,1,1,1,0,0
929,13215,10396,bus,56,1,1,1,1,1,0,0
955,13216,10396,bus,56,1,1,1,1,1,0,0
972,13217,10396,bus,56,1,1,1,1,1,0,0
990,13218,10396,bus,56,1,1,1,1,1,0,0
1010,13219,10396,bus,56,1,1,1,1,1,0,0
1031,13220,10396,bus,56,1,1,1,1,1,0,0
1048,13221,10396,bus,56,1,1,1,1,1,0,0
1068,13222,10396,bus,56,1,1,1,1,1,0,0
1094,13223,10396,bus,56,1,1,1,1,1,0,0
1127,13224,10396,bus,56,1,1,1,1,1,0,0
1145,13225,10396,bus,56,1,1,1,1,1,0,0
1174,13226,10396,bus,56,1,1,1,1,1,0,0
1199,13227,10396,bus,56,1,1,1,1,1,0,0
1224,13228,10396,bus,56,1,1,1,1,1,0,0
1245,13229,10396,bus,56,1,1,1,1,1,0,0
1272,13230,10396,bus,56,1,1,1,1,1,0,0
1296,13231,10396,bus,56,1,1,1,1,1,0,0
1319,13232,10396,bus,56,1,1,1,1,1,0,0
1348,13233,10396,bus,56,1,1,1,1,1,0,0
334,13234,9465,bus,56,0,0,0,0,0,1,0
365,13235,9465,bus,56,0,0,0,0,0,1,0
400,13236,9465,bus,56,0,0,0,0,0,1,0
433,13237,9465,bus,56,0,0,0,0,0,1,0
466,13238,9465,bus,56,0,0,0,0,0,1,0
508,13239,9465,bus,56,0,0,0,0,0,1,0
562,13240,9465,bus,56,0,0,0,0,0,1,0
612,13241,9465,bus,56,0,0,0,0,0,1,0
643,13242,9465,bus,56,0,0,0,0,0,1,0
681,13243,9465,bus,56,0,0,0,0,0,1,0
712,13244,9465,bus,56,0,0,0,0,0,1,0
750,13245,9465,bus,56,0,0,0,0,0,1,0
788,13246,9465,bus,56,0,0,0,0,0,1,0
823,13247,9465,bus,56,0,0,0,0,0,1,0
862,13248,9465,bus,56,0,0,0,0,0,1,0
897,13249,9465,bus,56,0,0,0,0,0,1,0
931,13250,9465,bus,56,0,0,0,0,0,1,0
966,13251,9465,bus,56,0,0,0,0,0,1,0
1001,13252,9465,bus,56,0,0,0,0,0,1,0
1043,13253,9465,bus,56,0,0,0,0,0,1,0
1095,13254,9465,bus,56,0,0,0,0,0,1,0
1141,13255,9465,bus,56,0,0,0,0,0,1,0
1188,13256,9465,bus,56,0,0,0,0,0,1,0
1210,13257,9465,bus,56,0,0,0,0,0,1,0
1253,13258,9465,bus,56,0,0,0,0,0,1,0
1281,13259,9465,bus,56,0,0,0,0,0,1,0
1322,13260,9465,bus,56,0,0,0,0,0,1,0
1347,13261,9465,bus,56,0,0,0,0,0,1,0
355,13365,10613,bus,57,1,1,1,1,1,0,0
413,13366,10613,bus,57,1,1,1,1,1,0,0
470,13367,10613,bus,57,1,1,1,1,1,0,0
527,13368,10613,bus,57,1,1,1,1,1,0,0
607,13369,10613,bus,57,1,1,1,1,1,0,0
664,13370,10613,bus,57,1,1,1,1,1,0,0
721,13371,10613,bus,57,1,1,1,1,1,0,0
781,13372,10613,bus,57,1,1,1,1,1,0,0
848,13373,10613,bus,57,1,1,1,1,1,0,0
906,13374,10613,bus,57,1,1,1,1,1,0,0
964,13375,10613,bus,57,1,1,1,1,1,0,0
1024,13376,10613,bus,57,1,1,1,1,1,0,0
1089,13377,10613,bus,57,1,1,1,1,1,0,0
1169,13378,10613,bus,57,1,1,1,1,1,0,0
1236,13379,10613,bus,57,1,1,1,1,1,0,0
1303,13380,10613,bus,57,1,1,1,1,1,0,0
1361,13381,10613,bus,57,1,1,1,1,1,0,0
370,13382,9652,bus,57,0,0,0,0,0,1,0
430,13383,9652,bus,57,0,0,0,0,0,1,0
490,13384,9652,bus,57,0,0,0,0,0,1,0
550,13385,9652,bus,57,0,0,0,0,0,1,0
630,13386,9652,bus,57,0,0,0,0,0,1,0
690,13387,9652,bus,57,0,0,0,0,0,1,0
750,13388,9652,bus,57,0,0,0,0,0,1,0
810,13389,9652,bus,57,0,0,0,0,0,1,0
870,13390,9652,bus,57,0,0,0,0,0,1,0
930,13391,9652,bus,57,0,0,0,0,0,1,0
990,13392,9652,bus,57,0,0,0,0,0,1,0
1050,13393,9652,bus,57,0,0,0,0,0,1,0
1110,13394,9652,bus,57,0,0,0,0,0,1,0
1190,13395,9652,bus,57,0,0,0,0,0,1,0
1249,13396,9652,bus,57,0,0,0,0,0,1,0
1307,13397,9652,bus,57,0,0,0,0,0,1,0
1365,13398,9652,bus,57,0,0,0,0,0,1,0
430,13399,9653,bus,57,0,0,0,0,0,0,1
490,13400,9653,bus,57,0,0,0,0,0,0,1
550,13401,9653,bus,57,0,0,0,0,0,0,1
630,13402,9653,bus,57,0,0,0,0,0,0,1
690,13403,9653,bus,57,0,0,0,0,0,0,1
750,13404,9653,bus,57,0,0,0,0,0,0,1
810,13405,9653,bus,57,0,0,0,0,0,0,1
870,13406,9653,bus,57,0,0,0,0,0,0,1
930,13407,9653,bus,57,0,0,0,0,0,0,1
990,13408,9653,bus,57,0,0,0,0,0,0,1
1050,13409,9653,bus,57,0,0,0,0,0,0,1
1110,13410,9653,bus,57,0,0,0,0,0,0,1
1190,13411,9653,bus,57,0,0,0,0,0,0,1
1249,13412,9653,bus,57,0,0,0,0,0,0,1
1307,13413,9653,bus,57,0,0,0,0,0,0,1
1365,13414,9653,bus,57,0,0,0,0,0,0,1
1587,16338,9969,nightbus,101N,0,0,0,0,1,1,0
1639,16339,9969,nightbus,101N,0,0,0,0,1,1,0
