timeInMin,trip_id,service_id,tipas,numeris,pirmadienis,antradienis,treciadienis,ketvirtadienis,penktadienis,sestadienis,sekmadienis 
393,5598,10341,bus,14,1,1,1,1,1,0,0
465,5599,10341,bus,14,1,1,1,1,1,0,0
500,5600,10404,bus,14,1,1,1,1,1,0,0
561,5601,10341,bus,14,1,1,1,1,1,0,0
595,5602,10404,bus,14,1,1,1,1,1,0,0
632,5603,10341,bus,14,1,1,1,1,1,0,0
664,5604,10404,bus,14,1,1,1,1,1,0,0
703,5605,10341,bus,14,1,1,1,1,1,0,0
736,5606,10404,bus,14,1,1,1,1,1,0,0
774,5607,10341,bus,14,1,1,1,1,1,0,0
808,5608,10404,bus,14,1,1,1,1,1,0,0
854,5609,10341,bus,14,1,1,1,1,1,0,0
888,5610,10404,bus,14,1,1,1,1,1,0,0
933,5611,10341,bus,14,1,1,1,1,1,0,0
981,5612,10404,bus,14,1,1,1,1,1,0,0
1004,5613,10341,bus,14,1,1,1,1,1,0,0
1075,5614,10341,bus,14,1,1,1,1,1,0,0
1171,5615,10341,bus,14,1,1,1,1,1,0,0
1242,5616,10341,bus,14,1,1,1,1,1,0,0
424,5617,10342,bus,14,0,0,0,0,0,1,1
495,5618,10342,bus,14,0,0,0,0,0,1,1
591,5619,10342,bus,14,0,0,0,0,0,1,1
662,5620,10342,bus,14,0,0,0,0,0,1,1
733,5621,10342,bus,14,0,0,0,0,0,1,1
809,5622,10342,bus,14,0,0,0,0,0,1,1
880,5623,10342,bus,14,0,0,0,0,0,1,1
951,5624,10342,bus,14,0,0,0,0,0,1,1
1022,5625,10342,bus,14,0,0,0,0,0,1,1
1131,5626,10342,bus,14,0,0,0,0,0,1,1
1202,5627,10342,bus,14,0,0,0,0,0,1,1
327,5628,10341,bus,14,1,1,1,1,1,0,0
394,5629,10341,bus,14,1,1,1,1,1,0,0
434,5630,10404,bus,14,1,1,1,1,1,0,0
466,5631,10341,bus,14,1,1,1,1,1,0,0
501,5632,10404,bus,14,1,1,1,1,1,0,0
562,5633,10341,bus,14,1,1,1,1,1,0,0
596,5634,10404,bus,14,1,1,1,1,1,0,0
633,5635,10341,bus,14,1,1,1,1,1,0,0
665,5636,10404,bus,14,1,1,1,1,1,0,0
704,5637,10341,bus,14,1,1,1,1,1,0,0
737,5638,10404,bus,14,1,1,1,1,1,0,0
775,5639,10341,bus,14,1,1,1,1,1,0,0
809,5640,10404,bus,14,1,1,1,1,1,0,0
855,5641,10341,bus,14,1,1,1,1,1,0,0
889,5642,10404,bus,14,1,1,1,1,1,0,0
934,5643,10341,bus,14,1,1,1,1,1,0,0
982,5644,10404,bus,14,1,1,1,1,1,0,0
1005,5645,10341,bus,14,1,1,1,1,1,0,0
1076,5646,10341,bus,14,1,1,1,1,1,0,0
1172,5647,10341,bus,14,1,1,1,1,1,0,0
425,5648,10342,bus,14,0,0,0,0,0,1,1
496,5649,10342,bus,14,0,0,0,0,0,1,1
592,5650,10342,bus,14,0,0,0,0,0,1,1
663,5651,10342,bus,14,0,0,0,0,0,1,1
734,5652,10342,bus,14,0,0,0,0,0,1,1
810,5653,10342,bus,14,0,0,0,0,0,1,1
881,5654,10342,bus,14,0,0,0,0,0,1,1
952,5655,10342,bus,14,0,0,0,0,0,1,1
1023,5656,10342,bus,14,0,0,0,0,0,1,1
1132,5657,10342,bus,14,0,0,0,0,0,1,1
1203,5658,10342,bus,14,0,0,0,0,0,1,1
1243,5660,10341,bus,14,1,1,1,1,1,0,0
326,5662,10341,bus,14,1,1,1,1,1,0,0
346,7743,10604,bus,27,1,1,1,1,1,0,0
386,7744,10604,bus,27,1,1,1,1,1,0,0
405,7745,10604,bus,27,1,1,1,1,1,0,0
422,7746,10604,bus,27,1,1,1,1,1,0,0
463,7747,10604,bus,27,1,1,1,1,1,0,0
482,7748,10604,bus,27,1,1,1,1,1,0,0
502,7749,10604,bus,27,1,1,1,1,1,0,0
540,7750,10604,bus,27,1,1,1,1,1,0,0
558,7751,10604,bus,27,1,1,1,1,1,0,0
584,7752,10604,bus,27,1,1,1,1,1,0,0
636,7753,10604,bus,27,1,1,1,1,1,0,0
670,7754,10604,bus,27,1,1,1,1,1,0,0
712,7755,10604,bus,27,1,1,1,1,1,0,0
747,7756,10604,bus,27,1,1,1,1,1,0,0
788,7757,10604,bus,27,1,1,1,1,1,0,0
824,7758,10604,bus,27,1,1,1,1,1,0,0
864,7759,10604,bus,27,1,1,1,1,1,0,0
901,7760,10604,bus,27,1,1,1,1,1,0,0
941,7761,10604,bus,27,1,1,1,1,1,0,0
978,7762,10604,bus,27,1,1,1,1,1,0,0
1006,7763,10604,bus,27,1,1,1,1,1,0,0
1037,7764,10604,bus,27,1,1,1,1,1,0,0
1062,7765,10604,bus,27,1,1,1,1,1,0,0
1089,7766,10604,bus,27,1,1,1,1,1,0,0
1120,7767,10604,bus,27,1,1,1,1,1,0,0
1142,7768,10604,bus,27,1,1,1,1,1,0,0
1220,7769,10604,bus,27,1,1,1,1,1,0,0
1244,7770,10604,bus,27,1,1,1,1,1,0,0
1294,7771,10604,bus,27,1,1,1,1,1,0,0
1324,7772,10604,bus,27,1,1,1,1,1,0,0
1368,7773,10604,bus,27,1,1,1,1,1,0,0
1400,7774,10604,bus,27,1,1,1,1,1,0,0
405,7775,10605,bus,27,0,0,0,0,0,1,0
502,7776,10605,bus,27,0,0,0,0,0,1,0
578,7777,10605,bus,27,0,0,0,0,0,1,0
674,7778,10605,bus,27,0,0,0,0,0,1,0
750,7779,10605,bus,27,0,0,0,0,0,1,0
826,7780,10605,bus,27,0,0,0,0,0,1,0
902,7781,10605,bus,27,0,0,0,0,0,1,0
978,7782,10605,bus,27,0,0,0,0,0,1,0
1052,7783,10605,bus,27,0,0,0,0,0,1,0
1126,7784,10605,bus,27,0,0,0,0,0,1,0
1221,7785,10605,bus,27,0,0,0,0,0,1,0
1315,7786,10605,bus,27,0,0,0,0,0,1,0
1391,7787,10605,bus,27,0,0,0,0,0,1,0
405,7788,10606,bus,27,0,0,0,0,0,0,1
502,7789,10606,bus,27,0,0,0,0,0,0,1
578,7790,10606,bus,27,0,0,0,0,0,0,1
674,7791,10606,bus,27,0,0,0,0,0,0,1
750,7792,10606,bus,27,0,0,0,0,0,0,1
826,7793,10606,bus,27,0,0,0,0,0,0,1
902,7794,10606,bus,27,0,0,0,0,0,0,1
978,7795,10606,bus,27,0,0,0,0,0,0,1
1052,7796,10606,bus,27,0,0,0,0,0,0,1
1126,7797,10606,bus,27,0,0,0,0,0,0,1
1221,7798,10606,bus,27,0,0,0,0,0,0,1
1315,7799,10606,bus,27,0,0,0,0,0,0,1
1391,7800,10606,bus,27,0,0,0,0,0,0,1
320,7801,10604,bus,27,1,1,1,1,1,0,0
347,7802,10604,bus,27,1,1,1,1,1,0,0
387,7803,10604,bus,27,1,1,1,1,1,0,0
406,7804,10604,bus,27,1,1,1,1,1,0,0
423,7805,10604,bus,27,1,1,1,1,1,0,0
464,7806,10604,bus,27,1,1,1,1,1,0,0
483,7807,10604,bus,27,1,1,1,1,1,0,0
503,7808,10604,bus,27,1,1,1,1,1,0,0
541,7809,10604,bus,27,1,1,1,1,1,0,0
559,7810,10604,bus,27,1,1,1,1,1,0,0
637,7811,10604,bus,27,1,1,1,1,1,0,0
671,7812,10604,bus,27,1,1,1,1,1,0,0
713,7813,10604,bus,27,1,1,1,1,1,0,0
748,7814,10604,bus,27,1,1,1,1,1,0,0
789,7815,10604,bus,27,1,1,1,1,1,0,0
825,7816,10604,bus,27,1,1,1,1,1,0,0
865,7817,10604,bus,27,1,1,1,1,1,0,0
902,7818,10604,bus,27,1,1,1,1,1,0,0
939,7819,10604,bus,27,1,1,1,1,1,0,0
942,7820,10604,bus,27,1,1,1,1,1,0,0
979,7821,10604,bus,27,1,1,1,1,1,0,0
1007,7822,10604,bus,27,1,1,1,1,1,0,0
1038,7823,10604,bus,27,1,1,1,1,1,0,0
1063,7824,10604,bus,27,1,1,1,1,1,0,0
1121,7825,10604,bus,27,1,1,1,1,1,0,0
1143,7826,10604,bus,27,1,1,1,1,1,0,0
1221,7827,10604,bus,27,1,1,1,1,1,0,0
1245,7828,10604,bus,27,1,1,1,1,1,0,0
1295,7829,10604,bus,27,1,1,1,1,1,0,0
1325,7830,10604,bus,27,1,1,1,1,1,0,0
338,7831,10605,bus,27,0,0,0,0,0,1,0
406,7832,10605,bus,27,0,0,0,0,0,1,0
503,7833,10605,bus,27,0,0,0,0,0,1,0
579,7834,10605,bus,27,0,0,0,0,0,1,0
675,7835,10605,bus,27,0,0,0,0,0,1,0
751,7836,10605,bus,27,0,0,0,0,0,1,0
827,7837,10605,bus,27,0,0,0,0,0,1,0
903,7838,10605,bus,27,0,0,0,0,0,1,0
979,7839,10605,bus,27,0,0,0,0,0,1,0
1053,7840,10605,bus,27,0,0,0,0,0,1,0
1127,7841,10605,bus,27,0,0,0,0,0,1,0
1222,7842,10605,bus,27,0,0,0,0,0,1,0
1316,7843,10605,bus,27,0,0,0,0,0,1,0
406,7844,10606,bus,27,0,0,0,0,0,0,1
503,7845,10606,bus,27,0,0,0,0,0,0,1
579,7846,10606,bus,27,0,0,0,0,0,0,1
675,7847,10606,bus,27,0,0,0,0,0,0,1
751,7848,10606,bus,27,0,0,0,0,0,0,1
827,7849,10606,bus,27,0,0,0,0,0,0,1
903,7850,10606,bus,27,0,0,0,0,0,0,1
979,7851,10606,bus,27,0,0,0,0,0,0,1
1053,7852,10606,bus,27,0,0,0,0,0,0,1
1127,7853,10606,bus,27,0,0,0,0,0,0,1
1222,7854,10606,bus,27,0,0,0,0,0,0,1
1316,7855,10606,bus,27,0,0,0,0,0,0,1
1090,7856,10604,bus,27,1,1,1,1,1,0,0
1369,7857,10604,bus,27,1,1,1,1,1,0,0
1401,7858,10604,bus,27,1,1,1,1,1,0,0
1392,7859,10605,bus,27,0,0,0,0,0,1,0
1392,7860,10606,bus,27,0,0,0,0,0,0,1
320,7869,10604,bus,27,1,1,1,1,1,0,0
337,7870,10605,bus,27,0,0,0,0,0,1,0
434,14805,10404,bus,74,1,1,1,1,1,0,0
