timeInMin,trip_id,service_id,tipas,numeris,pirmadienis,antradienis,treciadienis,ketvirtadienis,penktadienis,sestadienis,sekmadienis 
365,4710,10340,bus,10,0,0,0,0,0,0,1
387,4711,10340,bus,10,0,0,0,0,0,0,1
408,4712,10340,bus,10,0,0,0,0,0,0,1
430,4713,10340,bus,10,0,0,0,0,0,0,1
457,4714,10340,bus,10,0,0,0,0,0,0,1
479,4715,10340,bus,10,0,0,0,0,0,0,1
501,4716,10340,bus,10,0,0,0,0,0,0,1
521,4717,10340,bus,10,0,0,0,0,0,0,1
540,4718,10340,bus,10,0,0,0,0,0,0,1
556,4719,10340,bus,10,0,0,0,0,0,0,1
567,4720,10340,bus,10,0,0,0,0,0,0,1
580,4721,10340,bus,10,0,0,0,0,0,0,1
603,4722,10340,bus,10,0,0,0,0,0,0,1
613,4723,10340,bus,10,0,0,0,0,0,0,1
626,4724,10340,bus,10,0,0,0,0,0,0,1
640,4725,10340,bus,10,0,0,0,0,0,0,1
656,4726,10340,bus,10,0,0,0,0,0,0,1
665,4727,10340,bus,10,0,0,0,0,0,0,1
675,4728,10340,bus,10,0,0,0,0,0,0,1
697,4729,10340,bus,10,0,0,0,0,0,0,1
716,4730,10340,bus,10,0,0,0,0,0,0,1
731,4731,10340,bus,10,0,0,0,0,0,0,1
747,4732,10340,bus,10,0,0,0,0,0,0,1
760,4733,10340,bus,10,0,0,0,0,0,0,1
772,4734,10340,bus,10,0,0,0,0,0,0,1
784,4735,10340,bus,10,0,0,0,0,0,0,1
794,4736,10340,bus,10,0,0,0,0,0,0,1
814,4737,10340,bus,10,0,0,0,0,0,0,1
837,4738,10340,bus,10,0,0,0,0,0,0,1
851,4739,10340,bus,10,0,0,0,0,0,0,1
866,4740,10340,bus,10,0,0,0,0,0,0,1
880,4741,10340,bus,10,0,0,0,0,0,0,1
893,4742,10340,bus,10,0,0,0,0,0,0,1
904,4743,10340,bus,10,0,0,0,0,0,0,1
914,4744,10340,bus,10,0,0,0,0,0,0,1
933,4745,10340,bus,10,0,0,0,0,0,0,1
942,4746,10340,bus,10,0,0,0,0,0,0,1
958,4747,10340,bus,10,0,0,0,0,0,0,1
971,4748,10340,bus,10,0,0,0,0,0,0,1
986,4749,10340,bus,10,0,0,0,0,0,0,1
997,4750,10340,bus,10,0,0,0,0,0,0,1
1008,4751,10340,bus,10,0,0,0,0,0,0,1
1034,4752,10340,bus,10,0,0,0,0,0,0,1
1056,4753,10340,bus,10,0,0,0,0,0,0,1
1086,4754,10340,bus,10,0,0,0,0,0,0,1
1123,4755,10340,bus,10,0,0,0,0,0,0,1
1153,4756,10340,bus,10,0,0,0,0,0,0,1
1178,4757,10340,bus,10,0,0,0,0,0,0,1
1206,4758,10340,bus,10,0,0,0,0,0,0,1
1238,4759,10340,bus,10,0,0,0,0,0,0,1
1266,4760,10340,bus,10,0,0,0,0,0,0,1
1290,4761,10340,bus,10,0,0,0,0,0,0,1
1303,4762,10340,bus,10,0,0,0,0,0,0,1
1329,4763,10340,bus,10,0,0,0,0,0,0,1
1353,4764,10340,bus,10,0,0,0,0,0,0,1
1377,4765,10340,bus,10,0,0,0,0,0,0,1
1402,4766,10340,bus,10,0,0,0,0,0,0,1
332,4767,10338,bus,10,1,1,1,1,1,0,0
348,4768,10338,bus,10,1,1,1,1,1,0,0
364,4769,10338,bus,10,1,1,1,1,1,0,0
381,4770,10338,bus,10,1,1,1,1,1,0,0
393,4771,10338,bus,10,1,1,1,1,1,0,0
405,4772,10338,bus,10,1,1,1,1,1,0,0
416,4773,10338,bus,10,1,1,1,1,1,0,0
426,4774,10338,bus,10,1,1,1,1,1,0,0
434,4775,10338,bus,10,1,1,1,1,1,0,0
444,4776,10338,bus,10,1,1,1,1,1,0,0
458,4777,10338,bus,10,1,1,1,1,1,0,0
468,4778,10338,bus,10,1,1,1,1,1,0,0
478,4779,10338,bus,10,1,1,1,1,1,0,0
490,4780,10338,bus,10,1,1,1,1,1,0,0
502,4781,10338,bus,10,1,1,1,1,1,0,0
515,4782,10338,bus,10,1,1,1,1,1,0,0
526,4783,10338,bus,10,1,1,1,1,1,0,0
538,4784,10338,bus,10,1,1,1,1,1,0,0
552,4785,10338,bus,10,1,1,1,1,1,0,0
566,4786,10338,bus,10,1,1,1,1,1,0,0
581,4787,10338,bus,10,1,1,1,1,1,0,0
595,4788,10338,bus,10,1,1,1,1,1,0,0
609,4789,10338,bus,10,1,1,1,1,1,0,0
625,4790,10338,bus,10,1,1,1,1,1,0,0
639,4791,10338,bus,10,1,1,1,1,1,0,0
654,4792,10338,bus,10,1,1,1,1,1,0,0
672,4793,10338,bus,10,1,1,1,1,1,0,0
692,4794,10338,bus,10,1,1,1,1,1,0,0
712,4795,10338,bus,10,1,1,1,1,1,0,0
730,4796,10338,bus,10,1,1,1,1,1,0,0
746,4797,10338,bus,10,1,1,1,1,1,0,0
763,4798,10338,bus,10,1,1,1,1,1,0,0
780,4799,10338,bus,10,1,1,1,1,1,0,0
798,4800,10338,bus,10,1,1,1,1,1,0,0
816,4801,10338,bus,10,1,1,1,1,1,0,0
832,4802,10338,bus,10,1,1,1,1,1,0,0
850,4803,10338,bus,10,1,1,1,1,1,0,0
870,4804,10338,bus,10,1,1,1,1,1,0,0
889,4805,10338,bus,10,1,1,1,1,1,0,0
907,4806,10338,bus,10,1,1,1,1,1,0,0
917,4807,10338,bus,10,1,1,1,1,1,0,0
926,4808,10338,bus,10,1,1,1,1,1,0,0
935,4809,10338,bus,10,1,1,1,1,1,0,0
945,4810,10338,bus,10,1,1,1,1,1,0,0
955,4811,10338,bus,10,1,1,1,1,1,0,0
966,4812,10338,bus,10,1,1,1,1,1,0,0
979,4813,10338,bus,10,1,1,1,1,1,0,0
992,4814,10338,bus,10,1,1,1,1,1,0,0
1005,4815,10338,bus,10,1,1,1,1,1,0,0
1018,4816,10338,bus,10,1,1,1,1,1,0,0
1029,4817,10338,bus,10,1,1,1,1,1,0,0
1039,4818,10338,bus,10,1,1,1,1,1,0,0
1048,4819,10338,bus,10,1,1,1,1,1,0,0
1057,4820,10338,bus,10,1,1,1,1,1,0,0
1068,4821,10338,bus,10,1,1,1,1,1,0,0
1081,4822,10338,bus,10,1,1,1,1,1,0,0
1092,4823,10338,bus,10,1,1,1,1,1,0,0
1112,4824,10338,bus,10,1,1,1,1,1,0,0
1138,4825,10338,bus,10,1,1,1,1,1,0,0
1157,4826,10338,bus,10,1,1,1,1,1,0,0
1174,4827,10338,bus,10,1,1,1,1,1,0,0
1192,4828,10338,bus,10,1,1,1,1,1,0,0
1209,4829,10338,bus,10,1,1,1,1,1,0,0
1225,4830,10338,bus,10,1,1,1,1,1,0,0
1240,4831,10338,bus,10,1,1,1,1,1,0,0
1255,4832,10338,bus,10,1,1,1,1,1,0,0
1271,4833,10338,bus,10,1,1,1,1,1,0,0
1288,4834,10338,bus,10,1,1,1,1,1,0,0
1305,4835,10338,bus,10,1,1,1,1,1,0,0
1320,4836,10338,bus,10,1,1,1,1,1,0,0
1337,4837,10338,bus,10,1,1,1,1,1,0,0
1353,4838,10338,bus,10,1,1,1,1,1,0,0
1375,4839,10338,bus,10,1,1,1,1,1,0,0
1396,4840,10338,bus,10,1,1,1,1,1,0,0
320,4841,10339,bus,10,0,0,0,0,0,1,0
341,4842,10339,bus,10,0,0,0,0,0,1,0
365,4843,10339,bus,10,0,0,0,0,0,1,0
387,4844,10339,bus,10,0,0,0,0,0,1,0
408,4845,10339,bus,10,0,0,0,0,0,1,0
430,4846,10339,bus,10,0,0,0,0,0,1,0
457,4847,10339,bus,10,0,0,0,0,0,1,0
479,4848,10339,bus,10,0,0,0,0,0,1,0
501,4849,10339,bus,10,0,0,0,0,0,1,0
521,4850,10339,bus,10,0,0,0,0,0,1,0
540,4851,10339,bus,10,0,0,0,0,0,1,0
556,4852,10339,bus,10,0,0,0,0,0,1,0
567,4853,10339,bus,10,0,0,0,0,0,1,0
580,4854,10339,bus,10,0,0,0,0,0,1,0
603,4855,10339,bus,10,0,0,0,0,0,1,0
613,4856,10339,bus,10,0,0,0,0,0,1,0
626,4857,10339,bus,10,0,0,0,0,0,1,0
640,4858,10339,bus,10,0,0,0,0,0,1,0
656,4859,10339,bus,10,0,0,0,0,0,1,0
665,4860,10339,bus,10,0,0,0,0,0,1,0
675,4861,10339,bus,10,0,0,0,0,0,1,0
697,4862,10339,bus,10,0,0,0,0,0,1,0
716,4863,10339,bus,10,0,0,0,0,0,1,0
731,4864,10339,bus,10,0,0,0,0,0,1,0
747,4865,10339,bus,10,0,0,0,0,0,1,0
760,4866,10339,bus,10,0,0,0,0,0,1,0
772,4867,10339,bus,10,0,0,0,0,0,1,0
784,4868,10339,bus,10,0,0,0,0,0,1,0
794,4869,10339,bus,10,0,0,0,0,0,1,0
814,4870,10339,bus,10,0,0,0,0,0,1,0
837,4871,10339,bus,10,0,0,0,0,0,1,0
851,4872,10339,bus,10,0,0,0,0,0,1,0
866,4873,10339,bus,10,0,0,0,0,0,1,0
880,4874,10339,bus,10,0,0,0,0,0,1,0
893,4875,10339,bus,10,0,0,0,0,0,1,0
904,4876,10339,bus,10,0,0,0,0,0,1,0
914,4877,10339,bus,10,0,0,0,0,0,1,0
933,4878,10339,bus,10,0,0,0,0,0,1,0
942,4879,10339,bus,10,0,0,0,0,0,1,0
958,4880,10339,bus,10,0,0,0,0,0,1,0
971,4881,10339,bus,10,0,0,0,0,0,1,0
986,4882,10339,bus,10,0,0,0,0,0,1,0
997,4883,10339,bus,10,0,0,0,0,0,1,0
1008,4884,10339,bus,10,0,0,0,0,0,1,0
1034,4885,10339,bus,10,0,0,0,0,0,1,0
1056,4886,10339,bus,10,0,0,0,0,0,1,0
1086,4887,10339,bus,10,0,0,0,0,0,1,0
1123,4888,10339,bus,10,0,0,0,0,0,1,0
1153,4889,10339,bus,10,0,0,0,0,0,1,0
1178,4890,10339,bus,10,0,0,0,0,0,1,0
1206,4891,10339,bus,10,0,0,0,0,0,1,0
1238,4892,10339,bus,10,0,0,0,0,0,1,0
1266,4893,10339,bus,10,0,0,0,0,0,1,0
1290,4894,10339,bus,10,0,0,0,0,0,1,0
1303,4895,10339,bus,10,0,0,0,0,0,1,0
1329,4896,10339,bus,10,0,0,0,0,0,1,0
1353,4897,10339,bus,10,0,0,0,0,0,1,0
1377,4898,10339,bus,10,0,0,0,0,0,1,0
1402,4899,10339,bus,10,0,0,0,0,0,1,0
1030,5089,10340,bus,10,0,0,0,0,0,0,1
1060,5090,10340,bus,10,0,0,0,0,0,0,1
1084,5091,10340,bus,10,0,0,0,0,0,0,1
1435,5092,10340,bus,10,0,0,0,0,0,0,1
1133,5093,10338,bus,10,1,1,1,1,1,0,0
1151,5094,10338,bus,10,1,1,1,1,1,0,0
1169,5095,10338,bus,10,1,1,1,1,1,0,0
1213,5096,10338,bus,10,1,1,1,1,1,0,0
1380,5097,10338,bus,10,1,1,1,1,1,0,0
1410,5098,10338,bus,10,1,1,1,1,1,0,0
1428,5099,10338,bus,10,1,1,1,1,1,0,0
1030,5100,10339,bus,10,0,0,0,0,0,1,0
1060,5101,10339,bus,10,0,0,0,0,0,1,0
1084,5102,10339,bus,10,0,0,0,0,0,1,0
1435,5103,10339,bus,10,0,0,0,0,0,1,0
326,7679,10357,bus,26,1,1,1,1,1,0,0
380,7680,10357,bus,26,1,1,1,1,1,0,0
434,7681,10357,bus,26,1,1,1,1,1,0,0
487,7682,10357,bus,26,1,1,1,1,1,0,0
553,7683,10357,bus,26,1,1,1,1,1,0,0
637,7684,10357,bus,26,1,1,1,1,1,0,0
686,7685,10357,bus,26,1,1,1,1,1,0,0
740,7686,10357,bus,26,1,1,1,1,1,0,0
801,7687,10357,bus,26,1,1,1,1,1,0,0
862,7688,10357,bus,26,1,1,1,1,1,0,0
916,7689,10357,bus,26,1,1,1,1,1,0,0
973,7690,10357,bus,26,1,1,1,1,1,0,0
1026,7691,10357,bus,26,1,1,1,1,1,0,0
1084,7692,10357,bus,26,1,1,1,1,1,0,0
1159,7693,10357,bus,26,1,1,1,1,1,0,0
1209,7694,10357,bus,26,1,1,1,1,1,0,0
1266,7695,10357,bus,26,1,1,1,1,1,0,0
1312,7696,10357,bus,26,1,1,1,1,1,0,0
1364,7697,10357,bus,26,1,1,1,1,1,0,0
321,7698,10358,bus,26,0,0,0,0,0,1,0
371,7699,10358,bus,26,0,0,0,0,0,1,0
423,7700,10358,bus,26,0,0,0,0,0,1,0
481,7701,10358,bus,26,0,0,0,0,0,1,0
543,7702,10358,bus,26,0,0,0,0,0,1,0
625,7703,10358,bus,26,0,0,0,0,0,1,0
674,7704,10358,bus,26,0,0,0,0,0,1,0
729,7705,10358,bus,26,0,0,0,0,0,1,0
781,7706,10358,bus,26,0,0,0,0,0,1,0
828,7707,10358,bus,26,0,0,0,0,0,1,0
884,7708,10358,bus,26,0,0,0,0,0,1,0
940,7709,10358,bus,26,0,0,0,0,0,1,0
995,7710,10358,bus,26,0,0,0,0,0,1,0
1050,7711,10358,bus,26,0,0,0,0,0,1,0
1134,7712,10358,bus,26,0,0,0,0,0,1,0
1190,7713,10358,bus,26,0,0,0,0,0,1,0
1238,7714,10358,bus,26,0,0,0,0,0,1,0
1289,7715,10358,bus,26,0,0,0,0,0,1,0
1339,7716,10358,bus,26,0,0,0,0,0,1,0
1385,7717,10358,bus,26,0,0,0,0,0,1,0
371,7718,10359,bus,26,0,0,0,0,0,0,1
423,7719,10359,bus,26,0,0,0,0,0,0,1
481,7720,10359,bus,26,0,0,0,0,0,0,1
543,7721,10359,bus,26,0,0,0,0,0,0,1
625,7722,10359,bus,26,0,0,0,0,0,0,1
674,7723,10359,bus,26,0,0,0,0,0,0,1
729,7724,10359,bus,26,0,0,0,0,0,0,1
781,7725,10359,bus,26,0,0,0,0,0,0,1
828,7726,10359,bus,26,0,0,0,0,0,0,1
884,7727,10359,bus,26,0,0,0,0,0,0,1
940,7728,10359,bus,26,0,0,0,0,0,0,1
995,7729,10359,bus,26,0,0,0,0,0,0,1
1050,7730,10359,bus,26,0,0,0,0,0,0,1
1134,7731,10359,bus,26,0,0,0,0,0,0,1
1190,7732,10359,bus,26,0,0,0,0,0,0,1
1238,7733,10359,bus,26,0,0,0,0,0,0,1
1289,7734,10359,bus,26,0,0,0,0,0,0,1
1339,7735,10359,bus,26,0,0,0,0,0,0,1
1385,7736,10359,bus,26,0,0,0,0,0,0,1
314,9250,10370,bus,34,1,1,1,1,1,0,0
342,9251,10370,bus,34,1,1,1,1,1,0,0
376,9252,10370,bus,34,1,1,1,1,1,0,0
400,9253,10370,bus,34,1,1,1,1,1,0,0
426,9254,10370,bus,34,1,1,1,1,1,0,0
451,9255,10370,bus,34,1,1,1,1,1,0,0
472,9256,10370,bus,34,1,1,1,1,1,0,0
494,9257,10370,bus,34,1,1,1,1,1,0,0
516,9258,10370,bus,34,1,1,1,1,1,0,0
543,9259,10370,bus,34,1,1,1,1,1,0,0
568,9260,10370,bus,34,1,1,1,1,1,0,0
588,9261,10370,bus,34,1,1,1,1,1,0,0
607,9262,10370,bus,34,1,1,1,1,1,0,0
629,9263,10370,bus,34,1,1,1,1,1,0,0
679,9264,10370,bus,34,1,1,1,1,1,0,0
715,9265,10370,bus,34,1,1,1,1,1,0,0
753,9266,10370,bus,34,1,1,1,1,1,0,0
789,9267,10370,bus,34,1,1,1,1,1,0,0
823,9268,10370,bus,34,1,1,1,1,1,0,0
867,9269,10370,bus,34,1,1,1,1,1,0,0
905,9270,10370,bus,34,1,1,1,1,1,0,0
941,9271,10370,bus,34,1,1,1,1,1,0,0
962,9272,10370,bus,34,1,1,1,1,1,0,0
985,9273,10370,bus,34,1,1,1,1,1,0,0
1008,9274,10370,bus,34,1,1,1,1,1,0,0
1031,9275,10370,bus,34,1,1,1,1,1,0,0
1056,9276,10370,bus,34,1,1,1,1,1,0,0
1080,9277,10370,bus,34,1,1,1,1,1,0,0
1106,9278,10370,bus,34,1,1,1,1,1,0,0
1129,9279,10370,bus,34,1,1,1,1,1,0,0
1173,9280,10370,bus,34,1,1,1,1,1,0,0
1201,9281,10370,bus,34,1,1,1,1,1,0,0
1245,9282,10370,bus,34,1,1,1,1,1,0,0
1282,9283,10370,bus,34,1,1,1,1,1,0,0
1314,9284,10370,bus,34,1,1,1,1,1,0,0
1352,9285,10370,bus,34,1,1,1,1,1,0,0
389,9286,10372,bus,34,0,0,0,0,0,0,1
422,9287,10372,bus,34,0,0,0,0,0,0,1
457,9288,10372,bus,34,0,0,0,0,0,0,1
487,9289,10372,bus,34,0,0,0,0,0,0,1
518,9290,10372,bus,34,0,0,0,0,0,0,1
553,9291,10372,bus,34,0,0,0,0,0,0,1
578,9292,10372,bus,34,0,0,0,0,0,0,1
611,9293,10372,bus,34,0,0,0,0,0,0,1
647,9294,10372,bus,34,0,0,0,0,0,0,1
675,9295,10372,bus,34,0,0,0,0,0,0,1
696,9296,10372,bus,34,0,0,0,0,0,0,1
736,9297,10372,bus,34,0,0,0,0,0,0,1
774,9298,10372,bus,34,0,0,0,0,0,0,1
800,9299,10372,bus,34,0,0,0,0,0,0,1
823,9300,10372,bus,34,0,0,0,0,0,0,1
851,9301,10372,bus,34,0,0,0,0,0,0,1
877,9302,10372,bus,34,0,0,0,0,0,0,1
926,9303,10372,bus,34,0,0,0,0,0,0,1
942,9304,10372,bus,34,0,0,0,0,0,0,1
959,9305,10372,bus,34,0,0,0,0,0,0,1
982,9306,10372,bus,34,0,0,0,0,0,0,1
1024,9307,10372,bus,34,0,0,0,0,0,0,1
1041,9308,10372,bus,34,0,0,0,0,0,0,1
1064,9309,10372,bus,34,0,0,0,0,0,0,1
1108,9310,10372,bus,34,0,0,0,0,0,0,1
1149,9311,10372,bus,34,0,0,0,0,0,0,1
1192,9312,10372,bus,34,0,0,0,0,0,0,1
1234,9313,10372,bus,34,0,0,0,0,0,0,1
1273,9314,10372,bus,34,0,0,0,0,0,0,1
1297,9315,10372,bus,34,0,0,0,0,0,0,1
1338,9316,10372,bus,34,0,0,0,0,0,0,1
1381,9317,10372,bus,34,0,0,0,0,0,0,1
327,9318,10371,bus,34,0,0,0,0,0,1,0
389,9319,10371,bus,34,0,0,0,0,0,1,0
422,9320,10371,bus,34,0,0,0,0,0,1,0
457,9321,10371,bus,34,0,0,0,0,0,1,0
487,9322,10371,bus,34,0,0,0,0,0,1,0
518,9323,10371,bus,34,0,0,0,0,0,1,0
553,9324,10371,bus,34,0,0,0,0,0,1,0
578,9325,10371,bus,34,0,0,0,0,0,1,0
611,9326,10371,bus,34,0,0,0,0,0,1,0
647,9327,10371,bus,34,0,0,0,0,0,1,0
675,9328,10371,bus,34,0,0,0,0,0,1,0
696,9329,10371,bus,34,0,0,0,0,0,1,0
736,9330,10371,bus,34,0,0,0,0,0,1,0
774,9331,10371,bus,34,0,0,0,0,0,1,0
800,9332,10371,bus,34,0,0,0,0,0,1,0
823,9333,10371,bus,34,0,0,0,0,0,1,0
851,9334,10371,bus,34,0,0,0,0,0,1,0
877,9335,10371,bus,34,0,0,0,0,0,1,0
926,9336,10371,bus,34,0,0,0,0,0,1,0
942,9337,10371,bus,34,0,0,0,0,0,1,0
959,9338,10371,bus,34,0,0,0,0,0,1,0
982,9339,10371,bus,34,0,0,0,0,0,1,0
1024,9340,10371,bus,34,0,0,0,0,0,1,0
1041,9341,10371,bus,34,0,0,0,0,0,1,0
1064,9342,10371,bus,34,0,0,0,0,0,1,0
1108,9343,10371,bus,34,0,0,0,0,0,1,0
1149,9344,10371,bus,34,0,0,0,0,0,1,0
1192,9345,10371,bus,34,0,0,0,0,0,1,0
1234,9346,10371,bus,34,0,0,0,0,0,1,0
1273,9347,10371,bus,34,0,0,0,0,0,1,0
1297,9348,10371,bus,34,0,0,0,0,0,1,0
1338,9349,10371,bus,34,0,0,0,0,0,1,0
1381,9350,10371,bus,34,0,0,0,0,0,1,0
1385,9359,10372,bus,34,0,0,0,0,0,0,1
1424,9360,10372,bus,34,0,0,0,0,0,0,1
1384,9361,10370,bus,34,1,1,1,1,1,0,0
1425,9362,10370,bus,34,1,1,1,1,1,0,0
1385,9363,10371,bus,34,0,0,0,0,0,1,0
1424,9364,10371,bus,34,0,0,0,0,0,1,0
361,11623,10387,bus,49,1,1,1,1,1,0,0
384,11624,10387,bus,49,1,1,1,1,1,0,0
404,11625,10387,bus,49,1,1,1,1,1,0,0
424,11626,10387,bus,49,1,1,1,1,1,0,0
445,11627,10387,bus,49,1,1,1,1,1,0,0
466,11628,10387,bus,49,1,1,1,1,1,0,0
490,11629,10387,bus,49,1,1,1,1,1,0,0
527,11630,10387,bus,49,1,1,1,1,1,0,0
550,11631,10387,bus,49,1,1,1,1,1,0,0
583,11632,10387,bus,49,1,1,1,1,1,0,0
632,11633,10387,bus,49,1,1,1,1,1,0,0
665,11634,10387,bus,49,1,1,1,1,1,0,0
691,11635,10387,bus,49,1,1,1,1,1,0,0
724,11636,10387,bus,49,1,1,1,1,1,0,0
749,11637,10387,bus,49,1,1,1,1,1,0,0
782,11638,10387,bus,49,1,1,1,1,1,0,0
812,11639,10387,bus,49,1,1,1,1,1,0,0
839,11640,10387,bus,49,1,1,1,1,1,0,0
868,11641,10387,bus,49,1,1,1,1,1,0,0
892,11642,10387,bus,49,1,1,1,1,1,0,0
908,11643,10387,bus,49,1,1,1,1,1,0,0
931,11644,10387,bus,49,1,1,1,1,1,0,0
953,11645,10387,bus,49,1,1,1,1,1,0,0
969,11646,10387,bus,49,1,1,1,1,1,0,0
993,11647,10387,bus,49,1,1,1,1,1,0,0
1020,11648,10387,bus,49,1,1,1,1,1,0,0
1053,11649,10387,bus,49,1,1,1,1,1,0,0
1075,11650,10387,bus,49,1,1,1,1,1,0,0
1089,11651,10387,bus,49,1,1,1,1,1,0,0
1116,11652,10387,bus,49,1,1,1,1,1,0,0
1143,11653,10387,bus,49,1,1,1,1,1,0,0
1174,11654,10387,bus,49,1,1,1,1,1,0,0
1215,11655,10387,bus,49,1,1,1,1,1,0,0
1232,11656,10387,bus,49,1,1,1,1,1,0,0
1256,11657,10387,bus,49,1,1,1,1,1,0,0
1287,11658,10387,bus,49,1,1,1,1,1,0,0
1323,11659,10387,bus,49,1,1,1,1,1,0,0
1347,11660,10387,bus,49,1,1,1,1,1,0,0
336,11661,9637,bus,49,0,0,0,0,0,1,0
390,11662,9637,bus,49,0,0,0,0,0,1,0
441,11663,9637,bus,49,0,0,0,0,0,1,0
502,11664,9637,bus,49,0,0,0,0,0,1,0
540,11665,9637,bus,49,0,0,0,0,0,1,0
575,11666,9637,bus,49,0,0,0,0,0,1,0
638,11667,9637,bus,49,0,0,0,0,0,1,0
662,11668,9637,bus,49,0,0,0,0,0,1,0
697,11669,9637,bus,49,0,0,0,0,0,1,0
746,11670,9637,bus,49,0,0,0,0,0,1,0
794,11671,9637,bus,49,0,0,0,0,0,1,0
820,11672,9637,bus,49,0,0,0,0,0,1,0
865,11673,9637,bus,49,0,0,0,0,0,1,0
902,11674,9637,bus,49,0,0,0,0,0,1,0
934,11675,9637,bus,49,0,0,0,0,0,1,0
976,11676,9637,bus,49,0,0,0,0,0,1,0
1048,11677,9637,bus,49,0,0,0,0,0,1,0
1113,11678,9637,bus,49,0,0,0,0,0,1,0
1182,11679,9637,bus,49,0,0,0,0,0,1,0
1223,11680,9637,bus,49,0,0,0,0,0,1,0
1285,11681,9637,bus,49,0,0,0,0,0,1,0
1330,11682,9637,bus,49,0,0,0,0,0,1,0
390,11683,9638,bus,49,0,0,0,0,0,0,1
441,11684,9638,bus,49,0,0,0,0,0,0,1
502,11685,9638,bus,49,0,0,0,0,0,0,1
540,11686,9638,bus,49,0,0,0,0,0,0,1
575,11687,9638,bus,49,0,0,0,0,0,0,1
638,11688,9638,bus,49,0,0,0,0,0,0,1
662,11689,9638,bus,49,0,0,0,0,0,0,1
697,11690,9638,bus,49,0,0,0,0,0,0,1
746,11691,9638,bus,49,0,0,0,0,0,0,1
794,11692,9638,bus,49,0,0,0,0,0,0,1
820,11693,9638,bus,49,0,0,0,0,0,0,1
865,11694,9638,bus,49,0,0,0,0,0,0,1
902,11695,9638,bus,49,0,0,0,0,0,0,1
934,11696,9638,bus,49,0,0,0,0,0,0,1
976,11697,9638,bus,49,0,0,0,0,0,0,1
1048,11698,9638,bus,49,0,0,0,0,0,0,1
1113,11699,9638,bus,49,0,0,0,0,0,0,1
1182,11700,9638,bus,49,0,0,0,0,0,0,1
1223,11701,9638,bus,49,0,0,0,0,0,0,1
1285,11702,9638,bus,49,0,0,0,0,0,0,1
1330,11703,9638,bus,49,0,0,0,0,0,0,1
1150,11789,10387,bus,49,1,1,1,1,1,0,0
1196,11790,10387,bus,49,1,1,1,1,1,0,0
1367,11791,10387,bus,49,1,1,1,1,1,0,0
1392,11792,10387,bus,49,1,1,1,1,1,0,0
1427,11793,10387,bus,49,1,1,1,1,1,0,0
1009,11794,9637,bus,49,0,0,0,0,0,1,0
1384,11795,9637,bus,49,0,0,0,0,0,1,0
1009,11796,9638,bus,49,0,0,0,0,0,0,1
1384,11797,9638,bus,49,0,0,0,0,0,0,1
320,11910,10612,bus,50,1,1,1,1,1,0,0
349,11911,10612,bus,50,1,1,1,1,1,0,0
366,11912,10612,bus,50,1,1,1,1,1,0,0
384,11913,10612,bus,50,1,1,1,1,1,0,0
399,11914,10612,bus,50,1,1,1,1,1,0,0
413,11915,10612,bus,50,1,1,1,1,1,0,0
428,11916,10612,bus,50,1,1,1,1,1,0,0
442,11917,10612,bus,50,1,1,1,1,1,0,0
459,11918,10612,bus,50,1,1,1,1,1,0,0
477,11919,10612,bus,50,1,1,1,1,1,0,0
494,11920,10612,bus,50,1,1,1,1,1,0,0
513,11921,10612,bus,50,1,1,1,1,1,0,0
531,11922,10612,bus,50,1,1,1,1,1,0,0
547,11923,10612,bus,50,1,1,1,1,1,0,0
563,11924,10612,bus,50,1,1,1,1,1,0,0
578,11925,10612,bus,50,1,1,1,1,1,0,0
601,11926,10612,bus,50,1,1,1,1,1,0,0
629,11927,10612,bus,50,1,1,1,1,1,0,0
663,11928,10612,bus,50,1,1,1,1,1,0,0
694,11929,10612,bus,50,1,1,1,1,1,0,0
723,11930,10612,bus,50,1,1,1,1,1,0,0
751,11931,10612,bus,50,1,1,1,1,1,0,0
777,11932,10612,bus,50,1,1,1,1,1,0,0
810,11933,10612,bus,50,1,1,1,1,1,0,0
834,11934,10612,bus,50,1,1,1,1,1,0,0
871,11935,10612,bus,50,1,1,1,1,1,0,0
904,11936,10612,bus,50,1,1,1,1,1,0,0
929,11937,10612,bus,50,1,1,1,1,1,0,0
949,11938,10612,bus,50,1,1,1,1,1,0,0
966,11939,10612,bus,50,1,1,1,1,1,0,0
981,11940,10612,bus,50,1,1,1,1,1,0,0
997,11941,10612,bus,50,1,1,1,1,1,0,0
1015,11942,10612,bus,50,1,1,1,1,1,0,0
1031,11943,10612,bus,50,1,1,1,1,1,0,0
1047,11944,10612,bus,50,1,1,1,1,1,0,0
1064,11945,10612,bus,50,1,1,1,1,1,0,0
1078,11946,10612,bus,50,1,1,1,1,1,0,0
1094,11947,10612,bus,50,1,1,1,1,1,0,0
1111,11948,10612,bus,50,1,1,1,1,1,0,0
1126,11949,10612,bus,50,1,1,1,1,1,0,0
1145,11950,10612,bus,50,1,1,1,1,1,0,0
1166,11951,10612,bus,50,1,1,1,1,1,0,0
1184,11952,10612,bus,50,1,1,1,1,1,0,0
1214,11953,10612,bus,50,1,1,1,1,1,0,0
1242,11954,10612,bus,50,1,1,1,1,1,0,0
1276,11955,10612,bus,50,1,1,1,1,1,0,0
1299,11956,10612,bus,50,1,1,1,1,1,0,0
1328,11957,10612,bus,50,1,1,1,1,1,0,0
1357,11958,10612,bus,50,1,1,1,1,1,0,0
1406,11959,10612,bus,50,1,1,1,1,1,0,0
335,11960,10389,bus,50,0,0,0,0,0,1,0
412,11961,10389,bus,50,0,0,0,0,0,1,0
491,11962,10389,bus,50,0,0,0,0,0,1,0
531,11963,10389,bus,50,0,0,0,0,0,1,0
576,11964,10389,bus,50,0,0,0,0,0,1,0
614,11965,10389,bus,50,0,0,0,0,0,1,0
655,11966,10389,bus,50,0,0,0,0,0,1,0
694,11967,10389,bus,50,0,0,0,0,0,1,0
720,11968,10389,bus,50,0,0,0,0,0,1,0
752,11969,10389,bus,50,0,0,0,0,0,1,0
804,11970,10389,bus,50,0,0,0,0,0,1,0
837,11971,10389,bus,50,0,0,0,0,0,1,0
864,11972,10389,bus,50,0,0,0,0,0,1,0
896,11973,10389,bus,50,0,0,0,0,0,1,0
921,11974,10389,bus,50,0,0,0,0,0,1,0
952,11975,10389,bus,50,0,0,0,0,0,1,0
982,11976,10389,bus,50,0,0,0,0,0,1,0
1010,11977,10389,bus,50,0,0,0,0,0,1,0
1034,11978,10389,bus,50,0,0,0,0,0,1,0
1070,11979,10389,bus,50,0,0,0,0,0,1,0
1115,11980,10389,bus,50,0,0,0,0,0,1,0
1176,11981,10389,bus,50,0,0,0,0,0,1,0
1253,11982,10389,bus,50,0,0,0,0,0,1,0
1327,11983,10389,bus,50,0,0,0,0,0,1,0
1398,11984,10389,bus,50,0,0,0,0,0,1,0
412,11985,10390,bus,50,0,0,0,0,0,0,1
491,11986,10390,bus,50,0,0,0,0,0,0,1
531,11987,10390,bus,50,0,0,0,0,0,0,1
576,11988,10390,bus,50,0,0,0,0,0,0,1
614,11989,10390,bus,50,0,0,0,0,0,0,1
655,11990,10390,bus,50,0,0,0,0,0,0,1
694,11991,10390,bus,50,0,0,0,0,0,0,1
720,11992,10390,bus,50,0,0,0,0,0,0,1
752,11993,10390,bus,50,0,0,0,0,0,0,1
804,11994,10390,bus,50,0,0,0,0,0,0,1
837,11995,10390,bus,50,0,0,0,0,0,0,1
864,11996,10390,bus,50,0,0,0,0,0,0,1
896,11997,10390,bus,50,0,0,0,0,0,0,1
921,11998,10390,bus,50,0,0,0,0,0,0,1
952,11999,10390,bus,50,0,0,0,0,0,0,1
982,12000,10390,bus,50,0,0,0,0,0,0,1
1010,12001,10390,bus,50,0,0,0,0,0,0,1
1034,12002,10390,bus,50,0,0,0,0,0,0,1
1070,12003,10390,bus,50,0,0,0,0,0,0,1
1115,12004,10390,bus,50,0,0,0,0,0,0,1
1176,12005,10390,bus,50,0,0,0,0,0,0,1
1253,12006,10390,bus,50,0,0,0,0,0,0,1
1327,12007,10390,bus,50,0,0,0,0,0,0,1
1398,12008,10390,bus,50,0,0,0,0,0,0,1
1374,12019,10612,bus,50,1,1,1,1,1,0,0
1432,12020,10612,bus,50,1,1,1,1,1,0,0
310,14337,10403,bus,69,1,1,1,1,1,0,0
333,14338,10403,bus,69,1,1,1,1,1,0,0
352,14339,10403,bus,69,1,1,1,1,1,0,0
376,14340,10403,bus,69,1,1,1,1,1,0,0
414,14341,10403,bus,69,1,1,1,1,1,0,0
455,14342,10403,bus,69,1,1,1,1,1,0,0
474,14343,10403,bus,69,1,1,1,1,1,0,0
508,14344,10403,bus,69,1,1,1,1,1,0,0
562,14345,10403,bus,69,1,1,1,1,1,0,0
599,14346,10403,bus,69,1,1,1,1,1,0,0
622,14347,10403,bus,69,1,1,1,1,1,0,0
672,14348,10403,bus,69,1,1,1,1,1,0,0
737,14349,10403,bus,69,1,1,1,1,1,0,0
765,14350,10403,bus,69,1,1,1,1,1,0,0
792,14351,10403,bus,69,1,1,1,1,1,0,0
852,14352,10403,bus,69,1,1,1,1,1,0,0
880,14353,10403,bus,69,1,1,1,1,1,0,0
918,14354,10403,bus,69,1,1,1,1,1,0,0
941,14355,10403,bus,69,1,1,1,1,1,0,0
978,14356,10403,bus,69,1,1,1,1,1,0,0
1007,14357,10403,bus,69,1,1,1,1,1,0,0
1038,14358,10403,bus,69,1,1,1,1,1,0,0
1062,14359,10403,bus,69,1,1,1,1,1,0,0
1128,14360,10403,bus,69,1,1,1,1,1,0,0
1161,14361,10403,bus,69,1,1,1,1,1,0,0
1192,14362,10403,bus,69,1,1,1,1,1,0,0
1249,14363,10403,bus,69,1,1,1,1,1,0,0
1266,14364,10403,bus,69,1,1,1,1,1,0,0
1303,14365,10403,bus,69,1,1,1,1,1,0,0
323,14366,9660,bus,69,0,0,0,0,0,1,0
424,14367,9660,bus,69,0,0,0,0,0,1,0
553,14368,9660,bus,69,0,0,0,0,0,1,0
604,14369,9660,bus,69,0,0,0,0,0,1,0
683,14370,9660,bus,69,0,0,0,0,0,1,0
716,14371,9660,bus,69,0,0,0,0,0,1,0
787,14372,9660,bus,69,0,0,0,0,0,1,0
851,14373,9660,bus,69,0,0,0,0,0,1,0
895,14374,9660,bus,69,0,0,0,0,0,1,0
957,14375,9660,bus,69,0,0,0,0,0,1,0
1001,14376,9660,bus,69,0,0,0,0,0,1,0
1088,14377,9660,bus,69,0,0,0,0,0,1,0
1136,14378,9660,bus,69,0,0,0,0,0,1,0
1242,14379,9660,bus,69,0,0,0,0,0,1,0
1344,14380,9660,bus,69,0,0,0,0,0,1,0
424,14381,9661,bus,69,0,0,0,0,0,0,1
553,14382,9661,bus,69,0,0,0,0,0,0,1
604,14383,9661,bus,69,0,0,0,0,0,0,1
683,14384,9661,bus,69,0,0,0,0,0,0,1
716,14385,9661,bus,69,0,0,0,0,0,0,1
787,14386,9661,bus,69,0,0,0,0,0,0,1
851,14387,9661,bus,69,0,0,0,0,0,0,1
895,14388,9661,bus,69,0,0,0,0,0,0,1
957,14389,9661,bus,69,0,0,0,0,0,0,1
1001,14390,9661,bus,69,0,0,0,0,0,0,1
1088,14391,9661,bus,69,0,0,0,0,0,0,1
1136,14392,9661,bus,69,0,0,0,0,0,0,1
1242,14393,9661,bus,69,0,0,0,0,0,0,1
1344,14394,9661,bus,69,0,0,0,0,0,0,1
1180,14453,10403,bus,69,1,1,1,1,1,0,0
1351,14454,10403,bus,69,1,1,1,1,1,0,0
1375,14455,10403,bus,69,1,1,1,1,1,0,0
1408,14456,10403,bus,69,1,1,1,1,1,0,0
1190,14457,9660,bus,69,0,0,0,0,0,1,0
1440,14458,9660,bus,69,0,0,0,0,0,1,0
1190,14459,9661,bus,69,0,0,0,0,0,0,1
1440,14460,9661,bus,69,0,0,0,0,0,0,1
1431,16355,9971,nightbus,103N,0,0,0,0,1,1,0
1465,16356,9971,nightbus,103N,0,0,0,0,1,1,0
1512,16357,9971,nightbus,103N,0,0,0,0,1,1,0
1541,16358,9971,nightbus,103N,0,0,0,0,1,1,0
1569,16359,9971,nightbus,103N,0,0,0,0,1,1,0
