timeInMin,trip_id,service_id,tipas,numeris,pirmadienis,antradienis,treciadienis,ketvirtadienis,penktadienis,sestadienis,sekmadienis 
329,6689,10354,bus,21,1,1,1,1,1,0,0
355,6690,10354,bus,21,1,1,1,1,1,0,0
376,6691,10354,bus,21,1,1,1,1,1,0,0
401,6692,10354,bus,21,1,1,1,1,1,0,0
429,6693,10354,bus,21,1,1,1,1,1,0,0
450,6694,10354,bus,21,1,1,1,1,1,0,0
475,6695,10354,bus,21,1,1,1,1,1,0,0
503,6696,10354,bus,21,1,1,1,1,1,0,0
567,6697,10354,bus,21,1,1,1,1,1,0,0
606,6698,10354,bus,21,1,1,1,1,1,0,0
657,6699,10354,bus,21,1,1,1,1,1,0,0
696,6700,10354,bus,21,1,1,1,1,1,0,0
733,6701,10354,bus,21,1,1,1,1,1,0,0
772,6702,10354,bus,21,1,1,1,1,1,0,0
808,6703,10354,bus,21,1,1,1,1,1,0,0
844,6704,10354,bus,21,1,1,1,1,1,0,0
880,6705,10354,bus,21,1,1,1,1,1,0,0
919,6706,10354,bus,21,1,1,1,1,1,0,0
952,6707,10354,bus,21,1,1,1,1,1,0,0
975,6708,10354,bus,21,1,1,1,1,1,0,0
999,6709,10354,bus,21,1,1,1,1,1,0,0
1026,6710,10354,bus,21,1,1,1,1,1,0,0
1052,6711,10354,bus,21,1,1,1,1,1,0,0
1075,6712,10354,bus,21,1,1,1,1,1,0,0
1120,6713,10354,bus,21,1,1,1,1,1,0,0
1140,6714,10354,bus,21,1,1,1,1,1,0,0
1169,6715,10354,bus,21,1,1,1,1,1,0,0
1223,6716,10354,bus,21,1,1,1,1,1,0,0
1262,6717,10354,bus,21,1,1,1,1,1,0,0
1295,6718,10354,bus,21,1,1,1,1,1,0,0
1334,6719,10354,bus,21,1,1,1,1,1,0,0
1367,6720,10354,bus,21,1,1,1,1,1,0,0
1406,6721,10354,bus,21,1,1,1,1,1,0,0
354,6722,9374,bus,21,0,0,0,0,0,1,0
426,6723,9374,bus,21,0,0,0,0,0,1,0
500,6724,9374,bus,21,0,0,0,0,0,1,0
586,6725,9374,bus,21,0,0,0,0,0,1,0
676,6726,9374,bus,21,0,0,0,0,0,1,0
742,6727,9374,bus,21,0,0,0,0,0,1,0
814,6728,9374,bus,21,0,0,0,0,0,1,0
885,6729,9374,bus,21,0,0,0,0,0,1,0
955,6730,9374,bus,21,0,0,0,0,0,1,0
1026,6731,9374,bus,21,0,0,0,0,0,1,0
1112,6732,9374,bus,21,0,0,0,0,0,1,0
1198,6733,9374,bus,21,0,0,0,0,0,1,0
1264,6734,9374,bus,21,0,0,0,0,0,1,0
1330,6735,9374,bus,21,0,0,0,0,0,1,0
1396,6736,9374,bus,21,0,0,0,0,0,1,0
393,6737,9375,bus,21,0,0,0,0,0,0,1
467,6738,9375,bus,21,0,0,0,0,0,0,1
568,6739,9375,bus,21,0,0,0,0,0,0,1
640,6740,9375,bus,21,0,0,0,0,0,0,1
717,6741,9375,bus,21,0,0,0,0,0,0,1
788,6742,9375,bus,21,0,0,0,0,0,0,1
859,6743,9375,bus,21,0,0,0,0,0,0,1
930,6744,9375,bus,21,0,0,0,0,0,0,1
1001,6745,9375,bus,21,0,0,0,0,0,0,1
1102,6746,9375,bus,21,0,0,0,0,0,0,1
1173,6747,9375,bus,21,0,0,0,0,0,0,1
1244,6748,9375,bus,21,0,0,0,0,0,0,1
1315,6749,9375,bus,21,0,0,0,0,0,0,1
1381,6750,9375,bus,21,0,0,0,0,0,0,1
531,6751,10354,bus,21,1,1,1,1,1,0,0
