timeInMin,trip_id,service_id,tipas,numeris,pirmadienis,antradienis,treciadienis,ketvirtadienis,penktadienis,sestadienis,sekmadienis 
563,12033,9773,bus,51,1,1,1,1,1,0,0
623,12034,9773,bus,51,1,1,1,1,1,0,0
676,12035,9773,bus,51,1,1,1,1,1,0,0
728,12036,9773,bus,51,1,1,1,1,1,0,0
785,12037,9773,bus,51,1,1,1,1,1,0,0
840,12038,9773,bus,51,1,1,1,1,1,0,0
900,12039,9773,bus,51,1,1,1,1,1,0,0
969,12040,9773,bus,51,1,1,1,1,1,0,0
1032,12041,9773,bus,51,1,1,1,1,1,0,0
1113,12042,9773,bus,51,1,1,1,1,1,0,0
1173,12043,9773,bus,51,1,1,1,1,1,0,0
1229,12044,9773,bus,51,1,1,1,1,1,0,0
1370,12045,9773,bus,51,1,1,1,1,1,0,0
917,12046,9774,bus,51,0,0,0,0,0,1,1
968,12047,9774,bus,51,0,0,0,0,0,1,1
1026,12048,9774,bus,51,0,0,0,0,0,1,1
1084,12049,9774,bus,51,0,0,0,0,0,1,1
1165,12050,9774,bus,51,0,0,0,0,0,1,1
1247,12051,9774,bus,51,0,0,0,0,0,1,1
1306,12052,9774,bus,51,0,0,0,0,0,1,1
1370,12053,9774,bus,51,0,0,0,0,0,1,1
343,12058,9773,bus,51,1,1,1,1,1,0,0
402,12059,9773,bus,51,1,1,1,1,1,0,0
458,12060,9773,bus,51,1,1,1,1,1,0,0
1300,12061,9773,bus,51,1,1,1,1,1,0,0
446,12062,9774,bus,51,0,0,0,0,0,1,1
505,12063,9774,bus,51,0,0,0,0,0,1,1
564,12064,9774,bus,51,0,0,0,0,0,1,1
621,12065,9774,bus,51,0,0,0,0,0,1,1
563,12078,9773,bus,51,1,1,1,1,1,0,0
623,12079,9773,bus,51,1,1,1,1,1,0,0
676,12080,9773,bus,51,1,1,1,1,1,0,0
728,12081,9773,bus,51,1,1,1,1,1,0,0
785,12082,9773,bus,51,1,1,1,1,1,0,0
840,12083,9773,bus,51,1,1,1,1,1,0,0
900,12084,9773,bus,51,1,1,1,1,1,0,0
969,12085,9773,bus,51,1,1,1,1,1,0,0
1032,12086,9773,bus,51,1,1,1,1,1,0,0
1113,12087,9773,bus,51,1,1,1,1,1,0,0
1173,12088,9773,bus,51,1,1,1,1,1,0,0
1229,12089,9773,bus,51,1,1,1,1,1,0,0
1370,12090,9773,bus,51,1,1,1,1,1,0,0
917,12091,9774,bus,51,0,0,0,0,0,1,1
968,12092,9774,bus,51,0,0,0,0,0,1,1
1026,12093,9774,bus,51,0,0,0,0,0,1,1
1084,12094,9774,bus,51,0,0,0,0,0,1,1
1165,12095,9774,bus,51,0,0,0,0,0,1,1
1247,12096,9774,bus,51,0,0,0,0,0,1,1
1306,12097,9774,bus,51,0,0,0,0,0,1,1
1370,12098,9774,bus,51,0,0,0,0,0,1,1
