timeInMin,trip_id,service_id,tipas,numeris,pirmadienis,antradienis,treciadienis,ketvirtadienis,penktadienis,sestadienis,sekmadienis 
364,7624,10357,bus,26,1,1,1,1,1,0,0
415,7625,10357,bus,26,1,1,1,1,1,0,0
472,7626,10357,bus,26,1,1,1,1,1,0,0
529,7627,10357,bus,26,1,1,1,1,1,0,0
618,7628,10357,bus,26,1,1,1,1,1,0,0
671,7629,10357,bus,26,1,1,1,1,1,0,0
721,7630,10357,bus,26,1,1,1,1,1,0,0
780,7631,10357,bus,26,1,1,1,1,1,0,0
840,7632,10357,bus,26,1,1,1,1,1,0,0
901,7633,10357,bus,26,1,1,1,1,1,0,0
955,7634,10357,bus,26,1,1,1,1,1,0,0
1013,7635,10357,bus,26,1,1,1,1,1,0,0
1064,7636,10357,bus,26,1,1,1,1,1,0,0
1146,7637,10357,bus,26,1,1,1,1,1,0,0
1195,7638,10357,bus,26,1,1,1,1,1,0,0
1252,7639,10357,bus,26,1,1,1,1,1,0,0
1300,7640,10357,bus,26,1,1,1,1,1,0,0
1346,7641,10357,bus,26,1,1,1,1,1,0,0
356,7642,10358,bus,26,0,0,0,0,0,1,0
411,7643,10358,bus,26,0,0,0,0,0,1,0
463,7644,10358,bus,26,0,0,0,0,0,1,0
523,7645,10358,bus,26,0,0,0,0,0,1,0
605,7646,10358,bus,26,0,0,0,0,0,1,0
659,7647,10358,bus,26,0,0,0,0,0,1,0
716,7648,10358,bus,26,0,0,0,0,0,1,0
763,7649,10358,bus,26,0,0,0,0,0,1,0
815,7650,10358,bus,26,0,0,0,0,0,1,0
870,7651,10358,bus,26,0,0,0,0,0,1,0
920,7652,10358,bus,26,0,0,0,0,0,1,0
977,7653,10358,bus,26,0,0,0,0,0,1,0
1032,7654,10358,bus,26,0,0,0,0,0,1,0
1112,7655,10358,bus,26,0,0,0,0,0,1,0
1175,7656,10358,bus,26,0,0,0,0,0,1,0
1224,7657,10358,bus,26,0,0,0,0,0,1,0
1273,7658,10358,bus,26,0,0,0,0,0,1,0
1323,7659,10358,bus,26,0,0,0,0,0,1,0
1373,7660,10358,bus,26,0,0,0,0,0,1,0
411,7661,10359,bus,26,0,0,0,0,0,0,1
463,7662,10359,bus,26,0,0,0,0,0,0,1
523,7663,10359,bus,26,0,0,0,0,0,0,1
605,7664,10359,bus,26,0,0,0,0,0,0,1
659,7665,10359,bus,26,0,0,0,0,0,0,1
716,7666,10359,bus,26,0,0,0,0,0,0,1
763,7667,10359,bus,26,0,0,0,0,0,0,1
815,7668,10359,bus,26,0,0,0,0,0,0,1
870,7669,10359,bus,26,0,0,0,0,0,0,1
920,7670,10359,bus,26,0,0,0,0,0,0,1
977,7671,10359,bus,26,0,0,0,0,0,0,1
1032,7672,10359,bus,26,0,0,0,0,0,0,1
1112,7673,10359,bus,26,0,0,0,0,0,0,1
1175,7674,10359,bus,26,0,0,0,0,0,0,1
1224,7675,10359,bus,26,0,0,0,0,0,0,1
1273,7676,10359,bus,26,0,0,0,0,0,0,1
1323,7677,10359,bus,26,0,0,0,0,0,0,1
1373,7678,10359,bus,26,0,0,0,0,0,0,1
317,7679,10357,bus,26,1,1,1,1,1,0,0
365,7680,10357,bus,26,1,1,1,1,1,0,0
416,7681,10357,bus,26,1,1,1,1,1,0,0
473,7682,10357,bus,26,1,1,1,1,1,0,0
530,7683,10357,bus,26,1,1,1,1,1,0,0
619,7684,10357,bus,26,1,1,1,1,1,0,0
672,7685,10357,bus,26,1,1,1,1,1,0,0
722,7686,10357,bus,26,1,1,1,1,1,0,0
781,7687,10357,bus,26,1,1,1,1,1,0,0
841,7688,10357,bus,26,1,1,1,1,1,0,0
902,7689,10357,bus,26,1,1,1,1,1,0,0
956,7690,10357,bus,26,1,1,1,1,1,0,0
1014,7691,10357,bus,26,1,1,1,1,1,0,0
1065,7692,10357,bus,26,1,1,1,1,1,0,0
1147,7693,10357,bus,26,1,1,1,1,1,0,0
1196,7694,10357,bus,26,1,1,1,1,1,0,0
1253,7695,10357,bus,26,1,1,1,1,1,0,0
1301,7696,10357,bus,26,1,1,1,1,1,0,0
1347,7697,10357,bus,26,1,1,1,1,1,0,0
312,7698,10358,bus,26,0,0,0,0,0,1,0
357,7699,10358,bus,26,0,0,0,0,0,1,0
412,7700,10358,bus,26,0,0,0,0,0,1,0
464,7701,10358,bus,26,0,0,0,0,0,1,0
524,7702,10358,bus,26,0,0,0,0,0,1,0
606,7703,10358,bus,26,0,0,0,0,0,1,0
660,7704,10358,bus,26,0,0,0,0,0,1,0
717,7705,10358,bus,26,0,0,0,0,0,1,0
764,7706,10358,bus,26,0,0,0,0,0,1,0
816,7707,10358,bus,26,0,0,0,0,0,1,0
871,7708,10358,bus,26,0,0,0,0,0,1,0
921,7709,10358,bus,26,0,0,0,0,0,1,0
978,7710,10358,bus,26,0,0,0,0,0,1,0
1033,7711,10358,bus,26,0,0,0,0,0,1,0
1113,7712,10358,bus,26,0,0,0,0,0,1,0
1176,7713,10358,bus,26,0,0,0,0,0,1,0
1225,7714,10358,bus,26,0,0,0,0,0,1,0
1274,7715,10358,bus,26,0,0,0,0,0,1,0
1324,7716,10358,bus,26,0,0,0,0,0,1,0
1374,7717,10358,bus,26,0,0,0,0,0,1,0
362,7718,10359,bus,26,0,0,0,0,0,0,1
412,7719,10359,bus,26,0,0,0,0,0,0,1
464,7720,10359,bus,26,0,0,0,0,0,0,1
524,7721,10359,bus,26,0,0,0,0,0,0,1
606,7722,10359,bus,26,0,0,0,0,0,0,1
660,7723,10359,bus,26,0,0,0,0,0,0,1
717,7724,10359,bus,26,0,0,0,0,0,0,1
764,7725,10359,bus,26,0,0,0,0,0,0,1
816,7726,10359,bus,26,0,0,0,0,0,0,1
871,7727,10359,bus,26,0,0,0,0,0,0,1
921,7728,10359,bus,26,0,0,0,0,0,0,1
978,7729,10359,bus,26,0,0,0,0,0,0,1
1033,7730,10359,bus,26,0,0,0,0,0,0,1
1113,7731,10359,bus,26,0,0,0,0,0,0,1
1176,7732,10359,bus,26,0,0,0,0,0,0,1
1225,7733,10359,bus,26,0,0,0,0,0,0,1
1274,7734,10359,bus,26,0,0,0,0,0,0,1
1324,7735,10359,bus,26,0,0,0,0,0,0,1
1374,7736,10359,bus,26,0,0,0,0,0,0,1
316,7740,10357,bus,26,1,1,1,1,1,0,0
311,7741,10358,bus,26,0,0,0,0,0,1,0
361,7742,10359,bus,26,0,0,0,0,0,0,1
393,11815,10612,bus,50,1,1,1,1,1,0,0
408,11816,10612,bus,50,1,1,1,1,1,0,0
425,11817,10612,bus,50,1,1,1,1,1,0,0
441,11818,10612,bus,50,1,1,1,1,1,0,0
459,11819,10612,bus,50,1,1,1,1,1,0,0
476,11820,10612,bus,50,1,1,1,1,1,0,0
491,11821,10612,bus,50,1,1,1,1,1,0,0
506,11822,10612,bus,50,1,1,1,1,1,0,0
523,11823,10612,bus,50,1,1,1,1,1,0,0
541,11824,10612,bus,50,1,1,1,1,1,0,0
558,11825,10612,bus,50,1,1,1,1,1,0,0
581,11826,10612,bus,50,1,1,1,1,1,0,0
611,11827,10612,bus,50,1,1,1,1,1,0,0
645,11828,10612,bus,50,1,1,1,1,1,0,0
676,11829,10612,bus,50,1,1,1,1,1,0,0
705,11830,10612,bus,50,1,1,1,1,1,0,0
734,11831,10612,bus,50,1,1,1,1,1,0,0
764,11832,10612,bus,50,1,1,1,1,1,0,0
796,11833,10612,bus,50,1,1,1,1,1,0,0
821,11834,10612,bus,50,1,1,1,1,1,0,0
853,11835,10612,bus,50,1,1,1,1,1,0,0
885,11836,10612,bus,50,1,1,1,1,1,0,0
909,11837,10612,bus,50,1,1,1,1,1,0,0
929,11838,10612,bus,50,1,1,1,1,1,0,0
947,11839,10612,bus,50,1,1,1,1,1,0,0
960,11840,10612,bus,50,1,1,1,1,1,0,0
977,11841,10612,bus,50,1,1,1,1,1,0,0
996,11842,10612,bus,50,1,1,1,1,1,0,0
1009,11843,10612,bus,50,1,1,1,1,1,0,0
1028,11844,10612,bus,50,1,1,1,1,1,0,0
1044,11845,10612,bus,50,1,1,1,1,1,0,0
1060,11846,10612,bus,50,1,1,1,1,1,0,0
1076,11847,10612,bus,50,1,1,1,1,1,0,0
1093,11848,10612,bus,50,1,1,1,1,1,0,0
1112,11849,10612,bus,50,1,1,1,1,1,0,0
1127,11850,10612,bus,50,1,1,1,1,1,0,0
1152,11851,10612,bus,50,1,1,1,1,1,0,0
1170,11852,10612,bus,50,1,1,1,1,1,0,0
1201,11853,10612,bus,50,1,1,1,1,1,0,0
1227,11854,10612,bus,50,1,1,1,1,1,0,0
1250,11855,10612,bus,50,1,1,1,1,1,0,0
1287,11856,10612,bus,50,1,1,1,1,1,0,0
1313,11857,10612,bus,50,1,1,1,1,1,0,0
1342,11858,10612,bus,50,1,1,1,1,1,0,0
1365,11859,10612,bus,50,1,1,1,1,1,0,0
1394,11860,10612,bus,50,1,1,1,1,1,0,0
1423,11861,10612,bus,50,1,1,1,1,1,0,0
395,11862,10389,bus,50,0,0,0,0,0,1,0
474,11863,10389,bus,50,0,0,0,0,0,1,0
513,11864,10389,bus,50,0,0,0,0,0,1,0
558,11865,10389,bus,50,0,0,0,0,0,1,0
596,11866,10389,bus,50,0,0,0,0,0,1,0
639,11867,10389,bus,50,0,0,0,0,0,1,0
674,11868,10389,bus,50,0,0,0,0,0,1,0
707,11869,10389,bus,50,0,0,0,0,0,1,0
730,11870,10389,bus,50,0,0,0,0,0,1,0
789,11871,10389,bus,50,0,0,0,0,0,1,0
821,11872,10389,bus,50,0,0,0,0,0,1,0
846,11873,10389,bus,50,0,0,0,0,0,1,0
878,11874,10389,bus,50,0,0,0,0,0,1,0
908,11875,10389,bus,50,0,0,0,0,0,1,0
934,11876,10389,bus,50,0,0,0,0,0,1,0
964,11877,10389,bus,50,0,0,0,0,0,1,0
987,11878,10389,bus,50,0,0,0,0,0,1,0
1017,11879,10389,bus,50,0,0,0,0,0,1,0
1046,11880,10389,bus,50,0,0,0,0,0,1,0
1098,11881,10389,bus,50,0,0,0,0,0,1,0
1162,11882,10389,bus,50,0,0,0,0,0,1,0
1240,11883,10389,bus,50,0,0,0,0,0,1,0
1315,11884,10389,bus,50,0,0,0,0,0,1,0
1386,11885,10389,bus,50,0,0,0,0,0,1,0
395,11886,10390,bus,50,0,0,0,0,0,0,1
474,11887,10390,bus,50,0,0,0,0,0,0,1
513,11888,10390,bus,50,0,0,0,0,0,0,1
558,11889,10390,bus,50,0,0,0,0,0,0,1
596,11890,10390,bus,50,0,0,0,0,0,0,1
639,11891,10390,bus,50,0,0,0,0,0,0,1
674,11892,10390,bus,50,0,0,0,0,0,0,1
707,11893,10390,bus,50,0,0,0,0,0,0,1
730,11894,10390,bus,50,0,0,0,0,0,0,1
789,11895,10390,bus,50,0,0,0,0,0,0,1
821,11896,10390,bus,50,0,0,0,0,0,0,1
846,11897,10390,bus,50,0,0,0,0,0,0,1
878,11898,10390,bus,50,0,0,0,0,0,0,1
908,11899,10390,bus,50,0,0,0,0,0,0,1
934,11900,10390,bus,50,0,0,0,0,0,0,1
964,11901,10390,bus,50,0,0,0,0,0,0,1
987,11902,10390,bus,50,0,0,0,0,0,0,1
1017,11903,10390,bus,50,0,0,0,0,0,0,1
1046,11904,10390,bus,50,0,0,0,0,0,0,1
1098,11905,10390,bus,50,0,0,0,0,0,0,1
1162,11906,10390,bus,50,0,0,0,0,0,0,1
1240,11907,10390,bus,50,0,0,0,0,0,0,1
1315,11908,10390,bus,50,0,0,0,0,0,0,1
1386,11909,10390,bus,50,0,0,0,0,0,0,1
311,11910,10612,bus,50,1,1,1,1,1,0,0
340,11911,10612,bus,50,1,1,1,1,1,0,0
357,11912,10612,bus,50,1,1,1,1,1,0,0
375,11913,10612,bus,50,1,1,1,1,1,0,0
389,11914,10612,bus,50,1,1,1,1,1,0,0
394,11915,10612,bus,50,1,1,1,1,1,0,0
409,11916,10612,bus,50,1,1,1,1,1,0,0
426,11917,10612,bus,50,1,1,1,1,1,0,0
442,11918,10612,bus,50,1,1,1,1,1,0,0
460,11919,10612,bus,50,1,1,1,1,1,0,0
477,11920,10612,bus,50,1,1,1,1,1,0,0
492,11921,10612,bus,50,1,1,1,1,1,0,0
507,11922,10612,bus,50,1,1,1,1,1,0,0
524,11923,10612,bus,50,1,1,1,1,1,0,0
542,11924,10612,bus,50,1,1,1,1,1,0,0
559,11925,10612,bus,50,1,1,1,1,1,0,0
582,11926,10612,bus,50,1,1,1,1,1,0,0
612,11927,10612,bus,50,1,1,1,1,1,0,0
646,11928,10612,bus,50,1,1,1,1,1,0,0
677,11929,10612,bus,50,1,1,1,1,1,0,0
706,11930,10612,bus,50,1,1,1,1,1,0,0
735,11931,10612,bus,50,1,1,1,1,1,0,0
765,11932,10612,bus,50,1,1,1,1,1,0,0
797,11933,10612,bus,50,1,1,1,1,1,0,0
822,11934,10612,bus,50,1,1,1,1,1,0,0
854,11935,10612,bus,50,1,1,1,1,1,0,0
886,11936,10612,bus,50,1,1,1,1,1,0,0
910,11937,10612,bus,50,1,1,1,1,1,0,0
930,11938,10612,bus,50,1,1,1,1,1,0,0
948,11939,10612,bus,50,1,1,1,1,1,0,0
961,11940,10612,bus,50,1,1,1,1,1,0,0
978,11941,10612,bus,50,1,1,1,1,1,0,0
997,11942,10612,bus,50,1,1,1,1,1,0,0
1010,11943,10612,bus,50,1,1,1,1,1,0,0
1029,11944,10612,bus,50,1,1,1,1,1,0,0
1045,11945,10612,bus,50,1,1,1,1,1,0,0
1061,11946,10612,bus,50,1,1,1,1,1,0,0
1077,11947,10612,bus,50,1,1,1,1,1,0,0
1094,11948,10612,bus,50,1,1,1,1,1,0,0
1113,11949,10612,bus,50,1,1,1,1,1,0,0
1128,11950,10612,bus,50,1,1,1,1,1,0,0
1153,11951,10612,bus,50,1,1,1,1,1,0,0
1171,11952,10612,bus,50,1,1,1,1,1,0,0
1202,11953,10612,bus,50,1,1,1,1,1,0,0
1228,11954,10612,bus,50,1,1,1,1,1,0,0
1251,11955,10612,bus,50,1,1,1,1,1,0,0
1288,11956,10612,bus,50,1,1,1,1,1,0,0
1314,11957,10612,bus,50,1,1,1,1,1,0,0
1343,11958,10612,bus,50,1,1,1,1,1,0,0
1395,11959,10612,bus,50,1,1,1,1,1,0,0
326,11960,10389,bus,50,0,0,0,0,0,1,0
396,11961,10389,bus,50,0,0,0,0,0,1,0
475,11962,10389,bus,50,0,0,0,0,0,1,0
514,11963,10389,bus,50,0,0,0,0,0,1,0
559,11964,10389,bus,50,0,0,0,0,0,1,0
597,11965,10389,bus,50,0,0,0,0,0,1,0
640,11966,10389,bus,50,0,0,0,0,0,1,0
675,11967,10389,bus,50,0,0,0,0,0,1,0
708,11968,10389,bus,50,0,0,0,0,0,1,0
731,11969,10389,bus,50,0,0,0,0,0,1,0
790,11970,10389,bus,50,0,0,0,0,0,1,0
822,11971,10389,bus,50,0,0,0,0,0,1,0
847,11972,10389,bus,50,0,0,0,0,0,1,0
879,11973,10389,bus,50,0,0,0,0,0,1,0
909,11974,10389,bus,50,0,0,0,0,0,1,0
935,11975,10389,bus,50,0,0,0,0,0,1,0
965,11976,10389,bus,50,0,0,0,0,0,1,0
988,11977,10389,bus,50,0,0,0,0,0,1,0
1018,11978,10389,bus,50,0,0,0,0,0,1,0
1047,11979,10389,bus,50,0,0,0,0,0,1,0
1099,11980,10389,bus,50,0,0,0,0,0,1,0
1163,11981,10389,bus,50,0,0,0,0,0,1,0
1241,11982,10389,bus,50,0,0,0,0,0,1,0
1316,11983,10389,bus,50,0,0,0,0,0,1,0
1387,11984,10389,bus,50,0,0,0,0,0,1,0
396,11985,10390,bus,50,0,0,0,0,0,0,1
475,11986,10390,bus,50,0,0,0,0,0,0,1
514,11987,10390,bus,50,0,0,0,0,0,0,1
559,11988,10390,bus,50,0,0,0,0,0,0,1
597,11989,10390,bus,50,0,0,0,0,0,0,1
640,11990,10390,bus,50,0,0,0,0,0,0,1
675,11991,10390,bus,50,0,0,0,0,0,0,1
708,11992,10390,bus,50,0,0,0,0,0,0,1
731,11993,10390,bus,50,0,0,0,0,0,0,1
790,11994,10390,bus,50,0,0,0,0,0,0,1
822,11995,10390,bus,50,0,0,0,0,0,0,1
847,11996,10390,bus,50,0,0,0,0,0,0,1
879,11997,10390,bus,50,0,0,0,0,0,0,1
909,11998,10390,bus,50,0,0,0,0,0,0,1
935,11999,10390,bus,50,0,0,0,0,0,0,1
965,12000,10390,bus,50,0,0,0,0,0,0,1
988,12001,10390,bus,50,0,0,0,0,0,0,1
1018,12002,10390,bus,50,0,0,0,0,0,0,1
1047,12003,10390,bus,50,0,0,0,0,0,0,1
1099,12004,10390,bus,50,0,0,0,0,0,0,1
1163,12005,10390,bus,50,0,0,0,0,0,0,1
1241,12006,10390,bus,50,0,0,0,0,0,0,1
1316,12007,10390,bus,50,0,0,0,0,0,0,1
1387,12008,10390,bus,50,0,0,0,0,0,0,1
1366,12019,10612,bus,50,1,1,1,1,1,0,0
1424,12020,10612,bus,50,1,1,1,1,1,0,0
310,12027,10612,bus,50,1,1,1,1,1,0,0
339,12028,10612,bus,50,1,1,1,1,1,0,0
356,12029,10612,bus,50,1,1,1,1,1,0,0
374,12030,10612,bus,50,1,1,1,1,1,0,0
388,12031,10612,bus,50,1,1,1,1,1,0,0
325,12032,10389,bus,50,0,0,0,0,0,1,0
