timeInMin,trip_id,service_id,tipas,numeris,pirmadienis,antradienis,treciadienis,ketvirtadienis,penktadienis,sestadienis,sekmadienis 
331,3243,10330,expressbus,5G,1,1,1,1,1,0,0
343,3244,10330,expressbus,5G,1,1,1,1,1,0,0
355,3245,10330,expressbus,5G,1,1,1,1,1,0,0
366,3246,10330,expressbus,5G,1,1,1,1,1,0,0
377,3247,10330,expressbus,5G,1,1,1,1,1,0,0
385,3248,10330,expressbus,5G,1,1,1,1,1,0,0
392,3249,10330,expressbus,5G,1,1,1,1,1,0,0
399,3250,10330,expressbus,5G,1,1,1,1,1,0,0
407,3251,10330,expressbus,5G,1,1,1,1,1,0,0
414,3252,10330,expressbus,5G,1,1,1,1,1,0,0
419,3253,10330,expressbus,5G,1,1,1,1,1,0,0
424,3254,10330,expressbus,5G,1,1,1,1,1,0,0
429,3255,10330,expressbus,5G,1,1,1,1,1,0,0
435,3256,10330,expressbus,5G,1,1,1,1,1,0,0
441,3257,10330,expressbus,5G,1,1,1,1,1,0,0
447,3258,10330,expressbus,5G,1,1,1,1,1,0,0
453,3259,10330,expressbus,5G,1,1,1,1,1,0,0
459,3260,10330,expressbus,5G,1,1,1,1,1,0,0
465,3261,10330,expressbus,5G,1,1,1,1,1,0,0
471,3262,10330,expressbus,5G,1,1,1,1,1,0,0
478,3263,10330,expressbus,5G,1,1,1,1,1,0,0
487,3264,10330,expressbus,5G,1,1,1,1,1,0,0
494,3265,10330,expressbus,5G,1,1,1,1,1,0,0
502,3266,10330,expressbus,5G,1,1,1,1,1,0,0
509,3267,10330,expressbus,5G,1,1,1,1,1,0,0
516,3268,10330,expressbus,5G,1,1,1,1,1,0,0
523,3269,10330,expressbus,5G,1,1,1,1,1,0,0
531,3270,10330,expressbus,5G,1,1,1,1,1,0,0
537,3271,10330,expressbus,5G,1,1,1,1,1,0,0
543,3272,10330,expressbus,5G,1,1,1,1,1,0,0
547,3273,10330,expressbus,5G,1,1,1,1,1,0,0
552,3274,10330,expressbus,5G,1,1,1,1,1,0,0
558,3275,10330,expressbus,5G,1,1,1,1,1,0,0
564,3276,10330,expressbus,5G,1,1,1,1,1,0,0
570,3277,10330,expressbus,5G,1,1,1,1,1,0,0
577,3278,10330,expressbus,5G,1,1,1,1,1,0,0
584,3279,10330,expressbus,5G,1,1,1,1,1,0,0
592,3280,10330,expressbus,5G,1,1,1,1,1,0,0
600,3281,10330,expressbus,5G,1,1,1,1,1,0,0
607,3282,10330,expressbus,5G,1,1,1,1,1,0,0
613,3283,10330,expressbus,5G,1,1,1,1,1,0,0
620,3284,10330,expressbus,5G,1,1,1,1,1,0,0
629,3285,10330,expressbus,5G,1,1,1,1,1,0,0
639,3286,10330,expressbus,5G,1,1,1,1,1,0,0
647,3287,10330,expressbus,5G,1,1,1,1,1,0,0
656,3288,10330,expressbus,5G,1,1,1,1,1,0,0
665,3289,10330,expressbus,5G,1,1,1,1,1,0,0
673,3290,10330,expressbus,5G,1,1,1,1,1,0,0
683,3291,10330,expressbus,5G,1,1,1,1,1,0,0
692,3292,10330,expressbus,5G,1,1,1,1,1,0,0
702,3293,10330,expressbus,5G,1,1,1,1,1,0,0
713,3294,10330,expressbus,5G,1,1,1,1,1,0,0
724,3295,10330,expressbus,5G,1,1,1,1,1,0,0
737,3296,10330,expressbus,5G,1,1,1,1,1,0,0
748,3297,10330,expressbus,5G,1,1,1,1,1,0,0
759,3298,10330,expressbus,5G,1,1,1,1,1,0,0
768,3299,10330,expressbus,5G,1,1,1,1,1,0,0
776,3300,10330,expressbus,5G,1,1,1,1,1,0,0
785,3301,10330,expressbus,5G,1,1,1,1,1,0,0
795,3302,10330,expressbus,5G,1,1,1,1,1,0,0
806,3303,10330,expressbus,5G,1,1,1,1,1,0,0
817,3304,10330,expressbus,5G,1,1,1,1,1,0,0
830,3305,10330,expressbus,5G,1,1,1,1,1,0,0
841,3306,10330,expressbus,5G,1,1,1,1,1,0,0
852,3307,10330,expressbus,5G,1,1,1,1,1,0,0
861,3308,10330,expressbus,5G,1,1,1,1,1,0,0
869,3309,10330,expressbus,5G,1,1,1,1,1,0,0
878,3310,10330,expressbus,5G,1,1,1,1,1,0,0
888,3311,10330,expressbus,5G,1,1,1,1,1,0,0
899,3312,10330,expressbus,5G,1,1,1,1,1,0,0
910,3313,10330,expressbus,5G,1,1,1,1,1,0,0
923,3314,10330,expressbus,5G,1,1,1,1,1,0,0
934,3315,10330,expressbus,5G,1,1,1,1,1,0,0
945,3316,10330,expressbus,5G,1,1,1,1,1,0,0
954,3317,10330,expressbus,5G,1,1,1,1,1,0,0
962,3318,10330,expressbus,5G,1,1,1,1,1,0,0
968,3319,10330,expressbus,5G,1,1,1,1,1,0,0
975,3320,10330,expressbus,5G,1,1,1,1,1,0,0
981,3321,10330,expressbus,5G,1,1,1,1,1,0,0
986,3322,10330,expressbus,5G,1,1,1,1,1,0,0
992,3323,10330,expressbus,5G,1,1,1,1,1,0,0
998,3324,10330,expressbus,5G,1,1,1,1,1,0,0
1004,3325,10330,expressbus,5G,1,1,1,1,1,0,0
1010,3326,10330,expressbus,5G,1,1,1,1,1,0,0
1016,3327,10330,expressbus,5G,1,1,1,1,1,0,0
1022,3328,10330,expressbus,5G,1,1,1,1,1,0,0
1029,3329,10330,expressbus,5G,1,1,1,1,1,0,0
1036,3330,10330,expressbus,5G,1,1,1,1,1,0,0
1043,3331,10330,expressbus,5G,1,1,1,1,1,0,0
1051,3332,10330,expressbus,5G,1,1,1,1,1,0,0
1059,3333,10330,expressbus,5G,1,1,1,1,1,0,0
1067,3334,10330,expressbus,5G,1,1,1,1,1,0,0
1074,3335,10330,expressbus,5G,1,1,1,1,1,0,0
1081,3336,10330,expressbus,5G,1,1,1,1,1,0,0
1089,3337,10330,expressbus,5G,1,1,1,1,1,0,0
1096,3338,10330,expressbus,5G,1,1,1,1,1,0,0
1103,3339,10330,expressbus,5G,1,1,1,1,1,0,0
1109,3340,10330,expressbus,5G,1,1,1,1,1,0,0
1115,3341,10330,expressbus,5G,1,1,1,1,1,0,0
1121,3342,10330,expressbus,5G,1,1,1,1,1,0,0
1127,3343,10330,expressbus,5G,1,1,1,1,1,0,0
1134,3344,10330,expressbus,5G,1,1,1,1,1,0,0
1141,3345,10330,expressbus,5G,1,1,1,1,1,0,0
1152,3346,10330,expressbus,5G,1,1,1,1,1,0,0
1166,3347,10330,expressbus,5G,1,1,1,1,1,0,0
1176,3348,10330,expressbus,5G,1,1,1,1,1,0,0
1191,3349,10330,expressbus,5G,1,1,1,1,1,0,0
1200,3350,10330,expressbus,5G,1,1,1,1,1,0,0
1212,3351,10330,expressbus,5G,1,1,1,1,1,0,0
1225,3352,10330,expressbus,5G,1,1,1,1,1,0,0
1236,3353,10330,expressbus,5G,1,1,1,1,1,0,0
1246,3354,10330,expressbus,5G,1,1,1,1,1,0,0
1257,3355,10330,expressbus,5G,1,1,1,1,1,0,0
1267,3356,10330,expressbus,5G,1,1,1,1,1,0,0
1276,3357,10330,expressbus,5G,1,1,1,1,1,0,0
1287,3358,10330,expressbus,5G,1,1,1,1,1,0,0
1294,3359,10330,expressbus,5G,1,1,1,1,1,0,0
1303,3360,10330,expressbus,5G,1,1,1,1,1,0,0
1314,3361,10330,expressbus,5G,1,1,1,1,1,0,0
1324,3362,10330,expressbus,5G,1,1,1,1,1,0,0
1334,3363,10330,expressbus,5G,1,1,1,1,1,0,0
1345,3364,10330,expressbus,5G,1,1,1,1,1,0,0
1355,3365,10330,expressbus,5G,1,1,1,1,1,0,0
1367,3366,10330,expressbus,5G,1,1,1,1,1,0,0
1378,3367,10330,expressbus,5G,1,1,1,1,1,0,0
1391,3368,10330,expressbus,5G,1,1,1,1,1,0,0
1402,3369,10330,expressbus,5G,1,1,1,1,1,0,0
325,3370,10331,expressbus,5G,0,0,0,0,0,1,0
341,3371,10331,expressbus,5G,0,0,0,0,0,1,0
358,3372,10331,expressbus,5G,0,0,0,0,0,1,0
372,3373,10331,expressbus,5G,0,0,0,0,0,1,0
386,3374,10331,expressbus,5G,0,0,0,0,0,1,0
400,3375,10331,expressbus,5G,0,0,0,0,0,1,0
414,3376,10331,expressbus,5G,0,0,0,0,0,1,0
425,3377,10331,expressbus,5G,0,0,0,0,0,1,0
436,3378,10331,expressbus,5G,0,0,0,0,0,1,0
448,3379,10331,expressbus,5G,0,0,0,0,0,1,0
461,3380,10331,expressbus,5G,0,0,0,0,0,1,0
473,3381,10331,expressbus,5G,0,0,0,0,0,1,0
487,3382,10331,expressbus,5G,0,0,0,0,0,1,0
501,3383,10331,expressbus,5G,0,0,0,0,0,1,0
514,3384,10331,expressbus,5G,0,0,0,0,0,1,0
527,3385,10331,expressbus,5G,0,0,0,0,0,1,0
539,3386,10331,expressbus,5G,0,0,0,0,0,1,0
551,3387,10331,expressbus,5G,0,0,0,0,0,1,0
563,3388,10331,expressbus,5G,0,0,0,0,0,1,0
576,3389,10331,expressbus,5G,0,0,0,0,0,1,0
591,3390,10331,expressbus,5G,0,0,0,0,0,1,0
605,3391,10331,expressbus,5G,0,0,0,0,0,1,0
618,3392,10331,expressbus,5G,0,0,0,0,0,1,0
629,3393,10331,expressbus,5G,0,0,0,0,0,1,0
640,3394,10331,expressbus,5G,0,0,0,0,0,1,0
650,3395,10331,expressbus,5G,0,0,0,0,0,1,0
661,3396,10331,expressbus,5G,0,0,0,0,0,1,0
669,3397,10331,expressbus,5G,0,0,0,0,0,1,0
678,3398,10331,expressbus,5G,0,0,0,0,0,1,0
686,3399,10331,expressbus,5G,0,0,0,0,0,1,0
695,3400,10331,expressbus,5G,0,0,0,0,0,1,0
706,3401,10331,expressbus,5G,0,0,0,0,0,1,0
720,3402,10331,expressbus,5G,0,0,0,0,0,1,0
735,3403,10331,expressbus,5G,0,0,0,0,0,1,0
749,3404,10331,expressbus,5G,0,0,0,0,0,1,0
759,3405,10331,expressbus,5G,0,0,0,0,0,1,0
767,3406,10331,expressbus,5G,0,0,0,0,0,1,0
777,3407,10331,expressbus,5G,0,0,0,0,0,1,0
787,3408,10331,expressbus,5G,0,0,0,0,0,1,0
795,3409,10331,expressbus,5G,0,0,0,0,0,1,0
803,3410,10331,expressbus,5G,0,0,0,0,0,1,0
811,3411,10331,expressbus,5G,0,0,0,0,0,1,0
819,3412,10331,expressbus,5G,0,0,0,0,0,1,0
830,3413,10331,expressbus,5G,0,0,0,0,0,1,0
842,3414,10331,expressbus,5G,0,0,0,0,0,1,0
853,3415,10331,expressbus,5G,0,0,0,0,0,1,0
862,3416,10331,expressbus,5G,0,0,0,0,0,1,0
876,3417,10331,expressbus,5G,0,0,0,0,0,1,0
892,3418,10331,expressbus,5G,0,0,0,0,0,1,0
899,3419,10331,expressbus,5G,0,0,0,0,0,1,0
906,3420,10331,expressbus,5G,0,0,0,0,0,1,0
913,3421,10331,expressbus,5G,0,0,0,0,0,1,0
922,3422,10331,expressbus,5G,0,0,0,0,0,1,0
930,3423,10331,expressbus,5G,0,0,0,0,0,1,0
940,3424,10331,expressbus,5G,0,0,0,0,0,1,0
951,3425,10331,expressbus,5G,0,0,0,0,0,1,0
962,3426,10331,expressbus,5G,0,0,0,0,0,1,0
970,3427,10331,expressbus,5G,0,0,0,0,0,1,0
979,3428,10331,expressbus,5G,0,0,0,0,0,1,0
987,3429,10331,expressbus,5G,0,0,0,0,0,1,0
994,3430,10331,expressbus,5G,0,0,0,0,0,1,0
1002,3431,10331,expressbus,5G,0,0,0,0,0,1,0
1011,3432,10331,expressbus,5G,0,0,0,0,0,1,0
1020,3433,10331,expressbus,5G,0,0,0,0,0,1,0
1028,3434,10331,expressbus,5G,0,0,0,0,0,1,0
1038,3435,10331,expressbus,5G,0,0,0,0,0,1,0
1047,3436,10331,expressbus,5G,0,0,0,0,0,1,0
1057,3437,10331,expressbus,5G,0,0,0,0,0,1,0
1067,3438,10331,expressbus,5G,0,0,0,0,0,1,0
1077,3439,10331,expressbus,5G,0,0,0,0,0,1,0
1085,3440,10331,expressbus,5G,0,0,0,0,0,1,0
1094,3441,10331,expressbus,5G,0,0,0,0,0,1,0
1104,3442,10331,expressbus,5G,0,0,0,0,0,1,0
1114,3443,10331,expressbus,5G,0,0,0,0,0,1,0
1124,3444,10331,expressbus,5G,0,0,0,0,0,1,0
1136,3445,10331,expressbus,5G,0,0,0,0,0,1,0
1154,3446,10331,expressbus,5G,0,0,0,0,0,1,0
1169,3447,10331,expressbus,5G,0,0,0,0,0,1,0
1184,3448,10331,expressbus,5G,0,0,0,0,0,1,0
1202,3449,10331,expressbus,5G,0,0,0,0,0,1,0
1222,3450,10331,expressbus,5G,0,0,0,0,0,1,0
1238,3451,10331,expressbus,5G,0,0,0,0,0,1,0
1254,3452,10331,expressbus,5G,0,0,0,0,0,1,0
1267,3453,10331,expressbus,5G,0,0,0,0,0,1,0
1283,3454,10331,expressbus,5G,0,0,0,0,0,1,0
1300,3455,10331,expressbus,5G,0,0,0,0,0,1,0
1311,3456,10331,expressbus,5G,0,0,0,0,0,1,0
1325,3457,10331,expressbus,5G,0,0,0,0,0,1,0
1339,3458,10331,expressbus,5G,0,0,0,0,0,1,0
1354,3459,10331,expressbus,5G,0,0,0,0,0,1,0
1366,3460,10331,expressbus,5G,0,0,0,0,0,1,0
1382,3461,10331,expressbus,5G,0,0,0,0,0,1,0
358,3462,10332,expressbus,5G,0,0,0,0,0,0,1
372,3463,10332,expressbus,5G,0,0,0,0,0,0,1
386,3464,10332,expressbus,5G,0,0,0,0,0,0,1
400,3465,10332,expressbus,5G,0,0,0,0,0,0,1
414,3466,10332,expressbus,5G,0,0,0,0,0,0,1
425,3467,10332,expressbus,5G,0,0,0,0,0,0,1
436,3468,10332,expressbus,5G,0,0,0,0,0,0,1
448,3469,10332,expressbus,5G,0,0,0,0,0,0,1
461,3470,10332,expressbus,5G,0,0,0,0,0,0,1
473,3471,10332,expressbus,5G,0,0,0,0,0,0,1
487,3472,10332,expressbus,5G,0,0,0,0,0,0,1
501,3473,10332,expressbus,5G,0,0,0,0,0,0,1
514,3474,10332,expressbus,5G,0,0,0,0,0,0,1
527,3475,10332,expressbus,5G,0,0,0,0,0,0,1
539,3476,10332,expressbus,5G,0,0,0,0,0,0,1
551,3477,10332,expressbus,5G,0,0,0,0,0,0,1
563,3478,10332,expressbus,5G,0,0,0,0,0,0,1
576,3479,10332,expressbus,5G,0,0,0,0,0,0,1
591,3480,10332,expressbus,5G,0,0,0,0,0,0,1
605,3481,10332,expressbus,5G,0,0,0,0,0,0,1
618,3482,10332,expressbus,5G,0,0,0,0,0,0,1
629,3483,10332,expressbus,5G,0,0,0,0,0,0,1
640,3484,10332,expressbus,5G,0,0,0,0,0,0,1
650,3485,10332,expressbus,5G,0,0,0,0,0,0,1
661,3486,10332,expressbus,5G,0,0,0,0,0,0,1
669,3487,10332,expressbus,5G,0,0,0,0,0,0,1
678,3488,10332,expressbus,5G,0,0,0,0,0,0,1
686,3489,10332,expressbus,5G,0,0,0,0,0,0,1
695,3490,10332,expressbus,5G,0,0,0,0,0,0,1
706,3491,10332,expressbus,5G,0,0,0,0,0,0,1
720,3492,10332,expressbus,5G,0,0,0,0,0,0,1
735,3493,10332,expressbus,5G,0,0,0,0,0,0,1
749,3494,10332,expressbus,5G,0,0,0,0,0,0,1
759,3495,10332,expressbus,5G,0,0,0,0,0,0,1
767,3496,10332,expressbus,5G,0,0,0,0,0,0,1
777,3497,10332,expressbus,5G,0,0,0,0,0,0,1
787,3498,10332,expressbus,5G,0,0,0,0,0,0,1
795,3499,10332,expressbus,5G,0,0,0,0,0,0,1
803,3500,10332,expressbus,5G,0,0,0,0,0,0,1
811,3501,10332,expressbus,5G,0,0,0,0,0,0,1
819,3502,10332,expressbus,5G,0,0,0,0,0,0,1
830,3503,10332,expressbus,5G,0,0,0,0,0,0,1
842,3504,10332,expressbus,5G,0,0,0,0,0,0,1
853,3505,10332,expressbus,5G,0,0,0,0,0,0,1
862,3506,10332,expressbus,5G,0,0,0,0,0,0,1
876,3507,10332,expressbus,5G,0,0,0,0,0,0,1
892,3508,10332,expressbus,5G,0,0,0,0,0,0,1
899,3509,10332,expressbus,5G,0,0,0,0,0,0,1
906,3510,10332,expressbus,5G,0,0,0,0,0,0,1
913,3511,10332,expressbus,5G,0,0,0,0,0,0,1
922,3512,10332,expressbus,5G,0,0,0,0,0,0,1
930,3513,10332,expressbus,5G,0,0,0,0,0,0,1
940,3514,10332,expressbus,5G,0,0,0,0,0,0,1
951,3515,10332,expressbus,5G,0,0,0,0,0,0,1
962,3516,10332,expressbus,5G,0,0,0,0,0,0,1
970,3517,10332,expressbus,5G,0,0,0,0,0,0,1
979,3518,10332,expressbus,5G,0,0,0,0,0,0,1
987,3519,10332,expressbus,5G,0,0,0,0,0,0,1
994,3520,10332,expressbus,5G,0,0,0,0,0,0,1
1002,3521,10332,expressbus,5G,0,0,0,0,0,0,1
1011,3522,10332,expressbus,5G,0,0,0,0,0,0,1
1020,3523,10332,expressbus,5G,0,0,0,0,0,0,1
1028,3524,10332,expressbus,5G,0,0,0,0,0,0,1
1038,3525,10332,expressbus,5G,0,0,0,0,0,0,1
1047,3526,10332,expressbus,5G,0,0,0,0,0,0,1
1057,3527,10332,expressbus,5G,0,0,0,0,0,0,1
1067,3528,10332,expressbus,5G,0,0,0,0,0,0,1
1077,3529,10332,expressbus,5G,0,0,0,0,0,0,1
1085,3530,10332,expressbus,5G,0,0,0,0,0,0,1
1094,3531,10332,expressbus,5G,0,0,0,0,0,0,1
1104,3532,10332,expressbus,5G,0,0,0,0,0,0,1
1114,3533,10332,expressbus,5G,0,0,0,0,0,0,1
1124,3534,10332,expressbus,5G,0,0,0,0,0,0,1
1136,3535,10332,expressbus,5G,0,0,0,0,0,0,1
1154,3536,10332,expressbus,5G,0,0,0,0,0,0,1
1169,3537,10332,expressbus,5G,0,0,0,0,0,0,1
1184,3538,10332,expressbus,5G,0,0,0,0,0,0,1
1202,3539,10332,expressbus,5G,0,0,0,0,0,0,1
1222,3540,10332,expressbus,5G,0,0,0,0,0,0,1
1238,3541,10332,expressbus,5G,0,0,0,0,0,0,1
1254,3542,10332,expressbus,5G,0,0,0,0,0,0,1
1267,3543,10332,expressbus,5G,0,0,0,0,0,0,1
1283,3544,10332,expressbus,5G,0,0,0,0,0,0,1
1300,3545,10332,expressbus,5G,0,0,0,0,0,0,1
1311,3546,10332,expressbus,5G,0,0,0,0,0,0,1
1325,3547,10332,expressbus,5G,0,0,0,0,0,0,1
1339,3548,10332,expressbus,5G,0,0,0,0,0,0,1
1354,3549,10332,expressbus,5G,0,0,0,0,0,0,1
1366,3550,10332,expressbus,5G,0,0,0,0,0,0,1
1382,3551,10332,expressbus,5G,0,0,0,0,0,0,1
1409,3852,10330,expressbus,5G,1,1,1,1,1,0,0
1425,3853,10330,expressbus,5G,1,1,1,1,1,0,0
1440,3854,10330,expressbus,5G,1,1,1,1,1,0,0
1385,3855,10331,expressbus,5G,0,0,0,0,0,1,0
1395,3856,10331,expressbus,5G,0,0,0,0,0,1,0
1409,3857,10331,expressbus,5G,0,0,0,0,0,1,0
1425,3858,10331,expressbus,5G,0,0,0,0,0,1,0
1385,3859,10332,expressbus,5G,0,0,0,0,0,0,1
1395,3860,10332,expressbus,5G,0,0,0,0,0,0,1
1409,3861,10332,expressbus,5G,0,0,0,0,0,0,1
1425,3862,10332,expressbus,5G,0,0,0,0,0,0,1
1407,7618,9328,bus,25,1,1,1,1,1,0,0
1408,7619,9329,bus,25,0,0,0,0,0,1,0
319,10802,10596,bus,43,1,1,1,1,1,0,0
340,10803,10596,bus,43,1,1,1,1,1,0,0
360,10804,10596,bus,43,1,1,1,1,1,0,0
377,10805,10596,bus,43,1,1,1,1,1,0,0
389,10806,10596,bus,43,1,1,1,1,1,0,0
401,10807,10596,bus,43,1,1,1,1,1,0,0
413,10808,10596,bus,43,1,1,1,1,1,0,0
431,10809,10596,bus,43,1,1,1,1,1,0,0
443,10810,10596,bus,43,1,1,1,1,1,0,0
461,10811,10596,bus,43,1,1,1,1,1,0,0
477,10812,10596,bus,43,1,1,1,1,1,0,0
490,10813,10596,bus,43,1,1,1,1,1,0,0
509,10814,10596,bus,43,1,1,1,1,1,0,0
525,10815,10596,bus,43,1,1,1,1,1,0,0
545,10816,10596,bus,43,1,1,1,1,1,0,0
568,10817,10596,bus,43,1,1,1,1,1,0,0
583,10818,10596,bus,43,1,1,1,1,1,0,0
605,10819,10596,bus,43,1,1,1,1,1,0,0
624,10820,10596,bus,43,1,1,1,1,1,0,0
644,10821,10596,bus,43,1,1,1,1,1,0,0
665,10822,10596,bus,43,1,1,1,1,1,0,0
683,10823,10596,bus,43,1,1,1,1,1,0,0
703,10824,10596,bus,43,1,1,1,1,1,0,0
724,10825,10596,bus,43,1,1,1,1,1,0,0
742,10826,10596,bus,43,1,1,1,1,1,0,0
763,10827,10596,bus,43,1,1,1,1,1,0,0
782,10828,10596,bus,43,1,1,1,1,1,0,0
801,10829,10596,bus,43,1,1,1,1,1,0,0
820,10830,10596,bus,43,1,1,1,1,1,0,0
842,10831,10596,bus,43,1,1,1,1,1,0,0
865,10832,10596,bus,43,1,1,1,1,1,0,0
882,10833,10596,bus,43,1,1,1,1,1,0,0
902,10834,10596,bus,43,1,1,1,1,1,0,0
916,10835,10596,bus,43,1,1,1,1,1,0,0
931,10836,10596,bus,43,1,1,1,1,1,0,0
947,10837,10596,bus,43,1,1,1,1,1,0,0
956,10838,10596,bus,43,1,1,1,1,1,0,0
967,10839,10596,bus,43,1,1,1,1,1,0,0
983,10840,10596,bus,43,1,1,1,1,1,0,0
998,10841,10596,bus,43,1,1,1,1,1,0,0
1012,10842,10596,bus,43,1,1,1,1,1,0,0
1030,10843,10596,bus,43,1,1,1,1,1,0,0
1044,10844,10596,bus,43,1,1,1,1,1,0,0
1057,10845,10596,bus,43,1,1,1,1,1,0,0
1073,10846,10596,bus,43,1,1,1,1,1,0,0
1090,10847,10596,bus,43,1,1,1,1,1,0,0
1111,10848,10596,bus,43,1,1,1,1,1,0,0
1128,10849,10596,bus,43,1,1,1,1,1,0,0
1150,10850,10596,bus,43,1,1,1,1,1,0,0
1169,10851,10596,bus,43,1,1,1,1,1,0,0
1191,10852,10596,bus,43,1,1,1,1,1,0,0
1216,10853,10596,bus,43,1,1,1,1,1,0,0
1237,10854,10596,bus,43,1,1,1,1,1,0,0
1251,10855,10596,bus,43,1,1,1,1,1,0,0
1273,10856,10596,bus,43,1,1,1,1,1,0,0
1295,10857,10596,bus,43,1,1,1,1,1,0,0
1310,10858,10596,bus,43,1,1,1,1,1,0,0
1332,10859,10596,bus,43,1,1,1,1,1,0,0
1349,10860,10596,bus,43,1,1,1,1,1,0,0
1368,10861,10596,bus,43,1,1,1,1,1,0,0
1392,10862,10596,bus,43,1,1,1,1,1,0,0
405,10863,10598,bus,43,0,0,0,0,0,0,1
442,10864,10598,bus,43,0,0,0,0,0,0,1
479,10865,10598,bus,43,0,0,0,0,0,0,1
513,10866,10598,bus,43,0,0,0,0,0,0,1
543,10867,10598,bus,43,0,0,0,0,0,0,1
567,10868,10598,bus,43,0,0,0,0,0,0,1
589,10869,10598,bus,43,0,0,0,0,0,0,1
615,10870,10598,bus,43,0,0,0,0,0,0,1
630,10871,10598,bus,43,0,0,0,0,0,0,1
650,10872,10598,bus,43,0,0,0,0,0,0,1
668,10873,10598,bus,43,0,0,0,0,0,0,1
692,10874,10598,bus,43,0,0,0,0,0,0,1
716,10875,10598,bus,43,0,0,0,0,0,0,1
741,10876,10598,bus,43,0,0,0,0,0,0,1
759,10877,10598,bus,43,0,0,0,0,0,0,1
783,10878,10598,bus,43,0,0,0,0,0,0,1
814,10879,10598,bus,43,0,0,0,0,0,0,1
832,10880,10598,bus,43,0,0,0,0,0,0,1
847,10881,10598,bus,43,0,0,0,0,0,0,1
869,10882,10598,bus,43,0,0,0,0,0,0,1
893,10883,10598,bus,43,0,0,0,0,0,0,1
914,10884,10598,bus,43,0,0,0,0,0,0,1
942,10885,10598,bus,43,0,0,0,0,0,0,1
963,10886,10598,bus,43,0,0,0,0,0,0,1
980,10887,10598,bus,43,0,0,0,0,0,0,1
1001,10888,10598,bus,43,0,0,0,0,0,0,1
1021,10889,10598,bus,43,0,0,0,0,0,0,1
1039,10890,10598,bus,43,0,0,0,0,0,0,1
1068,10891,10598,bus,43,0,0,0,0,0,0,1
1119,10892,10598,bus,43,0,0,0,0,0,0,1
1166,10893,10598,bus,43,0,0,0,0,0,0,1
1202,10894,10598,bus,43,0,0,0,0,0,0,1
1239,10895,10598,bus,43,0,0,0,0,0,0,1
1275,10896,10598,bus,43,0,0,0,0,0,0,1
1313,10897,10598,bus,43,0,0,0,0,0,0,1
1351,10898,10598,bus,43,0,0,0,0,0,0,1
1391,10899,10598,bus,43,0,0,0,0,0,0,1
327,10900,10597,bus,43,0,0,0,0,0,1,0
371,10901,10597,bus,43,0,0,0,0,0,1,0
405,10902,10597,bus,43,0,0,0,0,0,1,0
442,10903,10597,bus,43,0,0,0,0,0,1,0
479,10904,10597,bus,43,0,0,0,0,0,1,0
513,10905,10597,bus,43,0,0,0,0,0,1,0
543,10906,10597,bus,43,0,0,0,0,0,1,0
567,10907,10597,bus,43,0,0,0,0,0,1,0
589,10908,10597,bus,43,0,0,0,0,0,1,0
615,10909,10597,bus,43,0,0,0,0,0,1,0
630,10910,10597,bus,43,0,0,0,0,0,1,0
650,10911,10597,bus,43,0,0,0,0,0,1,0
668,10912,10597,bus,43,0,0,0,0,0,1,0
692,10913,10597,bus,43,0,0,0,0,0,1,0
716,10914,10597,bus,43,0,0,0,0,0,1,0
741,10915,10597,bus,43,0,0,0,0,0,1,0
759,10916,10597,bus,43,0,0,0,0,0,1,0
783,10917,10597,bus,43,0,0,0,0,0,1,0
814,10918,10597,bus,43,0,0,0,0,0,1,0
832,10919,10597,bus,43,0,0,0,0,0,1,0
847,10920,10597,bus,43,0,0,0,0,0,1,0
869,10921,10597,bus,43,0,0,0,0,0,1,0
893,10922,10597,bus,43,0,0,0,0,0,1,0
914,10923,10597,bus,43,0,0,0,0,0,1,0
942,10924,10597,bus,43,0,0,0,0,0,1,0
963,10925,10597,bus,43,0,0,0,0,0,1,0
980,10926,10597,bus,43,0,0,0,0,0,1,0
1001,10927,10597,bus,43,0,0,0,0,0,1,0
1021,10928,10597,bus,43,0,0,0,0,0,1,0
1039,10929,10597,bus,43,0,0,0,0,0,1,0
1068,10930,10597,bus,43,0,0,0,0,0,1,0
1119,10931,10597,bus,43,0,0,0,0,0,1,0
1166,10932,10597,bus,43,0,0,0,0,0,1,0
1202,10933,10597,bus,43,0,0,0,0,0,1,0
1239,10934,10597,bus,43,0,0,0,0,0,1,0
1275,10935,10597,bus,43,0,0,0,0,0,1,0
1313,10936,10597,bus,43,0,0,0,0,0,1,0
1351,10937,10597,bus,43,0,0,0,0,0,1,0
1391,10938,10597,bus,43,0,0,0,0,0,1,0
367,11104,10383,bus,46,0,0,0,0,0,0,1
398,11105,10383,bus,46,0,0,0,0,0,0,1
418,11106,10383,bus,46,0,0,0,0,0,0,1
439,11107,10383,bus,46,0,0,0,0,0,0,1
461,11108,10383,bus,46,0,0,0,0,0,0,1
481,11109,10383,bus,46,0,0,0,0,0,0,1
502,11110,10383,bus,46,0,0,0,0,0,0,1
523,11111,10383,bus,46,0,0,0,0,0,0,1
543,11112,10383,bus,46,0,0,0,0,0,0,1
564,11113,10383,bus,46,0,0,0,0,0,0,1
604,11114,10383,bus,46,0,0,0,0,0,0,1
632,11115,10383,bus,46,0,0,0,0,0,0,1
653,11116,10383,bus,46,0,0,0,0,0,0,1
673,11117,10383,bus,46,0,0,0,0,0,0,1
693,11118,10383,bus,46,0,0,0,0,0,0,1
714,11119,10383,bus,46,0,0,0,0,0,0,1
736,11120,10383,bus,46,0,0,0,0,0,0,1
755,11121,10383,bus,46,0,0,0,0,0,0,1
776,11122,10383,bus,46,0,0,0,0,0,0,1
798,11123,10383,bus,46,0,0,0,0,0,0,1
817,11124,10383,bus,46,0,0,0,0,0,0,1
838,11125,10383,bus,46,0,0,0,0,0,0,1
860,11126,10383,bus,46,0,0,0,0,0,0,1
879,11127,10383,bus,46,0,0,0,0,0,0,1
900,11128,10383,bus,46,0,0,0,0,0,0,1
922,11129,10383,bus,46,0,0,0,0,0,0,1
941,11130,10383,bus,46,0,0,0,0,0,0,1
962,11131,10383,bus,46,0,0,0,0,0,0,1
985,11132,10383,bus,46,0,0,0,0,0,0,1
1007,11133,10383,bus,46,0,0,0,0,0,0,1
1028,11134,10383,bus,46,0,0,0,0,0,0,1
1066,11135,10383,bus,46,0,0,0,0,0,0,1
1091,11136,10383,bus,46,0,0,0,0,0,0,1
1115,11137,10383,bus,46,0,0,0,0,0,0,1
1148,11138,10383,bus,46,0,0,0,0,0,0,1
1173,11139,10383,bus,46,0,0,0,0,0,0,1
1197,11140,10383,bus,46,0,0,0,0,0,0,1
1217,11141,10383,bus,46,0,0,0,0,0,0,1
1236,11142,10383,bus,46,0,0,0,0,0,0,1
1258,11143,10383,bus,46,0,0,0,0,0,0,1
1280,11144,10383,bus,46,0,0,0,0,0,0,1
1301,11145,10383,bus,46,0,0,0,0,0,0,1
1322,11146,10383,bus,46,0,0,0,0,0,0,1
1348,11147,10383,bus,46,0,0,0,0,0,0,1
1367,11148,10383,bus,46,0,0,0,0,0,0,1
1386,11149,10383,bus,46,0,0,0,0,0,0,1
333,11150,10381,bus,46,1,1,1,1,1,0,0
347,11151,10381,bus,46,1,1,1,1,1,0,0
361,11152,10381,bus,46,1,1,1,1,1,0,0
375,11153,10381,bus,46,1,1,1,1,1,0,0
388,11154,10381,bus,46,1,1,1,1,1,0,0
402,11155,10381,bus,46,1,1,1,1,1,0,0
415,11156,10381,bus,46,1,1,1,1,1,0,0
426,11157,10381,bus,46,1,1,1,1,1,0,0
437,11158,10381,bus,46,1,1,1,1,1,0,0
449,11159,10381,bus,46,1,1,1,1,1,0,0
460,11160,10381,bus,46,1,1,1,1,1,0,0
473,11161,10381,bus,46,1,1,1,1,1,0,0
487,11162,10381,bus,46,1,1,1,1,1,0,0
500,11163,10381,bus,46,1,1,1,1,1,0,0
512,11164,10381,bus,46,1,1,1,1,1,0,0
524,11165,10381,bus,46,1,1,1,1,1,0,0
535,11166,10381,bus,46,1,1,1,1,1,0,0
547,11167,10381,bus,46,1,1,1,1,1,0,0
561,11168,10381,bus,46,1,1,1,1,1,0,0
579,11169,10381,bus,46,1,1,1,1,1,0,0
605,11170,10381,bus,46,1,1,1,1,1,0,0
637,11171,10381,bus,46,1,1,1,1,1,0,0
656,11172,10381,bus,46,1,1,1,1,1,0,0
675,11173,10381,bus,46,1,1,1,1,1,0,0
695,11174,10381,bus,46,1,1,1,1,1,0,0
714,11175,10381,bus,46,1,1,1,1,1,0,0
732,11176,10381,bus,46,1,1,1,1,1,0,0
749,11177,10381,bus,46,1,1,1,1,1,0,0
767,11178,10381,bus,46,1,1,1,1,1,0,0
785,11179,10381,bus,46,1,1,1,1,1,0,0
803,11180,10381,bus,46,1,1,1,1,1,0,0
821,11181,10381,bus,46,1,1,1,1,1,0,0
839,11182,10381,bus,46,1,1,1,1,1,0,0
855,11183,10381,bus,46,1,1,1,1,1,0,0
873,11184,10381,bus,46,1,1,1,1,1,0,0
892,11185,10381,bus,46,1,1,1,1,1,0,0
910,11186,10381,bus,46,1,1,1,1,1,0,0
924,11187,10381,bus,46,1,1,1,1,1,0,0
937,11188,10381,bus,46,1,1,1,1,1,0,0
950,11189,10381,bus,46,1,1,1,1,1,0,0
962,11190,10381,bus,46,1,1,1,1,1,0,0
975,11191,10381,bus,46,1,1,1,1,1,0,0
989,11192,10381,bus,46,1,1,1,1,1,0,0
1003,11193,10381,bus,46,1,1,1,1,1,0,0
1016,11194,10381,bus,46,1,1,1,1,1,0,0
1029,11195,10381,bus,46,1,1,1,1,1,0,0
1040,11196,10381,bus,46,1,1,1,1,1,0,0
1054,11197,10381,bus,46,1,1,1,1,1,0,0
1068,11198,10381,bus,46,1,1,1,1,1,0,0
1082,11199,10381,bus,46,1,1,1,1,1,0,0
1095,11200,10381,bus,46,1,1,1,1,1,0,0
1109,11201,10381,bus,46,1,1,1,1,1,0,0
1121,11202,10381,bus,46,1,1,1,1,1,0,0
1145,11203,10381,bus,46,1,1,1,1,1,0,0
1168,11204,10381,bus,46,1,1,1,1,1,0,0
1187,11205,10381,bus,46,1,1,1,1,1,0,0
1205,11206,10381,bus,46,1,1,1,1,1,0,0
1223,11207,10381,bus,46,1,1,1,1,1,0,0
1242,11208,10381,bus,46,1,1,1,1,1,0,0
1259,11209,10381,bus,46,1,1,1,1,1,0,0
1276,11210,10381,bus,46,1,1,1,1,1,0,0
1294,11211,10381,bus,46,1,1,1,1,1,0,0
1312,11212,10381,bus,46,1,1,1,1,1,0,0
1329,11213,10381,bus,46,1,1,1,1,1,0,0
1346,11214,10381,bus,46,1,1,1,1,1,0,0
1364,11215,10381,bus,46,1,1,1,1,1,0,0
1384,11216,10381,bus,46,1,1,1,1,1,0,0
335,11217,10382,bus,46,0,0,0,0,0,1,0
356,11218,10382,bus,46,0,0,0,0,0,1,0
377,11219,10382,bus,46,0,0,0,0,0,1,0
398,11220,10382,bus,46,0,0,0,0,0,1,0
418,11221,10382,bus,46,0,0,0,0,0,1,0
439,11222,10382,bus,46,0,0,0,0,0,1,0
461,11223,10382,bus,46,0,0,0,0,0,1,0
481,11224,10382,bus,46,0,0,0,0,0,1,0
502,11225,10382,bus,46,0,0,0,0,0,1,0
523,11226,10382,bus,46,0,0,0,0,0,1,0
543,11227,10382,bus,46,0,0,0,0,0,1,0
564,11228,10382,bus,46,0,0,0,0,0,1,0
604,11229,10382,bus,46,0,0,0,0,0,1,0
632,11230,10382,bus,46,0,0,0,0,0,1,0
653,11231,10382,bus,46,0,0,0,0,0,1,0
673,11232,10382,bus,46,0,0,0,0,0,1,0
693,11233,10382,bus,46,0,0,0,0,0,1,0
714,11234,10382,bus,46,0,0,0,0,0,1,0
736,11235,10382,bus,46,0,0,0,0,0,1,0
755,11236,10382,bus,46,0,0,0,0,0,1,0
776,11237,10382,bus,46,0,0,0,0,0,1,0
798,11238,10382,bus,46,0,0,0,0,0,1,0
817,11239,10382,bus,46,0,0,0,0,0,1,0
838,11240,10382,bus,46,0,0,0,0,0,1,0
860,11241,10382,bus,46,0,0,0,0,0,1,0
879,11242,10382,bus,46,0,0,0,0,0,1,0
900,11243,10382,bus,46,0,0,0,0,0,1,0
922,11244,10382,bus,46,0,0,0,0,0,1,0
941,11245,10382,bus,46,0,0,0,0,0,1,0
962,11246,10382,bus,46,0,0,0,0,0,1,0
985,11247,10382,bus,46,0,0,0,0,0,1,0
1007,11248,10382,bus,46,0,0,0,0,0,1,0
1028,11249,10382,bus,46,0,0,0,0,0,1,0
1066,11250,10382,bus,46,0,0,0,0,0,1,0
1091,11251,10382,bus,46,0,0,0,0,0,1,0
1115,11252,10382,bus,46,0,0,0,0,0,1,0
1148,11253,10382,bus,46,0,0,0,0,0,1,0
1173,11254,10382,bus,46,0,0,0,0,0,1,0
1197,11255,10382,bus,46,0,0,0,0,0,1,0
1217,11256,10382,bus,46,0,0,0,0,0,1,0
1236,11257,10382,bus,46,0,0,0,0,0,1,0
1258,11258,10382,bus,46,0,0,0,0,0,1,0
1280,11259,10382,bus,46,0,0,0,0,0,1,0
1301,11260,10382,bus,46,0,0,0,0,0,1,0
1322,11261,10382,bus,46,0,0,0,0,0,1,0
1348,11262,10382,bus,46,0,0,0,0,0,1,0
1367,11263,10382,bus,46,0,0,0,0,0,1,0
1386,11264,10382,bus,46,0,0,0,0,0,1,0
1400,11426,10383,bus,46,0,0,0,0,0,0,1
1419,11427,10383,bus,46,0,0,0,0,0,0,1
1438,11428,10383,bus,46,0,0,0,0,0,0,1
1160,11429,10381,bus,46,1,1,1,1,1,0,0
1181,11430,10381,bus,46,1,1,1,1,1,0,0
1388,11431,10381,bus,46,1,1,1,1,1,0,0
1403,11432,10381,bus,46,1,1,1,1,1,0,0
1423,11433,10381,bus,46,1,1,1,1,1,0,0
1439,11434,10381,bus,46,1,1,1,1,1,0,0
1400,11435,10382,bus,46,0,0,0,0,0,1,0
1419,11436,10382,bus,46,0,0,0,0,0,1,0
1438,11437,10382,bus,46,0,0,0,0,0,1,0
352,11528,10384,bus,48,1,1,1,1,1,0,0
393,11529,10384,bus,48,1,1,1,1,1,0,0
447,11530,10384,bus,48,1,1,1,1,1,0,0
481,11531,10384,bus,48,1,1,1,1,1,0,0
516,11532,10384,bus,48,1,1,1,1,1,0,0
543,11533,10384,bus,48,1,1,1,1,1,0,0
574,11534,10384,bus,48,1,1,1,1,1,0,0
604,11535,10384,bus,48,1,1,1,1,1,0,0
659,11536,10384,bus,48,1,1,1,1,1,0,0
690,11537,10384,bus,48,1,1,1,1,1,0,0
717,11538,10384,bus,48,1,1,1,1,1,0,0
746,11539,10384,bus,48,1,1,1,1,1,0,0
775,11540,10384,bus,48,1,1,1,1,1,0,0
804,11541,10384,bus,48,1,1,1,1,1,0,0
836,11542,10384,bus,48,1,1,1,1,1,0,0
863,11543,10384,bus,48,1,1,1,1,1,0,0
893,11544,10384,bus,48,1,1,1,1,1,0,0
927,11545,10384,bus,48,1,1,1,1,1,0,0
951,11546,10384,bus,48,1,1,1,1,1,0,0
986,11547,10384,bus,48,1,1,1,1,1,0,0
1016,11548,10384,bus,48,1,1,1,1,1,0,0
1052,11549,10384,bus,48,1,1,1,1,1,0,0
1075,11550,10384,bus,48,1,1,1,1,1,0,0
1113,11551,10384,bus,48,1,1,1,1,1,0,0
1146,11552,10384,bus,48,1,1,1,1,1,0,0
1169,11553,10384,bus,48,1,1,1,1,1,0,0
1202,11554,10384,bus,48,1,1,1,1,1,0,0
1254,11555,10384,bus,48,1,1,1,1,1,0,0
1276,11556,10384,bus,48,1,1,1,1,1,0,0
1310,11557,10384,bus,48,1,1,1,1,1,0,0
1335,11558,10384,bus,48,1,1,1,1,1,0,0
1366,11559,10384,bus,48,1,1,1,1,1,0,0
1391,11560,10384,bus,48,1,1,1,1,1,0,0
1416,11561,10384,bus,48,1,1,1,1,1,0,0
360,11562,10385,bus,48,0,0,0,0,0,1,0
397,11563,10385,bus,48,0,0,0,0,0,1,0
442,11564,10385,bus,48,0,0,0,0,0,1,0
481,11565,10385,bus,48,0,0,0,0,0,1,0
524,11566,10385,bus,48,0,0,0,0,0,1,0
567,11567,10385,bus,48,0,0,0,0,0,1,0
633,11568,10385,bus,48,0,0,0,0,0,1,0
683,11569,10385,bus,48,0,0,0,0,0,1,0
730,11570,10385,bus,48,0,0,0,0,0,1,0
776,11571,10385,bus,48,0,0,0,0,0,1,0
813,11572,10385,bus,48,0,0,0,0,0,1,0
861,11573,10385,bus,48,0,0,0,0,0,1,0
902,11574,10385,bus,48,0,0,0,0,0,1,0
949,11575,10385,bus,48,0,0,0,0,0,1,0
987,11576,10385,bus,48,0,0,0,0,0,1,0
1035,11577,10385,bus,48,0,0,0,0,0,1,0
1072,11578,10385,bus,48,0,0,0,0,0,1,0
1119,11579,10385,bus,48,0,0,0,0,0,1,0
1182,11580,10385,bus,48,0,0,0,0,0,1,0
1230,11581,10385,bus,48,0,0,0,0,0,1,0
1273,11582,10385,bus,48,0,0,0,0,0,1,0
1308,11583,10385,bus,48,0,0,0,0,0,1,0
1348,11584,10385,bus,48,0,0,0,0,0,1,0
1385,11585,10385,bus,48,0,0,0,0,0,1,0
397,11586,10386,bus,48,0,0,0,0,0,0,1
442,11587,10386,bus,48,0,0,0,0,0,0,1
481,11588,10386,bus,48,0,0,0,0,0,0,1
524,11589,10386,bus,48,0,0,0,0,0,0,1
567,11590,10386,bus,48,0,0,0,0,0,0,1
633,11591,10386,bus,48,0,0,0,0,0,0,1
683,11592,10386,bus,48,0,0,0,0,0,0,1
730,11593,10386,bus,48,0,0,0,0,0,0,1
776,11594,10386,bus,48,0,0,0,0,0,0,1
813,11595,10386,bus,48,0,0,0,0,0,0,1
861,11596,10386,bus,48,0,0,0,0,0,0,1
902,11597,10386,bus,48,0,0,0,0,0,0,1
949,11598,10386,bus,48,0,0,0,0,0,0,1
987,11599,10386,bus,48,0,0,0,0,0,0,1
1035,11600,10386,bus,48,0,0,0,0,0,0,1
1072,11601,10386,bus,48,0,0,0,0,0,0,1
1119,11602,10386,bus,48,0,0,0,0,0,0,1
1182,11603,10386,bus,48,0,0,0,0,0,0,1
1230,11604,10386,bus,48,0,0,0,0,0,0,1
1273,11605,10386,bus,48,0,0,0,0,0,0,1
1308,11606,10386,bus,48,0,0,0,0,0,0,1
1348,11607,10386,bus,48,0,0,0,0,0,0,1
1385,11608,10386,bus,48,0,0,0,0,0,0,1
384,14470,10499,bus,73,0,0,0,0,0,0,1
426,14471,10499,bus,73,0,0,0,0,0,0,1
468,14472,10499,bus,73,0,0,0,0,0,0,1
519,14473,10499,bus,73,0,0,0,0,0,0,1
558,14474,10499,bus,73,0,0,0,0,0,0,1
595,14475,10499,bus,73,0,0,0,0,0,0,1
635,14476,10499,bus,73,0,0,0,0,0,0,1
672,14477,10499,bus,73,0,0,0,0,0,0,1
705,14478,10499,bus,73,0,0,0,0,0,0,1
734,14479,10499,bus,73,0,0,0,0,0,0,1
764,14480,10499,bus,73,0,0,0,0,0,0,1
797,14481,10499,bus,73,0,0,0,0,0,0,1
825,14482,10499,bus,73,0,0,0,0,0,0,1
858,14483,10499,bus,73,0,0,0,0,0,0,1
885,14484,10499,bus,73,0,0,0,0,0,0,1
920,14485,10499,bus,73,0,0,0,0,0,0,1
955,14486,10499,bus,73,0,0,0,0,0,0,1
994,14487,10499,bus,73,0,0,0,0,0,0,1
1015,14488,10499,bus,73,0,0,0,0,0,0,1
1047,14489,10499,bus,73,0,0,0,0,0,0,1
1090,14490,10499,bus,73,0,0,0,0,0,0,1
1137,14491,10499,bus,73,0,0,0,0,0,0,1
1173,14492,10499,bus,73,0,0,0,0,0,0,1
1224,14493,10499,bus,73,0,0,0,0,0,0,1
1283,14494,10499,bus,73,0,0,0,0,0,0,1
1327,14495,10499,bus,73,0,0,0,0,0,0,1
1370,14496,10499,bus,73,0,0,0,0,0,0,1
335,14497,10497,bus,73,1,1,1,1,1,0,0
366,14498,10497,bus,73,1,1,1,1,1,0,0
385,14499,10497,bus,73,1,1,1,1,1,0,0
415,14500,10497,bus,73,1,1,1,1,1,0,0
434,14501,10497,bus,73,1,1,1,1,1,0,0
451,14502,10497,bus,73,1,1,1,1,1,0,0
472,14503,10497,bus,73,1,1,1,1,1,0,0
495,14504,10497,bus,73,1,1,1,1,1,0,0
519,14505,10497,bus,73,1,1,1,1,1,0,0
539,14506,10497,bus,73,1,1,1,1,1,0,0
562,14507,10497,bus,73,1,1,1,1,1,0,0
598,14508,10497,bus,73,1,1,1,1,1,0,0
629,14509,10497,bus,73,1,1,1,1,1,0,0
660,14510,10497,bus,73,1,1,1,1,1,0,0
686,14511,10497,bus,73,1,1,1,1,1,0,0
717,14512,10497,bus,73,1,1,1,1,1,0,0
749,14513,10497,bus,73,1,1,1,1,1,0,0
773,14514,10497,bus,73,1,1,1,1,1,0,0
804,14515,10497,bus,73,1,1,1,1,1,0,0
836,14516,10497,bus,73,1,1,1,1,1,0,0
860,14517,10497,bus,73,1,1,1,1,1,0,0
896,14518,10497,bus,73,1,1,1,1,1,0,0
919,14519,10497,bus,73,1,1,1,1,1,0,0
935,14520,10497,bus,73,1,1,1,1,1,0,0
952,14521,10497,bus,73,1,1,1,1,1,0,0
970,14522,10497,bus,73,1,1,1,1,1,0,0
989,14523,10497,bus,73,1,1,1,1,1,0,0
1017,14524,10497,bus,73,1,1,1,1,1,0,0
1039,14525,10497,bus,73,1,1,1,1,1,0,0
1060,14526,10497,bus,73,1,1,1,1,1,0,0
1078,14527,10497,bus,73,1,1,1,1,1,0,0
1099,14528,10497,bus,73,1,1,1,1,1,0,0
1134,14529,10497,bus,73,1,1,1,1,1,0,0
1173,14530,10497,bus,73,1,1,1,1,1,0,0
1198,14531,10497,bus,73,1,1,1,1,1,0,0
1229,14532,10497,bus,73,1,1,1,1,1,0,0
1261,14533,10497,bus,73,1,1,1,1,1,0,0
1288,14534,10497,bus,73,1,1,1,1,1,0,0
1325,14535,10497,bus,73,1,1,1,1,1,0,0
1352,14536,10497,bus,73,1,1,1,1,1,0,0
1376,14537,10497,bus,73,1,1,1,1,1,0,0
338,14538,10498,bus,73,0,0,0,0,0,1,0
384,14539,10498,bus,73,0,0,0,0,0,1,0
426,14540,10498,bus,73,0,0,0,0,0,1,0
468,14541,10498,bus,73,0,0,0,0,0,1,0
519,14542,10498,bus,73,0,0,0,0,0,1,0
558,14543,10498,bus,73,0,0,0,0,0,1,0
595,14544,10498,bus,73,0,0,0,0,0,1,0
635,14545,10498,bus,73,0,0,0,0,0,1,0
672,14546,10498,bus,73,0,0,0,0,0,1,0
705,14547,10498,bus,73,0,0,0,0,0,1,0
734,14548,10498,bus,73,0,0,0,0,0,1,0
764,14549,10498,bus,73,0,0,0,0,0,1,0
797,14550,10498,bus,73,0,0,0,0,0,1,0
825,14551,10498,bus,73,0,0,0,0,0,1,0
858,14552,10498,bus,73,0,0,0,0,0,1,0
885,14553,10498,bus,73,0,0,0,0,0,1,0
920,14554,10498,bus,73,0,0,0,0,0,1,0
955,14555,10498,bus,73,0,0,0,0,0,1,0
994,14556,10498,bus,73,0,0,0,0,0,1,0
1015,14557,10498,bus,73,0,0,0,0,0,1,0
1047,14558,10498,bus,73,0,0,0,0,0,1,0
1090,14559,10498,bus,73,0,0,0,0,0,1,0
1137,14560,10498,bus,73,0,0,0,0,0,1,0
1173,14561,10498,bus,73,0,0,0,0,0,1,0
1224,14562,10498,bus,73,0,0,0,0,0,1,0
1283,14563,10498,bus,73,0,0,0,0,0,1,0
1327,14564,10498,bus,73,0,0,0,0,0,1,0
1370,14565,10498,bus,73,0,0,0,0,0,1,0
336,15025,10501,bus,75,0,0,0,0,0,1,0
392,15026,10501,bus,75,0,0,0,0,0,1,0
448,15027,10501,bus,75,0,0,0,0,0,1,0
513,15028,10501,bus,75,0,0,0,0,0,1,0
586,15029,10501,bus,75,0,0,0,0,0,1,0
622,15030,10501,bus,75,0,0,0,0,0,1,0
662,15031,10501,bus,75,0,0,0,0,0,1,0
699,15032,10501,bus,75,0,0,0,0,0,1,0
735,15033,10501,bus,75,0,0,0,0,0,1,0
781,15034,10501,bus,75,0,0,0,0,0,1,0
823,15035,10501,bus,75,0,0,0,0,0,1,0
874,15036,10501,bus,75,0,0,0,0,0,1,0
909,15037,10501,bus,75,0,0,0,0,0,1,0
951,15038,10501,bus,75,0,0,0,0,0,1,0
992,15039,10501,bus,75,0,0,0,0,0,1,0
1033,15040,10501,bus,75,0,0,0,0,0,1,0
1101,15041,10501,bus,75,0,0,0,0,0,1,0
1174,15042,10501,bus,75,0,0,0,0,0,1,0
1226,15043,10501,bus,75,0,0,0,0,0,1,0
1295,15044,10501,bus,75,0,0,0,0,0,1,0
1355,15045,10501,bus,75,0,0,0,0,0,1,0
322,15046,10500,bus,75,1,1,1,1,1,0,0
342,15047,10500,bus,75,1,1,1,1,1,0,0
366,15048,10500,bus,75,1,1,1,1,1,0,0
391,15049,10500,bus,75,1,1,1,1,1,0,0
411,15050,10500,bus,75,1,1,1,1,1,0,0
443,15051,10500,bus,75,1,1,1,1,1,0,0
470,15052,10500,bus,75,1,1,1,1,1,0,0
498,15053,10500,bus,75,1,1,1,1,1,0,0
525,15054,10500,bus,75,1,1,1,1,1,0,0
572,15055,10500,bus,75,1,1,1,1,1,0,0
606,15056,10500,bus,75,1,1,1,1,1,0,0
634,15057,10500,bus,75,1,1,1,1,1,0,0
685,15058,10500,bus,75,1,1,1,1,1,0,0
725,15059,10500,bus,75,1,1,1,1,1,0,0
762,15060,10500,bus,75,1,1,1,1,1,0,0
807,15061,10500,bus,75,1,1,1,1,1,0,0
854,15062,10500,bus,75,1,1,1,1,1,0,0
883,15063,10500,bus,75,1,1,1,1,1,0,0
906,15064,10500,bus,75,1,1,1,1,1,0,0
930,15065,10500,bus,75,1,1,1,1,1,0,0
956,15066,10500,bus,75,1,1,1,1,1,0,0
978,15067,10500,bus,75,1,1,1,1,1,0,0
1010,15068,10500,bus,75,1,1,1,1,1,0,0
1035,15069,10500,bus,75,1,1,1,1,1,0,0
1062,15070,10500,bus,75,1,1,1,1,1,0,0
1092,15071,10500,bus,75,1,1,1,1,1,0,0
1142,15072,10500,bus,75,1,1,1,1,1,0,0
1180,15073,10500,bus,75,1,1,1,1,1,0,0
1216,15074,10500,bus,75,1,1,1,1,1,0,0
1256,15075,10500,bus,75,1,1,1,1,1,0,0
1296,15076,10500,bus,75,1,1,1,1,1,0,0
1335,15077,10500,bus,75,1,1,1,1,1,0,0
392,15078,10502,bus,75,0,0,0,0,0,0,1
448,15079,10502,bus,75,0,0,0,0,0,0,1
513,15080,10502,bus,75,0,0,0,0,0,0,1
586,15081,10502,bus,75,0,0,0,0,0,0,1
622,15082,10502,bus,75,0,0,0,0,0,0,1
662,15083,10502,bus,75,0,0,0,0,0,0,1
699,15084,10502,bus,75,0,0,0,0,0,0,1
735,15085,10502,bus,75,0,0,0,0,0,0,1
781,15086,10502,bus,75,0,0,0,0,0,0,1
823,15087,10502,bus,75,0,0,0,0,0,0,1
874,15088,10502,bus,75,0,0,0,0,0,0,1
909,15089,10502,bus,75,0,0,0,0,0,0,1
951,15090,10502,bus,75,0,0,0,0,0,0,1
992,15091,10502,bus,75,0,0,0,0,0,0,1
1033,15092,10502,bus,75,0,0,0,0,0,0,1
1101,15093,10502,bus,75,0,0,0,0,0,0,1
1174,15094,10502,bus,75,0,0,0,0,0,0,1
1226,15095,10502,bus,75,0,0,0,0,0,0,1
1295,15096,10502,bus,75,0,0,0,0,0,0,1
1355,15097,10502,bus,75,0,0,0,0,0,0,1
340,15110,10502,bus,75,0,0,0,0,0,0,1
1419,16382,9973,nightbus,105N,0,0,0,0,1,1,0
1453,16383,9973,nightbus,105N,0,0,0,0,1,1,0
1490,16384,9973,nightbus,105N,0,0,0,0,1,1,0
1524,16385,9973,nightbus,105N,0,0,0,0,1,1,0
1563,16386,9973,nightbus,105N,0,0,0,0,1,1,0
