timeInMin,trip_id,service_id,tipas,numeris,pirmadienis,antradienis,treciadienis,ketvirtadienis,penktadienis,sestadienis,sekmadienis 
347,12058,9773,bus,51,1,1,1,1,1,0,0
406,12059,9773,bus,51,1,1,1,1,1,0,0
462,12060,9773,bus,51,1,1,1,1,1,0,0
1304,12061,9773,bus,51,1,1,1,1,1,0,0
450,12062,9774,bus,51,0,0,0,0,0,1,1
509,12063,9774,bus,51,0,0,0,0,0,1,1
568,12064,9774,bus,51,0,0,0,0,0,1,1
625,12065,9774,bus,51,0,0,0,0,0,1,1
566,12078,9773,bus,51,1,1,1,1,1,0,0
626,12079,9773,bus,51,1,1,1,1,1,0,0
679,12080,9773,bus,51,1,1,1,1,1,0,0
731,12081,9773,bus,51,1,1,1,1,1,0,0
788,12082,9773,bus,51,1,1,1,1,1,0,0
843,12083,9773,bus,51,1,1,1,1,1,0,0
903,12084,9773,bus,51,1,1,1,1,1,0,0
972,12085,9773,bus,51,1,1,1,1,1,0,0
1035,12086,9773,bus,51,1,1,1,1,1,0,0
1116,12087,9773,bus,51,1,1,1,1,1,0,0
1176,12088,9773,bus,51,1,1,1,1,1,0,0
1232,12089,9773,bus,51,1,1,1,1,1,0,0
1373,12090,9773,bus,51,1,1,1,1,1,0,0
920,12091,9774,bus,51,0,0,0,0,0,1,1
971,12092,9774,bus,51,0,0,0,0,0,1,1
1029,12093,9774,bus,51,0,0,0,0,0,1,1
1087,12094,9774,bus,51,0,0,0,0,0,1,1
1168,12095,9774,bus,51,0,0,0,0,0,1,1
1250,12096,9774,bus,51,0,0,0,0,0,1,1
1309,12097,9774,bus,51,0,0,0,0,0,1,1
1373,12098,9774,bus,51,0,0,0,0,0,1,1
