timeInMin,trip_id,service_id,tipas,numeris,pirmadienis,antradienis,treciadienis,ketvirtadienis,penktadienis,sestadienis,sekmadienis 
350,3552,10330,expressbus,5G,1,1,1,1,1,0,0
365,3553,10330,expressbus,5G,1,1,1,1,1,0,0
379,3554,10330,expressbus,5G,1,1,1,1,1,0,0
394,3555,10330,expressbus,5G,1,1,1,1,1,0,0
406,3556,10330,expressbus,5G,1,1,1,1,1,0,0
418,3557,10330,expressbus,5G,1,1,1,1,1,0,0
429,3558,10330,expressbus,5G,1,1,1,1,1,0,0
442,3559,10330,expressbus,5G,1,1,1,1,1,0,0
450,3560,10330,expressbus,5G,1,1,1,1,1,0,0
457,3561,10330,expressbus,5G,1,1,1,1,1,0,0
464,3562,10330,expressbus,5G,1,1,1,1,1,0,0
472,3563,10330,expressbus,5G,1,1,1,1,1,0,0
479,3564,10330,expressbus,5G,1,1,1,1,1,0,0
485,3565,10330,expressbus,5G,1,1,1,1,1,0,0
494,3566,10330,expressbus,5G,1,1,1,1,1,0,0
501,3567,10330,expressbus,5G,1,1,1,1,1,0,0
507,3568,10330,expressbus,5G,1,1,1,1,1,0,0
513,3569,10330,expressbus,5G,1,1,1,1,1,0,0
519,3570,10330,expressbus,5G,1,1,1,1,1,0,0
525,3571,10330,expressbus,5G,1,1,1,1,1,0,0
531,3572,10330,expressbus,5G,1,1,1,1,1,0,0
537,3573,10330,expressbus,5G,1,1,1,1,1,0,0
543,3574,10330,expressbus,5G,1,1,1,1,1,0,0
550,3575,10330,expressbus,5G,1,1,1,1,1,0,0
557,3576,10330,expressbus,5G,1,1,1,1,1,0,0
565,3577,10330,expressbus,5G,1,1,1,1,1,0,0
573,3578,10330,expressbus,5G,1,1,1,1,1,0,0
580,3579,10330,expressbus,5G,1,1,1,1,1,0,0
586,3580,10330,expressbus,5G,1,1,1,1,1,0,0
593,3581,10330,expressbus,5G,1,1,1,1,1,0,0
602,3582,10330,expressbus,5G,1,1,1,1,1,0,0
612,3583,10330,expressbus,5G,1,1,1,1,1,0,0
620,3584,10330,expressbus,5G,1,1,1,1,1,0,0
629,3585,10330,expressbus,5G,1,1,1,1,1,0,0
638,3586,10330,expressbus,5G,1,1,1,1,1,0,0
646,3587,10330,expressbus,5G,1,1,1,1,1,0,0
656,3588,10330,expressbus,5G,1,1,1,1,1,0,0
665,3589,10330,expressbus,5G,1,1,1,1,1,0,0
675,3590,10330,expressbus,5G,1,1,1,1,1,0,0
686,3591,10330,expressbus,5G,1,1,1,1,1,0,0
697,3592,10330,expressbus,5G,1,1,1,1,1,0,0
709,3593,10330,expressbus,5G,1,1,1,1,1,0,0
721,3594,10330,expressbus,5G,1,1,1,1,1,0,0
732,3595,10330,expressbus,5G,1,1,1,1,1,0,0
741,3596,10330,expressbus,5G,1,1,1,1,1,0,0
749,3597,10330,expressbus,5G,1,1,1,1,1,0,0
758,3598,10330,expressbus,5G,1,1,1,1,1,0,0
768,3599,10330,expressbus,5G,1,1,1,1,1,0,0
779,3600,10330,expressbus,5G,1,1,1,1,1,0,0
790,3601,10330,expressbus,5G,1,1,1,1,1,0,0
803,3602,10330,expressbus,5G,1,1,1,1,1,0,0
814,3603,10330,expressbus,5G,1,1,1,1,1,0,0
825,3604,10330,expressbus,5G,1,1,1,1,1,0,0
834,3605,10330,expressbus,5G,1,1,1,1,1,0,0
842,3606,10330,expressbus,5G,1,1,1,1,1,0,0
851,3607,10330,expressbus,5G,1,1,1,1,1,0,0
861,3608,10330,expressbus,5G,1,1,1,1,1,0,0
872,3609,10330,expressbus,5G,1,1,1,1,1,0,0
883,3610,10330,expressbus,5G,1,1,1,1,1,0,0
896,3611,10330,expressbus,5G,1,1,1,1,1,0,0
907,3612,10330,expressbus,5G,1,1,1,1,1,0,0
918,3613,10330,expressbus,5G,1,1,1,1,1,0,0
927,3614,10330,expressbus,5G,1,1,1,1,1,0,0
935,3615,10330,expressbus,5G,1,1,1,1,1,0,0
940,3616,10330,expressbus,5G,1,1,1,1,1,0,0
947,3617,10330,expressbus,5G,1,1,1,1,1,0,0
954,3618,10330,expressbus,5G,1,1,1,1,1,0,0
959,3619,10330,expressbus,5G,1,1,1,1,1,0,0
965,3620,10330,expressbus,5G,1,1,1,1,1,0,0
970,3621,10330,expressbus,5G,1,1,1,1,1,0,0
976,3622,10330,expressbus,5G,1,1,1,1,1,0,0
982,3623,10330,expressbus,5G,1,1,1,1,1,0,0
990,3624,10330,expressbus,5G,1,1,1,1,1,0,0
995,3625,10330,expressbus,5G,1,1,1,1,1,0,0
1001,3626,10330,expressbus,5G,1,1,1,1,1,0,0
1009,3627,10330,expressbus,5G,1,1,1,1,1,0,0
1017,3628,10330,expressbus,5G,1,1,1,1,1,0,0
1024,3629,10330,expressbus,5G,1,1,1,1,1,0,0
1031,3630,10330,expressbus,5G,1,1,1,1,1,0,0
1040,3631,10330,expressbus,5G,1,1,1,1,1,0,0
1048,3632,10330,expressbus,5G,1,1,1,1,1,0,0
1055,3633,10330,expressbus,5G,1,1,1,1,1,0,0
1062,3634,10330,expressbus,5G,1,1,1,1,1,0,0
1068,3635,10330,expressbus,5G,1,1,1,1,1,0,0
1074,3636,10330,expressbus,5G,1,1,1,1,1,0,0
1080,3637,10330,expressbus,5G,1,1,1,1,1,0,0
1085,3638,10330,expressbus,5G,1,1,1,1,1,0,0
1091,3639,10330,expressbus,5G,1,1,1,1,1,0,0
1098,3640,10330,expressbus,5G,1,1,1,1,1,0,0
1106,3641,10330,expressbus,5G,1,1,1,1,1,0,0
1114,3642,10330,expressbus,5G,1,1,1,1,1,0,0
1126,3643,10330,expressbus,5G,1,1,1,1,1,0,0
1139,3644,10330,expressbus,5G,1,1,1,1,1,0,0
1149,3645,10330,expressbus,5G,1,1,1,1,1,0,0
1163,3646,10330,expressbus,5G,1,1,1,1,1,0,0
1173,3647,10330,expressbus,5G,1,1,1,1,1,0,0
1185,3648,10330,expressbus,5G,1,1,1,1,1,0,0
1198,3649,10330,expressbus,5G,1,1,1,1,1,0,0
1210,3650,10330,expressbus,5G,1,1,1,1,1,0,0
1219,3651,10330,expressbus,5G,1,1,1,1,1,0,0
1229,3652,10330,expressbus,5G,1,1,1,1,1,0,0
1239,3653,10330,expressbus,5G,1,1,1,1,1,0,0
1248,3654,10330,expressbus,5G,1,1,1,1,1,0,0
1259,3655,10330,expressbus,5G,1,1,1,1,1,0,0
1267,3656,10330,expressbus,5G,1,1,1,1,1,0,0
1275,3657,10330,expressbus,5G,1,1,1,1,1,0,0
1286,3658,10330,expressbus,5G,1,1,1,1,1,0,0
1298,3659,10330,expressbus,5G,1,1,1,1,1,0,0
1307,3660,10330,expressbus,5G,1,1,1,1,1,0,0
1318,3661,10330,expressbus,5G,1,1,1,1,1,0,0
1328,3662,10330,expressbus,5G,1,1,1,1,1,0,0
1340,3663,10330,expressbus,5G,1,1,1,1,1,0,0
1351,3664,10330,expressbus,5G,1,1,1,1,1,0,0
1364,3665,10330,expressbus,5G,1,1,1,1,1,0,0
1375,3666,10330,expressbus,5G,1,1,1,1,1,0,0
1390,3667,10330,expressbus,5G,1,1,1,1,1,0,0
1406,3668,10330,expressbus,5G,1,1,1,1,1,0,0
1425,3669,10330,expressbus,5G,1,1,1,1,1,0,0
351,3670,10331,expressbus,5G,0,0,0,0,0,1,0
365,3671,10331,expressbus,5G,0,0,0,0,0,1,0
379,3672,10331,expressbus,5G,0,0,0,0,0,1,0
393,3673,10331,expressbus,5G,0,0,0,0,0,1,0
409,3674,10331,expressbus,5G,0,0,0,0,0,1,0
424,3675,10331,expressbus,5G,0,0,0,0,0,1,0
437,3676,10331,expressbus,5G,0,0,0,0,0,1,0
451,3677,10331,expressbus,5G,0,0,0,0,0,1,0
466,3678,10331,expressbus,5G,0,0,0,0,0,1,0
479,3679,10331,expressbus,5G,0,0,0,0,0,1,0
491,3680,10331,expressbus,5G,0,0,0,0,0,1,0
503,3681,10331,expressbus,5G,0,0,0,0,0,1,0
516,3682,10331,expressbus,5G,0,0,0,0,0,1,0
528,3683,10331,expressbus,5G,0,0,0,0,0,1,0
541,3684,10331,expressbus,5G,0,0,0,0,0,1,0
554,3685,10331,expressbus,5G,0,0,0,0,0,1,0
568,3686,10331,expressbus,5G,0,0,0,0,0,1,0
582,3687,10331,expressbus,5G,0,0,0,0,0,1,0
596,3688,10331,expressbus,5G,0,0,0,0,0,1,0
607,3689,10331,expressbus,5G,0,0,0,0,0,1,0
618,3690,10331,expressbus,5G,0,0,0,0,0,1,0
628,3691,10331,expressbus,5G,0,0,0,0,0,1,0
638,3692,10331,expressbus,5G,0,0,0,0,0,1,0
647,3693,10331,expressbus,5G,0,0,0,0,0,1,0
655,3694,10331,expressbus,5G,0,0,0,0,0,1,0
663,3695,10331,expressbus,5G,0,0,0,0,0,1,0
672,3696,10331,expressbus,5G,0,0,0,0,0,1,0
683,3697,10331,expressbus,5G,0,0,0,0,0,1,0
698,3698,10331,expressbus,5G,0,0,0,0,0,1,0
713,3699,10331,expressbus,5G,0,0,0,0,0,1,0
727,3700,10331,expressbus,5G,0,0,0,0,0,1,0
736,3701,10331,expressbus,5G,0,0,0,0,0,1,0
745,3702,10331,expressbus,5G,0,0,0,0,0,1,0
754,3703,10331,expressbus,5G,0,0,0,0,0,1,0
764,3704,10331,expressbus,5G,0,0,0,0,0,1,0
773,3705,10331,expressbus,5G,0,0,0,0,0,1,0
781,3706,10331,expressbus,5G,0,0,0,0,0,1,0
789,3707,10331,expressbus,5G,0,0,0,0,0,1,0
796,3708,10331,expressbus,5G,0,0,0,0,0,1,0
808,3709,10331,expressbus,5G,0,0,0,0,0,1,0
820,3710,10331,expressbus,5G,0,0,0,0,0,1,0
831,3711,10331,expressbus,5G,0,0,0,0,0,1,0
840,3712,10331,expressbus,5G,0,0,0,0,0,1,0
853,3713,10331,expressbus,5G,0,0,0,0,0,1,0
865,3714,10331,expressbus,5G,0,0,0,0,0,1,0
872,3715,10331,expressbus,5G,0,0,0,0,0,1,0
879,3716,10331,expressbus,5G,0,0,0,0,0,1,0
886,3717,10331,expressbus,5G,0,0,0,0,0,1,0
894,3718,10331,expressbus,5G,0,0,0,0,0,1,0
905,3719,10331,expressbus,5G,0,0,0,0,0,1,0
916,3720,10331,expressbus,5G,0,0,0,0,0,1,0
929,3721,10331,expressbus,5G,0,0,0,0,0,1,0
940,3722,10331,expressbus,5G,0,0,0,0,0,1,0
948,3723,10331,expressbus,5G,0,0,0,0,0,1,0
954,3724,10331,expressbus,5G,0,0,0,0,0,1,0
962,3725,10331,expressbus,5G,0,0,0,0,0,1,0
971,3726,10331,expressbus,5G,0,0,0,0,0,1,0
978,3727,10331,expressbus,5G,0,0,0,0,0,1,0
988,3728,10331,expressbus,5G,0,0,0,0,0,1,0
996,3729,10331,expressbus,5G,0,0,0,0,0,1,0
1006,3730,10331,expressbus,5G,0,0,0,0,0,1,0
1015,3731,10331,expressbus,5G,0,0,0,0,0,1,0
1025,3732,10331,expressbus,5G,0,0,0,0,0,1,0
1035,3733,10331,expressbus,5G,0,0,0,0,0,1,0
1046,3734,10331,expressbus,5G,0,0,0,0,0,1,0
1056,3735,10331,expressbus,5G,0,0,0,0,0,1,0
1064,3736,10331,expressbus,5G,0,0,0,0,0,1,0
1073,3737,10331,expressbus,5G,0,0,0,0,0,1,0
1083,3738,10331,expressbus,5G,0,0,0,0,0,1,0
1093,3739,10331,expressbus,5G,0,0,0,0,0,1,0
1103,3740,10331,expressbus,5G,0,0,0,0,0,1,0
1115,3741,10331,expressbus,5G,0,0,0,0,0,1,0
1133,3742,10331,expressbus,5G,0,0,0,0,0,1,0
1148,3743,10331,expressbus,5G,0,0,0,0,0,1,0
1161,3744,10331,expressbus,5G,0,0,0,0,0,1,0
1180,3745,10331,expressbus,5G,0,0,0,0,0,1,0
1200,3746,10331,expressbus,5G,0,0,0,0,0,1,0
1216,3747,10331,expressbus,5G,0,0,0,0,0,1,0
1232,3748,10331,expressbus,5G,0,0,0,0,0,1,0
1245,3749,10331,expressbus,5G,0,0,0,0,0,1,0
1260,3750,10331,expressbus,5G,0,0,0,0,0,1,0
1278,3751,10331,expressbus,5G,0,0,0,0,0,1,0
1290,3752,10331,expressbus,5G,0,0,0,0,0,1,0
1304,3753,10331,expressbus,5G,0,0,0,0,0,1,0
1318,3754,10331,expressbus,5G,0,0,0,0,0,1,0
1330,3755,10331,expressbus,5G,0,0,0,0,0,1,0
1343,3756,10331,expressbus,5G,0,0,0,0,0,1,0
1354,3757,10331,expressbus,5G,0,0,0,0,0,1,0
1364,3758,10331,expressbus,5G,0,0,0,0,0,1,0
1378,3759,10331,expressbus,5G,0,0,0,0,0,1,0
1392,3760,10331,expressbus,5G,0,0,0,0,0,1,0
1408,3761,10331,expressbus,5G,0,0,0,0,0,1,0
379,3762,10332,expressbus,5G,0,0,0,0,0,0,1
393,3763,10332,expressbus,5G,0,0,0,0,0,0,1
409,3764,10332,expressbus,5G,0,0,0,0,0,0,1
424,3765,10332,expressbus,5G,0,0,0,0,0,0,1
437,3766,10332,expressbus,5G,0,0,0,0,0,0,1
451,3767,10332,expressbus,5G,0,0,0,0,0,0,1
466,3768,10332,expressbus,5G,0,0,0,0,0,0,1
479,3769,10332,expressbus,5G,0,0,0,0,0,0,1
491,3770,10332,expressbus,5G,0,0,0,0,0,0,1
503,3771,10332,expressbus,5G,0,0,0,0,0,0,1
516,3772,10332,expressbus,5G,0,0,0,0,0,0,1
528,3773,10332,expressbus,5G,0,0,0,0,0,0,1
541,3774,10332,expressbus,5G,0,0,0,0,0,0,1
554,3775,10332,expressbus,5G,0,0,0,0,0,0,1
568,3776,10332,expressbus,5G,0,0,0,0,0,0,1
582,3777,10332,expressbus,5G,0,0,0,0,0,0,1
596,3778,10332,expressbus,5G,0,0,0,0,0,0,1
607,3779,10332,expressbus,5G,0,0,0,0,0,0,1
618,3780,10332,expressbus,5G,0,0,0,0,0,0,1
628,3781,10332,expressbus,5G,0,0,0,0,0,0,1
638,3782,10332,expressbus,5G,0,0,0,0,0,0,1
647,3783,10332,expressbus,5G,0,0,0,0,0,0,1
655,3784,10332,expressbus,5G,0,0,0,0,0,0,1
663,3785,10332,expressbus,5G,0,0,0,0,0,0,1
672,3786,10332,expressbus,5G,0,0,0,0,0,0,1
683,3787,10332,expressbus,5G,0,0,0,0,0,0,1
698,3788,10332,expressbus,5G,0,0,0,0,0,0,1
713,3789,10332,expressbus,5G,0,0,0,0,0,0,1
727,3790,10332,expressbus,5G,0,0,0,0,0,0,1
736,3791,10332,expressbus,5G,0,0,0,0,0,0,1
745,3792,10332,expressbus,5G,0,0,0,0,0,0,1
754,3793,10332,expressbus,5G,0,0,0,0,0,0,1
764,3794,10332,expressbus,5G,0,0,0,0,0,0,1
773,3795,10332,expressbus,5G,0,0,0,0,0,0,1
781,3796,10332,expressbus,5G,0,0,0,0,0,0,1
789,3797,10332,expressbus,5G,0,0,0,0,0,0,1
796,3798,10332,expressbus,5G,0,0,0,0,0,0,1
808,3799,10332,expressbus,5G,0,0,0,0,0,0,1
820,3800,10332,expressbus,5G,0,0,0,0,0,0,1
831,3801,10332,expressbus,5G,0,0,0,0,0,0,1
840,3802,10332,expressbus,5G,0,0,0,0,0,0,1
853,3803,10332,expressbus,5G,0,0,0,0,0,0,1
865,3804,10332,expressbus,5G,0,0,0,0,0,0,1
872,3805,10332,expressbus,5G,0,0,0,0,0,0,1
879,3806,10332,expressbus,5G,0,0,0,0,0,0,1
886,3807,10332,expressbus,5G,0,0,0,0,0,0,1
894,3808,10332,expressbus,5G,0,0,0,0,0,0,1
905,3809,10332,expressbus,5G,0,0,0,0,0,0,1
916,3810,10332,expressbus,5G,0,0,0,0,0,0,1
929,3811,10332,expressbus,5G,0,0,0,0,0,0,1
940,3812,10332,expressbus,5G,0,0,0,0,0,0,1
948,3813,10332,expressbus,5G,0,0,0,0,0,0,1
954,3814,10332,expressbus,5G,0,0,0,0,0,0,1
962,3815,10332,expressbus,5G,0,0,0,0,0,0,1
971,3816,10332,expressbus,5G,0,0,0,0,0,0,1
978,3817,10332,expressbus,5G,0,0,0,0,0,0,1
988,3818,10332,expressbus,5G,0,0,0,0,0,0,1
996,3819,10332,expressbus,5G,0,0,0,0,0,0,1
1006,3820,10332,expressbus,5G,0,0,0,0,0,0,1
1015,3821,10332,expressbus,5G,0,0,0,0,0,0,1
1025,3822,10332,expressbus,5G,0,0,0,0,0,0,1
1035,3823,10332,expressbus,5G,0,0,0,0,0,0,1
1046,3824,10332,expressbus,5G,0,0,0,0,0,0,1
1056,3825,10332,expressbus,5G,0,0,0,0,0,0,1
1064,3826,10332,expressbus,5G,0,0,0,0,0,0,1
1073,3827,10332,expressbus,5G,0,0,0,0,0,0,1
1083,3828,10332,expressbus,5G,0,0,0,0,0,0,1
1093,3829,10332,expressbus,5G,0,0,0,0,0,0,1
1103,3830,10332,expressbus,5G,0,0,0,0,0,0,1
1115,3831,10332,expressbus,5G,0,0,0,0,0,0,1
1133,3832,10332,expressbus,5G,0,0,0,0,0,0,1
1148,3833,10332,expressbus,5G,0,0,0,0,0,0,1
1161,3834,10332,expressbus,5G,0,0,0,0,0,0,1
1180,3835,10332,expressbus,5G,0,0,0,0,0,0,1
1200,3836,10332,expressbus,5G,0,0,0,0,0,0,1
1216,3837,10332,expressbus,5G,0,0,0,0,0,0,1
1232,3838,10332,expressbus,5G,0,0,0,0,0,0,1
1245,3839,10332,expressbus,5G,0,0,0,0,0,0,1
1260,3840,10332,expressbus,5G,0,0,0,0,0,0,1
1278,3841,10332,expressbus,5G,0,0,0,0,0,0,1
1290,3842,10332,expressbus,5G,0,0,0,0,0,0,1
1304,3843,10332,expressbus,5G,0,0,0,0,0,0,1
1318,3844,10332,expressbus,5G,0,0,0,0,0,0,1
1330,3845,10332,expressbus,5G,0,0,0,0,0,0,1
1343,3846,10332,expressbus,5G,0,0,0,0,0,0,1
1354,3847,10332,expressbus,5G,0,0,0,0,0,0,1
1364,3848,10332,expressbus,5G,0,0,0,0,0,0,1
1378,3849,10332,expressbus,5G,0,0,0,0,0,0,1
1392,3850,10332,expressbus,5G,0,0,0,0,0,0,1
1408,3851,10332,expressbus,5G,0,0,0,0,0,0,1
314,3885,10330,expressbus,5G,1,1,1,1,1,0,0
326,3886,10330,expressbus,5G,1,1,1,1,1,0,0
338,3887,10330,expressbus,5G,1,1,1,1,1,0,0
349,3888,10330,expressbus,5G,1,1,1,1,1,0,0
368,3889,10330,expressbus,5G,1,1,1,1,1,0,0
382,3890,10330,expressbus,5G,1,1,1,1,1,0,0
393,3891,10330,expressbus,5G,1,1,1,1,1,0,0
398,3892,10330,expressbus,5G,1,1,1,1,1,0,0
407,3893,10330,expressbus,5G,1,1,1,1,1,0,0
419,3894,10330,expressbus,5G,1,1,1,1,1,0,0
431,3895,10330,expressbus,5G,1,1,1,1,1,0,0
443,3896,10330,expressbus,5G,1,1,1,1,1,0,0
309,3897,10331,expressbus,5G,0,0,0,0,0,1,0
325,3898,10331,expressbus,5G,0,0,0,0,0,1,0
342,3899,10331,expressbus,5G,0,0,0,0,0,1,0
409,3900,10331,expressbus,5G,0,0,0,0,0,1,0
342,3901,10332,expressbus,5G,0,0,0,0,0,0,1
356,3902,10332,expressbus,5G,0,0,0,0,0,0,1
370,3903,10332,expressbus,5G,0,0,0,0,0,0,1
409,3904,10332,expressbus,5G,0,0,0,0,0,0,1
353,8996,10488,bus,32,1,1,1,1,1,0,0
373,8997,10490,bus,32,0,0,0,0,0,0,1
353,10939,10596,bus,43,1,1,1,1,1,0,0
373,10940,10596,bus,43,1,1,1,1,1,0,0
389,10941,10596,bus,43,1,1,1,1,1,0,0
410,10942,10596,bus,43,1,1,1,1,1,0,0
428,10943,10596,bus,43,1,1,1,1,1,0,0
443,10944,10596,bus,43,1,1,1,1,1,0,0
456,10945,10596,bus,43,1,1,1,1,1,0,0
473,10946,10596,bus,43,1,1,1,1,1,0,0
491,10947,10596,bus,43,1,1,1,1,1,0,0
507,10948,10596,bus,43,1,1,1,1,1,0,0
525,10949,10596,bus,43,1,1,1,1,1,0,0
539,10950,10596,bus,43,1,1,1,1,1,0,0
554,10951,10596,bus,43,1,1,1,1,1,0,0
570,10952,10596,bus,43,1,1,1,1,1,0,0
588,10953,10596,bus,43,1,1,1,1,1,0,0
603,10954,10596,bus,43,1,1,1,1,1,0,0
621,10955,10596,bus,43,1,1,1,1,1,0,0
640,10956,10596,bus,43,1,1,1,1,1,0,0
658,10957,10596,bus,43,1,1,1,1,1,0,0
678,10958,10596,bus,43,1,1,1,1,1,0,0
699,10959,10596,bus,43,1,1,1,1,1,0,0
718,10960,10596,bus,43,1,1,1,1,1,0,0
739,10961,10596,bus,43,1,1,1,1,1,0,0
758,10962,10596,bus,43,1,1,1,1,1,0,0
777,10963,10596,bus,43,1,1,1,1,1,0,0
795,10964,10596,bus,43,1,1,1,1,1,0,0
818,10965,10596,bus,43,1,1,1,1,1,0,0
835,10966,10596,bus,43,1,1,1,1,1,0,0
855,10967,10596,bus,43,1,1,1,1,1,0,0
878,10968,10596,bus,43,1,1,1,1,1,0,0
900,10969,10596,bus,43,1,1,1,1,1,0,0
923,10970,10596,bus,43,1,1,1,1,1,0,0
940,10971,10596,bus,43,1,1,1,1,1,0,0
956,10972,10596,bus,43,1,1,1,1,1,0,0
971,10973,10596,bus,43,1,1,1,1,1,0,0
986,10974,10596,bus,43,1,1,1,1,1,0,0
1002,10975,10596,bus,43,1,1,1,1,1,0,0
1013,10976,10596,bus,43,1,1,1,1,1,0,0
1030,10977,10596,bus,43,1,1,1,1,1,0,0
1042,10978,10596,bus,43,1,1,1,1,1,0,0
1059,10979,10596,bus,43,1,1,1,1,1,0,0
1075,10980,10596,bus,43,1,1,1,1,1,0,0
1089,10981,10596,bus,43,1,1,1,1,1,0,0
1103,10982,10596,bus,43,1,1,1,1,1,0,0
1116,10983,10596,bus,43,1,1,1,1,1,0,0
1135,10984,10596,bus,43,1,1,1,1,1,0,0
1150,10985,10596,bus,43,1,1,1,1,1,0,0
1166,10986,10596,bus,43,1,1,1,1,1,0,0
1184,10987,10596,bus,43,1,1,1,1,1,0,0
1208,10988,10596,bus,43,1,1,1,1,1,0,0
1225,10989,10596,bus,43,1,1,1,1,1,0,0
1247,10990,10596,bus,43,1,1,1,1,1,0,0
1268,10991,10596,bus,43,1,1,1,1,1,0,0
1286,10992,10596,bus,43,1,1,1,1,1,0,0
1306,10993,10596,bus,43,1,1,1,1,1,0,0
1322,10994,10596,bus,43,1,1,1,1,1,0,0
1344,10995,10596,bus,43,1,1,1,1,1,0,0
1364,10996,10596,bus,43,1,1,1,1,1,0,0
1381,10997,10596,bus,43,1,1,1,1,1,0,0
1399,10998,10596,bus,43,1,1,1,1,1,0,0
1417,10999,10596,bus,43,1,1,1,1,1,0,0
419,11000,10598,bus,43,0,0,0,0,0,0,1
456,11001,10598,bus,43,0,0,0,0,0,0,1
490,11002,10598,bus,43,0,0,0,0,0,0,1
527,11003,10598,bus,43,0,0,0,0,0,0,1
563,11004,10598,bus,43,0,0,0,0,0,0,1
596,11005,10598,bus,43,0,0,0,0,0,0,1
623,11006,10598,bus,43,0,0,0,0,0,0,1
641,11007,10598,bus,43,0,0,0,0,0,0,1
667,11008,10598,bus,43,0,0,0,0,0,0,1
684,11009,10598,bus,43,0,0,0,0,0,0,1
704,11010,10598,bus,43,0,0,0,0,0,0,1
718,11011,10598,bus,43,0,0,0,0,0,0,1
746,11012,10598,bus,43,0,0,0,0,0,0,1
772,11013,10598,bus,43,0,0,0,0,0,0,1
791,11014,10598,bus,43,0,0,0,0,0,0,1
814,11015,10598,bus,43,0,0,0,0,0,0,1
839,11016,10598,bus,43,0,0,0,0,0,0,1
865,11017,10598,bus,43,0,0,0,0,0,0,1
883,11018,10598,bus,43,0,0,0,0,0,0,1
902,11019,10598,bus,43,0,0,0,0,0,0,1
919,11020,10598,bus,43,0,0,0,0,0,0,1
943,11021,10598,bus,43,0,0,0,0,0,0,1
968,11022,10598,bus,43,0,0,0,0,0,0,1
994,11023,10598,bus,43,0,0,0,0,0,0,1
1013,11024,10598,bus,43,0,0,0,0,0,0,1
1035,11025,10598,bus,43,0,0,0,0,0,0,1
1051,11026,10598,bus,43,0,0,0,0,0,0,1
1071,11027,10598,bus,43,0,0,0,0,0,0,1
1093,11028,10598,bus,43,0,0,0,0,0,0,1
1118,11029,10598,bus,43,0,0,0,0,0,0,1
1169,11030,10598,bus,43,0,0,0,0,0,0,1
1215,11031,10598,bus,43,0,0,0,0,0,0,1
1252,11032,10598,bus,43,0,0,0,0,0,0,1
1285,11033,10598,bus,43,0,0,0,0,0,0,1
1322,11034,10598,bus,43,0,0,0,0,0,0,1
1362,11035,10598,bus,43,0,0,0,0,0,0,1
1400,11036,10598,bus,43,0,0,0,0,0,0,1
348,11037,10597,bus,43,0,0,0,0,0,1,0
378,11038,10597,bus,43,0,0,0,0,0,1,0
419,11039,10597,bus,43,0,0,0,0,0,1,0
456,11040,10597,bus,43,0,0,0,0,0,1,0
490,11041,10597,bus,43,0,0,0,0,0,1,0
527,11042,10597,bus,43,0,0,0,0,0,1,0
563,11043,10597,bus,43,0,0,0,0,0,1,0
596,11044,10597,bus,43,0,0,0,0,0,1,0
623,11045,10597,bus,43,0,0,0,0,0,1,0
641,11046,10597,bus,43,0,0,0,0,0,1,0
667,11047,10597,bus,43,0,0,0,0,0,1,0
684,11048,10597,bus,43,0,0,0,0,0,1,0
704,11049,10597,bus,43,0,0,0,0,0,1,0
718,11050,10597,bus,43,0,0,0,0,0,1,0
746,11051,10597,bus,43,0,0,0,0,0,1,0
772,11052,10597,bus,43,0,0,0,0,0,1,0
791,11053,10597,bus,43,0,0,0,0,0,1,0
814,11054,10597,bus,43,0,0,0,0,0,1,0
839,11055,10597,bus,43,0,0,0,0,0,1,0
865,11056,10597,bus,43,0,0,0,0,0,1,0
883,11057,10597,bus,43,0,0,0,0,0,1,0
902,11058,10597,bus,43,0,0,0,0,0,1,0
919,11059,10597,bus,43,0,0,0,0,0,1,0
943,11060,10597,bus,43,0,0,0,0,0,1,0
968,11061,10597,bus,43,0,0,0,0,0,1,0
994,11062,10597,bus,43,0,0,0,0,0,1,0
1013,11063,10597,bus,43,0,0,0,0,0,1,0
1035,11064,10597,bus,43,0,0,0,0,0,1,0
1051,11065,10597,bus,43,0,0,0,0,0,1,0
1071,11066,10597,bus,43,0,0,0,0,0,1,0
1093,11067,10597,bus,43,0,0,0,0,0,1,0
1118,11068,10597,bus,43,0,0,0,0,0,1,0
1169,11069,10597,bus,43,0,0,0,0,0,1,0
1215,11070,10597,bus,43,0,0,0,0,0,1,0
1252,11071,10597,bus,43,0,0,0,0,0,1,0
1285,11072,10597,bus,43,0,0,0,0,0,1,0
1322,11073,10597,bus,43,0,0,0,0,0,1,0
1362,11074,10597,bus,43,0,0,0,0,0,1,0
1400,11075,10597,bus,43,0,0,0,0,0,1,0
401,14566,10499,bus,73,0,0,0,0,0,0,1
445,14567,10499,bus,73,0,0,0,0,0,0,1
496,14568,10499,bus,73,0,0,0,0,0,0,1
536,14569,10499,bus,73,0,0,0,0,0,0,1
580,14570,10499,bus,73,0,0,0,0,0,0,1
618,14571,10499,bus,73,0,0,0,0,0,0,1
656,14572,10499,bus,73,0,0,0,0,0,0,1
697,14573,10499,bus,73,0,0,0,0,0,0,1
735,14574,10499,bus,73,0,0,0,0,0,0,1
765,14575,10499,bus,73,0,0,0,0,0,0,1
801,14576,10499,bus,73,0,0,0,0,0,0,1
825,14577,10499,bus,73,0,0,0,0,0,0,1
857,14578,10499,bus,73,0,0,0,0,0,0,1
897,14579,10499,bus,73,0,0,0,0,0,0,1
926,14580,10499,bus,73,0,0,0,0,0,0,1
947,14581,10499,bus,73,0,0,0,0,0,0,1
984,14582,10499,bus,73,0,0,0,0,0,0,1
1020,14583,10499,bus,73,0,0,0,0,0,0,1
1056,14584,10499,bus,73,0,0,0,0,0,0,1
1085,14585,10499,bus,73,0,0,0,0,0,0,1
1111,14586,10499,bus,73,0,0,0,0,0,0,1
1150,14587,10499,bus,73,0,0,0,0,0,0,1
1197,14588,10499,bus,73,0,0,0,0,0,0,1
1233,14589,10499,bus,73,0,0,0,0,0,0,1
1292,14590,10499,bus,73,0,0,0,0,0,0,1
1348,14591,10499,bus,73,0,0,0,0,0,0,1
1387,14592,10499,bus,73,0,0,0,0,0,0,1
1428,14593,10499,bus,73,0,0,0,0,0,0,1
362,14594,10497,bus,73,1,1,1,1,1,0,0
399,14595,10497,bus,73,1,1,1,1,1,0,0
434,14596,10497,bus,73,1,1,1,1,1,0,0
461,14597,10497,bus,73,1,1,1,1,1,0,0
486,14598,10497,bus,73,1,1,1,1,1,0,0
510,14599,10497,bus,73,1,1,1,1,1,0,0
529,14600,10497,bus,73,1,1,1,1,1,0,0
549,14601,10497,bus,73,1,1,1,1,1,0,0
574,14602,10497,bus,73,1,1,1,1,1,0,0
595,14603,10497,bus,73,1,1,1,1,1,0,0
610,14604,10497,bus,73,1,1,1,1,1,0,0
634,14605,10497,bus,73,1,1,1,1,1,0,0
663,14606,10497,bus,73,1,1,1,1,1,0,0
693,14607,10497,bus,73,1,1,1,1,1,0,0
725,14608,10497,bus,73,1,1,1,1,1,0,0
750,14609,10497,bus,73,1,1,1,1,1,0,0
781,14610,10497,bus,73,1,1,1,1,1,0,0
813,14611,10497,bus,73,1,1,1,1,1,0,0
837,14612,10497,bus,73,1,1,1,1,1,0,0
873,14613,10497,bus,73,1,1,1,1,1,0,0
910,14614,10497,bus,73,1,1,1,1,1,0,0
929,14615,10497,bus,73,1,1,1,1,1,0,0
962,14616,10497,bus,73,1,1,1,1,1,0,0
991,14617,10497,bus,73,1,1,1,1,1,0,0
1009,14618,10497,bus,73,1,1,1,1,1,0,0
1026,14619,10497,bus,73,1,1,1,1,1,0,0
1046,14620,10497,bus,73,1,1,1,1,1,0,0
1068,14621,10497,bus,73,1,1,1,1,1,0,0
1095,14622,10497,bus,73,1,1,1,1,1,0,0
1120,14623,10497,bus,73,1,1,1,1,1,0,0
1145,14624,10497,bus,73,1,1,1,1,1,0,0
1158,14625,10497,bus,73,1,1,1,1,1,0,0
1176,14626,10497,bus,73,1,1,1,1,1,0,0
1202,14627,10497,bus,73,1,1,1,1,1,0,0
1237,14628,10497,bus,73,1,1,1,1,1,0,0
1262,14629,10497,bus,73,1,1,1,1,1,0,0
1298,14630,10497,bus,73,1,1,1,1,1,0,0
1327,14631,10497,bus,73,1,1,1,1,1,0,0
1353,14632,10497,bus,73,1,1,1,1,1,0,0
1388,14633,10497,bus,73,1,1,1,1,1,0,0
1421,14634,10497,bus,73,1,1,1,1,1,0,0
360,14635,10498,bus,73,0,0,0,0,0,1,0
401,14636,10498,bus,73,0,0,0,0,0,1,0
445,14637,10498,bus,73,0,0,0,0,0,1,0
496,14638,10498,bus,73,0,0,0,0,0,1,0
536,14639,10498,bus,73,0,0,0,0,0,1,0
580,14640,10498,bus,73,0,0,0,0,0,1,0
618,14641,10498,bus,73,0,0,0,0,0,1,0
656,14642,10498,bus,73,0,0,0,0,0,1,0
697,14643,10498,bus,73,0,0,0,0,0,1,0
735,14644,10498,bus,73,0,0,0,0,0,1,0
765,14645,10498,bus,73,0,0,0,0,0,1,0
801,14646,10498,bus,73,0,0,0,0,0,1,0
825,14647,10498,bus,73,0,0,0,0,0,1,0
857,14648,10498,bus,73,0,0,0,0,0,1,0
897,14649,10498,bus,73,0,0,0,0,0,1,0
926,14650,10498,bus,73,0,0,0,0,0,1,0
947,14651,10498,bus,73,0,0,0,0,0,1,0
984,14652,10498,bus,73,0,0,0,0,0,1,0
1020,14653,10498,bus,73,0,0,0,0,0,1,0
1056,14654,10498,bus,73,0,0,0,0,0,1,0
1085,14655,10498,bus,73,0,0,0,0,0,1,0
1111,14656,10498,bus,73,0,0,0,0,0,1,0
1150,14657,10498,bus,73,0,0,0,0,0,1,0
1197,14658,10498,bus,73,0,0,0,0,0,1,0
1233,14659,10498,bus,73,0,0,0,0,0,1,0
1292,14660,10498,bus,73,0,0,0,0,0,1,0
1348,14661,10498,bus,73,0,0,0,0,0,1,0
1387,14662,10498,bus,73,0,0,0,0,0,1,0
1428,14663,10498,bus,73,0,0,0,0,0,1,0
1471,16387,9973,nightbus,105N,0,0,0,0,1,1,0
1505,16388,9973,nightbus,105N,0,0,0,0,1,1,0
1542,16389,9973,nightbus,105N,0,0,0,0,1,1,0
1576,16390,9973,nightbus,105N,0,0,0,0,1,1,0
1615,16391,9973,nightbus,105N,0,0,0,0,1,1,0
343,19391,10654,trol,7,1,1,1,1,1,0,0
356,19392,10654,trol,7,1,1,1,1,1,0,0
376,19393,10654,trol,7,1,1,1,1,1,0,0
388,19394,10654,trol,7,1,1,1,1,1,0,0
399,19395,10654,trol,7,1,1,1,1,1,0,0
407,19396,10654,trol,7,1,1,1,1,1,0,0
415,19397,10654,trol,7,1,1,1,1,1,0,0
420,19398,10654,trol,7,1,1,1,1,1,0,0
426,19399,10654,trol,7,1,1,1,1,1,0,0
431,19400,10654,trol,7,1,1,1,1,1,0,0
436,19401,10654,trol,7,1,1,1,1,1,0,0
441,19402,10654,trol,7,1,1,1,1,1,0,0
445,19403,10654,trol,7,1,1,1,1,1,0,0
449,19404,10654,trol,7,1,1,1,1,1,0,0
454,19405,10654,trol,7,1,1,1,1,1,0,0
459,19406,10654,trol,7,1,1,1,1,1,0,0
463,19407,10654,trol,7,1,1,1,1,1,0,0
467,19408,10654,trol,7,1,1,1,1,1,0,0
471,19409,10654,trol,7,1,1,1,1,1,0,0
475,19410,10654,trol,7,1,1,1,1,1,0,0
481,19411,10654,trol,7,1,1,1,1,1,0,0
485,19412,10654,trol,7,1,1,1,1,1,0,0
491,19413,10654,trol,7,1,1,1,1,1,0,0
495,19414,10654,trol,7,1,1,1,1,1,0,0
499,19415,10654,trol,7,1,1,1,1,1,0,0
502,19416,10654,trol,7,1,1,1,1,1,0,0
506,19417,10654,trol,7,1,1,1,1,1,0,0
510,19418,10654,trol,7,1,1,1,1,1,0,0
514,19419,10654,trol,7,1,1,1,1,1,0,0
518,19420,10654,trol,7,1,1,1,1,1,0,0
522,19421,10654,trol,7,1,1,1,1,1,0,0
526,19422,10654,trol,7,1,1,1,1,1,0,0
531,19423,10654,trol,7,1,1,1,1,1,0,0
535,19424,10654,trol,7,1,1,1,1,1,0,0
538,19425,10654,trol,7,1,1,1,1,1,0,0
541,19426,10654,trol,7,1,1,1,1,1,0,0
545,19427,10654,trol,7,1,1,1,1,1,0,0
549,19428,10654,trol,7,1,1,1,1,1,0,0
553,19429,10654,trol,7,1,1,1,1,1,0,0
557,19430,10654,trol,7,1,1,1,1,1,0,0
561,19431,10654,trol,7,1,1,1,1,1,0,0
565,19432,10654,trol,7,1,1,1,1,1,0,0
569,19433,10654,trol,7,1,1,1,1,1,0,0
573,19434,10654,trol,7,1,1,1,1,1,0,0
577,19435,10654,trol,7,1,1,1,1,1,0,0
580,19436,10654,trol,7,1,1,1,1,1,0,0
583,19437,10654,trol,7,1,1,1,1,1,0,0
586,19438,10654,trol,7,1,1,1,1,1,0,0
590,19439,10654,trol,7,1,1,1,1,1,0,0
595,19440,10654,trol,7,1,1,1,1,1,0,0
599,19441,10654,trol,7,1,1,1,1,1,0,0
603,19442,10654,trol,7,1,1,1,1,1,0,0
609,19443,10654,trol,7,1,1,1,1,1,0,0
616,19444,10654,trol,7,1,1,1,1,1,0,0
623,19445,10654,trol,7,1,1,1,1,1,0,0
633,19446,10654,trol,7,1,1,1,1,1,0,0
643,19447,10654,trol,7,1,1,1,1,1,0,0
652,19448,10654,trol,7,1,1,1,1,1,0,0
663,19449,10654,trol,7,1,1,1,1,1,0,0
674,19450,10654,trol,7,1,1,1,1,1,0,0
685,19451,10654,trol,7,1,1,1,1,1,0,0
696,19452,10654,trol,7,1,1,1,1,1,0,0
702,19453,10654,trol,7,1,1,1,1,1,0,0
711,19454,10654,trol,7,1,1,1,1,1,0,0
720,19455,10654,trol,7,1,1,1,1,1,0,0
727,19456,10654,trol,7,1,1,1,1,1,0,0
735,19457,10654,trol,7,1,1,1,1,1,0,0
743,19458,10654,trol,7,1,1,1,1,1,0,0
751,19459,10654,trol,7,1,1,1,1,1,0,0
759,19460,10654,trol,7,1,1,1,1,1,0,0
767,19461,10654,trol,7,1,1,1,1,1,0,0
775,19462,10654,trol,7,1,1,1,1,1,0,0
783,19463,10654,trol,7,1,1,1,1,1,0,0
791,19464,10654,trol,7,1,1,1,1,1,0,0
799,19465,10654,trol,7,1,1,1,1,1,0,0
807,19466,10654,trol,7,1,1,1,1,1,0,0
816,19467,10654,trol,7,1,1,1,1,1,0,0
824,19468,10654,trol,7,1,1,1,1,1,0,0
833,19469,10654,trol,7,1,1,1,1,1,0,0
841,19470,10654,trol,7,1,1,1,1,1,0,0
849,19471,10654,trol,7,1,1,1,1,1,0,0
855,19472,10654,trol,7,1,1,1,1,1,0,0
865,19473,10654,trol,7,1,1,1,1,1,0,0
873,19474,10654,trol,7,1,1,1,1,1,0,0
879,19475,10654,trol,7,1,1,1,1,1,0,0
888,19476,10654,trol,7,1,1,1,1,1,0,0
895,19477,10654,trol,7,1,1,1,1,1,0,0
904,19478,10654,trol,7,1,1,1,1,1,0,0
909,19479,10654,trol,7,1,1,1,1,1,0,0
913,19480,10654,trol,7,1,1,1,1,1,0,0
918,19481,10654,trol,7,1,1,1,1,1,0,0
922,19482,10654,trol,7,1,1,1,1,1,0,0
926,19483,10654,trol,7,1,1,1,1,1,0,0
930,19484,10654,trol,7,1,1,1,1,1,0,0
934,19485,10654,trol,7,1,1,1,1,1,0,0
938,19486,10654,trol,7,1,1,1,1,1,0,0
941,19487,10654,trol,7,1,1,1,1,1,0,0
944,19488,10654,trol,7,1,1,1,1,1,0,0
947,19489,10654,trol,7,1,1,1,1,1,0,0
950,19490,10654,trol,7,1,1,1,1,1,0,0
953,19491,10654,trol,7,1,1,1,1,1,0,0
956,19492,10654,trol,7,1,1,1,1,1,0,0
959,19493,10654,trol,7,1,1,1,1,1,0,0
962,19494,10654,trol,7,1,1,1,1,1,0,0
965,19495,10654,trol,7,1,1,1,1,1,0,0
968,19496,10654,trol,7,1,1,1,1,1,0,0
971,19497,10654,trol,7,1,1,1,1,1,0,0
974,19498,10654,trol,7,1,1,1,1,1,0,0
977,19499,10654,trol,7,1,1,1,1,1,0,0
982,19500,10654,trol,7,1,1,1,1,1,0,0
986,19501,10654,trol,7,1,1,1,1,1,0,0
991,19502,10654,trol,7,1,1,1,1,1,0,0
995,19503,10654,trol,7,1,1,1,1,1,0,0
1000,19504,10654,trol,7,1,1,1,1,1,0,0
1006,19505,10654,trol,7,1,1,1,1,1,0,0
1010,19506,10654,trol,7,1,1,1,1,1,0,0
1014,19507,10654,trol,7,1,1,1,1,1,0,0
1018,19508,10654,trol,7,1,1,1,1,1,0,0
1022,19509,10654,trol,7,1,1,1,1,1,0,0
1026,19510,10654,trol,7,1,1,1,1,1,0,0
1030,19511,10654,trol,7,1,1,1,1,1,0,0
1034,19512,10654,trol,7,1,1,1,1,1,0,0
1039,19513,10654,trol,7,1,1,1,1,1,0,0
1043,19514,10654,trol,7,1,1,1,1,1,0,0
1046,19515,10654,trol,7,1,1,1,1,1,0,0
1050,19516,10654,trol,7,1,1,1,1,1,0,0
1053,19517,10654,trol,7,1,1,1,1,1,0,0
1057,19518,10654,trol,7,1,1,1,1,1,0,0
1061,19519,10654,trol,7,1,1,1,1,1,0,0
1064,19520,10654,trol,7,1,1,1,1,1,0,0
1068,19521,10654,trol,7,1,1,1,1,1,0,0
1071,19522,10654,trol,7,1,1,1,1,1,0,0
1074,19523,10654,trol,7,1,1,1,1,1,0,0
1077,19524,10654,trol,7,1,1,1,1,1,0,0
1081,19525,10654,trol,7,1,1,1,1,1,0,0
1085,19526,10654,trol,7,1,1,1,1,1,0,0
1089,19527,10654,trol,7,1,1,1,1,1,0,0
1092,19528,10654,trol,7,1,1,1,1,1,0,0
1096,19529,10654,trol,7,1,1,1,1,1,0,0
1100,19530,10654,trol,7,1,1,1,1,1,0,0
1104,19531,10654,trol,7,1,1,1,1,1,0,0
1108,19532,10654,trol,7,1,1,1,1,1,0,0
1112,19533,10654,trol,7,1,1,1,1,1,0,0
1116,19534,10654,trol,7,1,1,1,1,1,0,0
1121,19535,10654,trol,7,1,1,1,1,1,0,0
1126,19536,10654,trol,7,1,1,1,1,1,0,0
1130,19537,10654,trol,7,1,1,1,1,1,0,0
1135,19538,10654,trol,7,1,1,1,1,1,0,0
1140,19539,10654,trol,7,1,1,1,1,1,0,0
1144,19540,10654,trol,7,1,1,1,1,1,0,0
1148,19541,10654,trol,7,1,1,1,1,1,0,0
1151,19542,10654,trol,7,1,1,1,1,1,0,0
1154,19543,10654,trol,7,1,1,1,1,1,0,0
1157,19544,10654,trol,7,1,1,1,1,1,0,0
1161,19545,10654,trol,7,1,1,1,1,1,0,0
1166,19546,10654,trol,7,1,1,1,1,1,0,0
1171,19547,10654,trol,7,1,1,1,1,1,0,0
1175,19548,10654,trol,7,1,1,1,1,1,0,0
1178,19549,10654,trol,7,1,1,1,1,1,0,0
1182,19550,10654,trol,7,1,1,1,1,1,0,0
1189,19551,10654,trol,7,1,1,1,1,1,0,0
1197,19552,10654,trol,7,1,1,1,1,1,0,0
1207,19553,10654,trol,7,1,1,1,1,1,0,0
1217,19554,10654,trol,7,1,1,1,1,1,0,0
1224,19555,10654,trol,7,1,1,1,1,1,0,0
1233,19556,10654,trol,7,1,1,1,1,1,0,0
1239,19557,10654,trol,7,1,1,1,1,1,0,0
1247,19558,10654,trol,7,1,1,1,1,1,0,0
1258,19559,10654,trol,7,1,1,1,1,1,0,0
1266,19560,10654,trol,7,1,1,1,1,1,0,0
1274,19561,10654,trol,7,1,1,1,1,1,0,0
1282,19562,10654,trol,7,1,1,1,1,1,0,0
1291,19563,10654,trol,7,1,1,1,1,1,0,0
1299,19564,10654,trol,7,1,1,1,1,1,0,0
1305,19565,10654,trol,7,1,1,1,1,1,0,0
1312,19566,10654,trol,7,1,1,1,1,1,0,0
1319,19567,10654,trol,7,1,1,1,1,1,0,0
1330,19568,10654,trol,7,1,1,1,1,1,0,0
1342,19569,10654,trol,7,1,1,1,1,1,0,0
1350,19570,10654,trol,7,1,1,1,1,1,0,0
1360,19571,10654,trol,7,1,1,1,1,1,0,0
1374,19572,10654,trol,7,1,1,1,1,1,0,0
1390,19573,10654,trol,7,1,1,1,1,1,0,0
1402,19574,10654,trol,7,1,1,1,1,1,0,0
1416,19575,10654,trol,7,1,1,1,1,1,0,0
356,19576,10651,trol,7,0,0,0,0,0,1,0
378,19577,10651,trol,7,0,0,0,0,0,1,0
400,19578,10651,trol,7,0,0,0,0,0,1,0
414,19579,10651,trol,7,0,0,0,0,0,1,0
436,19580,10651,trol,7,0,0,0,0,0,1,0
449,19581,10651,trol,7,0,0,0,0,0,1,0
459,19582,10651,trol,7,0,0,0,0,0,1,0
471,19583,10651,trol,7,0,0,0,0,0,1,0
484,19584,10651,trol,7,0,0,0,0,0,1,0
494,19585,10651,trol,7,0,0,0,0,0,1,0
508,19586,10651,trol,7,0,0,0,0,0,1,0
519,19587,10651,trol,7,0,0,0,0,0,1,0
531,19588,10651,trol,7,0,0,0,0,0,1,0
539,19589,10651,trol,7,0,0,0,0,0,1,0
545,19590,10651,trol,7,0,0,0,0,0,1,0
556,19591,10651,trol,7,0,0,0,0,0,1,0
565,19592,10651,trol,7,0,0,0,0,0,1,0
573,19593,10651,trol,7,0,0,0,0,0,1,0
581,19594,10651,trol,7,0,0,0,0,0,1,0
590,19595,10651,trol,7,0,0,0,0,0,1,0
598,19596,10651,trol,7,0,0,0,0,0,1,0
606,19597,10651,trol,7,0,0,0,0,0,1,0
613,19598,10651,trol,7,0,0,0,0,0,1,0
623,19599,10651,trol,7,0,0,0,0,0,1,0
630,19600,10651,trol,7,0,0,0,0,0,1,0
639,19601,10651,trol,7,0,0,0,0,0,1,0
647,19602,10651,trol,7,0,0,0,0,0,1,0
655,19603,10651,trol,7,0,0,0,0,0,1,0
661,19604,10651,trol,7,0,0,0,0,0,1,0
667,19605,10651,trol,7,0,0,0,0,0,1,0
673,19606,10651,trol,7,0,0,0,0,0,1,0
679,19607,10651,trol,7,0,0,0,0,0,1,0
685,19608,10651,trol,7,0,0,0,0,0,1,0
691,19609,10651,trol,7,0,0,0,0,0,1,0
697,19610,10651,trol,7,0,0,0,0,0,1,0
704,19611,10651,trol,7,0,0,0,0,0,1,0
711,19612,10651,trol,7,0,0,0,0,0,1,0
717,19613,10651,trol,7,0,0,0,0,0,1,0
724,19614,10651,trol,7,0,0,0,0,0,1,0
731,19615,10651,trol,7,0,0,0,0,0,1,0
738,19616,10651,trol,7,0,0,0,0,0,1,0
745,19617,10651,trol,7,0,0,0,0,0,1,0
754,19618,10651,trol,7,0,0,0,0,0,1,0
760,19619,10651,trol,7,0,0,0,0,0,1,0
768,19620,10651,trol,7,0,0,0,0,0,1,0
776,19621,10651,trol,7,0,0,0,0,0,1,0
782,19622,10651,trol,7,0,0,0,0,0,1,0
790,19623,10651,trol,7,0,0,0,0,0,1,0
798,19624,10651,trol,7,0,0,0,0,0,1,0
804,19625,10651,trol,7,0,0,0,0,0,1,0
810,19626,10651,trol,7,0,0,0,0,0,1,0
815,19627,10651,trol,7,0,0,0,0,0,1,0
821,19628,10651,trol,7,0,0,0,0,0,1,0
826,19629,10651,trol,7,0,0,0,0,0,1,0
831,19630,10651,trol,7,0,0,0,0,0,1,0
837,19631,10651,trol,7,0,0,0,0,0,1,0
844,19632,10651,trol,7,0,0,0,0,0,1,0
851,19633,10651,trol,7,0,0,0,0,0,1,0
856,19634,10651,trol,7,0,0,0,0,0,1,0
862,19635,10651,trol,7,0,0,0,0,0,1,0
868,19636,10651,trol,7,0,0,0,0,0,1,0
874,19637,10651,trol,7,0,0,0,0,0,1,0
882,19638,10651,trol,7,0,0,0,0,0,1,0
888,19639,10651,trol,7,0,0,0,0,0,1,0
896,19640,10651,trol,7,0,0,0,0,0,1,0
902,19641,10651,trol,7,0,0,0,0,0,1,0
908,19642,10651,trol,7,0,0,0,0,0,1,0
914,19643,10651,trol,7,0,0,0,0,0,1,0
920,19644,10651,trol,7,0,0,0,0,0,1,0
927,19645,10651,trol,7,0,0,0,0,0,1,0
937,19646,10651,trol,7,0,0,0,0,0,1,0
942,19647,10651,trol,7,0,0,0,0,0,1,0
948,19648,10651,trol,7,0,0,0,0,0,1,0
954,19649,10651,trol,7,0,0,0,0,0,1,0
960,19650,10651,trol,7,0,0,0,0,0,1,0
965,19651,10651,trol,7,0,0,0,0,0,1,0
971,19652,10651,trol,7,0,0,0,0,0,1,0
978,19653,10651,trol,7,0,0,0,0,0,1,0
984,19654,10651,trol,7,0,0,0,0,0,1,0
991,19655,10651,trol,7,0,0,0,0,0,1,0
997,19656,10651,trol,7,0,0,0,0,0,1,0
1003,19657,10651,trol,7,0,0,0,0,0,1,0
1013,19658,10651,trol,7,0,0,0,0,0,1,0
1020,19659,10651,trol,7,0,0,0,0,0,1,0
1027,19660,10651,trol,7,0,0,0,0,0,1,0
1034,19661,10651,trol,7,0,0,0,0,0,1,0
1040,19662,10651,trol,7,0,0,0,0,0,1,0
1047,19663,10651,trol,7,0,0,0,0,0,1,0
1056,19664,10651,trol,7,0,0,0,0,0,1,0
1066,19665,10651,trol,7,0,0,0,0,0,1,0
1079,19666,10651,trol,7,0,0,0,0,0,1,0
1087,19667,10651,trol,7,0,0,0,0,0,1,0
1095,19668,10651,trol,7,0,0,0,0,0,1,0
1105,19669,10651,trol,7,0,0,0,0,0,1,0
1114,19670,10651,trol,7,0,0,0,0,0,1,0
1124,19671,10651,trol,7,0,0,0,0,0,1,0
1139,19672,10651,trol,7,0,0,0,0,0,1,0
1152,19673,10651,trol,7,0,0,0,0,0,1,0
1164,19674,10651,trol,7,0,0,0,0,0,1,0
1177,19675,10651,trol,7,0,0,0,0,0,1,0
1187,19676,10651,trol,7,0,0,0,0,0,1,0
1198,19677,10651,trol,7,0,0,0,0,0,1,0
1206,19678,10651,trol,7,0,0,0,0,0,1,0
1219,19679,10651,trol,7,0,0,0,0,0,1,0
1229,19680,10651,trol,7,0,0,0,0,0,1,0
1239,19681,10651,trol,7,0,0,0,0,0,1,0
1250,19682,10651,trol,7,0,0,0,0,0,1,0
1259,19683,10651,trol,7,0,0,0,0,0,1,0
1270,19684,10651,trol,7,0,0,0,0,0,1,0
1279,19685,10651,trol,7,0,0,0,0,0,1,0
1290,19686,10651,trol,7,0,0,0,0,0,1,0
1299,19687,10651,trol,7,0,0,0,0,0,1,0
1309,19688,10651,trol,7,0,0,0,0,0,1,0
1321,19689,10651,trol,7,0,0,0,0,0,1,0
1335,19690,10651,trol,7,0,0,0,0,0,1,0
1351,19691,10651,trol,7,0,0,0,0,0,1,0
1367,19692,10651,trol,7,0,0,0,0,0,1,0
1378,19693,10651,trol,7,0,0,0,0,0,1,0
1388,19694,10651,trol,7,0,0,0,0,0,1,0
1407,19695,10651,trol,7,0,0,0,0,0,1,0
1424,19696,10651,trol,7,0,0,0,0,0,1,0
400,19697,10653,trol,7,0,0,0,0,0,0,1
414,19698,10653,trol,7,0,0,0,0,0,0,1
436,19699,10653,trol,7,0,0,0,0,0,0,1
449,19700,10653,trol,7,0,0,0,0,0,0,1
459,19701,10653,trol,7,0,0,0,0,0,0,1
471,19702,10653,trol,7,0,0,0,0,0,0,1
484,19703,10653,trol,7,0,0,0,0,0,0,1
494,19704,10653,trol,7,0,0,0,0,0,0,1
508,19705,10653,trol,7,0,0,0,0,0,0,1
519,19706,10653,trol,7,0,0,0,0,0,0,1
531,19707,10653,trol,7,0,0,0,0,0,0,1
539,19708,10653,trol,7,0,0,0,0,0,0,1
545,19709,10653,trol,7,0,0,0,0,0,0,1
556,19710,10653,trol,7,0,0,0,0,0,0,1
565,19711,10653,trol,7,0,0,0,0,0,0,1
573,19712,10653,trol,7,0,0,0,0,0,0,1
581,19713,10653,trol,7,0,0,0,0,0,0,1
590,19714,10653,trol,7,0,0,0,0,0,0,1
598,19715,10653,trol,7,0,0,0,0,0,0,1
606,19716,10653,trol,7,0,0,0,0,0,0,1
613,19717,10653,trol,7,0,0,0,0,0,0,1
623,19718,10653,trol,7,0,0,0,0,0,0,1
630,19719,10653,trol,7,0,0,0,0,0,0,1
639,19720,10653,trol,7,0,0,0,0,0,0,1
647,19721,10653,trol,7,0,0,0,0,0,0,1
655,19722,10653,trol,7,0,0,0,0,0,0,1
661,19723,10653,trol,7,0,0,0,0,0,0,1
667,19724,10653,trol,7,0,0,0,0,0,0,1
673,19725,10653,trol,7,0,0,0,0,0,0,1
679,19726,10653,trol,7,0,0,0,0,0,0,1
685,19727,10653,trol,7,0,0,0,0,0,0,1
691,19728,10653,trol,7,0,0,0,0,0,0,1
697,19729,10653,trol,7,0,0,0,0,0,0,1
704,19730,10653,trol,7,0,0,0,0,0,0,1
711,19731,10653,trol,7,0,0,0,0,0,0,1
717,19732,10653,trol,7,0,0,0,0,0,0,1
724,19733,10653,trol,7,0,0,0,0,0,0,1
731,19734,10653,trol,7,0,0,0,0,0,0,1
738,19735,10653,trol,7,0,0,0,0,0,0,1
745,19736,10653,trol,7,0,0,0,0,0,0,1
754,19737,10653,trol,7,0,0,0,0,0,0,1
760,19738,10653,trol,7,0,0,0,0,0,0,1
768,19739,10653,trol,7,0,0,0,0,0,0,1
776,19740,10653,trol,7,0,0,0,0,0,0,1
782,19741,10653,trol,7,0,0,0,0,0,0,1
790,19742,10653,trol,7,0,0,0,0,0,0,1
798,19743,10653,trol,7,0,0,0,0,0,0,1
804,19744,10653,trol,7,0,0,0,0,0,0,1
810,19745,10653,trol,7,0,0,0,0,0,0,1
815,19746,10653,trol,7,0,0,0,0,0,0,1
821,19747,10653,trol,7,0,0,0,0,0,0,1
826,19748,10653,trol,7,0,0,0,0,0,0,1
831,19749,10653,trol,7,0,0,0,0,0,0,1
837,19750,10653,trol,7,0,0,0,0,0,0,1
844,19751,10653,trol,7,0,0,0,0,0,0,1
851,19752,10653,trol,7,0,0,0,0,0,0,1
856,19753,10653,trol,7,0,0,0,0,0,0,1
862,19754,10653,trol,7,0,0,0,0,0,0,1
868,19755,10653,trol,7,0,0,0,0,0,0,1
874,19756,10653,trol,7,0,0,0,0,0,0,1
882,19757,10653,trol,7,0,0,0,0,0,0,1
888,19758,10653,trol,7,0,0,0,0,0,0,1
896,19759,10653,trol,7,0,0,0,0,0,0,1
902,19760,10653,trol,7,0,0,0,0,0,0,1
908,19761,10653,trol,7,0,0,0,0,0,0,1
914,19762,10653,trol,7,0,0,0,0,0,0,1
920,19763,10653,trol,7,0,0,0,0,0,0,1
927,19764,10653,trol,7,0,0,0,0,0,0,1
937,19765,10653,trol,7,0,0,0,0,0,0,1
942,19766,10653,trol,7,0,0,0,0,0,0,1
948,19767,10653,trol,7,0,0,0,0,0,0,1
954,19768,10653,trol,7,0,0,0,0,0,0,1
960,19769,10653,trol,7,0,0,0,0,0,0,1
965,19770,10653,trol,7,0,0,0,0,0,0,1
971,19771,10653,trol,7,0,0,0,0,0,0,1
978,19772,10653,trol,7,0,0,0,0,0,0,1
984,19773,10653,trol,7,0,0,0,0,0,0,1
991,19774,10653,trol,7,0,0,0,0,0,0,1
997,19775,10653,trol,7,0,0,0,0,0,0,1
1003,19776,10653,trol,7,0,0,0,0,0,0,1
1013,19777,10653,trol,7,0,0,0,0,0,0,1
1020,19778,10653,trol,7,0,0,0,0,0,0,1
1027,19779,10653,trol,7,0,0,0,0,0,0,1
1034,19780,10653,trol,7,0,0,0,0,0,0,1
1040,19781,10653,trol,7,0,0,0,0,0,0,1
1047,19782,10653,trol,7,0,0,0,0,0,0,1
1056,19783,10653,trol,7,0,0,0,0,0,0,1
1066,19784,10653,trol,7,0,0,0,0,0,0,1
1079,19785,10653,trol,7,0,0,0,0,0,0,1
1087,19786,10653,trol,7,0,0,0,0,0,0,1
1095,19787,10653,trol,7,0,0,0,0,0,0,1
1105,19788,10653,trol,7,0,0,0,0,0,0,1
1114,19789,10653,trol,7,0,0,0,0,0,0,1
1124,19790,10653,trol,7,0,0,0,0,0,0,1
1139,19791,10653,trol,7,0,0,0,0,0,0,1
1152,19792,10653,trol,7,0,0,0,0,0,0,1
1164,19793,10653,trol,7,0,0,0,0,0,0,1
1177,19794,10653,trol,7,0,0,0,0,0,0,1
1187,19795,10653,trol,7,0,0,0,0,0,0,1
1198,19796,10653,trol,7,0,0,0,0,0,0,1
1206,19797,10653,trol,7,0,0,0,0,0,0,1
1219,19798,10653,trol,7,0,0,0,0,0,0,1
1229,19799,10653,trol,7,0,0,0,0,0,0,1
1239,19800,10653,trol,7,0,0,0,0,0,0,1
1250,19801,10653,trol,7,0,0,0,0,0,0,1
1259,19802,10653,trol,7,0,0,0,0,0,0,1
1270,19803,10653,trol,7,0,0,0,0,0,0,1
1279,19804,10653,trol,7,0,0,0,0,0,0,1
1290,19805,10653,trol,7,0,0,0,0,0,0,1
1299,19806,10653,trol,7,0,0,0,0,0,0,1
1309,19807,10653,trol,7,0,0,0,0,0,0,1
1321,19808,10653,trol,7,0,0,0,0,0,0,1
1335,19809,10653,trol,7,0,0,0,0,0,0,1
1351,19810,10653,trol,7,0,0,0,0,0,0,1
1367,19811,10653,trol,7,0,0,0,0,0,0,1
1378,19812,10653,trol,7,0,0,0,0,0,0,1
1388,19813,10653,trol,7,0,0,0,0,0,0,1
1407,19814,10653,trol,7,0,0,0,0,0,0,1
1424,19815,10653,trol,7,0,0,0,0,0,0,1
295,19878,10654,trol,7,1,1,1,1,1,0,0
307,19879,10654,trol,7,1,1,1,1,1,0,0
318,19880,10654,trol,7,1,1,1,1,1,0,0
326,19881,10654,trol,7,1,1,1,1,1,0,0
334,19882,10654,trol,7,1,1,1,1,1,0,0
338,19883,10654,trol,7,1,1,1,1,1,0,0
348,19884,10654,trol,7,1,1,1,1,1,0,0
353,19885,10654,trol,7,1,1,1,1,1,0,0
360,19886,10654,trol,7,1,1,1,1,1,0,0
363,19887,10654,trol,7,1,1,1,1,1,0,0
367,19888,10654,trol,7,1,1,1,1,1,0,0
371,19889,10654,trol,7,1,1,1,1,1,0,0
382,19890,10654,trol,7,1,1,1,1,1,0,0
385,19891,10654,trol,7,1,1,1,1,1,0,0
391,19892,10654,trol,7,1,1,1,1,1,0,0
394,19893,10654,trol,7,1,1,1,1,1,0,0
397,19894,10654,trol,7,1,1,1,1,1,0,0
404,19895,10654,trol,7,1,1,1,1,1,0,0
412,19896,10654,trol,7,1,1,1,1,1,0,0
418,19897,10654,trol,7,1,1,1,1,1,0,0
424,19898,10654,trol,7,1,1,1,1,1,0,0
434,19899,10654,trol,7,1,1,1,1,1,0,0
300,19900,10651,trol,7,0,0,0,0,0,1,0
322,19901,10651,trol,7,0,0,0,0,0,1,0
336,19902,10651,trol,7,0,0,0,0,0,1,0
393,19903,10651,trol,7,0,0,0,0,0,1,0
430,19904,10651,trol,7,0,0,0,0,0,1,0
467,19905,10651,trol,7,0,0,0,0,0,1,0
491,19906,10651,trol,7,0,0,0,0,0,1,0
512,19907,10651,trol,7,0,0,0,0,0,1,0
528,19908,10651,trol,7,0,0,0,0,0,1,0
535,19909,10651,trol,7,0,0,0,0,0,1,0
542,19910,10651,trol,7,0,0,0,0,0,1,0
586,19911,10651,trol,7,0,0,0,0,0,1,0
358,19912,10653,trol,7,0,0,0,0,0,0,1
371,19913,10653,trol,7,0,0,0,0,0,0,1
381,19914,10653,trol,7,0,0,0,0,0,0,1
393,19915,10653,trol,7,0,0,0,0,0,0,1
430,19916,10653,trol,7,0,0,0,0,0,0,1
467,19917,10653,trol,7,0,0,0,0,0,0,1
491,19918,10653,trol,7,0,0,0,0,0,0,1
512,19919,10653,trol,7,0,0,0,0,0,0,1
528,19920,10653,trol,7,0,0,0,0,0,0,1
535,19921,10653,trol,7,0,0,0,0,0,0,1
542,19922,10653,trol,7,0,0,0,0,0,0,1
586,19923,10653,trol,7,0,0,0,0,0,0,1
369,21215,10656,trol,13,1,1,1,1,1,0,0
399,21216,10656,trol,13,1,1,1,1,1,0,0
424,21217,10656,trol,13,1,1,1,1,1,0,0
445,21218,10656,trol,13,1,1,1,1,1,0,0
460,21219,10656,trol,13,1,1,1,1,1,0,0
478,21220,10656,trol,13,1,1,1,1,1,0,0
502,21221,10656,trol,13,1,1,1,1,1,0,0
523,21222,10656,trol,13,1,1,1,1,1,0,0
543,21223,10656,trol,13,1,1,1,1,1,0,0
563,21224,10656,trol,13,1,1,1,1,1,0,0
842,21225,10656,trol,13,1,1,1,1,1,0,0
861,21226,10656,trol,13,1,1,1,1,1,0,0
876,21227,10656,trol,13,1,1,1,1,1,0,0
897,21228,10656,trol,13,1,1,1,1,1,0,0
919,21229,10656,trol,13,1,1,1,1,1,0,0
929,21230,10656,trol,13,1,1,1,1,1,0,0
944,21231,10656,trol,13,1,1,1,1,1,0,0
961,21232,10656,trol,13,1,1,1,1,1,0,0
979,21233,10656,trol,13,1,1,1,1,1,0,0
1000,21234,10656,trol,13,1,1,1,1,1,0,0
1013,21235,10656,trol,13,1,1,1,1,1,0,0
1027,21236,10656,trol,13,1,1,1,1,1,0,0
1041,21237,10656,trol,13,1,1,1,1,1,0,0
1060,21238,10656,trol,13,1,1,1,1,1,0,0
1079,21239,10656,trol,13,1,1,1,1,1,0,0
1100,21240,10656,trol,13,1,1,1,1,1,0,0
285,21250,10656,trol,13,1,1,1,1,1,0,0
314,21251,10656,trol,13,1,1,1,1,1,0,0
337,21252,10656,trol,13,1,1,1,1,1,0,0
357,21253,10656,trol,13,1,1,1,1,1,0,0
377,22866,10655,trol,18,1,1,1,1,1,0,0
404,22867,10655,trol,18,1,1,1,1,1,0,0
421,22868,10654,trol,18,1,1,1,1,1,0,0
438,22869,10655,trol,18,1,1,1,1,1,0,0
456,22870,10656,trol,18,1,1,1,1,1,0,0
474,22871,10655,trol,18,1,1,1,1,1,0,0
491,22872,10655,trol,18,1,1,1,1,1,0,0
510,22873,10655,trol,18,1,1,1,1,1,0,0
530,22874,10654,trol,18,1,1,1,1,1,0,0
547,22875,10655,trol,18,1,1,1,1,1,0,0
566,22876,10656,trol,18,1,1,1,1,1,0,0
574,22877,10655,trol,18,1,1,1,1,1,0,0
592,22878,10655,trol,18,1,1,1,1,1,0,0
610,22879,10655,trol,18,1,1,1,1,1,0,0
642,22880,10655,trol,18,1,1,1,1,1,0,0
694,22881,10655,trol,18,1,1,1,1,1,0,0
729,22882,10655,trol,18,1,1,1,1,1,0,0
761,22883,10655,trol,18,1,1,1,1,1,0,0
790,22884,10655,trol,18,1,1,1,1,1,0,0
823,22885,10655,trol,18,1,1,1,1,1,0,0
854,22886,10655,trol,18,1,1,1,1,1,0,0
892,22887,10655,trol,18,1,1,1,1,1,0,0
924,22888,10655,trol,18,1,1,1,1,1,0,0
955,22889,10655,trol,18,1,1,1,1,1,0,0
974,22890,10655,trol,18,1,1,1,1,1,0,0
989,22891,10655,trol,18,1,1,1,1,1,0,0
1021,22892,10655,trol,18,1,1,1,1,1,0,0
1051,22893,10655,trol,18,1,1,1,1,1,0,0
1073,22894,10655,trol,18,1,1,1,1,1,0,0
1092,22895,10655,trol,18,1,1,1,1,1,0,0
1129,22896,10655,trol,18,1,1,1,1,1,0,0
1151,22897,10655,trol,18,1,1,1,1,1,0,0
1184,22898,10655,trol,18,1,1,1,1,1,0,0
1211,22899,10655,trol,18,1,1,1,1,1,0,0
1252,22900,10655,trol,18,1,1,1,1,1,0,0
1283,22901,10655,trol,18,1,1,1,1,1,0,0
1316,22902,10655,trol,18,1,1,1,1,1,0,0
1364,22903,10655,trol,18,1,1,1,1,1,0,0
1418,22904,10655,trol,18,1,1,1,1,1,0,0
370,22905,10651,trol,18,0,0,0,0,0,1,0
448,22906,10652,trol,18,0,0,0,0,0,1,0
485,22907,10652,trol,18,0,0,0,0,0,1,0
539,22908,10652,trol,18,0,0,0,0,0,1,0
576,22909,10652,trol,18,0,0,0,0,0,1,0
630,22910,10652,trol,18,0,0,0,0,0,1,0
673,22911,10652,trol,18,0,0,0,0,0,1,0
706,22912,10652,trol,18,0,0,0,0,0,1,0
748,22913,10652,trol,18,0,0,0,0,0,1,0
779,22914,10652,trol,18,0,0,0,0,0,1,0
799,22915,10652,trol,18,0,0,0,0,0,1,0
843,22916,10652,trol,18,0,0,0,0,0,1,0
888,22917,10652,trol,18,0,0,0,0,0,1,0
912,22918,10652,trol,18,0,0,0,0,0,1,0
945,22919,10652,trol,18,0,0,0,0,0,1,0
983,22920,10652,trol,18,0,0,0,0,0,1,0
1005,22921,10652,trol,18,0,0,0,0,0,1,0
1040,22922,10652,trol,18,0,0,0,0,0,1,0
1077,22923,10652,trol,18,0,0,0,0,0,1,0
1119,22924,10652,trol,18,0,0,0,0,0,1,0
1162,22925,10652,trol,18,0,0,0,0,0,1,0
1205,22926,10652,trol,18,0,0,0,0,0,1,0
1255,22927,10652,trol,18,0,0,0,0,0,1,0
1305,22928,10652,trol,18,0,0,0,0,0,1,0
1355,22929,10652,trol,18,0,0,0,0,0,1,0
1415,22930,10652,trol,18,0,0,0,0,0,1,0
426,22931,10474,trol,18,0,0,0,0,0,0,1
485,22932,10474,trol,18,0,0,0,0,0,0,1
534,22933,10474,trol,18,0,0,0,0,0,0,1
576,22934,10474,trol,18,0,0,0,0,0,0,1
630,22935,10474,trol,18,0,0,0,0,0,0,1
673,22936,10474,trol,18,0,0,0,0,0,0,1
706,22937,10474,trol,18,0,0,0,0,0,0,1
748,22938,10474,trol,18,0,0,0,0,0,0,1
779,22939,10474,trol,18,0,0,0,0,0,0,1
799,22940,10474,trol,18,0,0,0,0,0,0,1
843,22941,10474,trol,18,0,0,0,0,0,0,1
888,22942,10474,trol,18,0,0,0,0,0,0,1
912,22943,10474,trol,18,0,0,0,0,0,0,1
945,22944,10474,trol,18,0,0,0,0,0,0,1
983,22945,10474,trol,18,0,0,0,0,0,0,1
1005,22946,10474,trol,18,0,0,0,0,0,0,1
1040,22947,10474,trol,18,0,0,0,0,0,0,1
1077,22948,10474,trol,18,0,0,0,0,0,0,1
1119,22949,10474,trol,18,0,0,0,0,0,0,1
1162,22950,10474,trol,18,0,0,0,0,0,0,1
1205,22951,10474,trol,18,0,0,0,0,0,0,1
1255,22952,10474,trol,18,0,0,0,0,0,0,1
1305,22953,10474,trol,18,0,0,0,0,0,0,1
1355,22954,10474,trol,18,0,0,0,0,0,0,1
1415,22955,10474,trol,18,0,0,0,0,0,0,1
309,22967,10655,trol,18,1,1,1,1,1,0,0
329,22968,10654,trol,18,1,1,1,1,1,0,0
347,22969,10655,trol,18,1,1,1,1,1,0,0
363,22970,10656,trol,18,1,1,1,1,1,0,0
396,22971,10655,trol,18,1,1,1,1,1,0,0
286,22972,10651,trol,18,0,0,0,0,0,1,0
361,22973,10652,trol,18,0,0,0,0,0,1,0
394,22974,10652,trol,18,0,0,0,0,0,1,0
585,22975,10652,trol,18,0,0,0,0,0,1,0
334,22976,10474,trol,18,0,0,0,0,0,0,1
394,22977,10474,trol,18,0,0,0,0,0,0,1
585,22978,10474,trol,18,0,0,0,0,0,0,1
