timeInMin,trip_id,service_id,tipas,numeris,pirmadienis,antradienis,treciadienis,ketvirtadienis,penktadienis,sestadienis,sekmadienis 
370,5692,10343,bus,15,1,1,1,1,1,1,0
431,5693,10343,bus,15,1,1,1,1,1,1,0
489,5694,10343,bus,15,1,1,1,1,1,1,0
544,5695,10343,bus,15,1,1,1,1,1,1,0
704,5696,10343,bus,15,1,1,1,1,1,1,0
760,5697,10343,bus,15,1,1,1,1,1,1,0
816,5698,10343,bus,15,1,1,1,1,1,1,0
877,5699,10343,bus,15,1,1,1,1,1,1,0
933,5700,10343,bus,15,1,1,1,1,1,1,0
991,5701,10343,bus,15,1,1,1,1,1,1,0
1135,5702,10343,bus,15,1,1,1,1,1,1,0
1189,5703,10343,bus,15,1,1,1,1,1,1,0
1248,5704,10343,bus,15,1,1,1,1,1,1,0
418,5705,10344,bus,15,0,0,0,0,0,0,1
489,5706,10344,bus,15,0,0,0,0,0,0,1
544,5707,10344,bus,15,0,0,0,0,0,0,1
704,5708,10344,bus,15,0,0,0,0,0,0,1
760,5709,10344,bus,15,0,0,0,0,0,0,1
816,5710,10344,bus,15,0,0,0,0,0,0,1
877,5711,10344,bus,15,0,0,0,0,0,0,1
933,5712,10344,bus,15,0,0,0,0,0,0,1
991,5713,10344,bus,15,0,0,0,0,0,0,1
1135,5714,10344,bus,15,0,0,0,0,0,0,1
1189,5715,10344,bus,15,0,0,0,0,0,0,1
1248,5716,10344,bus,15,0,0,0,0,0,0,1
649,5717,10343,bus,15,1,1,1,1,1,1,0
1082,5718,10343,bus,15,1,1,1,1,1,1,0
649,5719,10344,bus,15,0,0,0,0,0,0,1
1082,5720,10344,bus,15,0,0,0,0,0,0,1
359,11815,10612,bus,50,1,1,1,1,1,0,0
374,11816,10612,bus,50,1,1,1,1,1,0,0
390,11817,10612,bus,50,1,1,1,1,1,0,0
406,11818,10612,bus,50,1,1,1,1,1,0,0
423,11819,10612,bus,50,1,1,1,1,1,0,0
440,11820,10612,bus,50,1,1,1,1,1,0,0
455,11821,10612,bus,50,1,1,1,1,1,0,0
470,11822,10612,bus,50,1,1,1,1,1,0,0
487,11823,10612,bus,50,1,1,1,1,1,0,0
505,11824,10612,bus,50,1,1,1,1,1,0,0
523,11825,10612,bus,50,1,1,1,1,1,0,0
547,11826,10612,bus,50,1,1,1,1,1,0,0
578,11827,10612,bus,50,1,1,1,1,1,0,0
612,11828,10612,bus,50,1,1,1,1,1,0,0
643,11829,10612,bus,50,1,1,1,1,1,0,0
672,11830,10612,bus,50,1,1,1,1,1,0,0
701,11831,10612,bus,50,1,1,1,1,1,0,0
731,11832,10612,bus,50,1,1,1,1,1,0,0
763,11833,10612,bus,50,1,1,1,1,1,0,0
788,11834,10612,bus,50,1,1,1,1,1,0,0
820,11835,10612,bus,50,1,1,1,1,1,0,0
852,11836,10612,bus,50,1,1,1,1,1,0,0
876,11837,10612,bus,50,1,1,1,1,1,0,0
896,11838,10612,bus,50,1,1,1,1,1,0,0
914,11839,10612,bus,50,1,1,1,1,1,0,0
927,11840,10612,bus,50,1,1,1,1,1,0,0
943,11841,10612,bus,50,1,1,1,1,1,0,0
960,11842,10612,bus,50,1,1,1,1,1,0,0
972,11843,10612,bus,50,1,1,1,1,1,0,0
991,11844,10612,bus,50,1,1,1,1,1,0,0
1007,11845,10612,bus,50,1,1,1,1,1,0,0
1023,11846,10612,bus,50,1,1,1,1,1,0,0
1039,11847,10612,bus,50,1,1,1,1,1,0,0
1056,11848,10612,bus,50,1,1,1,1,1,0,0
1075,11849,10612,bus,50,1,1,1,1,1,0,0
1090,11850,10612,bus,50,1,1,1,1,1,0,0
1115,11851,10612,bus,50,1,1,1,1,1,0,0
1134,11852,10612,bus,50,1,1,1,1,1,0,0
1166,11853,10612,bus,50,1,1,1,1,1,0,0
1196,11854,10612,bus,50,1,1,1,1,1,0,0
1219,11855,10612,bus,50,1,1,1,1,1,0,0
1256,11856,10612,bus,50,1,1,1,1,1,0,0
1282,11857,10612,bus,50,1,1,1,1,1,0,0
1311,11858,10612,bus,50,1,1,1,1,1,0,0
1334,11859,10612,bus,50,1,1,1,1,1,0,0
1363,11860,10612,bus,50,1,1,1,1,1,0,0
1392,11861,10612,bus,50,1,1,1,1,1,0,0
368,11862,10389,bus,50,0,0,0,0,0,1,0
447,11863,10389,bus,50,0,0,0,0,0,1,0
483,11864,10389,bus,50,0,0,0,0,0,1,0
528,11865,10389,bus,50,0,0,0,0,0,1,0
566,11866,10389,bus,50,0,0,0,0,0,1,0
609,11867,10389,bus,50,0,0,0,0,0,1,0
644,11868,10389,bus,50,0,0,0,0,0,1,0
677,11869,10389,bus,50,0,0,0,0,0,1,0
700,11870,10389,bus,50,0,0,0,0,0,1,0
759,11871,10389,bus,50,0,0,0,0,0,1,0
791,11872,10389,bus,50,0,0,0,0,0,1,0
816,11873,10389,bus,50,0,0,0,0,0,1,0
848,11874,10389,bus,50,0,0,0,0,0,1,0
878,11875,10389,bus,50,0,0,0,0,0,1,0
904,11876,10389,bus,50,0,0,0,0,0,1,0
934,11877,10389,bus,50,0,0,0,0,0,1,0
957,11878,10389,bus,50,0,0,0,0,0,1,0
987,11879,10389,bus,50,0,0,0,0,0,1,0
1016,11880,10389,bus,50,0,0,0,0,0,1,0
1068,11881,10389,bus,50,0,0,0,0,0,1,0
1132,11882,10389,bus,50,0,0,0,0,0,1,0
1213,11883,10389,bus,50,0,0,0,0,0,1,0
1288,11884,10389,bus,50,0,0,0,0,0,1,0
1359,11885,10389,bus,50,0,0,0,0,0,1,0
368,11886,10390,bus,50,0,0,0,0,0,0,1
447,11887,10390,bus,50,0,0,0,0,0,0,1
483,11888,10390,bus,50,0,0,0,0,0,0,1
528,11889,10390,bus,50,0,0,0,0,0,0,1
566,11890,10390,bus,50,0,0,0,0,0,0,1
609,11891,10390,bus,50,0,0,0,0,0,0,1
644,11892,10390,bus,50,0,0,0,0,0,0,1
677,11893,10390,bus,50,0,0,0,0,0,0,1
700,11894,10390,bus,50,0,0,0,0,0,0,1
759,11895,10390,bus,50,0,0,0,0,0,0,1
791,11896,10390,bus,50,0,0,0,0,0,0,1
816,11897,10390,bus,50,0,0,0,0,0,0,1
848,11898,10390,bus,50,0,0,0,0,0,0,1
878,11899,10390,bus,50,0,0,0,0,0,0,1
904,11900,10390,bus,50,0,0,0,0,0,0,1
934,11901,10390,bus,50,0,0,0,0,0,0,1
957,11902,10390,bus,50,0,0,0,0,0,0,1
987,11903,10390,bus,50,0,0,0,0,0,0,1
1016,11904,10390,bus,50,0,0,0,0,0,0,1
1068,11905,10390,bus,50,0,0,0,0,0,0,1
1132,11906,10390,bus,50,0,0,0,0,0,0,1
1213,11907,10390,bus,50,0,0,0,0,0,0,1
1288,11908,10390,bus,50,0,0,0,0,0,0,1
1359,11909,10390,bus,50,0,0,0,0,0,0,1
358,15909,10620,bus,114,1,1,1,1,1,0,0
385,15910,10620,bus,114,1,1,1,1,1,0,0
400,15911,10620,bus,114,1,1,1,1,1,0,0
432,15912,10620,bus,114,1,1,1,1,1,0,0
459,15913,10620,bus,114,1,1,1,1,1,0,0
481,15914,10620,bus,114,1,1,1,1,1,0,0
508,15915,10620,bus,114,1,1,1,1,1,0,0
536,15916,10620,bus,114,1,1,1,1,1,0,0
559,15917,10620,bus,114,1,1,1,1,1,0,0
587,15918,10620,bus,114,1,1,1,1,1,0,0
637,15919,10620,bus,114,1,1,1,1,1,0,0
660,15920,10620,bus,114,1,1,1,1,1,0,0
688,15921,10620,bus,114,1,1,1,1,1,0,0
710,15922,10620,bus,114,1,1,1,1,1,0,0
737,15923,10620,bus,114,1,1,1,1,1,0,0
763,15924,10620,bus,114,1,1,1,1,1,0,0
787,15925,10620,bus,114,1,1,1,1,1,0,0
814,15926,10620,bus,114,1,1,1,1,1,0,0
850,15927,10620,bus,114,1,1,1,1,1,0,0
874,15928,10620,bus,114,1,1,1,1,1,0,0
895,15929,10620,bus,114,1,1,1,1,1,0,0
934,15930,10620,bus,114,1,1,1,1,1,0,0
960,15931,10620,bus,114,1,1,1,1,1,0,0
979,15932,10620,bus,114,1,1,1,1,1,0,0
1008,15933,10620,bus,114,1,1,1,1,1,0,0
1035,15934,10620,bus,114,1,1,1,1,1,0,0
1058,15935,10620,bus,114,1,1,1,1,1,0,0
1083,15936,10620,bus,114,1,1,1,1,1,0,0
1109,15937,10620,bus,114,1,1,1,1,1,0,0
1163,15938,10620,bus,114,1,1,1,1,1,0,0
1184,15939,10620,bus,114,1,1,1,1,1,0,0
1210,15940,10620,bus,114,1,1,1,1,1,0,0
1235,15941,10620,bus,114,1,1,1,1,1,0,0
1256,15942,10620,bus,114,1,1,1,1,1,0,0
1283,15943,10620,bus,114,1,1,1,1,1,0,0
1309,15944,10620,bus,114,1,1,1,1,1,0,0
1336,15945,10620,bus,114,1,1,1,1,1,0,0
1357,15946,10620,bus,114,1,1,1,1,1,0,0
350,15947,10621,bus,114,0,0,0,0,0,1,1
386,15948,10621,bus,114,0,0,0,0,0,1,1
429,15949,10621,bus,114,0,0,0,0,0,1,1
460,15950,10621,bus,114,0,0,0,0,0,1,1
503,15951,10621,bus,114,0,0,0,0,0,1,1
539,15952,10621,bus,114,0,0,0,0,0,1,1
604,15953,10621,bus,114,0,0,0,0,0,1,1
640,15954,10621,bus,114,0,0,0,0,0,1,1
676,15955,10621,bus,114,0,0,0,0,0,1,1
717,15956,10621,bus,114,0,0,0,0,0,1,1
754,15957,10621,bus,114,0,0,0,0,0,1,1
797,15958,10621,bus,114,0,0,0,0,0,1,1
830,15959,10621,bus,114,0,0,0,0,0,1,1
874,15960,10621,bus,114,0,0,0,0,0,1,1
907,15961,10621,bus,114,0,0,0,0,0,1,1
949,15962,10621,bus,114,0,0,0,0,0,1,1
984,15963,10621,bus,114,0,0,0,0,0,1,1
1025,15964,10621,bus,114,0,0,0,0,0,1,1
1090,15965,10621,bus,114,0,0,0,0,0,1,1
1140,15966,10621,bus,114,0,0,0,0,0,1,1
1170,15967,10621,bus,114,0,0,0,0,0,1,1
1215,15968,10621,bus,114,0,0,0,0,0,1,1
1250,15969,10621,bus,114,0,0,0,0,0,1,1
1299,15970,10621,bus,114,0,0,0,0,0,1,1
1326,15971,10621,bus,114,0,0,0,0,0,1,1
320,16035,10622,bus,115,1,1,1,1,1,0,0
331,16036,10622,bus,115,1,1,1,1,1,0,0
350,16037,10622,bus,115,1,1,1,1,1,0,0
372,16038,10622,bus,115,1,1,1,1,1,0,0
409,16039,10622,bus,115,1,1,1,1,1,0,0
436,16040,10622,bus,115,1,1,1,1,1,0,0
463,16041,10622,bus,115,1,1,1,1,1,0,0
493,16042,10622,bus,115,1,1,1,1,1,0,0
520,16043,10622,bus,115,1,1,1,1,1,0,0
547,16044,10622,bus,115,1,1,1,1,1,0,0
604,16045,10622,bus,115,1,1,1,1,1,0,0
666,16046,10622,bus,115,1,1,1,1,1,0,0
696,16047,10622,bus,115,1,1,1,1,1,0,0
753,16048,10622,bus,115,1,1,1,1,1,0,0
782,16049,10622,bus,115,1,1,1,1,1,0,0
802,16050,10622,bus,115,1,1,1,1,1,0,0
840,16051,10622,bus,115,1,1,1,1,1,0,0
870,16052,10622,bus,115,1,1,1,1,1,0,0
901,16053,10622,bus,115,1,1,1,1,1,0,0
928,16054,10622,bus,115,1,1,1,1,1,0,0
954,16055,10622,bus,115,1,1,1,1,1,0,0
984,16056,10622,bus,115,1,1,1,1,1,0,0
1014,16057,10622,bus,115,1,1,1,1,1,0,0
1048,16058,10622,bus,115,1,1,1,1,1,0,0
1074,16059,10622,bus,115,1,1,1,1,1,0,0
1125,16060,10622,bus,115,1,1,1,1,1,0,0
1177,16061,10622,bus,115,1,1,1,1,1,0,0
1227,16062,10622,bus,115,1,1,1,1,1,0,0
1260,16063,10622,bus,115,1,1,1,1,1,0,0
1318,16064,10622,bus,115,1,1,1,1,1,0,0
1346,16065,10622,bus,115,1,1,1,1,1,0,0
334,16066,10623,bus,115,0,0,0,0,0,1,0
417,16067,10623,bus,115,0,0,0,0,0,1,0
513,16068,10623,bus,115,0,0,0,0,0,1,0
568,16069,10623,bus,115,0,0,0,0,0,1,0
624,16070,10623,bus,115,0,0,0,0,0,1,0
656,16071,10623,bus,115,0,0,0,0,0,1,0
707,16072,10623,bus,115,0,0,0,0,0,1,0
766,16073,10623,bus,115,0,0,0,0,0,1,0
836,16074,10623,bus,115,0,0,0,0,0,1,0
884,16075,10623,bus,115,0,0,0,0,0,1,0
924,16076,10623,bus,115,0,0,0,0,0,1,0
967,16077,10623,bus,115,0,0,0,0,0,1,0
1007,16078,10623,bus,115,0,0,0,0,0,1,0
1052,16079,10623,bus,115,0,0,0,0,0,1,0
1118,16080,10623,bus,115,0,0,0,0,0,1,0
1201,16081,10623,bus,115,0,0,0,0,0,1,0
1284,16082,10623,bus,115,0,0,0,0,0,1,0
1367,16083,10623,bus,115,0,0,0,0,0,1,0
417,16084,10624,bus,115,0,0,0,0,0,0,1
513,16085,10624,bus,115,0,0,0,0,0,0,1
568,16086,10624,bus,115,0,0,0,0,0,0,1
624,16087,10624,bus,115,0,0,0,0,0,0,1
656,16088,10624,bus,115,0,0,0,0,0,0,1
707,16089,10624,bus,115,0,0,0,0,0,0,1
766,16090,10624,bus,115,0,0,0,0,0,0,1
836,16091,10624,bus,115,0,0,0,0,0,0,1
884,16092,10624,bus,115,0,0,0,0,0,0,1
924,16093,10624,bus,115,0,0,0,0,0,0,1
967,16094,10624,bus,115,0,0,0,0,0,0,1
1007,16095,10624,bus,115,0,0,0,0,0,0,1
1052,16096,10624,bus,115,0,0,0,0,0,0,1
1118,16097,10624,bus,115,0,0,0,0,0,0,1
1201,16098,10624,bus,115,0,0,0,0,0,0,1
1284,16099,10624,bus,115,0,0,0,0,0,0,1
1367,16100,10624,bus,115,0,0,0,0,0,0,1
339,16101,10622,bus,115,1,1,1,1,1,0,0
394,16102,10622,bus,115,1,1,1,1,1,0,0
422,16103,10622,bus,115,1,1,1,1,1,0,0
449,16104,10622,bus,115,1,1,1,1,1,0,0
477,16105,10622,bus,115,1,1,1,1,1,0,0
504,16106,10622,bus,115,1,1,1,1,1,0,0
532,16107,10622,bus,115,1,1,1,1,1,0,0
568,16108,10622,bus,115,1,1,1,1,1,0,0
620,16109,10622,bus,115,1,1,1,1,1,0,0
653,16110,10622,bus,115,1,1,1,1,1,0,0
677,16111,10622,bus,115,1,1,1,1,1,0,0
714,16112,10622,bus,115,1,1,1,1,1,0,0
732,16113,10622,bus,115,1,1,1,1,1,0,0
769,16114,10622,bus,115,1,1,1,1,1,0,0
824,16115,10622,bus,115,1,1,1,1,1,0,0
888,16116,10622,bus,115,1,1,1,1,1,0,0
914,16117,10622,bus,115,1,1,1,1,1,0,0
943,16118,10622,bus,115,1,1,1,1,1,0,0
971,16119,10622,bus,115,1,1,1,1,1,0,0
998,16120,10622,bus,115,1,1,1,1,1,0,0
1029,16121,10622,bus,115,1,1,1,1,1,0,0
1062,16122,10622,bus,115,1,1,1,1,1,0,0
1091,16123,10622,bus,115,1,1,1,1,1,0,0
1144,16124,10622,bus,115,1,1,1,1,1,0,0
1191,16125,10622,bus,115,1,1,1,1,1,0,0
1212,16126,10622,bus,115,1,1,1,1,1,0,0
1246,16127,10622,bus,115,1,1,1,1,1,0,0
1276,16128,10622,bus,115,1,1,1,1,1,0,0
1301,16129,10622,bus,115,1,1,1,1,1,0,0
1331,16130,10622,bus,115,1,1,1,1,1,0,0
1366,16131,10622,bus,115,1,1,1,1,1,0,0
1438,16330,9969,nightbus,101N,0,0,0,0,1,1,0
1481,16331,9969,nightbus,101N,0,0,0,0,1,1,0
1529,16332,9969,nightbus,101N,0,0,0,0,1,1,0
1581,16333,9969,nightbus,101N,0,0,0,0,1,1,0
355,16739,10439,trol,2,0,0,0,0,0,0,1
374,16740,10439,trol,2,0,0,0,0,0,0,1
387,16741,10439,trol,2,0,0,0,0,0,0,1
399,16742,10439,trol,2,0,0,0,0,0,0,1
415,16743,10439,trol,2,0,0,0,0,0,0,1
431,16744,10439,trol,2,0,0,0,0,0,0,1
447,16745,10439,trol,2,0,0,0,0,0,0,1
456,16746,10439,trol,2,0,0,0,0,0,0,1
465,16747,10439,trol,2,0,0,0,0,0,0,1
474,16748,10439,trol,2,0,0,0,0,0,0,1
483,16749,10439,trol,2,0,0,0,0,0,0,1
492,16750,10439,trol,2,0,0,0,0,0,0,1
501,16751,10439,trol,2,0,0,0,0,0,0,1
511,16752,10439,trol,2,0,0,0,0,0,0,1
520,16753,10439,trol,2,0,0,0,0,0,0,1
528,16754,10439,trol,2,0,0,0,0,0,0,1
538,16755,10439,trol,2,0,0,0,0,0,0,1
547,16756,10439,trol,2,0,0,0,0,0,0,1
557,16757,10439,trol,2,0,0,0,0,0,0,1
567,16758,10439,trol,2,0,0,0,0,0,0,1
577,16759,10439,trol,2,0,0,0,0,0,0,1
587,16760,10439,trol,2,0,0,0,0,0,0,1
596,16761,10439,trol,2,0,0,0,0,0,0,1
604,16762,10439,trol,2,0,0,0,0,0,0,1
613,16763,10439,trol,2,0,0,0,0,0,0,1
621,16764,10439,trol,2,0,0,0,0,0,0,1
628,16765,10439,trol,2,0,0,0,0,0,0,1
637,16766,10439,trol,2,0,0,0,0,0,0,1
646,16767,10439,trol,2,0,0,0,0,0,0,1
654,16768,10439,trol,2,0,0,0,0,0,0,1
663,16769,10439,trol,2,0,0,0,0,0,0,1
672,16770,10439,trol,2,0,0,0,0,0,0,1
682,16771,10439,trol,2,0,0,0,0,0,0,1
691,16772,10439,trol,2,0,0,0,0,0,0,1
700,16773,10439,trol,2,0,0,0,0,0,0,1
713,16774,10439,trol,2,0,0,0,0,0,0,1
723,16775,10439,trol,2,0,0,0,0,0,0,1
731,16776,10439,trol,2,0,0,0,0,0,0,1
739,16777,10439,trol,2,0,0,0,0,0,0,1
747,16778,10439,trol,2,0,0,0,0,0,0,1
755,16779,10439,trol,2,0,0,0,0,0,0,1
763,16780,10439,trol,2,0,0,0,0,0,0,1
773,16781,10439,trol,2,0,0,0,0,0,0,1
783,16782,10439,trol,2,0,0,0,0,0,0,1
793,16783,10439,trol,2,0,0,0,0,0,0,1
800,16784,10439,trol,2,0,0,0,0,0,0,1
808,16785,10439,trol,2,0,0,0,0,0,0,1
815,16786,10439,trol,2,0,0,0,0,0,0,1
820,16787,10439,trol,2,0,0,0,0,0,0,1
829,16788,10439,trol,2,0,0,0,0,0,0,1
838,16789,10439,trol,2,0,0,0,0,0,0,1
847,16790,10439,trol,2,0,0,0,0,0,0,1
856,16791,10439,trol,2,0,0,0,0,0,0,1
863,16792,10439,trol,2,0,0,0,0,0,0,1
871,16793,10439,trol,2,0,0,0,0,0,0,1
879,16794,10439,trol,2,0,0,0,0,0,0,1
887,16795,10439,trol,2,0,0,0,0,0,0,1
895,16796,10439,trol,2,0,0,0,0,0,0,1
902,16797,10439,trol,2,0,0,0,0,0,0,1
910,16798,10439,trol,2,0,0,0,0,0,0,1
918,16799,10439,trol,2,0,0,0,0,0,0,1
926,16800,10439,trol,2,0,0,0,0,0,0,1
936,16801,10439,trol,2,0,0,0,0,0,0,1
943,16802,10439,trol,2,0,0,0,0,0,0,1
951,16803,10439,trol,2,0,0,0,0,0,0,1
959,16804,10439,trol,2,0,0,0,0,0,0,1
967,16805,10439,trol,2,0,0,0,0,0,0,1
975,16806,10439,trol,2,0,0,0,0,0,0,1
983,16807,10439,trol,2,0,0,0,0,0,0,1
990,16808,10439,trol,2,0,0,0,0,0,0,1
998,16809,10439,trol,2,0,0,0,0,0,0,1
1006,16810,10439,trol,2,0,0,0,0,0,0,1
1015,16811,10439,trol,2,0,0,0,0,0,0,1
1025,16812,10439,trol,2,0,0,0,0,0,0,1
1035,16813,10439,trol,2,0,0,0,0,0,0,1
1044,16814,10439,trol,2,0,0,0,0,0,0,1
1053,16815,10439,trol,2,0,0,0,0,0,0,1
1063,16816,10439,trol,2,0,0,0,0,0,0,1
1072,16817,10439,trol,2,0,0,0,0,0,0,1
1084,16818,10439,trol,2,0,0,0,0,0,0,1
1092,16819,10439,trol,2,0,0,0,0,0,0,1
1102,16820,10439,trol,2,0,0,0,0,0,0,1
1111,16821,10439,trol,2,0,0,0,0,0,0,1
1120,16822,10439,trol,2,0,0,0,0,0,0,1
1128,16823,10439,trol,2,0,0,0,0,0,0,1
1138,16824,10439,trol,2,0,0,0,0,0,0,1
1147,16825,10439,trol,2,0,0,0,0,0,0,1
1158,16826,10439,trol,2,0,0,0,0,0,0,1
1168,16827,10439,trol,2,0,0,0,0,0,0,1
1178,16828,10439,trol,2,0,0,0,0,0,0,1
1188,16829,10439,trol,2,0,0,0,0,0,0,1
1197,16830,10439,trol,2,0,0,0,0,0,0,1
1206,16831,10439,trol,2,0,0,0,0,0,0,1
1215,16832,10439,trol,2,0,0,0,0,0,0,1
1224,16833,10439,trol,2,0,0,0,0,0,0,1
1233,16834,10439,trol,2,0,0,0,0,0,0,1
1242,16835,10439,trol,2,0,0,0,0,0,0,1
1251,16836,10439,trol,2,0,0,0,0,0,0,1
1260,16837,10439,trol,2,0,0,0,0,0,0,1
1270,16838,10439,trol,2,0,0,0,0,0,0,1
1279,16839,10439,trol,2,0,0,0,0,0,0,1
1288,16840,10439,trol,2,0,0,0,0,0,0,1
1297,16841,10439,trol,2,0,0,0,0,0,0,1
1306,16842,10439,trol,2,0,0,0,0,0,0,1
1316,16843,10439,trol,2,0,0,0,0,0,0,1
1326,16844,10439,trol,2,0,0,0,0,0,0,1
1339,16845,10439,trol,2,0,0,0,0,0,0,1
1353,16846,10439,trol,2,0,0,0,0,0,0,1
1365,16847,10439,trol,2,0,0,0,0,0,0,1
1379,16848,10439,trol,2,0,0,0,0,0,0,1
1397,16849,10439,trol,2,0,0,0,0,0,0,1
326,16850,10437,trol,2,1,1,1,1,1,0,0
335,16851,10437,trol,2,1,1,1,1,1,0,0
344,16852,10437,trol,2,1,1,1,1,1,0,0
352,16853,10437,trol,2,1,1,1,1,1,0,0
358,16854,10437,trol,2,1,1,1,1,1,0,0
366,16855,10437,trol,2,1,1,1,1,1,0,0
371,16856,10437,trol,2,1,1,1,1,1,0,0
376,16857,10437,trol,2,1,1,1,1,1,0,0
383,16858,10437,trol,2,1,1,1,1,1,0,0
392,16859,10437,trol,2,1,1,1,1,1,0,0
397,16860,10437,trol,2,1,1,1,1,1,0,0
402,16861,10437,trol,2,1,1,1,1,1,0,0
406,16862,10437,trol,2,1,1,1,1,1,0,0
412,16863,10437,trol,2,1,1,1,1,1,0,0
417,16864,10437,trol,2,1,1,1,1,1,0,0
422,16865,10437,trol,2,1,1,1,1,1,0,0
429,16866,10437,trol,2,1,1,1,1,1,0,0
434,16867,10437,trol,2,1,1,1,1,1,0,0
438,16868,10437,trol,2,1,1,1,1,1,0,0
444,16869,10437,trol,2,1,1,1,1,1,0,0
451,16870,10437,trol,2,1,1,1,1,1,0,0
457,16871,10437,trol,2,1,1,1,1,1,0,0
464,16872,10437,trol,2,1,1,1,1,1,0,0
470,16873,10437,trol,2,1,1,1,1,1,0,0
476,16874,10437,trol,2,1,1,1,1,1,0,0
482,16875,10437,trol,2,1,1,1,1,1,0,0
486,16876,10437,trol,2,1,1,1,1,1,0,0
492,16877,10437,trol,2,1,1,1,1,1,0,0
499,16878,10437,trol,2,1,1,1,1,1,0,0
504,16879,10437,trol,2,1,1,1,1,1,0,0
510,16880,10437,trol,2,1,1,1,1,1,0,0
515,16881,10437,trol,2,1,1,1,1,1,0,0
522,16882,10437,trol,2,1,1,1,1,1,0,0
527,16883,10437,trol,2,1,1,1,1,1,0,0
533,16884,10437,trol,2,1,1,1,1,1,0,0
540,16885,10437,trol,2,1,1,1,1,1,0,0
547,16886,10437,trol,2,1,1,1,1,1,0,0
555,16887,10437,trol,2,1,1,1,1,1,0,0
562,16888,10437,trol,2,1,1,1,1,1,0,0
569,16889,10437,trol,2,1,1,1,1,1,0,0
575,16890,10437,trol,2,1,1,1,1,1,0,0
581,16891,10437,trol,2,1,1,1,1,1,0,0
591,16892,10437,trol,2,1,1,1,1,1,0,0
598,16893,10437,trol,2,1,1,1,1,1,0,0
605,16894,10437,trol,2,1,1,1,1,1,0,0
613,16895,10437,trol,2,1,1,1,1,1,0,0
624,16896,10437,trol,2,1,1,1,1,1,0,0
634,16897,10437,trol,2,1,1,1,1,1,0,0
642,16898,10437,trol,2,1,1,1,1,1,0,0
650,16899,10437,trol,2,1,1,1,1,1,0,0
657,16900,10437,trol,2,1,1,1,1,1,0,0
664,16901,10437,trol,2,1,1,1,1,1,0,0
670,16902,10437,trol,2,1,1,1,1,1,0,0
677,16903,10437,trol,2,1,1,1,1,1,0,0
682,16904,10437,trol,2,1,1,1,1,1,0,0
690,16905,10437,trol,2,1,1,1,1,1,0,0
696,16906,10437,trol,2,1,1,1,1,1,0,0
701,16907,10437,trol,2,1,1,1,1,1,0,0
710,16908,10437,trol,2,1,1,1,1,1,0,0
714,16909,10437,trol,2,1,1,1,1,1,0,0
720,16910,10437,trol,2,1,1,1,1,1,0,0
726,16911,10437,trol,2,1,1,1,1,1,0,0
734,16912,10437,trol,2,1,1,1,1,1,0,0
740,16913,10437,trol,2,1,1,1,1,1,0,0
747,16914,10437,trol,2,1,1,1,1,1,0,0
752,16915,10437,trol,2,1,1,1,1,1,0,0
758,16916,10437,trol,2,1,1,1,1,1,0,0
763,16917,10437,trol,2,1,1,1,1,1,0,0
769,16918,10437,trol,2,1,1,1,1,1,0,0
776,16919,10437,trol,2,1,1,1,1,1,0,0
782,16920,10437,trol,2,1,1,1,1,1,0,0
789,16921,10437,trol,2,1,1,1,1,1,0,0
797,16922,10437,trol,2,1,1,1,1,1,0,0
801,16923,10437,trol,2,1,1,1,1,1,0,0
807,16924,10437,trol,2,1,1,1,1,1,0,0
812,16925,10437,trol,2,1,1,1,1,1,0,0
820,16926,10437,trol,2,1,1,1,1,1,0,0
827,16927,10437,trol,2,1,1,1,1,1,0,0
833,16928,10437,trol,2,1,1,1,1,1,0,0
840,16929,10437,trol,2,1,1,1,1,1,0,0
847,16930,10437,trol,2,1,1,1,1,1,0,0
852,16931,10437,trol,2,1,1,1,1,1,0,0
859,16932,10437,trol,2,1,1,1,1,1,0,0
865,16933,10437,trol,2,1,1,1,1,1,0,0
870,16934,10437,trol,2,1,1,1,1,1,0,0
876,16935,10437,trol,2,1,1,1,1,1,0,0
883,16936,10437,trol,2,1,1,1,1,1,0,0
888,16937,10437,trol,2,1,1,1,1,1,0,0
893,16938,10437,trol,2,1,1,1,1,1,0,0
899,16939,10437,trol,2,1,1,1,1,1,0,0
906,16940,10437,trol,2,1,1,1,1,1,0,0
912,16941,10437,trol,2,1,1,1,1,1,0,0
917,16942,10437,trol,2,1,1,1,1,1,0,0
922,16943,10437,trol,2,1,1,1,1,1,0,0
927,16944,10437,trol,2,1,1,1,1,1,0,0
932,16945,10437,trol,2,1,1,1,1,1,0,0
938,16946,10437,trol,2,1,1,1,1,1,0,0
945,16947,10437,trol,2,1,1,1,1,1,0,0
950,16948,10437,trol,2,1,1,1,1,1,0,0
955,16949,10437,trol,2,1,1,1,1,1,0,0
960,16950,10437,trol,2,1,1,1,1,1,0,0
965,16951,10437,trol,2,1,1,1,1,1,0,0
971,16952,10437,trol,2,1,1,1,1,1,0,0
976,16953,10437,trol,2,1,1,1,1,1,0,0
981,16954,10437,trol,2,1,1,1,1,1,0,0
986,16955,10437,trol,2,1,1,1,1,1,0,0
993,16956,10437,trol,2,1,1,1,1,1,0,0
998,16957,10437,trol,2,1,1,1,1,1,0,0
1004,16958,10437,trol,2,1,1,1,1,1,0,0
1010,16959,10437,trol,2,1,1,1,1,1,0,0
1016,16960,10437,trol,2,1,1,1,1,1,0,0
1021,16961,10437,trol,2,1,1,1,1,1,0,0
1027,16962,10437,trol,2,1,1,1,1,1,0,0
1033,16963,10437,trol,2,1,1,1,1,1,0,0
1040,16964,10437,trol,2,1,1,1,1,1,0,0
1045,16965,10437,trol,2,1,1,1,1,1,0,0
1052,16966,10437,trol,2,1,1,1,1,1,0,0
1059,16967,10437,trol,2,1,1,1,1,1,0,0
1068,16968,10437,trol,2,1,1,1,1,1,0,0
1075,16969,10437,trol,2,1,1,1,1,1,0,0
1084,16970,10437,trol,2,1,1,1,1,1,0,0
1090,16971,10437,trol,2,1,1,1,1,1,0,0
1098,16972,10437,trol,2,1,1,1,1,1,0,0
1103,16973,10437,trol,2,1,1,1,1,1,0,0
1109,16974,10437,trol,2,1,1,1,1,1,0,0
1117,16975,10437,trol,2,1,1,1,1,1,0,0
1123,16976,10437,trol,2,1,1,1,1,1,0,0
1130,16977,10437,trol,2,1,1,1,1,1,0,0
1136,16978,10437,trol,2,1,1,1,1,1,0,0
1142,16979,10437,trol,2,1,1,1,1,1,0,0
1148,16980,10437,trol,2,1,1,1,1,1,0,0
1156,16981,10437,trol,2,1,1,1,1,1,0,0
1165,16982,10437,trol,2,1,1,1,1,1,0,0
1173,16983,10437,trol,2,1,1,1,1,1,0,0
1181,16984,10437,trol,2,1,1,1,1,1,0,0
1188,16985,10437,trol,2,1,1,1,1,1,0,0
1194,16986,10437,trol,2,1,1,1,1,1,0,0
1199,16987,10437,trol,2,1,1,1,1,1,0,0
1205,16988,10437,trol,2,1,1,1,1,1,0,0
1211,16989,10437,trol,2,1,1,1,1,1,0,0
1217,16990,10437,trol,2,1,1,1,1,1,0,0
1224,16991,10437,trol,2,1,1,1,1,1,0,0
1230,16992,10437,trol,2,1,1,1,1,1,0,0
1237,16993,10437,trol,2,1,1,1,1,1,0,0
1244,16994,10437,trol,2,1,1,1,1,1,0,0
1250,16995,10437,trol,2,1,1,1,1,1,0,0
1256,16996,10437,trol,2,1,1,1,1,1,0,0
1263,16997,10437,trol,2,1,1,1,1,1,0,0
1269,16998,10437,trol,2,1,1,1,1,1,0,0
1275,16999,10437,trol,2,1,1,1,1,1,0,0
1282,17000,10437,trol,2,1,1,1,1,1,0,0
1291,17001,10437,trol,2,1,1,1,1,1,0,0
1298,17002,10437,trol,2,1,1,1,1,1,0,0
1306,17003,10437,trol,2,1,1,1,1,1,0,0
1313,17004,10437,trol,2,1,1,1,1,1,0,0
1322,17005,10437,trol,2,1,1,1,1,1,0,0
1331,17006,10437,trol,2,1,1,1,1,1,0,0
1342,17007,10437,trol,2,1,1,1,1,1,0,0
1353,17008,10437,trol,2,1,1,1,1,1,0,0
1362,17009,10437,trol,2,1,1,1,1,1,0,0
1375,17010,10437,trol,2,1,1,1,1,1,0,0
1386,17011,10437,trol,2,1,1,1,1,1,0,0
1400,17012,10437,trol,2,1,1,1,1,1,0,0
325,17013,10438,trol,2,0,0,0,0,0,1,0
341,17014,10438,trol,2,0,0,0,0,0,1,0
355,17015,10438,trol,2,0,0,0,0,0,1,0
374,17016,10438,trol,2,0,0,0,0,0,1,0
387,17017,10438,trol,2,0,0,0,0,0,1,0
399,17018,10438,trol,2,0,0,0,0,0,1,0
415,17019,10438,trol,2,0,0,0,0,0,1,0
431,17020,10438,trol,2,0,0,0,0,0,1,0
447,17021,10438,trol,2,0,0,0,0,0,1,0
456,17022,10438,trol,2,0,0,0,0,0,1,0
465,17023,10438,trol,2,0,0,0,0,0,1,0
474,17024,10438,trol,2,0,0,0,0,0,1,0
483,17025,10438,trol,2,0,0,0,0,0,1,0
492,17026,10438,trol,2,0,0,0,0,0,1,0
501,17027,10438,trol,2,0,0,0,0,0,1,0
511,17028,10438,trol,2,0,0,0,0,0,1,0
520,17029,10438,trol,2,0,0,0,0,0,1,0
528,17030,10438,trol,2,0,0,0,0,0,1,0
538,17031,10438,trol,2,0,0,0,0,0,1,0
547,17032,10438,trol,2,0,0,0,0,0,1,0
557,17033,10438,trol,2,0,0,0,0,0,1,0
567,17034,10438,trol,2,0,0,0,0,0,1,0
577,17035,10438,trol,2,0,0,0,0,0,1,0
587,17036,10438,trol,2,0,0,0,0,0,1,0
596,17037,10438,trol,2,0,0,0,0,0,1,0
604,17038,10438,trol,2,0,0,0,0,0,1,0
613,17039,10438,trol,2,0,0,0,0,0,1,0
621,17040,10438,trol,2,0,0,0,0,0,1,0
628,17041,10438,trol,2,0,0,0,0,0,1,0
637,17042,10438,trol,2,0,0,0,0,0,1,0
646,17043,10438,trol,2,0,0,0,0,0,1,0
654,17044,10438,trol,2,0,0,0,0,0,1,0
663,17045,10438,trol,2,0,0,0,0,0,1,0
672,17046,10438,trol,2,0,0,0,0,0,1,0
682,17047,10438,trol,2,0,0,0,0,0,1,0
691,17048,10438,trol,2,0,0,0,0,0,1,0
700,17049,10438,trol,2,0,0,0,0,0,1,0
713,17050,10438,trol,2,0,0,0,0,0,1,0
723,17051,10438,trol,2,0,0,0,0,0,1,0
731,17052,10438,trol,2,0,0,0,0,0,1,0
739,17053,10438,trol,2,0,0,0,0,0,1,0
747,17054,10438,trol,2,0,0,0,0,0,1,0
755,17055,10438,trol,2,0,0,0,0,0,1,0
763,17056,10438,trol,2,0,0,0,0,0,1,0
773,17057,10438,trol,2,0,0,0,0,0,1,0
783,17058,10438,trol,2,0,0,0,0,0,1,0
793,17059,10438,trol,2,0,0,0,0,0,1,0
800,17060,10438,trol,2,0,0,0,0,0,1,0
808,17061,10438,trol,2,0,0,0,0,0,1,0
815,17062,10438,trol,2,0,0,0,0,0,1,0
820,17063,10438,trol,2,0,0,0,0,0,1,0
829,17064,10438,trol,2,0,0,0,0,0,1,0
838,17065,10438,trol,2,0,0,0,0,0,1,0
847,17066,10438,trol,2,0,0,0,0,0,1,0
856,17067,10438,trol,2,0,0,0,0,0,1,0
863,17068,10438,trol,2,0,0,0,0,0,1,0
871,17069,10438,trol,2,0,0,0,0,0,1,0
879,17070,10438,trol,2,0,0,0,0,0,1,0
887,17071,10438,trol,2,0,0,0,0,0,1,0
895,17072,10438,trol,2,0,0,0,0,0,1,0
902,17073,10438,trol,2,0,0,0,0,0,1,0
910,17074,10438,trol,2,0,0,0,0,0,1,0
918,17075,10438,trol,2,0,0,0,0,0,1,0
926,17076,10438,trol,2,0,0,0,0,0,1,0
936,17077,10438,trol,2,0,0,0,0,0,1,0
943,17078,10438,trol,2,0,0,0,0,0,1,0
951,17079,10438,trol,2,0,0,0,0,0,1,0
959,17080,10438,trol,2,0,0,0,0,0,1,0
967,17081,10438,trol,2,0,0,0,0,0,1,0
975,17082,10438,trol,2,0,0,0,0,0,1,0
983,17083,10438,trol,2,0,0,0,0,0,1,0
990,17084,10438,trol,2,0,0,0,0,0,1,0
998,17085,10438,trol,2,0,0,0,0,0,1,0
1006,17086,10438,trol,2,0,0,0,0,0,1,0
1015,17087,10438,trol,2,0,0,0,0,0,1,0
1025,17088,10438,trol,2,0,0,0,0,0,1,0
1035,17089,10438,trol,2,0,0,0,0,0,1,0
1044,17090,10438,trol,2,0,0,0,0,0,1,0
1053,17091,10438,trol,2,0,0,0,0,0,1,0
1063,17092,10438,trol,2,0,0,0,0,0,1,0
1072,17093,10438,trol,2,0,0,0,0,0,1,0
1084,17094,10438,trol,2,0,0,0,0,0,1,0
1092,17095,10438,trol,2,0,0,0,0,0,1,0
1102,17096,10438,trol,2,0,0,0,0,0,1,0
1111,17097,10438,trol,2,0,0,0,0,0,1,0
1120,17098,10438,trol,2,0,0,0,0,0,1,0
1128,17099,10438,trol,2,0,0,0,0,0,1,0
1138,17100,10438,trol,2,0,0,0,0,0,1,0
1147,17101,10438,trol,2,0,0,0,0,0,1,0
1158,17102,10438,trol,2,0,0,0,0,0,1,0
1168,17103,10438,trol,2,0,0,0,0,0,1,0
1178,17104,10438,trol,2,0,0,0,0,0,1,0
1188,17105,10438,trol,2,0,0,0,0,0,1,0
1197,17106,10438,trol,2,0,0,0,0,0,1,0
1206,17107,10438,trol,2,0,0,0,0,0,1,0
1215,17108,10438,trol,2,0,0,0,0,0,1,0
1224,17109,10438,trol,2,0,0,0,0,0,1,0
1233,17110,10438,trol,2,0,0,0,0,0,1,0
1242,17111,10438,trol,2,0,0,0,0,0,1,0
1251,17112,10438,trol,2,0,0,0,0,0,1,0
1260,17113,10438,trol,2,0,0,0,0,0,1,0
1270,17114,10438,trol,2,0,0,0,0,0,1,0
1279,17115,10438,trol,2,0,0,0,0,0,1,0
1288,17116,10438,trol,2,0,0,0,0,0,1,0
1297,17117,10438,trol,2,0,0,0,0,0,1,0
1306,17118,10438,trol,2,0,0,0,0,0,1,0
1316,17119,10438,trol,2,0,0,0,0,0,1,0
1326,17120,10438,trol,2,0,0,0,0,0,1,0
1339,17121,10438,trol,2,0,0,0,0,0,1,0
1353,17122,10438,trol,2,0,0,0,0,0,1,0
1365,17123,10438,trol,2,0,0,0,0,0,1,0
1379,17124,10438,trol,2,0,0,0,0,0,1,0
1397,17125,10438,trol,2,0,0,0,0,0,1,0
1219,17514,10439,trol,2,0,0,0,0,0,0,1
1323,17515,10439,trol,2,0,0,0,0,0,0,1
1344,17516,10439,trol,2,0,0,0,0,0,0,1
1372,17517,10439,trol,2,0,0,0,0,0,0,1
1401,17518,10439,trol,2,0,0,0,0,0,0,1
1411,17519,10439,trol,2,0,0,0,0,0,0,1
1425,17520,10439,trol,2,0,0,0,0,0,0,1
1437,17521,10439,trol,2,0,0,0,0,0,0,1
1451,17522,10439,trol,2,0,0,0,0,0,0,1
1176,17523,10437,trol,2,1,1,1,1,1,0,0
1214,17524,10437,trol,2,1,1,1,1,1,0,0
1272,17525,10437,trol,2,1,1,1,1,1,0,0
1288,17526,10437,trol,2,1,1,1,1,1,0,0
1328,17527,10437,trol,2,1,1,1,1,1,0,0
1340,17528,10437,trol,2,1,1,1,1,1,0,0
1359,17529,10437,trol,2,1,1,1,1,1,0,0
1383,17530,10437,trol,2,1,1,1,1,1,0,0
1393,17531,10437,trol,2,1,1,1,1,1,0,0
1408,17532,10437,trol,2,1,1,1,1,1,0,0
1419,17533,10437,trol,2,1,1,1,1,1,0,0
1430,17534,10437,trol,2,1,1,1,1,1,0,0
1439,17535,10437,trol,2,1,1,1,1,1,0,0
1452,17536,10437,trol,2,1,1,1,1,1,0,0
1219,17537,10438,trol,2,0,0,0,0,0,1,0
1323,17538,10438,trol,2,0,0,0,0,0,1,0
1344,17539,10438,trol,2,0,0,0,0,0,1,0
1372,17540,10438,trol,2,0,0,0,0,0,1,0
1401,17541,10438,trol,2,0,0,0,0,0,1,0
1411,17542,10438,trol,2,0,0,0,0,0,1,0
1425,17543,10438,trol,2,0,0,0,0,0,1,0
1437,17544,10438,trol,2,0,0,0,0,0,1,0
1451,17545,10438,trol,2,0,0,0,0,0,1,0
305,17862,10657,trol,4,1,1,1,1,1,0,0
315,17863,10657,trol,4,1,1,1,1,1,0,0
323,17864,10657,trol,4,1,1,1,1,1,0,0
333,17865,10657,trol,4,1,1,1,1,1,0,0
340,17866,10657,trol,4,1,1,1,1,1,0,0
348,17867,10657,trol,4,1,1,1,1,1,0,0
355,17868,10657,trol,4,1,1,1,1,1,0,0
363,17869,10657,trol,4,1,1,1,1,1,0,0
369,17870,10656,trol,4,1,1,1,1,1,0,0
374,17871,10657,trol,4,1,1,1,1,1,0,0
381,17872,10657,trol,4,1,1,1,1,1,0,0
389,17873,10657,trol,4,1,1,1,1,1,0,0
395,17874,10657,trol,4,1,1,1,1,1,0,0
401,17875,10657,trol,4,1,1,1,1,1,0,0
409,17876,10657,trol,4,1,1,1,1,1,0,0
414,17877,10657,trol,4,1,1,1,1,1,0,0
420,17878,10657,trol,4,1,1,1,1,1,0,0
426,17879,10657,trol,4,1,1,1,1,1,0,0
432,17880,10657,trol,4,1,1,1,1,1,0,0
440,17881,10657,trol,4,1,1,1,1,1,0,0
446,17882,10657,trol,4,1,1,1,1,1,0,0
453,17883,10657,trol,4,1,1,1,1,1,0,0
460,17884,10657,trol,4,1,1,1,1,1,0,0
467,17885,10657,trol,4,1,1,1,1,1,0,0
477,17886,10657,trol,4,1,1,1,1,1,0,0
486,17887,10657,trol,4,1,1,1,1,1,0,0
494,17888,10657,trol,4,1,1,1,1,1,0,0
505,17889,10657,trol,4,1,1,1,1,1,0,0
512,17890,10657,trol,4,1,1,1,1,1,0,0
519,17891,10657,trol,4,1,1,1,1,1,0,0
535,17892,10657,trol,4,1,1,1,1,1,0,0
544,17893,10657,trol,4,1,1,1,1,1,0,0
556,17894,10657,trol,4,1,1,1,1,1,0,0
570,17895,10657,trol,4,1,1,1,1,1,0,0
582,17896,10657,trol,4,1,1,1,1,1,0,0
594,17897,10657,trol,4,1,1,1,1,1,0,0
607,17898,10657,trol,4,1,1,1,1,1,0,0
616,17899,10657,trol,4,1,1,1,1,1,0,0
626,17900,10657,trol,4,1,1,1,1,1,0,0
636,17901,10657,trol,4,1,1,1,1,1,0,0
644,17902,10657,trol,4,1,1,1,1,1,0,0
654,17903,10657,trol,4,1,1,1,1,1,0,0
666,17904,10657,trol,4,1,1,1,1,1,0,0
674,17905,10657,trol,4,1,1,1,1,1,0,0
684,17906,10657,trol,4,1,1,1,1,1,0,0
693,17907,10657,trol,4,1,1,1,1,1,0,0
704,17908,10657,trol,4,1,1,1,1,1,0,0
715,17909,10657,trol,4,1,1,1,1,1,0,0
722,17910,10657,trol,4,1,1,1,1,1,0,0
731,17911,10657,trol,4,1,1,1,1,1,0,0
741,17912,10657,trol,4,1,1,1,1,1,0,0
753,17913,10657,trol,4,1,1,1,1,1,0,0
764,17914,10657,trol,4,1,1,1,1,1,0,0
773,17915,10657,trol,4,1,1,1,1,1,0,0
783,17916,10657,trol,4,1,1,1,1,1,0,0
792,17917,10657,trol,4,1,1,1,1,1,0,0
803,17918,10657,trol,4,1,1,1,1,1,0,0
814,17919,10657,trol,4,1,1,1,1,1,0,0
823,17920,10657,trol,4,1,1,1,1,1,0,0
834,17921,10657,trol,4,1,1,1,1,1,0,0
844,17922,10657,trol,4,1,1,1,1,1,0,0
854,17923,10657,trol,4,1,1,1,1,1,0,0
862,17924,10657,trol,4,1,1,1,1,1,0,0
873,17925,10657,trol,4,1,1,1,1,1,0,0
885,17926,10657,trol,4,1,1,1,1,1,0,0
894,17927,10657,trol,4,1,1,1,1,1,0,0
903,17928,10657,trol,4,1,1,1,1,1,0,0
909,17929,10657,trol,4,1,1,1,1,1,0,0
915,17930,10657,trol,4,1,1,1,1,1,0,0
922,17931,10657,trol,4,1,1,1,1,1,0,0
928,17932,10657,trol,4,1,1,1,1,1,0,0
933,17933,10657,trol,4,1,1,1,1,1,0,0
939,17934,10657,trol,4,1,1,1,1,1,0,0
946,17935,10657,trol,4,1,1,1,1,1,0,0
952,17936,10657,trol,4,1,1,1,1,1,0,0
960,17937,10657,trol,4,1,1,1,1,1,0,0
966,17938,10657,trol,4,1,1,1,1,1,0,0
971,17939,10657,trol,4,1,1,1,1,1,0,0
979,17940,10657,trol,4,1,1,1,1,1,0,0
989,17941,10657,trol,4,1,1,1,1,1,0,0
999,17942,10657,trol,4,1,1,1,1,1,0,0
1006,17943,10657,trol,4,1,1,1,1,1,0,0
1013,17944,10657,trol,4,1,1,1,1,1,0,0
1022,17945,10657,trol,4,1,1,1,1,1,0,0
1030,17946,10657,trol,4,1,1,1,1,1,0,0
1037,17947,10657,trol,4,1,1,1,1,1,0,0
1046,17948,10657,trol,4,1,1,1,1,1,0,0
1053,17949,10657,trol,4,1,1,1,1,1,0,0
1061,17950,10657,trol,4,1,1,1,1,1,0,0
1070,17951,10657,trol,4,1,1,1,1,1,0,0
1079,17952,10657,trol,4,1,1,1,1,1,0,0
1091,17953,10657,trol,4,1,1,1,1,1,0,0
1104,17954,10657,trol,4,1,1,1,1,1,0,0
1113,17955,10657,trol,4,1,1,1,1,1,0,0
1125,17956,10657,trol,4,1,1,1,1,1,0,0
1133,17957,10657,trol,4,1,1,1,1,1,0,0
1150,17958,10657,trol,4,1,1,1,1,1,0,0
1160,17959,10657,trol,4,1,1,1,1,1,0,0
1175,17960,10657,trol,4,1,1,1,1,1,0,0
1189,17961,10657,trol,4,1,1,1,1,1,0,0
1201,17962,10657,trol,4,1,1,1,1,1,0,0
1214,17963,10657,trol,4,1,1,1,1,1,0,0
1222,17964,10657,trol,4,1,1,1,1,1,0,0
1232,17965,10657,trol,4,1,1,1,1,1,0,0
1241,17966,10657,trol,4,1,1,1,1,1,0,0
1252,17967,10657,trol,4,1,1,1,1,1,0,0
1259,17968,10657,trol,4,1,1,1,1,1,0,0
1266,17969,10657,trol,4,1,1,1,1,1,0,0
1277,17970,10657,trol,4,1,1,1,1,1,0,0
1287,17971,10657,trol,4,1,1,1,1,1,0,0
1296,17972,10657,trol,4,1,1,1,1,1,0,0
1309,17973,10657,trol,4,1,1,1,1,1,0,0
1319,17974,10657,trol,4,1,1,1,1,1,0,0
1335,17975,10657,trol,4,1,1,1,1,1,0,0
1348,17976,10657,trol,4,1,1,1,1,1,0,0
1366,17977,10657,trol,4,1,1,1,1,1,0,0
328,17978,10444,trol,4,0,0,0,0,0,1,0
367,17979,10445,trol,4,0,0,0,0,0,0,1
393,17980,10445,trol,4,0,0,0,0,0,0,1
408,17981,10445,trol,4,0,0,0,0,0,0,1
426,17982,10445,trol,4,0,0,0,0,0,0,1
442,17983,10445,trol,4,0,0,0,0,0,0,1
459,17984,10445,trol,4,0,0,0,0,0,0,1
471,17985,10445,trol,4,0,0,0,0,0,0,1
488,17986,10445,trol,4,0,0,0,0,0,0,1
505,17987,10445,trol,4,0,0,0,0,0,0,1
517,17988,10445,trol,4,0,0,0,0,0,0,1
530,17989,10445,trol,4,0,0,0,0,0,0,1
541,17990,10445,trol,4,0,0,0,0,0,0,1
553,17991,10445,trol,4,0,0,0,0,0,0,1
565,17992,10445,trol,4,0,0,0,0,0,0,1
580,17993,10445,trol,4,0,0,0,0,0,0,1
593,17994,10445,trol,4,0,0,0,0,0,0,1
606,17995,10445,trol,4,0,0,0,0,0,0,1
617,17996,10445,trol,4,0,0,0,0,0,0,1
630,17997,10445,trol,4,0,0,0,0,0,0,1
642,17998,10445,trol,4,0,0,0,0,0,0,1
650,17999,10445,trol,4,0,0,0,0,0,0,1
661,18000,10445,trol,4,0,0,0,0,0,0,1
669,18001,10445,trol,4,0,0,0,0,0,0,1
679,18002,10445,trol,4,0,0,0,0,0,0,1
694,18003,10445,trol,4,0,0,0,0,0,0,1
706,18004,10445,trol,4,0,0,0,0,0,0,1
718,18005,10445,trol,4,0,0,0,0,0,0,1
729,18006,10445,trol,4,0,0,0,0,0,0,1
742,18007,10445,trol,4,0,0,0,0,0,0,1
757,18008,10445,trol,4,0,0,0,0,0,0,1
765,18009,10445,trol,4,0,0,0,0,0,0,1
775,18010,10445,trol,4,0,0,0,0,0,0,1
781,18011,10445,trol,4,0,0,0,0,0,0,1
790,18012,10445,trol,4,0,0,0,0,0,0,1
804,18013,10445,trol,4,0,0,0,0,0,0,1
813,18014,10445,trol,4,0,0,0,0,0,0,1
825,18015,10445,trol,4,0,0,0,0,0,0,1
836,18016,10445,trol,4,0,0,0,0,0,0,1
844,18017,10445,trol,4,0,0,0,0,0,0,1
858,18018,10445,trol,4,0,0,0,0,0,0,1
867,18019,10445,trol,4,0,0,0,0,0,0,1
876,18020,10445,trol,4,0,0,0,0,0,0,1
885,18021,10445,trol,4,0,0,0,0,0,0,1
898,18022,10445,trol,4,0,0,0,0,0,0,1
908,18023,10445,trol,4,0,0,0,0,0,0,1
920,18024,10445,trol,4,0,0,0,0,0,0,1
930,18025,10445,trol,4,0,0,0,0,0,0,1
939,18026,10445,trol,4,0,0,0,0,0,0,1
948,18027,10445,trol,4,0,0,0,0,0,0,1
961,18028,10445,trol,4,0,0,0,0,0,0,1
970,18029,10445,trol,4,0,0,0,0,0,0,1
979,18030,10445,trol,4,0,0,0,0,0,0,1
992,18031,10445,trol,4,0,0,0,0,0,0,1
1003,18032,10445,trol,4,0,0,0,0,0,0,1
1012,18033,10445,trol,4,0,0,0,0,0,0,1
1022,18034,10445,trol,4,0,0,0,0,0,0,1
1032,18035,10445,trol,4,0,0,0,0,0,0,1
1047,18036,10445,trol,4,0,0,0,0,0,0,1
1060,18037,10445,trol,4,0,0,0,0,0,0,1
1081,18038,10445,trol,4,0,0,0,0,0,0,1
1105,18039,10445,trol,4,0,0,0,0,0,0,1
1126,18040,10445,trol,4,0,0,0,0,0,0,1
1151,18041,10445,trol,4,0,0,0,0,0,0,1
1166,18042,10445,trol,4,0,0,0,0,0,0,1
1183,18043,10445,trol,4,0,0,0,0,0,0,1
1194,18044,10445,trol,4,0,0,0,0,0,0,1
1212,18045,10445,trol,4,0,0,0,0,0,0,1
1228,18046,10445,trol,4,0,0,0,0,0,0,1
1246,18047,10445,trol,4,0,0,0,0,0,0,1
1263,18048,10445,trol,4,0,0,0,0,0,0,1
1276,18049,10445,trol,4,0,0,0,0,0,0,1
1293,18050,10445,trol,4,0,0,0,0,0,0,1
1311,18051,10445,trol,4,0,0,0,0,0,0,1
1332,18052,10445,trol,4,0,0,0,0,0,0,1
1350,18053,10445,trol,4,0,0,0,0,0,0,1
367,18054,10444,trol,4,0,0,0,0,0,1,0
393,18055,10444,trol,4,0,0,0,0,0,1,0
408,18056,10444,trol,4,0,0,0,0,0,1,0
426,18057,10444,trol,4,0,0,0,0,0,1,0
442,18058,10444,trol,4,0,0,0,0,0,1,0
459,18059,10444,trol,4,0,0,0,0,0,1,0
471,18060,10444,trol,4,0,0,0,0,0,1,0
488,18061,10444,trol,4,0,0,0,0,0,1,0
505,18062,10444,trol,4,0,0,0,0,0,1,0
517,18063,10444,trol,4,0,0,0,0,0,1,0
530,18064,10444,trol,4,0,0,0,0,0,1,0
541,18065,10444,trol,4,0,0,0,0,0,1,0
553,18066,10444,trol,4,0,0,0,0,0,1,0
565,18067,10444,trol,4,0,0,0,0,0,1,0
580,18068,10444,trol,4,0,0,0,0,0,1,0
593,18069,10444,trol,4,0,0,0,0,0,1,0
606,18070,10444,trol,4,0,0,0,0,0,1,0
617,18071,10444,trol,4,0,0,0,0,0,1,0
630,18072,10444,trol,4,0,0,0,0,0,1,0
642,18073,10444,trol,4,0,0,0,0,0,1,0
650,18074,10444,trol,4,0,0,0,0,0,1,0
661,18075,10444,trol,4,0,0,0,0,0,1,0
669,18076,10444,trol,4,0,0,0,0,0,1,0
679,18077,10444,trol,4,0,0,0,0,0,1,0
694,18078,10444,trol,4,0,0,0,0,0,1,0
706,18079,10444,trol,4,0,0,0,0,0,1,0
718,18080,10444,trol,4,0,0,0,0,0,1,0
729,18081,10444,trol,4,0,0,0,0,0,1,0
742,18082,10444,trol,4,0,0,0,0,0,1,0
757,18083,10444,trol,4,0,0,0,0,0,1,0
765,18084,10444,trol,4,0,0,0,0,0,1,0
775,18085,10444,trol,4,0,0,0,0,0,1,0
781,18086,10444,trol,4,0,0,0,0,0,1,0
790,18087,10444,trol,4,0,0,0,0,0,1,0
804,18088,10444,trol,4,0,0,0,0,0,1,0
813,18089,10444,trol,4,0,0,0,0,0,1,0
825,18090,10444,trol,4,0,0,0,0,0,1,0
836,18091,10444,trol,4,0,0,0,0,0,1,0
844,18092,10444,trol,4,0,0,0,0,0,1,0
858,18093,10444,trol,4,0,0,0,0,0,1,0
867,18094,10444,trol,4,0,0,0,0,0,1,0
876,18095,10444,trol,4,0,0,0,0,0,1,0
885,18096,10444,trol,4,0,0,0,0,0,1,0
898,18097,10444,trol,4,0,0,0,0,0,1,0
908,18098,10444,trol,4,0,0,0,0,0,1,0
920,18099,10444,trol,4,0,0,0,0,0,1,0
930,18100,10444,trol,4,0,0,0,0,0,1,0
939,18101,10444,trol,4,0,0,0,0,0,1,0
948,18102,10444,trol,4,0,0,0,0,0,1,0
961,18103,10444,trol,4,0,0,0,0,0,1,0
970,18104,10444,trol,4,0,0,0,0,0,1,0
979,18105,10444,trol,4,0,0,0,0,0,1,0
992,18106,10444,trol,4,0,0,0,0,0,1,0
1003,18107,10444,trol,4,0,0,0,0,0,1,0
1012,18108,10444,trol,4,0,0,0,0,0,1,0
1022,18109,10444,trol,4,0,0,0,0,0,1,0
1032,18110,10444,trol,4,0,0,0,0,0,1,0
1047,18111,10444,trol,4,0,0,0,0,0,1,0
1060,18112,10444,trol,4,0,0,0,0,0,1,0
1081,18113,10444,trol,4,0,0,0,0,0,1,0
1105,18114,10444,trol,4,0,0,0,0,0,1,0
1126,18115,10444,trol,4,0,0,0,0,0,1,0
1151,18116,10444,trol,4,0,0,0,0,0,1,0
1166,18117,10444,trol,4,0,0,0,0,0,1,0
1183,18118,10444,trol,4,0,0,0,0,0,1,0
1194,18119,10444,trol,4,0,0,0,0,0,1,0
1212,18120,10444,trol,4,0,0,0,0,0,1,0
1228,18121,10444,trol,4,0,0,0,0,0,1,0
1246,18122,10444,trol,4,0,0,0,0,0,1,0
1263,18123,10444,trol,4,0,0,0,0,0,1,0
1276,18124,10444,trol,4,0,0,0,0,0,1,0
1293,18125,10444,trol,4,0,0,0,0,0,1,0
1311,18126,10444,trol,4,0,0,0,0,0,1,0
1332,18127,10444,trol,4,0,0,0,0,0,1,0
1350,18128,10444,trol,4,0,0,0,0,0,1,0
563,18129,10657,trol,4,1,1,1,1,1,0,0
576,18130,10657,trol,4,1,1,1,1,1,0,0
1042,18402,10445,trol,4,0,0,0,0,0,0,1
1086,18403,10445,trol,4,0,0,0,0,0,0,1
1107,18404,10445,trol,4,0,0,0,0,0,0,1
1334,18405,10445,trol,4,0,0,0,0,0,0,1
1364,18406,10445,trol,4,0,0,0,0,0,0,1
1382,18407,10445,trol,4,0,0,0,0,0,0,1
1403,18408,10445,trol,4,0,0,0,0,0,0,1
1082,18409,10657,trol,4,1,1,1,1,1,0,0
1130,18410,10657,trol,4,1,1,1,1,1,0,0
1145,18411,10657,trol,4,1,1,1,1,1,0,0
1165,18412,10657,trol,4,1,1,1,1,1,0,0
1179,18413,10657,trol,4,1,1,1,1,1,0,0
1323,18414,10657,trol,4,1,1,1,1,1,0,0
1351,18415,10657,trol,4,1,1,1,1,1,0,0
1357,18416,10657,trol,4,1,1,1,1,1,0,0
1374,18417,10657,trol,4,1,1,1,1,1,0,0
1383,18418,10657,trol,4,1,1,1,1,1,0,0
1399,18419,10657,trol,4,1,1,1,1,1,0,0
1410,18420,10657,trol,4,1,1,1,1,1,0,0
1421,18421,10657,trol,4,1,1,1,1,1,0,0
1434,18422,10657,trol,4,1,1,1,1,1,0,0
1042,18423,10444,trol,4,0,0,0,0,0,1,0
1086,18424,10444,trol,4,0,0,0,0,0,1,0
1107,18425,10444,trol,4,0,0,0,0,0,1,0
1334,18426,10444,trol,4,0,0,0,0,0,1,0
1364,18427,10444,trol,4,0,0,0,0,0,1,0
1382,18428,10444,trol,4,0,0,0,0,0,1,0
1403,18429,10444,trol,4,0,0,0,0,0,1,0
1437,18939,10448,trol,6,0,0,0,0,0,0,1
1451,18940,10448,trol,6,0,0,0,0,0,0,1
1439,18941,10446,trol,6,1,1,1,1,1,0,0
1437,18942,10447,trol,6,0,0,0,0,0,1,0
1451,18943,10447,trol,6,0,0,0,0,0,1,0
1082,20770,10457,trol,10,0,0,0,0,0,0,1
1115,20771,10457,trol,10,0,0,0,0,0,0,1
1144,20772,10457,trol,10,0,0,0,0,0,0,1
1350,20773,10457,trol,10,0,0,0,0,0,0,1
1402,20774,10457,trol,10,0,0,0,0,0,0,1
1431,20775,10457,trol,10,0,0,0,0,0,0,1
1170,20776,10455,trol,10,1,1,1,1,1,0,0
1193,20777,10455,trol,10,1,1,1,1,1,0,0
1205,20778,10455,trol,10,1,1,1,1,1,0,0
1340,20779,10455,trol,10,1,1,1,1,1,0,0
1368,20780,10455,trol,10,1,1,1,1,1,0,0
1382,20781,10455,trol,10,1,1,1,1,1,0,0
1401,20782,10455,trol,10,1,1,1,1,1,0,0
1417,20783,10455,trol,10,1,1,1,1,1,0,0
1429,20784,10455,trol,10,1,1,1,1,1,0,0
1082,20785,10456,trol,10,0,0,0,0,0,1,0
1115,20786,10456,trol,10,0,0,0,0,0,1,0
1144,20787,10456,trol,10,0,0,0,0,0,1,0
1350,20788,10456,trol,10,0,0,0,0,0,1,0
1402,20789,10456,trol,10,0,0,0,0,0,1,0
1431,20790,10456,trol,10,0,0,0,0,0,1,0
372,21254,10464,trol,14,0,0,0,0,0,0,1
401,21255,10464,trol,14,0,0,0,0,0,0,1
434,21256,10464,trol,14,0,0,0,0,0,0,1
467,21257,10464,trol,14,0,0,0,0,0,0,1
505,21258,10464,trol,14,0,0,0,0,0,0,1
535,21259,10464,trol,14,0,0,0,0,0,0,1
589,21260,10464,trol,14,0,0,0,0,0,0,1
625,21261,10464,trol,14,0,0,0,0,0,0,1
656,21262,10464,trol,14,0,0,0,0,0,0,1
688,21263,10464,trol,14,0,0,0,0,0,0,1
723,21264,10464,trol,14,0,0,0,0,0,0,1
755,21265,10464,trol,14,0,0,0,0,0,0,1
791,21266,10464,trol,14,0,0,0,0,0,0,1
821,21267,10464,trol,14,0,0,0,0,0,0,1
856,21268,10464,trol,14,0,0,0,0,0,0,1
891,21269,10464,trol,14,0,0,0,0,0,0,1
922,21270,10464,trol,14,0,0,0,0,0,0,1
956,21271,10464,trol,14,0,0,0,0,0,0,1
993,21272,10464,trol,14,0,0,0,0,0,0,1
1020,21273,10464,trol,14,0,0,0,0,0,0,1
1052,21274,10464,trol,14,0,0,0,0,0,0,1
1089,21275,10464,trol,14,0,0,0,0,0,0,1
1122,21276,10464,trol,14,0,0,0,0,0,0,1
1172,21277,10464,trol,14,0,0,0,0,0,0,1
1209,21278,10464,trol,14,0,0,0,0,0,0,1
1243,21279,10464,trol,14,0,0,0,0,0,0,1
1269,21280,10464,trol,14,0,0,0,0,0,0,1
1303,21281,10464,trol,14,0,0,0,0,0,0,1
1338,21282,10464,trol,14,0,0,0,0,0,0,1
336,21283,10462,trol,14,1,1,1,1,1,0,0
359,21284,10462,trol,14,1,1,1,1,1,0,0
381,21285,10462,trol,14,1,1,1,1,1,0,0
403,21286,10462,trol,14,1,1,1,1,1,0,0
421,21287,10462,trol,14,1,1,1,1,1,0,0
442,21288,10462,trol,14,1,1,1,1,1,0,0
464,21289,10462,trol,14,1,1,1,1,1,0,0
490,21290,10462,trol,14,1,1,1,1,1,0,0
512,21291,10462,trol,14,1,1,1,1,1,0,0
535,21292,10462,trol,14,1,1,1,1,1,0,0
574,21293,10462,trol,14,1,1,1,1,1,0,0
602,21294,10462,trol,14,1,1,1,1,1,0,0
644,21295,10462,trol,14,1,1,1,1,1,0,0
677,21296,10462,trol,14,1,1,1,1,1,0,0
708,21297,10462,trol,14,1,1,1,1,1,0,0
747,21298,10462,trol,14,1,1,1,1,1,0,0
781,21299,10462,trol,14,1,1,1,1,1,0,0
814,21300,10462,trol,14,1,1,1,1,1,0,0
853,21301,10462,trol,14,1,1,1,1,1,0,0
885,21302,10462,trol,14,1,1,1,1,1,0,0
904,21303,10462,trol,14,1,1,1,1,1,0,0
921,21304,10462,trol,14,1,1,1,1,1,0,0
941,21305,10462,trol,14,1,1,1,1,1,0,0
963,21306,10462,trol,14,1,1,1,1,1,0,0
990,21307,10462,trol,14,1,1,1,1,1,0,0
1012,21308,10462,trol,14,1,1,1,1,1,0,0
1031,21309,10462,trol,14,1,1,1,1,1,0,0
1055,21310,10462,trol,14,1,1,1,1,1,0,0
1077,21311,10462,trol,14,1,1,1,1,1,0,0
1101,21312,10462,trol,14,1,1,1,1,1,0,0
1122,21313,10462,trol,14,1,1,1,1,1,0,0
1141,21314,10462,trol,14,1,1,1,1,1,0,0
1165,21315,10462,trol,14,1,1,1,1,1,0,0
1207,21316,10462,trol,14,1,1,1,1,1,0,0
1237,21317,10462,trol,14,1,1,1,1,1,0,0
1271,21318,10462,trol,14,1,1,1,1,1,0,0
1306,21319,10462,trol,14,1,1,1,1,1,0,0
1337,21320,10462,trol,14,1,1,1,1,1,0,0
1369,21321,10462,trol,14,1,1,1,1,1,0,0
338,21322,10463,trol,14,0,0,0,0,0,1,0
372,21323,10463,trol,14,0,0,0,0,0,1,0
401,21324,10463,trol,14,0,0,0,0,0,1,0
434,21325,10463,trol,14,0,0,0,0,0,1,0
467,21326,10463,trol,14,0,0,0,0,0,1,0
505,21327,10463,trol,14,0,0,0,0,0,1,0
535,21328,10463,trol,14,0,0,0,0,0,1,0
589,21329,10463,trol,14,0,0,0,0,0,1,0
625,21330,10463,trol,14,0,0,0,0,0,1,0
656,21331,10463,trol,14,0,0,0,0,0,1,0
688,21332,10463,trol,14,0,0,0,0,0,1,0
723,21333,10463,trol,14,0,0,0,0,0,1,0
755,21334,10463,trol,14,0,0,0,0,0,1,0
791,21335,10463,trol,14,0,0,0,0,0,1,0
821,21336,10463,trol,14,0,0,0,0,0,1,0
856,21337,10463,trol,14,0,0,0,0,0,1,0
891,21338,10463,trol,14,0,0,0,0,0,1,0
922,21339,10463,trol,14,0,0,0,0,0,1,0
956,21340,10463,trol,14,0,0,0,0,0,1,0
993,21341,10463,trol,14,0,0,0,0,0,1,0
1020,21342,10463,trol,14,0,0,0,0,0,1,0
1052,21343,10463,trol,14,0,0,0,0,0,1,0
1089,21344,10463,trol,14,0,0,0,0,0,1,0
1122,21345,10463,trol,14,0,0,0,0,0,1,0
1172,21346,10463,trol,14,0,0,0,0,0,1,0
1209,21347,10463,trol,14,0,0,0,0,0,1,0
1243,21348,10463,trol,14,0,0,0,0,0,1,0
1269,21349,10463,trol,14,0,0,0,0,0,1,0
1303,21350,10463,trol,14,0,0,0,0,0,1,0
1338,21351,10463,trol,14,0,0,0,0,0,1,0
1356,21446,10464,trol,14,0,0,0,0,0,0,1
1390,21447,10464,trol,14,0,0,0,0,0,0,1
1398,21448,10462,trol,14,1,1,1,1,1,0,0
1429,21449,10462,trol,14,1,1,1,1,1,0,0
1356,21450,10463,trol,14,0,0,0,0,0,1,0
1390,21451,10463,trol,14,0,0,0,0,0,1,0
347,23254,10475,trol,19,1,1,1,1,1,0,0
358,23255,10475,trol,19,1,1,1,1,1,0,0
365,23256,10475,trol,19,1,1,1,1,1,0,0
374,23257,10475,trol,19,1,1,1,1,1,0,0
385,23258,10475,trol,19,1,1,1,1,1,0,0
395,23259,10475,trol,19,1,1,1,1,1,0,0
403,23260,10475,trol,19,1,1,1,1,1,0,0
409,23261,10475,trol,19,1,1,1,1,1,0,0
417,23262,10475,trol,19,1,1,1,1,1,0,0
423,23263,10475,trol,19,1,1,1,1,1,0,0
429,23264,10475,trol,19,1,1,1,1,1,0,0
436,23265,10475,trol,19,1,1,1,1,1,0,0
443,23266,10475,trol,19,1,1,1,1,1,0,0
450,23267,10475,trol,19,1,1,1,1,1,0,0
458,23268,10475,trol,19,1,1,1,1,1,0,0
463,23269,10475,trol,19,1,1,1,1,1,0,0
471,23270,10475,trol,19,1,1,1,1,1,0,0
479,23271,10475,trol,19,1,1,1,1,1,0,0
488,23272,10475,trol,19,1,1,1,1,1,0,0
495,23273,10475,trol,19,1,1,1,1,1,0,0
503,23274,10475,trol,19,1,1,1,1,1,0,0
510,23275,10475,trol,19,1,1,1,1,1,0,0
517,23276,10475,trol,19,1,1,1,1,1,0,0
523,23277,10475,trol,19,1,1,1,1,1,0,0
531,23278,10475,trol,19,1,1,1,1,1,0,0
535,23279,10475,trol,19,1,1,1,1,1,0,0
542,23280,10475,trol,19,1,1,1,1,1,0,0
549,23281,10475,trol,19,1,1,1,1,1,0,0
557,23282,10475,trol,19,1,1,1,1,1,0,0
565,23283,10475,trol,19,1,1,1,1,1,0,0
575,23284,10475,trol,19,1,1,1,1,1,0,0
584,23285,10475,trol,19,1,1,1,1,1,0,0
590,23286,10475,trol,19,1,1,1,1,1,0,0
597,23287,10475,trol,19,1,1,1,1,1,0,0
608,23288,10475,trol,19,1,1,1,1,1,0,0
616,23289,10475,trol,19,1,1,1,1,1,0,0
624,23290,10475,trol,19,1,1,1,1,1,0,0
632,23291,10475,trol,19,1,1,1,1,1,0,0
641,23292,10475,trol,19,1,1,1,1,1,0,0
653,23293,10475,trol,19,1,1,1,1,1,0,0
668,23294,10475,trol,19,1,1,1,1,1,0,0
677,23295,10475,trol,19,1,1,1,1,1,0,0
689,23296,10475,trol,19,1,1,1,1,1,0,0
699,23297,10475,trol,19,1,1,1,1,1,0,0
708,23298,10475,trol,19,1,1,1,1,1,0,0
719,23299,10475,trol,19,1,1,1,1,1,0,0
731,23300,10475,trol,19,1,1,1,1,1,0,0
740,23301,10475,trol,19,1,1,1,1,1,0,0
753,23302,10475,trol,19,1,1,1,1,1,0,0
764,23303,10475,trol,19,1,1,1,1,1,0,0
772,23304,10475,trol,19,1,1,1,1,1,0,0
784,23305,10475,trol,19,1,1,1,1,1,0,0
795,23306,10475,trol,19,1,1,1,1,1,0,0
804,23307,10475,trol,19,1,1,1,1,1,0,0
813,23308,10475,trol,19,1,1,1,1,1,0,0
821,23309,10475,trol,19,1,1,1,1,1,0,0
834,23310,10475,trol,19,1,1,1,1,1,0,0
846,23311,10475,trol,19,1,1,1,1,1,0,0
857,23312,10475,trol,19,1,1,1,1,1,0,0
873,23313,10475,trol,19,1,1,1,1,1,0,0
882,23314,10475,trol,19,1,1,1,1,1,0,0
892,23315,10475,trol,19,1,1,1,1,1,0,0
902,23316,10475,trol,19,1,1,1,1,1,0,0
912,23317,10475,trol,19,1,1,1,1,1,0,0
921,23318,10475,trol,19,1,1,1,1,1,0,0
927,23319,10475,trol,19,1,1,1,1,1,0,0
937,23320,10475,trol,19,1,1,1,1,1,0,0
942,23321,10475,trol,19,1,1,1,1,1,0,0
950,23322,10475,trol,19,1,1,1,1,1,0,0
957,23323,10475,trol,19,1,1,1,1,1,0,0
964,23324,10475,trol,19,1,1,1,1,1,0,0
971,23325,10475,trol,19,1,1,1,1,1,0,0
977,23326,10475,trol,19,1,1,1,1,1,0,0
985,23327,10475,trol,19,1,1,1,1,1,0,0
992,23328,10475,trol,19,1,1,1,1,1,0,0
999,23329,10475,trol,19,1,1,1,1,1,0,0
1004,23330,10475,trol,19,1,1,1,1,1,0,0
1011,23331,10475,trol,19,1,1,1,1,1,0,0
1018,23332,10475,trol,19,1,1,1,1,1,0,0
1025,23333,10475,trol,19,1,1,1,1,1,0,0
1032,23334,10475,trol,19,1,1,1,1,1,0,0
1040,23335,10475,trol,19,1,1,1,1,1,0,0
1048,23336,10475,trol,19,1,1,1,1,1,0,0
1054,23337,10475,trol,19,1,1,1,1,1,0,0
1062,23338,10475,trol,19,1,1,1,1,1,0,0
1069,23339,10475,trol,19,1,1,1,1,1,0,0
1076,23340,10475,trol,19,1,1,1,1,1,0,0
1085,23341,10475,trol,19,1,1,1,1,1,0,0
1091,23342,10475,trol,19,1,1,1,1,1,0,0
1099,23343,10475,trol,19,1,1,1,1,1,0,0
1108,23344,10475,trol,19,1,1,1,1,1,0,0
1113,23345,10475,trol,19,1,1,1,1,1,0,0
1120,23346,10475,trol,19,1,1,1,1,1,0,0
1129,23347,10475,trol,19,1,1,1,1,1,0,0
1141,23348,10475,trol,19,1,1,1,1,1,0,0
1151,23349,10475,trol,19,1,1,1,1,1,0,0
1158,23350,10475,trol,19,1,1,1,1,1,0,0
1171,23351,10475,trol,19,1,1,1,1,1,0,0
1183,23352,10475,trol,19,1,1,1,1,1,0,0
1192,23353,10475,trol,19,1,1,1,1,1,0,0
1207,23354,10475,trol,19,1,1,1,1,1,0,0
1216,23355,10475,trol,19,1,1,1,1,1,0,0
1228,23356,10475,trol,19,1,1,1,1,1,0,0
1237,23357,10475,trol,19,1,1,1,1,1,0,0
1249,23358,10475,trol,19,1,1,1,1,1,0,0
1261,23359,10475,trol,19,1,1,1,1,1,0,0
1274,23360,10475,trol,19,1,1,1,1,1,0,0
1283,23361,10475,trol,19,1,1,1,1,1,0,0
1292,23362,10475,trol,19,1,1,1,1,1,0,0
1301,23363,10475,trol,19,1,1,1,1,1,0,0
1311,23364,10475,trol,19,1,1,1,1,1,0,0
1324,23365,10475,trol,19,1,1,1,1,1,0,0
1336,23366,10475,trol,19,1,1,1,1,1,0,0
1346,23367,10475,trol,19,1,1,1,1,1,0,0
1366,23368,10475,trol,19,1,1,1,1,1,0,0
1390,23369,10475,trol,19,1,1,1,1,1,0,0
1400,23370,10475,trol,19,1,1,1,1,1,0,0
348,23371,10476,trol,19,0,0,0,0,0,1,0
374,23372,10476,trol,19,0,0,0,0,0,1,0
390,23373,10476,trol,19,0,0,0,0,0,1,0
402,23374,10476,trol,19,0,0,0,0,0,1,0
414,23375,10476,trol,19,0,0,0,0,0,1,0
424,23376,10476,trol,19,0,0,0,0,0,1,0
434,23377,10476,trol,19,0,0,0,0,0,1,0
448,23378,10476,trol,19,0,0,0,0,0,1,0
460,23379,10476,trol,19,0,0,0,0,0,1,0
469,23380,10476,trol,19,0,0,0,0,0,1,0
479,23381,10476,trol,19,0,0,0,0,0,1,0
491,23382,10476,trol,19,0,0,0,0,0,1,0
505,23383,10476,trol,19,0,0,0,0,0,1,0
518,23384,10476,trol,19,0,0,0,0,0,1,0
528,23385,10476,trol,19,0,0,0,0,0,1,0
540,23386,10476,trol,19,0,0,0,0,0,1,0
553,23387,10476,trol,19,0,0,0,0,0,1,0
568,23388,10476,trol,19,0,0,0,0,0,1,0
582,23389,10476,trol,19,0,0,0,0,0,1,0
595,23390,10476,trol,19,0,0,0,0,0,1,0
610,23391,10476,trol,19,0,0,0,0,0,1,0
627,23392,10476,trol,19,0,0,0,0,0,1,0
643,23393,10476,trol,19,0,0,0,0,0,1,0
660,23394,10476,trol,19,0,0,0,0,0,1,0
674,23395,10476,trol,19,0,0,0,0,0,1,0
688,23396,10476,trol,19,0,0,0,0,0,1,0
702,23397,10476,trol,19,0,0,0,0,0,1,0
711,23398,10476,trol,19,0,0,0,0,0,1,0
722,23399,10476,trol,19,0,0,0,0,0,1,0
734,23400,10476,trol,19,0,0,0,0,0,1,0
748,23401,10476,trol,19,0,0,0,0,0,1,0
759,23402,10476,trol,19,0,0,0,0,0,1,0
776,23403,10476,trol,19,0,0,0,0,0,1,0
785,23404,10476,trol,19,0,0,0,0,0,1,0
797,23405,10476,trol,19,0,0,0,0,0,1,0
809,23406,10476,trol,19,0,0,0,0,0,1,0
821,23407,10476,trol,19,0,0,0,0,0,1,0
831,23408,10476,trol,19,0,0,0,0,0,1,0
843,23409,10476,trol,19,0,0,0,0,0,1,0
854,23410,10476,trol,19,0,0,0,0,0,1,0
867,23411,10476,trol,19,0,0,0,0,0,1,0
884,23412,10476,trol,19,0,0,0,0,0,1,0
895,23413,10476,trol,19,0,0,0,0,0,1,0
908,23414,10476,trol,19,0,0,0,0,0,1,0
920,23415,10476,trol,19,0,0,0,0,0,1,0
931,23416,10476,trol,19,0,0,0,0,0,1,0
940,23417,10476,trol,19,0,0,0,0,0,1,0
955,23418,10476,trol,19,0,0,0,0,0,1,0
967,23419,10476,trol,19,0,0,0,0,0,1,0
981,23420,10476,trol,19,0,0,0,0,0,1,0
995,23421,10476,trol,19,0,0,0,0,0,1,0
1008,23422,10476,trol,19,0,0,0,0,0,1,0
1017,23423,10476,trol,19,0,0,0,0,0,1,0
1027,23424,10476,trol,19,0,0,0,0,0,1,0
1037,23425,10476,trol,19,0,0,0,0,0,1,0
1050,23426,10476,trol,19,0,0,0,0,0,1,0
1063,23427,10476,trol,19,0,0,0,0,0,1,0
1072,23428,10476,trol,19,0,0,0,0,0,1,0
1088,23429,10476,trol,19,0,0,0,0,0,1,0
1101,23430,10476,trol,19,0,0,0,0,0,1,0
1115,23431,10476,trol,19,0,0,0,0,0,1,0
1129,23432,10476,trol,19,0,0,0,0,0,1,0
1145,23433,10476,trol,19,0,0,0,0,0,1,0
1162,23434,10476,trol,19,0,0,0,0,0,1,0
1172,23435,10476,trol,19,0,0,0,0,0,1,0
1192,23436,10476,trol,19,0,0,0,0,0,1,0
1209,23437,10476,trol,19,0,0,0,0,0,1,0
1223,23438,10476,trol,19,0,0,0,0,0,1,0
1237,23439,10476,trol,19,0,0,0,0,0,1,0
1251,23440,10476,trol,19,0,0,0,0,0,1,0
1262,23441,10476,trol,19,0,0,0,0,0,1,0
1276,23442,10476,trol,19,0,0,0,0,0,1,0
1286,23443,10476,trol,19,0,0,0,0,0,1,0
1300,23444,10476,trol,19,0,0,0,0,0,1,0
1312,23445,10476,trol,19,0,0,0,0,0,1,0
1325,23446,10476,trol,19,0,0,0,0,0,1,0
1337,23447,10476,trol,19,0,0,0,0,0,1,0
1358,23448,10476,trol,19,0,0,0,0,0,1,0
1388,23449,10476,trol,19,0,0,0,0,0,1,0
374,23450,10477,trol,19,0,0,0,0,0,0,1
390,23451,10477,trol,19,0,0,0,0,0,0,1
402,23452,10477,trol,19,0,0,0,0,0,0,1
414,23453,10477,trol,19,0,0,0,0,0,0,1
424,23454,10477,trol,19,0,0,0,0,0,0,1
434,23455,10477,trol,19,0,0,0,0,0,0,1
448,23456,10477,trol,19,0,0,0,0,0,0,1
460,23457,10477,trol,19,0,0,0,0,0,0,1
469,23458,10477,trol,19,0,0,0,0,0,0,1
479,23459,10477,trol,19,0,0,0,0,0,0,1
491,23460,10477,trol,19,0,0,0,0,0,0,1
505,23461,10477,trol,19,0,0,0,0,0,0,1
518,23462,10477,trol,19,0,0,0,0,0,0,1
528,23463,10477,trol,19,0,0,0,0,0,0,1
540,23464,10477,trol,19,0,0,0,0,0,0,1
553,23465,10477,trol,19,0,0,0,0,0,0,1
568,23466,10477,trol,19,0,0,0,0,0,0,1
582,23467,10477,trol,19,0,0,0,0,0,0,1
595,23468,10477,trol,19,0,0,0,0,0,0,1
610,23469,10477,trol,19,0,0,0,0,0,0,1
627,23470,10477,trol,19,0,0,0,0,0,0,1
643,23471,10477,trol,19,0,0,0,0,0,0,1
660,23472,10477,trol,19,0,0,0,0,0,0,1
674,23473,10477,trol,19,0,0,0,0,0,0,1
688,23474,10477,trol,19,0,0,0,0,0,0,1
702,23475,10477,trol,19,0,0,0,0,0,0,1
711,23476,10477,trol,19,0,0,0,0,0,0,1
722,23477,10477,trol,19,0,0,0,0,0,0,1
734,23478,10477,trol,19,0,0,0,0,0,0,1
748,23479,10477,trol,19,0,0,0,0,0,0,1
759,23480,10477,trol,19,0,0,0,0,0,0,1
776,23481,10477,trol,19,0,0,0,0,0,0,1
785,23482,10477,trol,19,0,0,0,0,0,0,1
797,23483,10477,trol,19,0,0,0,0,0,0,1
809,23484,10477,trol,19,0,0,0,0,0,0,1
821,23485,10477,trol,19,0,0,0,0,0,0,1
831,23486,10477,trol,19,0,0,0,0,0,0,1
843,23487,10477,trol,19,0,0,0,0,0,0,1
854,23488,10477,trol,19,0,0,0,0,0,0,1
867,23489,10477,trol,19,0,0,0,0,0,0,1
884,23490,10477,trol,19,0,0,0,0,0,0,1
895,23491,10477,trol,19,0,0,0,0,0,0,1
908,23492,10477,trol,19,0,0,0,0,0,0,1
920,23493,10477,trol,19,0,0,0,0,0,0,1
931,23494,10477,trol,19,0,0,0,0,0,0,1
940,23495,10477,trol,19,0,0,0,0,0,0,1
955,23496,10477,trol,19,0,0,0,0,0,0,1
967,23497,10477,trol,19,0,0,0,0,0,0,1
981,23498,10477,trol,19,0,0,0,0,0,0,1
995,23499,10477,trol,19,0,0,0,0,0,0,1
1008,23500,10477,trol,19,0,0,0,0,0,0,1
1017,23501,10477,trol,19,0,0,0,0,0,0,1
1027,23502,10477,trol,19,0,0,0,0,0,0,1
1037,23503,10477,trol,19,0,0,0,0,0,0,1
1050,23504,10477,trol,19,0,0,0,0,0,0,1
1063,23505,10477,trol,19,0,0,0,0,0,0,1
1072,23506,10477,trol,19,0,0,0,0,0,0,1
1088,23507,10477,trol,19,0,0,0,0,0,0,1
1101,23508,10477,trol,19,0,0,0,0,0,0,1
1115,23509,10477,trol,19,0,0,0,0,0,0,1
1129,23510,10477,trol,19,0,0,0,0,0,0,1
1145,23511,10477,trol,19,0,0,0,0,0,0,1
1162,23512,10477,trol,19,0,0,0,0,0,0,1
1172,23513,10477,trol,19,0,0,0,0,0,0,1
1192,23514,10477,trol,19,0,0,0,0,0,0,1
1209,23515,10477,trol,19,0,0,0,0,0,0,1
1223,23516,10477,trol,19,0,0,0,0,0,0,1
1237,23517,10477,trol,19,0,0,0,0,0,0,1
1251,23518,10477,trol,19,0,0,0,0,0,0,1
1262,23519,10477,trol,19,0,0,0,0,0,0,1
1276,23520,10477,trol,19,0,0,0,0,0,0,1
1286,23521,10477,trol,19,0,0,0,0,0,0,1
1300,23522,10477,trol,19,0,0,0,0,0,0,1
1312,23523,10477,trol,19,0,0,0,0,0,0,1
1325,23524,10477,trol,19,0,0,0,0,0,0,1
1337,23525,10477,trol,19,0,0,0,0,0,0,1
1358,23526,10477,trol,19,0,0,0,0,0,0,1
1388,23527,10477,trol,19,0,0,0,0,0,0,1
1176,23547,10475,trol,19,1,1,1,1,1,0,0
1197,23548,10475,trol,19,1,1,1,1,1,0,0
1363,23549,10475,trol,19,1,1,1,1,1,0,0
1376,23550,10475,trol,19,1,1,1,1,1,0,0
1438,23551,10475,trol,19,1,1,1,1,1,0,0
1343,23552,10476,trol,19,0,0,0,0,0,1,0
1370,23553,10476,trol,19,0,0,0,0,0,1,0
1398,23554,10476,trol,19,0,0,0,0,0,1,0
1411,23555,10476,trol,19,0,0,0,0,0,1,0
1443,23556,10476,trol,19,0,0,0,0,0,1,0
1343,23557,10477,trol,19,0,0,0,0,0,0,1
1370,23558,10477,trol,19,0,0,0,0,0,0,1
1398,23559,10477,trol,19,0,0,0,0,0,0,1
1411,23560,10477,trol,19,0,0,0,0,0,0,1
1443,23561,10477,trol,19,0,0,0,0,0,0,1
1421,23562,10475,trol,19,1,1,1,1,1,0,0
1424,23563,10476,trol,19,0,0,0,0,0,1,0
1424,23564,10477,trol,19,0,0,0,0,0,0,1
389,23942,10480,trol,21,1,1,1,1,1,0,0
405,23943,10480,trol,21,1,1,1,1,1,0,0
427,23944,10480,trol,21,1,1,1,1,1,0,0
454,23945,10480,trol,21,1,1,1,1,1,0,0
477,23946,10480,trol,21,1,1,1,1,1,0,0
502,23947,10480,trol,21,1,1,1,1,1,0,0
520,23948,10480,trol,21,1,1,1,1,1,0,0
544,23949,10480,trol,21,1,1,1,1,1,0,0
581,23950,10480,trol,21,1,1,1,1,1,0,0
613,23951,10480,trol,21,1,1,1,1,1,0,0
649,23952,10480,trol,21,1,1,1,1,1,0,0
677,23953,10480,trol,21,1,1,1,1,1,0,0
713,23954,10480,trol,21,1,1,1,1,1,0,0
743,23955,10480,trol,21,1,1,1,1,1,0,0
778,23956,10480,trol,21,1,1,1,1,1,0,0
811,23957,10480,trol,21,1,1,1,1,1,0,0
846,23958,10480,trol,21,1,1,1,1,1,0,0
882,23959,10480,trol,21,1,1,1,1,1,0,0
902,23960,10480,trol,21,1,1,1,1,1,0,0
926,23961,10480,trol,21,1,1,1,1,1,0,0
948,23962,10480,trol,21,1,1,1,1,1,0,0
970,23963,10480,trol,21,1,1,1,1,1,0,0
993,23964,10480,trol,21,1,1,1,1,1,0,0
1016,23965,10480,trol,21,1,1,1,1,1,0,0
1039,23966,10480,trol,21,1,1,1,1,1,0,0
1062,23967,10480,trol,21,1,1,1,1,1,0,0
1090,23968,10480,trol,21,1,1,1,1,1,0,0
1134,23969,10480,trol,21,1,1,1,1,1,0,0
1180,23970,10480,trol,21,1,1,1,1,1,0,0
1221,23971,10480,trol,21,1,1,1,1,1,0,0
1251,23972,10480,trol,21,1,1,1,1,1,0,0
1283,23973,10480,trol,21,1,1,1,1,1,0,0
1314,23974,10480,trol,21,1,1,1,1,1,0,0
1349,23975,10480,trol,21,1,1,1,1,1,0,0
412,23976,10481,trol,21,0,0,0,0,0,1,1
472,23977,10481,trol,21,0,0,0,0,0,1,1
532,23978,10481,trol,21,0,0,0,0,0,1,1
592,23979,10481,trol,21,0,0,0,0,0,1,1
681,23980,10481,trol,21,0,0,0,0,0,1,1
739,23981,10481,trol,21,0,0,0,0,0,1,1
798,23982,10481,trol,21,0,0,0,0,0,1,1
859,23983,10481,trol,21,0,0,0,0,0,1,1
915,23984,10481,trol,21,0,0,0,0,0,1,1
972,23985,10481,trol,21,0,0,0,0,0,1,1
1029,23986,10481,trol,21,0,0,0,0,0,1,1
1117,23987,10481,trol,21,0,0,0,0,0,1,1
1174,23988,10481,trol,21,0,0,0,0,0,1,1
1231,23989,10481,trol,21,0,0,0,0,0,1,1
1288,23990,10481,trol,21,0,0,0,0,0,1,1
1343,23991,10481,trol,21,0,0,0,0,0,1,1
1106,24042,10480,trol,21,1,1,1,1,1,0,0
