timeInMin,trip_id,service_id,tipas,numeris,pirmadienis,antradienis,treciadienis,ketvirtadienis,penktadienis,sestadienis,sekmadienis 
301,7096,10355,bus,22,1,1,1,1,1,0,0
343,7097,10355,bus,22,1,1,1,1,1,0,0
389,18467,10448,trol,6,0,0,0,0,0,0,1
413,18468,10448,trol,6,0,0,0,0,0,0,1
426,18469,10448,trol,6,0,0,0,0,0,0,1
444,18470,10448,trol,6,0,0,0,0,0,0,1
464,18471,10448,trol,6,0,0,0,0,0,0,1
480,18472,10448,trol,6,0,0,0,0,0,0,1
497,18473,10448,trol,6,0,0,0,0,0,0,1
517,18474,10448,trol,6,0,0,0,0,0,0,1
533,18475,10448,trol,6,0,0,0,0,0,0,1
548,18476,10448,trol,6,0,0,0,0,0,0,1
563,18477,10448,trol,6,0,0,0,0,0,0,1
578,18478,10448,trol,6,0,0,0,0,0,0,1
590,18479,10448,trol,6,0,0,0,0,0,0,1
604,18480,10448,trol,6,0,0,0,0,0,0,1
621,18481,10448,trol,6,0,0,0,0,0,0,1
634,18482,10448,trol,6,0,0,0,0,0,0,1
649,18483,10448,trol,6,0,0,0,0,0,0,1
659,18484,10448,trol,6,0,0,0,0,0,0,1
672,18485,10448,trol,6,0,0,0,0,0,0,1
686,18486,10448,trol,6,0,0,0,0,0,0,1
696,18487,10448,trol,6,0,0,0,0,0,0,1
710,18488,10448,trol,6,0,0,0,0,0,0,1
725,18489,10448,trol,6,0,0,0,0,0,0,1
736,18490,10448,trol,6,0,0,0,0,0,0,1
749,18491,10448,trol,6,0,0,0,0,0,0,1
764,18492,10448,trol,6,0,0,0,0,0,0,1
782,18493,10448,trol,6,0,0,0,0,0,0,1
795,18494,10448,trol,6,0,0,0,0,0,0,1
807,18495,10448,trol,6,0,0,0,0,0,0,1
818,18496,10448,trol,6,0,0,0,0,0,0,1
829,18497,10448,trol,6,0,0,0,0,0,0,1
843,18498,10448,trol,6,0,0,0,0,0,0,1
859,18499,10448,trol,6,0,0,0,0,0,0,1
871,18500,10448,trol,6,0,0,0,0,0,0,1
882,18501,10448,trol,6,0,0,0,0,0,0,1
894,18502,10448,trol,6,0,0,0,0,0,0,1
907,18503,10448,trol,6,0,0,0,0,0,0,1
920,18504,10448,trol,6,0,0,0,0,0,0,1
931,18505,10448,trol,6,0,0,0,0,0,0,1
943,18506,10448,trol,6,0,0,0,0,0,0,1
954,18507,10448,trol,6,0,0,0,0,0,0,1
966,18508,10448,trol,6,0,0,0,0,0,0,1
982,18509,10448,trol,6,0,0,0,0,0,0,1
996,18510,10448,trol,6,0,0,0,0,0,0,1
1009,18511,10448,trol,6,0,0,0,0,0,0,1
1029,18512,10448,trol,6,0,0,0,0,0,0,1
1050,18513,10448,trol,6,0,0,0,0,0,0,1
1078,18514,10448,trol,6,0,0,0,0,0,0,1
1099,18515,10448,trol,6,0,0,0,0,0,0,1
1116,18516,10448,trol,6,0,0,0,0,0,0,1
1141,18517,10448,trol,6,0,0,0,0,0,0,1
1164,18518,10448,trol,6,0,0,0,0,0,0,1
1184,18519,10448,trol,6,0,0,0,0,0,0,1
1206,18520,10448,trol,6,0,0,0,0,0,0,1
1220,18521,10448,trol,6,0,0,0,0,0,0,1
1246,18522,10448,trol,6,0,0,0,0,0,0,1
1261,18523,10448,trol,6,0,0,0,0,0,0,1
1280,18524,10448,trol,6,0,0,0,0,0,0,1
1302,18525,10448,trol,6,0,0,0,0,0,0,1
1327,18526,10448,trol,6,0,0,0,0,0,0,1
1349,18527,10448,trol,6,0,0,0,0,0,0,1
1363,18528,10448,trol,6,0,0,0,0,0,0,1
312,18529,10446,trol,6,1,1,1,1,1,0,0
321,18530,10446,trol,6,1,1,1,1,1,0,0
336,18531,10446,trol,6,1,1,1,1,1,0,0
348,18532,10446,trol,6,1,1,1,1,1,0,0
361,18533,10446,trol,6,1,1,1,1,1,0,0
369,18534,10446,trol,6,1,1,1,1,1,0,0
377,18535,10446,trol,6,1,1,1,1,1,0,0
386,18536,10446,trol,6,1,1,1,1,1,0,0
396,18537,10446,trol,6,1,1,1,1,1,0,0
404,18538,10446,trol,6,1,1,1,1,1,0,0
414,18539,10446,trol,6,1,1,1,1,1,0,0
422,18540,10446,trol,6,1,1,1,1,1,0,0
430,18541,10446,trol,6,1,1,1,1,1,0,0
437,18542,10446,trol,6,1,1,1,1,1,0,0
444,18543,10446,trol,6,1,1,1,1,1,0,0
454,18544,10446,trol,6,1,1,1,1,1,0,0
463,18545,10446,trol,6,1,1,1,1,1,0,0
469,18546,10446,trol,6,1,1,1,1,1,0,0
478,18547,10446,trol,6,1,1,1,1,1,0,0
487,18548,10446,trol,6,1,1,1,1,1,0,0
494,18549,10446,trol,6,1,1,1,1,1,0,0
508,18550,10446,trol,6,1,1,1,1,1,0,0
521,18551,10446,trol,6,1,1,1,1,1,0,0
536,18552,10446,trol,6,1,1,1,1,1,0,0
554,18553,10446,trol,6,1,1,1,1,1,0,0
566,18554,10446,trol,6,1,1,1,1,1,0,0
582,18555,10446,trol,6,1,1,1,1,1,0,0
592,18556,10446,trol,6,1,1,1,1,1,0,0
607,18557,10446,trol,6,1,1,1,1,1,0,0
622,18558,10446,trol,6,1,1,1,1,1,0,0
636,18559,10446,trol,6,1,1,1,1,1,0,0
649,18560,10446,trol,6,1,1,1,1,1,0,0
659,18561,10446,trol,6,1,1,1,1,1,0,0
668,18562,10446,trol,6,1,1,1,1,1,0,0
682,18563,10446,trol,6,1,1,1,1,1,0,0
694,18564,10446,trol,6,1,1,1,1,1,0,0
709,18565,10446,trol,6,1,1,1,1,1,0,0
722,18566,10446,trol,6,1,1,1,1,1,0,0
735,18567,10446,trol,6,1,1,1,1,1,0,0
749,18568,10446,trol,6,1,1,1,1,1,0,0
764,18569,10446,trol,6,1,1,1,1,1,0,0
775,18570,10446,trol,6,1,1,1,1,1,0,0
786,18571,10446,trol,6,1,1,1,1,1,0,0
800,18572,10446,trol,6,1,1,1,1,1,0,0
813,18573,10446,trol,6,1,1,1,1,1,0,0
826,18574,10446,trol,6,1,1,1,1,1,0,0
842,18575,10446,trol,6,1,1,1,1,1,0,0
857,18576,10446,trol,6,1,1,1,1,1,0,0
871,18577,10446,trol,6,1,1,1,1,1,0,0
885,18578,10446,trol,6,1,1,1,1,1,0,0
895,18579,10446,trol,6,1,1,1,1,1,0,0
906,18580,10446,trol,6,1,1,1,1,1,0,0
915,18581,10446,trol,6,1,1,1,1,1,0,0
922,18582,10446,trol,6,1,1,1,1,1,0,0
930,18583,10446,trol,6,1,1,1,1,1,0,0
937,18584,10446,trol,6,1,1,1,1,1,0,0
946,18585,10446,trol,6,1,1,1,1,1,0,0
954,18586,10446,trol,6,1,1,1,1,1,0,0
961,18587,10446,trol,6,1,1,1,1,1,0,0
970,18588,10446,trol,6,1,1,1,1,1,0,0
980,18589,10446,trol,6,1,1,1,1,1,0,0
989,18590,10446,trol,6,1,1,1,1,1,0,0
1000,18591,10446,trol,6,1,1,1,1,1,0,0
1010,18592,10446,trol,6,1,1,1,1,1,0,0
1019,18593,10446,trol,6,1,1,1,1,1,0,0
1029,18594,10446,trol,6,1,1,1,1,1,0,0
1039,18595,10446,trol,6,1,1,1,1,1,0,0
1049,18596,10446,trol,6,1,1,1,1,1,0,0
1058,18597,10446,trol,6,1,1,1,1,1,0,0
1069,18598,10446,trol,6,1,1,1,1,1,0,0
1080,18599,10446,trol,6,1,1,1,1,1,0,0
1091,18600,10446,trol,6,1,1,1,1,1,0,0
1103,18601,10446,trol,6,1,1,1,1,1,0,0
1115,18602,10446,trol,6,1,1,1,1,1,0,0
1124,18603,10446,trol,6,1,1,1,1,1,0,0
1140,18604,10446,trol,6,1,1,1,1,1,0,0
1154,18605,10446,trol,6,1,1,1,1,1,0,0
1164,18606,10446,trol,6,1,1,1,1,1,0,0
1177,18607,10446,trol,6,1,1,1,1,1,0,0
1185,18608,10446,trol,6,1,1,1,1,1,0,0
1204,18609,10446,trol,6,1,1,1,1,1,0,0
1218,18610,10446,trol,6,1,1,1,1,1,0,0
1229,18611,10446,trol,6,1,1,1,1,1,0,0
1239,18612,10446,trol,6,1,1,1,1,1,0,0
1252,18613,10446,trol,6,1,1,1,1,1,0,0
1264,18614,10446,trol,6,1,1,1,1,1,0,0
1276,18615,10446,trol,6,1,1,1,1,1,0,0
1286,18616,10446,trol,6,1,1,1,1,1,0,0
1297,18617,10446,trol,6,1,1,1,1,1,0,0
1310,18618,10446,trol,6,1,1,1,1,1,0,0
1322,18619,10446,trol,6,1,1,1,1,1,0,0
1336,18620,10446,trol,6,1,1,1,1,1,0,0
1350,18621,10446,trol,6,1,1,1,1,1,0,0
335,18622,10447,trol,6,0,0,0,0,0,1,0
362,18623,10447,trol,6,0,0,0,0,0,1,0
389,18624,10447,trol,6,0,0,0,0,0,1,0
413,18625,10447,trol,6,0,0,0,0,0,1,0
426,18626,10447,trol,6,0,0,0,0,0,1,0
444,18627,10447,trol,6,0,0,0,0,0,1,0
464,18628,10447,trol,6,0,0,0,0,0,1,0
480,18629,10447,trol,6,0,0,0,0,0,1,0
497,18630,10447,trol,6,0,0,0,0,0,1,0
517,18631,10447,trol,6,0,0,0,0,0,1,0
533,18632,10447,trol,6,0,0,0,0,0,1,0
548,18633,10447,trol,6,0,0,0,0,0,1,0
563,18634,10447,trol,6,0,0,0,0,0,1,0
578,18635,10447,trol,6,0,0,0,0,0,1,0
590,18636,10447,trol,6,0,0,0,0,0,1,0
604,18637,10447,trol,6,0,0,0,0,0,1,0
621,18638,10447,trol,6,0,0,0,0,0,1,0
634,18639,10447,trol,6,0,0,0,0,0,1,0
649,18640,10447,trol,6,0,0,0,0,0,1,0
659,18641,10447,trol,6,0,0,0,0,0,1,0
672,18642,10447,trol,6,0,0,0,0,0,1,0
686,18643,10447,trol,6,0,0,0,0,0,1,0
696,18644,10447,trol,6,0,0,0,0,0,1,0
710,18645,10447,trol,6,0,0,0,0,0,1,0
725,18646,10447,trol,6,0,0,0,0,0,1,0
736,18647,10447,trol,6,0,0,0,0,0,1,0
749,18648,10447,trol,6,0,0,0,0,0,1,0
764,18649,10447,trol,6,0,0,0,0,0,1,0
782,18650,10447,trol,6,0,0,0,0,0,1,0
795,18651,10447,trol,6,0,0,0,0,0,1,0
807,18652,10447,trol,6,0,0,0,0,0,1,0
818,18653,10447,trol,6,0,0,0,0,0,1,0
829,18654,10447,trol,6,0,0,0,0,0,1,0
843,18655,10447,trol,6,0,0,0,0,0,1,0
859,18656,10447,trol,6,0,0,0,0,0,1,0
871,18657,10447,trol,6,0,0,0,0,0,1,0
882,18658,10447,trol,6,0,0,0,0,0,1,0
894,18659,10447,trol,6,0,0,0,0,0,1,0
907,18660,10447,trol,6,0,0,0,0,0,1,0
920,18661,10447,trol,6,0,0,0,0,0,1,0
931,18662,10447,trol,6,0,0,0,0,0,1,0
943,18663,10447,trol,6,0,0,0,0,0,1,0
954,18664,10447,trol,6,0,0,0,0,0,1,0
966,18665,10447,trol,6,0,0,0,0,0,1,0
982,18666,10447,trol,6,0,0,0,0,0,1,0
996,18667,10447,trol,6,0,0,0,0,0,1,0
1009,18668,10447,trol,6,0,0,0,0,0,1,0
1029,18669,10447,trol,6,0,0,0,0,0,1,0
1050,18670,10447,trol,6,0,0,0,0,0,1,0
1078,18671,10447,trol,6,0,0,0,0,0,1,0
1099,18672,10447,trol,6,0,0,0,0,0,1,0
1116,18673,10447,trol,6,0,0,0,0,0,1,0
1141,18674,10447,trol,6,0,0,0,0,0,1,0
1164,18675,10447,trol,6,0,0,0,0,0,1,0
1184,18676,10447,trol,6,0,0,0,0,0,1,0
1206,18677,10447,trol,6,0,0,0,0,0,1,0
1220,18678,10447,trol,6,0,0,0,0,0,1,0
1246,18679,10447,trol,6,0,0,0,0,0,1,0
1261,18680,10447,trol,6,0,0,0,0,0,1,0
1280,18681,10447,trol,6,0,0,0,0,0,1,0
1302,18682,10447,trol,6,0,0,0,0,0,1,0
1327,18683,10447,trol,6,0,0,0,0,0,1,0
1349,18684,10447,trol,6,0,0,0,0,0,1,0
1363,18685,10447,trol,6,0,0,0,0,0,1,0
544,18686,10446,trol,6,1,1,1,1,1,0,0
574,18687,10446,trol,6,1,1,1,1,1,0,0
378,20406,10457,trol,10,0,0,0,0,0,0,1
408,20407,10457,trol,10,0,0,0,0,0,0,1
429,20408,10457,trol,10,0,0,0,0,0,0,1
448,20409,10457,trol,10,0,0,0,0,0,0,1
474,20410,10457,trol,10,0,0,0,0,0,0,1
503,20411,10457,trol,10,0,0,0,0,0,0,1
526,20412,10457,trol,10,0,0,0,0,0,0,1
542,20413,10457,trol,10,0,0,0,0,0,0,1
558,20414,10457,trol,10,0,0,0,0,0,0,1
581,20415,10457,trol,10,0,0,0,0,0,0,1
599,20416,10457,trol,10,0,0,0,0,0,0,1
616,20417,10457,trol,10,0,0,0,0,0,0,1
630,20418,10457,trol,10,0,0,0,0,0,0,1
650,20419,10457,trol,10,0,0,0,0,0,0,1
662,20420,10457,trol,10,0,0,0,0,0,0,1
675,20421,10457,trol,10,0,0,0,0,0,0,1
691,20422,10457,trol,10,0,0,0,0,0,0,1
705,20423,10457,trol,10,0,0,0,0,0,0,1
721,20424,10457,trol,10,0,0,0,0,0,0,1
741,20425,10457,trol,10,0,0,0,0,0,0,1
756,20426,10457,trol,10,0,0,0,0,0,0,1
772,20427,10457,trol,10,0,0,0,0,0,0,1
790,20428,10457,trol,10,0,0,0,0,0,0,1
809,20429,10457,trol,10,0,0,0,0,0,0,1
825,20430,10457,trol,10,0,0,0,0,0,0,1
839,20431,10457,trol,10,0,0,0,0,0,0,1
852,20432,10457,trol,10,0,0,0,0,0,0,1
865,20433,10457,trol,10,0,0,0,0,0,0,1
878,20434,10457,trol,10,0,0,0,0,0,0,1
896,20435,10457,trol,10,0,0,0,0,0,0,1
912,20436,10457,trol,10,0,0,0,0,0,0,1
926,20437,10457,trol,10,0,0,0,0,0,0,1
944,20438,10457,trol,10,0,0,0,0,0,0,1
957,20439,10457,trol,10,0,0,0,0,0,0,1
973,20440,10457,trol,10,0,0,0,0,0,0,1
985,20441,10457,trol,10,0,0,0,0,0,0,1
997,20442,10457,trol,10,0,0,0,0,0,0,1
1011,20443,10457,trol,10,0,0,0,0,0,0,1
1026,20444,10457,trol,10,0,0,0,0,0,0,1
1042,20445,10457,trol,10,0,0,0,0,0,0,1
1056,20446,10457,trol,10,0,0,0,0,0,0,1
1074,20447,10457,trol,10,0,0,0,0,0,0,1
1110,20448,10457,trol,10,0,0,0,0,0,0,1
1137,20449,10457,trol,10,0,0,0,0,0,0,1
1169,20450,10457,trol,10,0,0,0,0,0,0,1
1196,20451,10457,trol,10,0,0,0,0,0,0,1
1216,20452,10457,trol,10,0,0,0,0,0,0,1
1240,20453,10457,trol,10,0,0,0,0,0,0,1
1267,20454,10457,trol,10,0,0,0,0,0,0,1
1293,20455,10457,trol,10,0,0,0,0,0,0,1
1319,20456,10457,trol,10,0,0,0,0,0,0,1
1345,20457,10457,trol,10,0,0,0,0,0,0,1
1387,20458,10457,trol,10,0,0,0,0,0,0,1
339,20459,10455,trol,10,1,1,1,1,1,0,0
355,20460,10455,trol,10,1,1,1,1,1,0,0
374,20461,10455,trol,10,1,1,1,1,1,0,0
390,20462,10455,trol,10,1,1,1,1,1,0,0
400,20463,10455,trol,10,1,1,1,1,1,0,0
409,20464,10455,trol,10,1,1,1,1,1,0,0
418,20465,10455,trol,10,1,1,1,1,1,0,0
427,20466,10455,trol,10,1,1,1,1,1,0,0
440,20467,10455,trol,10,1,1,1,1,1,0,0
449,20468,10455,trol,10,1,1,1,1,1,0,0
459,20469,10455,trol,10,1,1,1,1,1,0,0
473,20470,10455,trol,10,1,1,1,1,1,0,0
484,20471,10455,trol,10,1,1,1,1,1,0,0
499,20472,10455,trol,10,1,1,1,1,1,0,0
514,20473,10455,trol,10,1,1,1,1,1,0,0
528,20474,10455,trol,10,1,1,1,1,1,0,0
546,20475,10455,trol,10,1,1,1,1,1,0,0
559,20476,10455,trol,10,1,1,1,1,1,0,0
570,20477,10455,trol,10,1,1,1,1,1,0,0
579,20478,10455,trol,10,1,1,1,1,1,0,0
589,20479,10455,trol,10,1,1,1,1,1,0,0
602,20480,10455,trol,10,1,1,1,1,1,0,0
618,20481,10455,trol,10,1,1,1,1,1,0,0
640,20482,10455,trol,10,1,1,1,1,1,0,0
652,20483,10455,trol,10,1,1,1,1,1,0,0
664,20484,10455,trol,10,1,1,1,1,1,0,0
679,20485,10455,trol,10,1,1,1,1,1,0,0
699,20486,10455,trol,10,1,1,1,1,1,0,0
715,20487,10455,trol,10,1,1,1,1,1,0,0
730,20488,10455,trol,10,1,1,1,1,1,0,0
746,20489,10455,trol,10,1,1,1,1,1,0,0
760,20490,10455,trol,10,1,1,1,1,1,0,0
779,20491,10455,trol,10,1,1,1,1,1,0,0
794,20492,10455,trol,10,1,1,1,1,1,0,0
809,20493,10455,trol,10,1,1,1,1,1,0,0
823,20494,10455,trol,10,1,1,1,1,1,0,0
838,20495,10455,trol,10,1,1,1,1,1,0,0
854,20496,10455,trol,10,1,1,1,1,1,0,0
877,20497,10455,trol,10,1,1,1,1,1,0,0
893,20498,10455,trol,10,1,1,1,1,1,0,0
910,20499,10455,trol,10,1,1,1,1,1,0,0
924,20500,10455,trol,10,1,1,1,1,1,0,0
935,20501,10455,trol,10,1,1,1,1,1,0,0
949,20502,10455,trol,10,1,1,1,1,1,0,0
959,20503,10455,trol,10,1,1,1,1,1,0,0
968,20504,10455,trol,10,1,1,1,1,1,0,0
978,20505,10455,trol,10,1,1,1,1,1,0,0
993,20506,10455,trol,10,1,1,1,1,1,0,0
1003,20507,10455,trol,10,1,1,1,1,1,0,0
1014,20508,10455,trol,10,1,1,1,1,1,0,0
1026,20509,10455,trol,10,1,1,1,1,1,0,0
1043,20510,10455,trol,10,1,1,1,1,1,0,0
1056,20511,10455,trol,10,1,1,1,1,1,0,0
1066,20512,10455,trol,10,1,1,1,1,1,0,0
1078,20513,10455,trol,10,1,1,1,1,1,0,0
1097,20514,10455,trol,10,1,1,1,1,1,0,0
1112,20515,10455,trol,10,1,1,1,1,1,0,0
1128,20516,10455,trol,10,1,1,1,1,1,0,0
1144,20517,10455,trol,10,1,1,1,1,1,0,0
1158,20518,10455,trol,10,1,1,1,1,1,0,0
1172,20519,10455,trol,10,1,1,1,1,1,0,0
1192,20520,10455,trol,10,1,1,1,1,1,0,0
1209,20521,10455,trol,10,1,1,1,1,1,0,0
1223,20522,10455,trol,10,1,1,1,1,1,0,0
1234,20523,10455,trol,10,1,1,1,1,1,0,0
1247,20524,10455,trol,10,1,1,1,1,1,0,0
1260,20525,10455,trol,10,1,1,1,1,1,0,0
1281,20526,10455,trol,10,1,1,1,1,1,0,0
1293,20527,10455,trol,10,1,1,1,1,1,0,0
1314,20528,10455,trol,10,1,1,1,1,1,0,0
1330,20529,10455,trol,10,1,1,1,1,1,0,0
1343,20530,10455,trol,10,1,1,1,1,1,0,0
1367,20531,10455,trol,10,1,1,1,1,1,0,0
352,20532,10456,trol,10,0,0,0,0,0,1,0
378,20533,10456,trol,10,0,0,0,0,0,1,0
408,20534,10456,trol,10,0,0,0,0,0,1,0
429,20535,10456,trol,10,0,0,0,0,0,1,0
448,20536,10456,trol,10,0,0,0,0,0,1,0
474,20537,10456,trol,10,0,0,0,0,0,1,0
503,20538,10456,trol,10,0,0,0,0,0,1,0
526,20539,10456,trol,10,0,0,0,0,0,1,0
542,20540,10456,trol,10,0,0,0,0,0,1,0
558,20541,10456,trol,10,0,0,0,0,0,1,0
581,20542,10456,trol,10,0,0,0,0,0,1,0
599,20543,10456,trol,10,0,0,0,0,0,1,0
616,20544,10456,trol,10,0,0,0,0,0,1,0
630,20545,10456,trol,10,0,0,0,0,0,1,0
650,20546,10456,trol,10,0,0,0,0,0,1,0
662,20547,10456,trol,10,0,0,0,0,0,1,0
675,20548,10456,trol,10,0,0,0,0,0,1,0
691,20549,10456,trol,10,0,0,0,0,0,1,0
705,20550,10456,trol,10,0,0,0,0,0,1,0
721,20551,10456,trol,10,0,0,0,0,0,1,0
741,20552,10456,trol,10,0,0,0,0,0,1,0
756,20553,10456,trol,10,0,0,0,0,0,1,0
772,20554,10456,trol,10,0,0,0,0,0,1,0
790,20555,10456,trol,10,0,0,0,0,0,1,0
809,20556,10456,trol,10,0,0,0,0,0,1,0
825,20557,10456,trol,10,0,0,0,0,0,1,0
839,20558,10456,trol,10,0,0,0,0,0,1,0
852,20559,10456,trol,10,0,0,0,0,0,1,0
865,20560,10456,trol,10,0,0,0,0,0,1,0
878,20561,10456,trol,10,0,0,0,0,0,1,0
896,20562,10456,trol,10,0,0,0,0,0,1,0
912,20563,10456,trol,10,0,0,0,0,0,1,0
926,20564,10456,trol,10,0,0,0,0,0,1,0
944,20565,10456,trol,10,0,0,0,0,0,1,0
957,20566,10456,trol,10,0,0,0,0,0,1,0
973,20567,10456,trol,10,0,0,0,0,0,1,0
985,20568,10456,trol,10,0,0,0,0,0,1,0
997,20569,10456,trol,10,0,0,0,0,0,1,0
1011,20570,10456,trol,10,0,0,0,0,0,1,0
1026,20571,10456,trol,10,0,0,0,0,0,1,0
1042,20572,10456,trol,10,0,0,0,0,0,1,0
1056,20573,10456,trol,10,0,0,0,0,0,1,0
1074,20574,10456,trol,10,0,0,0,0,0,1,0
1110,20575,10456,trol,10,0,0,0,0,0,1,0
1137,20576,10456,trol,10,0,0,0,0,0,1,0
1169,20577,10456,trol,10,0,0,0,0,0,1,0
1196,20578,10456,trol,10,0,0,0,0,0,1,0
1216,20579,10456,trol,10,0,0,0,0,0,1,0
1240,20580,10456,trol,10,0,0,0,0,0,1,0
1267,20581,10456,trol,10,0,0,0,0,0,1,0
1293,20582,10456,trol,10,0,0,0,0,0,1,0
1319,20583,10456,trol,10,0,0,0,0,0,1,0
1345,20584,10456,trol,10,0,0,0,0,0,1,0
1387,20585,10456,trol,10,0,0,0,0,0,1,0
