timeInMin,trip_id,service_id,tipas,numeris,pirmadienis,antradienis,treciadienis,ketvirtadienis,penktadienis,sestadienis,sekmadienis 
309,4688,9008,bus,8,1,1,1,1,1,0,0
308,4689,9009,bus,8,0,0,0,0,0,1,0
376,4690,8983,bus,8,0,0,0,0,0,0,1
293,4691,9008,bus,8,1,1,1,1,1,0,0
340,7219,10356,bus,24,1,1,1,1,1,0,0
352,7220,10356,bus,24,1,1,1,1,1,0,0
365,7221,10356,bus,24,1,1,1,1,1,0,0
378,7222,10356,bus,24,1,1,1,1,1,0,0
389,7223,10356,bus,24,1,1,1,1,1,0,0
400,7224,10356,bus,24,1,1,1,1,1,0,0
411,7225,10356,bus,24,1,1,1,1,1,0,0
421,7226,10356,bus,24,1,1,1,1,1,0,0
433,7227,10356,bus,24,1,1,1,1,1,0,0
444,7228,10356,bus,24,1,1,1,1,1,0,0
453,7229,10356,bus,24,1,1,1,1,1,0,0
463,7230,10356,bus,24,1,1,1,1,1,0,0
473,7231,10356,bus,24,1,1,1,1,1,0,0
483,7232,10356,bus,24,1,1,1,1,1,0,0
495,7233,10356,bus,24,1,1,1,1,1,0,0
507,7234,10356,bus,24,1,1,1,1,1,0,0
520,7235,10356,bus,24,1,1,1,1,1,0,0
530,7236,10356,bus,24,1,1,1,1,1,0,0
545,7237,10356,bus,24,1,1,1,1,1,0,0
560,7238,10356,bus,24,1,1,1,1,1,0,0
574,7239,10356,bus,24,1,1,1,1,1,0,0
604,7240,10356,bus,24,1,1,1,1,1,0,0
625,7241,10356,bus,24,1,1,1,1,1,0,0
646,7242,10356,bus,24,1,1,1,1,1,0,0
687,7243,10356,bus,24,1,1,1,1,1,0,0
712,7244,10356,bus,24,1,1,1,1,1,0,0
738,7245,10356,bus,24,1,1,1,1,1,0,0
770,7246,10356,bus,24,1,1,1,1,1,0,0
796,7247,10356,bus,24,1,1,1,1,1,0,0
822,7248,10356,bus,24,1,1,1,1,1,0,0
853,7249,10356,bus,24,1,1,1,1,1,0,0
884,7250,10356,bus,24,1,1,1,1,1,0,0
902,7251,10356,bus,24,1,1,1,1,1,0,0
916,7252,10356,bus,24,1,1,1,1,1,0,0
929,7253,10356,bus,24,1,1,1,1,1,0,0
941,7254,10356,bus,24,1,1,1,1,1,0,0
950,7255,10356,bus,24,1,1,1,1,1,0,0
959,7256,10356,bus,24,1,1,1,1,1,0,0
968,7257,10356,bus,24,1,1,1,1,1,0,0
978,7258,10356,bus,24,1,1,1,1,1,0,0
988,7259,10356,bus,24,1,1,1,1,1,0,0
1001,7260,10356,bus,24,1,1,1,1,1,0,0
1014,7261,10356,bus,24,1,1,1,1,1,0,0
1025,7262,10356,bus,24,1,1,1,1,1,0,0
1037,7263,10356,bus,24,1,1,1,1,1,0,0
1048,7264,10356,bus,24,1,1,1,1,1,0,0
1059,7265,10356,bus,24,1,1,1,1,1,0,0
1070,7266,10356,bus,24,1,1,1,1,1,0,0
1081,7267,10356,bus,24,1,1,1,1,1,0,0
1094,7268,10356,bus,24,1,1,1,1,1,0,0
1113,7269,10356,bus,24,1,1,1,1,1,0,0
1141,7270,10356,bus,24,1,1,1,1,1,0,0
1180,7271,10356,bus,24,1,1,1,1,1,0,0
1203,7272,10356,bus,24,1,1,1,1,1,0,0
1224,7273,10356,bus,24,1,1,1,1,1,0,0
1257,7274,10356,bus,24,1,1,1,1,1,0,0
1279,7275,10356,bus,24,1,1,1,1,1,0,0
1301,7276,10356,bus,24,1,1,1,1,1,0,0
1333,7277,10356,bus,24,1,1,1,1,1,0,0
1355,7278,10356,bus,24,1,1,1,1,1,0,0
1378,7279,10356,bus,24,1,1,1,1,1,0,0
338,7280,9984,bus,24,0,0,0,0,0,1,0
378,7281,9984,bus,24,0,0,0,0,0,1,0
418,7282,9984,bus,24,0,0,0,0,0,1,0
456,7283,9984,bus,24,0,0,0,0,0,1,0
496,7284,9984,bus,24,0,0,0,0,0,1,0
536,7285,9984,bus,24,0,0,0,0,0,1,0
590,7286,9984,bus,24,0,0,0,0,0,1,0
613,7287,9984,bus,24,0,0,0,0,0,1,0
649,7288,9984,bus,24,0,0,0,0,0,1,0
674,7289,9984,bus,24,0,0,0,0,0,1,0
696,7290,9984,bus,24,0,0,0,0,0,1,0
730,7291,9984,bus,24,0,0,0,0,0,1,0
771,7292,9984,bus,24,0,0,0,0,0,1,0
792,7293,9984,bus,24,0,0,0,0,0,1,0
823,7294,9984,bus,24,0,0,0,0,0,1,0
857,7295,9984,bus,24,0,0,0,0,0,1,0
891,7296,9984,bus,24,0,0,0,0,0,1,0
915,7297,9984,bus,24,0,0,0,0,0,1,0
939,7298,9984,bus,24,0,0,0,0,0,1,0
966,7299,9984,bus,24,0,0,0,0,0,1,0
991,7300,9984,bus,24,0,0,0,0,0,1,0
1017,7301,9984,bus,24,0,0,0,0,0,1,0
1049,7302,9984,bus,24,0,0,0,0,0,1,0
1092,7303,9984,bus,24,0,0,0,0,0,1,0
1131,7304,9984,bus,24,0,0,0,0,0,1,0
1166,7305,9984,bus,24,0,0,0,0,0,1,0
1203,7306,9984,bus,24,0,0,0,0,0,1,0
1239,7307,9984,bus,24,0,0,0,0,0,1,0
1275,7308,9984,bus,24,0,0,0,0,0,1,0
1311,7309,9984,bus,24,0,0,0,0,0,1,0
1347,7310,9984,bus,24,0,0,0,0,0,1,0
378,7311,9985,bus,24,0,0,0,0,0,0,1
418,7312,9985,bus,24,0,0,0,0,0,0,1
456,7313,9985,bus,24,0,0,0,0,0,0,1
496,7314,9985,bus,24,0,0,0,0,0,0,1
536,7315,9985,bus,24,0,0,0,0,0,0,1
590,7316,9985,bus,24,0,0,0,0,0,0,1
613,7317,9985,bus,24,0,0,0,0,0,0,1
649,7318,9985,bus,24,0,0,0,0,0,0,1
674,7319,9985,bus,24,0,0,0,0,0,0,1
696,7320,9985,bus,24,0,0,0,0,0,0,1
730,7321,9985,bus,24,0,0,0,0,0,0,1
771,7322,9985,bus,24,0,0,0,0,0,0,1
792,7323,9985,bus,24,0,0,0,0,0,0,1
823,7324,9985,bus,24,0,0,0,0,0,0,1
857,7325,9985,bus,24,0,0,0,0,0,0,1
891,7326,9985,bus,24,0,0,0,0,0,0,1
915,7327,9985,bus,24,0,0,0,0,0,0,1
939,7328,9985,bus,24,0,0,0,0,0,0,1
966,7329,9985,bus,24,0,0,0,0,0,0,1
991,7330,9985,bus,24,0,0,0,0,0,0,1
1017,7331,9985,bus,24,0,0,0,0,0,0,1
1049,7332,9985,bus,24,0,0,0,0,0,0,1
1092,7333,9985,bus,24,0,0,0,0,0,0,1
1131,7334,9985,bus,24,0,0,0,0,0,0,1
1166,7335,9985,bus,24,0,0,0,0,0,0,1
1203,7336,9985,bus,24,0,0,0,0,0,0,1
1239,7337,9985,bus,24,0,0,0,0,0,0,1
1275,7338,9985,bus,24,0,0,0,0,0,0,1
1311,7339,9985,bus,24,0,0,0,0,0,0,1
1347,7340,9985,bus,24,0,0,0,0,0,0,1
315,7491,10356,bus,24,1,1,1,1,1,0,0
372,7621,9330,bus,25,0,0,0,0,0,0,1
334,8344,10607,bus,29,1,1,1,1,1,0,0
371,8345,10607,bus,29,1,1,1,1,1,0,0
566,8346,10172,bus,29,0,0,0,0,0,1,0
368,8347,10173,bus,29,0,0,0,0,0,0,1
566,8348,10173,bus,29,0,0,0,0,0,0,1
297,8349,10607,bus,29,1,1,1,1,1,0,0
322,8350,10607,bus,29,1,1,1,1,1,0,0
325,8351,10172,bus,29,0,0,0,0,0,1,0
340,10009,10378,bus,40,1,1,1,1,1,0,0
358,10010,10378,bus,40,1,1,1,1,1,0,0
373,10011,10378,bus,40,1,1,1,1,1,0,0
384,10012,10378,bus,40,1,1,1,1,1,0,0
394,10013,10378,bus,40,1,1,1,1,1,0,0
402,10014,10378,bus,40,1,1,1,1,1,0,0
409,10015,10378,bus,40,1,1,1,1,1,0,0
415,10016,10378,bus,40,1,1,1,1,1,0,0
421,10017,10378,bus,40,1,1,1,1,1,0,0
428,10018,10378,bus,40,1,1,1,1,1,0,0
437,10019,10378,bus,40,1,1,1,1,1,0,0
444,10020,10378,bus,40,1,1,1,1,1,0,0
451,10021,10378,bus,40,1,1,1,1,1,0,0
458,10022,10378,bus,40,1,1,1,1,1,0,0
465,10023,10378,bus,40,1,1,1,1,1,0,0
472,10024,10378,bus,40,1,1,1,1,1,0,0
480,10025,10378,bus,40,1,1,1,1,1,0,0
486,10026,10378,bus,40,1,1,1,1,1,0,0
494,10027,10378,bus,40,1,1,1,1,1,0,0
501,10028,10378,bus,40,1,1,1,1,1,0,0
508,10029,10378,bus,40,1,1,1,1,1,0,0
515,10030,10378,bus,40,1,1,1,1,1,0,0
522,10031,10378,bus,40,1,1,1,1,1,0,0
529,10032,10378,bus,40,1,1,1,1,1,0,0
536,10033,10378,bus,40,1,1,1,1,1,0,0
543,10034,10378,bus,40,1,1,1,1,1,0,0
551,10035,10378,bus,40,1,1,1,1,1,0,0
557,10036,10378,bus,40,1,1,1,1,1,0,0
564,10037,10378,bus,40,1,1,1,1,1,0,0
571,10038,10378,bus,40,1,1,1,1,1,0,0
578,10039,10378,bus,40,1,1,1,1,1,0,0
584,10040,10378,bus,40,1,1,1,1,1,0,0
592,10041,10378,bus,40,1,1,1,1,1,0,0
598,10042,10378,bus,40,1,1,1,1,1,0,0
605,10043,10378,bus,40,1,1,1,1,1,0,0
614,10044,10378,bus,40,1,1,1,1,1,0,0
628,10045,10378,bus,40,1,1,1,1,1,0,0
644,10046,10378,bus,40,1,1,1,1,1,0,0
660,10047,10378,bus,40,1,1,1,1,1,0,0
676,10048,10378,bus,40,1,1,1,1,1,0,0
694,10049,10378,bus,40,1,1,1,1,1,0,0
706,10050,10378,bus,40,1,1,1,1,1,0,0
720,10051,10378,bus,40,1,1,1,1,1,0,0
733,10052,10378,bus,40,1,1,1,1,1,0,0
746,10053,10378,bus,40,1,1,1,1,1,0,0
762,10054,10378,bus,40,1,1,1,1,1,0,0
775,10055,10378,bus,40,1,1,1,1,1,0,0
788,10056,10378,bus,40,1,1,1,1,1,0,0
802,10057,10378,bus,40,1,1,1,1,1,0,0
815,10058,10378,bus,40,1,1,1,1,1,0,0
831,10059,10378,bus,40,1,1,1,1,1,0,0
844,10060,10378,bus,40,1,1,1,1,1,0,0
857,10061,10378,bus,40,1,1,1,1,1,0,0
871,10062,10378,bus,40,1,1,1,1,1,0,0
884,10063,10378,bus,40,1,1,1,1,1,0,0
900,10064,10378,bus,40,1,1,1,1,1,0,0
913,10065,10378,bus,40,1,1,1,1,1,0,0
926,10066,10378,bus,40,1,1,1,1,1,0,0
940,10067,10378,bus,40,1,1,1,1,1,0,0
954,10068,10378,bus,40,1,1,1,1,1,0,0
962,10069,10378,bus,40,1,1,1,1,1,0,0
970,10070,10378,bus,40,1,1,1,1,1,0,0
977,10071,10378,bus,40,1,1,1,1,1,0,0
985,10072,10378,bus,40,1,1,1,1,1,0,0
993,10073,10378,bus,40,1,1,1,1,1,0,0
1000,10074,10378,bus,40,1,1,1,1,1,0,0
1008,10075,10378,bus,40,1,1,1,1,1,0,0
1015,10076,10378,bus,40,1,1,1,1,1,0,0
1021,10077,10378,bus,40,1,1,1,1,1,0,0
1027,10078,10378,bus,40,1,1,1,1,1,0,0
1033,10079,10378,bus,40,1,1,1,1,1,0,0
1039,10080,10378,bus,40,1,1,1,1,1,0,0
1045,10081,10378,bus,40,1,1,1,1,1,0,0
1051,10082,10378,bus,40,1,1,1,1,1,0,0
1057,10083,10378,bus,40,1,1,1,1,1,0,0
1063,10084,10378,bus,40,1,1,1,1,1,0,0
1071,10085,10378,bus,40,1,1,1,1,1,0,0
1078,10086,10378,bus,40,1,1,1,1,1,0,0
1086,10087,10378,bus,40,1,1,1,1,1,0,0
1092,10088,10378,bus,40,1,1,1,1,1,0,0
1098,10089,10378,bus,40,1,1,1,1,1,0,0
1104,10090,10378,bus,40,1,1,1,1,1,0,0
1112,10091,10378,bus,40,1,1,1,1,1,0,0
1120,10092,10378,bus,40,1,1,1,1,1,0,0
1128,10093,10378,bus,40,1,1,1,1,1,0,0
1135,10094,10378,bus,40,1,1,1,1,1,0,0
1143,10095,10378,bus,40,1,1,1,1,1,0,0
1154,10096,10378,bus,40,1,1,1,1,1,0,0
1162,10097,10378,bus,40,1,1,1,1,1,0,0
1171,10098,10378,bus,40,1,1,1,1,1,0,0
1178,10099,10378,bus,40,1,1,1,1,1,0,0
1189,10100,10378,bus,40,1,1,1,1,1,0,0
1199,10101,10378,bus,40,1,1,1,1,1,0,0
1209,10102,10378,bus,40,1,1,1,1,1,0,0
1221,10103,10378,bus,40,1,1,1,1,1,0,0
1233,10104,10378,bus,40,1,1,1,1,1,0,0
1247,10105,10378,bus,40,1,1,1,1,1,0,0
1263,10106,10378,bus,40,1,1,1,1,1,0,0
1275,10107,10378,bus,40,1,1,1,1,1,0,0
1286,10108,10378,bus,40,1,1,1,1,1,0,0
1298,10109,10378,bus,40,1,1,1,1,1,0,0
1312,10110,10378,bus,40,1,1,1,1,1,0,0
1326,10111,10378,bus,40,1,1,1,1,1,0,0
1340,10112,10378,bus,40,1,1,1,1,1,0,0
1351,10113,10378,bus,40,1,1,1,1,1,0,0
1363,10114,10378,bus,40,1,1,1,1,1,0,0
1378,10115,10378,bus,40,1,1,1,1,1,0,0
1391,10116,10378,bus,40,1,1,1,1,1,0,0
1406,10117,10378,bus,40,1,1,1,1,1,0,0
351,10118,10379,bus,40,0,0,0,0,0,1,0
368,10119,10379,bus,40,0,0,0,0,0,1,0
385,10120,10379,bus,40,0,0,0,0,0,1,0
402,10121,10379,bus,40,0,0,0,0,0,1,0
415,10122,10379,bus,40,0,0,0,0,0,1,0
431,10123,10379,bus,40,0,0,0,0,0,1,0
451,10124,10379,bus,40,0,0,0,0,0,1,0
468,10125,10379,bus,40,0,0,0,0,0,1,0
482,10126,10379,bus,40,0,0,0,0,0,1,0
497,10127,10379,bus,40,0,0,0,0,0,1,0
517,10128,10379,bus,40,0,0,0,0,0,1,0
534,10129,10379,bus,40,0,0,0,0,0,1,0
549,10130,10379,bus,40,0,0,0,0,0,1,0
563,10131,10379,bus,40,0,0,0,0,0,1,0
581,10132,10379,bus,40,0,0,0,0,0,1,0
597,10133,10379,bus,40,0,0,0,0,0,1,0
611,10134,10379,bus,40,0,0,0,0,0,1,0
625,10135,10379,bus,40,0,0,0,0,0,1,0
640,10136,10379,bus,40,0,0,0,0,0,1,0
652,10137,10379,bus,40,0,0,0,0,0,1,0
664,10138,10379,bus,40,0,0,0,0,0,1,0
675,10139,10379,bus,40,0,0,0,0,0,1,0
684,10140,10379,bus,40,0,0,0,0,0,1,0
694,10141,10379,bus,40,0,0,0,0,0,1,0
705,10142,10379,bus,40,0,0,0,0,0,1,0
716,10143,10379,bus,40,0,0,0,0,0,1,0
730,10144,10379,bus,40,0,0,0,0,0,1,0
739,10145,10379,bus,40,0,0,0,0,0,1,0
751,10146,10379,bus,40,0,0,0,0,0,1,0
761,10147,10379,bus,40,0,0,0,0,0,1,0
771,10148,10379,bus,40,0,0,0,0,0,1,0
786,10149,10379,bus,40,0,0,0,0,0,1,0
802,10150,10379,bus,40,0,0,0,0,0,1,0
815,10151,10379,bus,40,0,0,0,0,0,1,0
825,10152,10379,bus,40,0,0,0,0,0,1,0
835,10153,10379,bus,40,0,0,0,0,0,1,0
845,10154,10379,bus,40,0,0,0,0,0,1,0
857,10155,10379,bus,40,0,0,0,0,0,1,0
879,10156,10379,bus,40,0,0,0,0,0,1,0
889,10157,10379,bus,40,0,0,0,0,0,1,0
899,10158,10379,bus,40,0,0,0,0,0,1,0
909,10159,10379,bus,40,0,0,0,0,0,1,0
921,10160,10379,bus,40,0,0,0,0,0,1,0
930,10161,10379,bus,40,0,0,0,0,0,1,0
943,10162,10379,bus,40,0,0,0,0,0,1,0
954,10163,10379,bus,40,0,0,0,0,0,1,0
964,10164,10379,bus,40,0,0,0,0,0,1,0
975,10165,10379,bus,40,0,0,0,0,0,1,0
985,10166,10379,bus,40,0,0,0,0,0,1,0
994,10167,10379,bus,40,0,0,0,0,0,1,0
1008,10168,10379,bus,40,0,0,0,0,0,1,0
1020,10169,10379,bus,40,0,0,0,0,0,1,0
1031,10170,10379,bus,40,0,0,0,0,0,1,0
1043,10171,10379,bus,40,0,0,0,0,0,1,0
1056,10172,10379,bus,40,0,0,0,0,0,1,0
1067,10173,10379,bus,40,0,0,0,0,0,1,0
1086,10174,10379,bus,40,0,0,0,0,0,1,0
1103,10175,10379,bus,40,0,0,0,0,0,1,0
1125,10176,10379,bus,40,0,0,0,0,0,1,0
1148,10177,10379,bus,40,0,0,0,0,0,1,0
1168,10178,10379,bus,40,0,0,0,0,0,1,0
1189,10179,10379,bus,40,0,0,0,0,0,1,0
1202,10180,10379,bus,40,0,0,0,0,0,1,0
1215,10181,10379,bus,40,0,0,0,0,0,1,0
1230,10182,10379,bus,40,0,0,0,0,0,1,0
1250,10183,10379,bus,40,0,0,0,0,0,1,0
1262,10184,10379,bus,40,0,0,0,0,0,1,0
1275,10185,10379,bus,40,0,0,0,0,0,1,0
1290,10186,10379,bus,40,0,0,0,0,0,1,0
1310,10187,10379,bus,40,0,0,0,0,0,1,0
1328,10188,10379,bus,40,0,0,0,0,0,1,0
1350,10189,10379,bus,40,0,0,0,0,0,1,0
1372,10190,10379,bus,40,0,0,0,0,0,1,0
385,10191,10380,bus,40,0,0,0,0,0,0,1
402,10192,10380,bus,40,0,0,0,0,0,0,1
415,10193,10380,bus,40,0,0,0,0,0,0,1
431,10194,10380,bus,40,0,0,0,0,0,0,1
451,10195,10380,bus,40,0,0,0,0,0,0,1
468,10196,10380,bus,40,0,0,0,0,0,0,1
482,10197,10380,bus,40,0,0,0,0,0,0,1
497,10198,10380,bus,40,0,0,0,0,0,0,1
517,10199,10380,bus,40,0,0,0,0,0,0,1
534,10200,10380,bus,40,0,0,0,0,0,0,1
549,10201,10380,bus,40,0,0,0,0,0,0,1
563,10202,10380,bus,40,0,0,0,0,0,0,1
581,10203,10380,bus,40,0,0,0,0,0,0,1
597,10204,10380,bus,40,0,0,0,0,0,0,1
611,10205,10380,bus,40,0,0,0,0,0,0,1
625,10206,10380,bus,40,0,0,0,0,0,0,1
640,10207,10380,bus,40,0,0,0,0,0,0,1
652,10208,10380,bus,40,0,0,0,0,0,0,1
664,10209,10380,bus,40,0,0,0,0,0,0,1
675,10210,10380,bus,40,0,0,0,0,0,0,1
684,10211,10380,bus,40,0,0,0,0,0,0,1
694,10212,10380,bus,40,0,0,0,0,0,0,1
705,10213,10380,bus,40,0,0,0,0,0,0,1
716,10214,10380,bus,40,0,0,0,0,0,0,1
730,10215,10380,bus,40,0,0,0,0,0,0,1
739,10216,10380,bus,40,0,0,0,0,0,0,1
751,10217,10380,bus,40,0,0,0,0,0,0,1
761,10218,10380,bus,40,0,0,0,0,0,0,1
771,10219,10380,bus,40,0,0,0,0,0,0,1
786,10220,10380,bus,40,0,0,0,0,0,0,1
802,10221,10380,bus,40,0,0,0,0,0,0,1
815,10222,10380,bus,40,0,0,0,0,0,0,1
825,10223,10380,bus,40,0,0,0,0,0,0,1
835,10224,10380,bus,40,0,0,0,0,0,0,1
845,10225,10380,bus,40,0,0,0,0,0,0,1
857,10226,10380,bus,40,0,0,0,0,0,0,1
879,10227,10380,bus,40,0,0,0,0,0,0,1
889,10228,10380,bus,40,0,0,0,0,0,0,1
899,10229,10380,bus,40,0,0,0,0,0,0,1
909,10230,10380,bus,40,0,0,0,0,0,0,1
921,10231,10380,bus,40,0,0,0,0,0,0,1
930,10232,10380,bus,40,0,0,0,0,0,0,1
943,10233,10380,bus,40,0,0,0,0,0,0,1
954,10234,10380,bus,40,0,0,0,0,0,0,1
964,10235,10380,bus,40,0,0,0,0,0,0,1
975,10236,10380,bus,40,0,0,0,0,0,0,1
985,10237,10380,bus,40,0,0,0,0,0,0,1
994,10238,10380,bus,40,0,0,0,0,0,0,1
1008,10239,10380,bus,40,0,0,0,0,0,0,1
1020,10240,10380,bus,40,0,0,0,0,0,0,1
1031,10241,10380,bus,40,0,0,0,0,0,0,1
1043,10242,10380,bus,40,0,0,0,0,0,0,1
1056,10243,10380,bus,40,0,0,0,0,0,0,1
1067,10244,10380,bus,40,0,0,0,0,0,0,1
1086,10245,10380,bus,40,0,0,0,0,0,0,1
1103,10246,10380,bus,40,0,0,0,0,0,0,1
1125,10247,10380,bus,40,0,0,0,0,0,0,1
1148,10248,10380,bus,40,0,0,0,0,0,0,1
1168,10249,10380,bus,40,0,0,0,0,0,0,1
1189,10250,10380,bus,40,0,0,0,0,0,0,1
1202,10251,10380,bus,40,0,0,0,0,0,0,1
1215,10252,10380,bus,40,0,0,0,0,0,0,1
1230,10253,10380,bus,40,0,0,0,0,0,0,1
1250,10254,10380,bus,40,0,0,0,0,0,0,1
1262,10255,10380,bus,40,0,0,0,0,0,0,1
1275,10256,10380,bus,40,0,0,0,0,0,0,1
1290,10257,10380,bus,40,0,0,0,0,0,0,1
1310,10258,10380,bus,40,0,0,0,0,0,0,1
1328,10259,10380,bus,40,0,0,0,0,0,0,1
1350,10260,10380,bus,40,0,0,0,0,0,0,1
1372,10261,10380,bus,40,0,0,0,0,0,0,1
327,10802,10596,bus,43,1,1,1,1,1,0,0
348,10803,10596,bus,43,1,1,1,1,1,0,0
369,10804,10596,bus,43,1,1,1,1,1,0,0
386,10805,10596,bus,43,1,1,1,1,1,0,0
399,10806,10596,bus,43,1,1,1,1,1,0,0
411,10807,10596,bus,43,1,1,1,1,1,0,0
423,10808,10596,bus,43,1,1,1,1,1,0,0
441,10809,10596,bus,43,1,1,1,1,1,0,0
455,10810,10596,bus,43,1,1,1,1,1,0,0
473,10811,10596,bus,43,1,1,1,1,1,0,0
489,10812,10596,bus,43,1,1,1,1,1,0,0
502,10813,10596,bus,43,1,1,1,1,1,0,0
521,10814,10596,bus,43,1,1,1,1,1,0,0
537,10815,10596,bus,43,1,1,1,1,1,0,0
555,10816,10596,bus,43,1,1,1,1,1,0,0
578,10817,10596,bus,43,1,1,1,1,1,0,0
593,10818,10596,bus,43,1,1,1,1,1,0,0
615,10819,10596,bus,43,1,1,1,1,1,0,0
634,10820,10596,bus,43,1,1,1,1,1,0,0
654,10821,10596,bus,43,1,1,1,1,1,0,0
675,10822,10596,bus,43,1,1,1,1,1,0,0
693,10823,10596,bus,43,1,1,1,1,1,0,0
713,10824,10596,bus,43,1,1,1,1,1,0,0
734,10825,10596,bus,43,1,1,1,1,1,0,0
752,10826,10596,bus,43,1,1,1,1,1,0,0
773,10827,10596,bus,43,1,1,1,1,1,0,0
792,10828,10596,bus,43,1,1,1,1,1,0,0
811,10829,10596,bus,43,1,1,1,1,1,0,0
830,10830,10596,bus,43,1,1,1,1,1,0,0
852,10831,10596,bus,43,1,1,1,1,1,0,0
875,10832,10596,bus,43,1,1,1,1,1,0,0
892,10833,10596,bus,43,1,1,1,1,1,0,0
912,10834,10596,bus,43,1,1,1,1,1,0,0
926,10835,10596,bus,43,1,1,1,1,1,0,0
941,10836,10596,bus,43,1,1,1,1,1,0,0
957,10837,10596,bus,43,1,1,1,1,1,0,0
966,10838,10596,bus,43,1,1,1,1,1,0,0
977,10839,10596,bus,43,1,1,1,1,1,0,0
993,10840,10596,bus,43,1,1,1,1,1,0,0
1008,10841,10596,bus,43,1,1,1,1,1,0,0
1022,10842,10596,bus,43,1,1,1,1,1,0,0
1040,10843,10596,bus,43,1,1,1,1,1,0,0
1054,10844,10596,bus,43,1,1,1,1,1,0,0
1067,10845,10596,bus,43,1,1,1,1,1,0,0
1083,10846,10596,bus,43,1,1,1,1,1,0,0
1100,10847,10596,bus,43,1,1,1,1,1,0,0
1121,10848,10596,bus,43,1,1,1,1,1,0,0
1138,10849,10596,bus,43,1,1,1,1,1,0,0
1159,10850,10596,bus,43,1,1,1,1,1,0,0
1178,10851,10596,bus,43,1,1,1,1,1,0,0
1200,10852,10596,bus,43,1,1,1,1,1,0,0
1224,10853,10596,bus,43,1,1,1,1,1,0,0
1245,10854,10596,bus,43,1,1,1,1,1,0,0
1259,10855,10596,bus,43,1,1,1,1,1,0,0
1281,10856,10596,bus,43,1,1,1,1,1,0,0
1303,10857,10596,bus,43,1,1,1,1,1,0,0
1318,10858,10596,bus,43,1,1,1,1,1,0,0
1340,10859,10596,bus,43,1,1,1,1,1,0,0
1357,10860,10596,bus,43,1,1,1,1,1,0,0
1376,10861,10596,bus,43,1,1,1,1,1,0,0
1400,10862,10596,bus,43,1,1,1,1,1,0,0
414,10863,10598,bus,43,0,0,0,0,0,0,1
451,10864,10598,bus,43,0,0,0,0,0,0,1
488,10865,10598,bus,43,0,0,0,0,0,0,1
522,10866,10598,bus,43,0,0,0,0,0,0,1
552,10867,10598,bus,43,0,0,0,0,0,0,1
576,10868,10598,bus,43,0,0,0,0,0,0,1
598,10869,10598,bus,43,0,0,0,0,0,0,1
624,10870,10598,bus,43,0,0,0,0,0,0,1
639,10871,10598,bus,43,0,0,0,0,0,0,1
659,10872,10598,bus,43,0,0,0,0,0,0,1
677,10873,10598,bus,43,0,0,0,0,0,0,1
701,10874,10598,bus,43,0,0,0,0,0,0,1
725,10875,10598,bus,43,0,0,0,0,0,0,1
750,10876,10598,bus,43,0,0,0,0,0,0,1
768,10877,10598,bus,43,0,0,0,0,0,0,1
792,10878,10598,bus,43,0,0,0,0,0,0,1
823,10879,10598,bus,43,0,0,0,0,0,0,1
841,10880,10598,bus,43,0,0,0,0,0,0,1
856,10881,10598,bus,43,0,0,0,0,0,0,1
878,10882,10598,bus,43,0,0,0,0,0,0,1
902,10883,10598,bus,43,0,0,0,0,0,0,1
923,10884,10598,bus,43,0,0,0,0,0,0,1
951,10885,10598,bus,43,0,0,0,0,0,0,1
972,10886,10598,bus,43,0,0,0,0,0,0,1
989,10887,10598,bus,43,0,0,0,0,0,0,1
1010,10888,10598,bus,43,0,0,0,0,0,0,1
1030,10889,10598,bus,43,0,0,0,0,0,0,1
1048,10890,10598,bus,43,0,0,0,0,0,0,1
1077,10891,10598,bus,43,0,0,0,0,0,0,1
1128,10892,10598,bus,43,0,0,0,0,0,0,1
1174,10893,10598,bus,43,0,0,0,0,0,0,1
1209,10894,10598,bus,43,0,0,0,0,0,0,1
1246,10895,10598,bus,43,0,0,0,0,0,0,1
1282,10896,10598,bus,43,0,0,0,0,0,0,1
1320,10897,10598,bus,43,0,0,0,0,0,0,1
1358,10898,10598,bus,43,0,0,0,0,0,0,1
1398,10899,10598,bus,43,0,0,0,0,0,0,1
334,10900,10597,bus,43,0,0,0,0,0,1,0
379,10901,10597,bus,43,0,0,0,0,0,1,0
414,10902,10597,bus,43,0,0,0,0,0,1,0
451,10903,10597,bus,43,0,0,0,0,0,1,0
488,10904,10597,bus,43,0,0,0,0,0,1,0
522,10905,10597,bus,43,0,0,0,0,0,1,0
552,10906,10597,bus,43,0,0,0,0,0,1,0
576,10907,10597,bus,43,0,0,0,0,0,1,0
598,10908,10597,bus,43,0,0,0,0,0,1,0
624,10909,10597,bus,43,0,0,0,0,0,1,0
639,10910,10597,bus,43,0,0,0,0,0,1,0
659,10911,10597,bus,43,0,0,0,0,0,1,0
677,10912,10597,bus,43,0,0,0,0,0,1,0
701,10913,10597,bus,43,0,0,0,0,0,1,0
725,10914,10597,bus,43,0,0,0,0,0,1,0
750,10915,10597,bus,43,0,0,0,0,0,1,0
768,10916,10597,bus,43,0,0,0,0,0,1,0
792,10917,10597,bus,43,0,0,0,0,0,1,0
823,10918,10597,bus,43,0,0,0,0,0,1,0
841,10919,10597,bus,43,0,0,0,0,0,1,0
856,10920,10597,bus,43,0,0,0,0,0,1,0
878,10921,10597,bus,43,0,0,0,0,0,1,0
902,10922,10597,bus,43,0,0,0,0,0,1,0
923,10923,10597,bus,43,0,0,0,0,0,1,0
951,10924,10597,bus,43,0,0,0,0,0,1,0
972,10925,10597,bus,43,0,0,0,0,0,1,0
989,10926,10597,bus,43,0,0,0,0,0,1,0
1010,10927,10597,bus,43,0,0,0,0,0,1,0
1030,10928,10597,bus,43,0,0,0,0,0,1,0
1048,10929,10597,bus,43,0,0,0,0,0,1,0
1077,10930,10597,bus,43,0,0,0,0,0,1,0
1128,10931,10597,bus,43,0,0,0,0,0,1,0
1174,10932,10597,bus,43,0,0,0,0,0,1,0
1209,10933,10597,bus,43,0,0,0,0,0,1,0
1246,10934,10597,bus,43,0,0,0,0,0,1,0
1282,10935,10597,bus,43,0,0,0,0,0,1,0
1320,10936,10597,bus,43,0,0,0,0,0,1,0
1358,10937,10597,bus,43,0,0,0,0,0,1,0
1398,10938,10597,bus,43,0,0,0,0,0,1,0
372,11104,10383,bus,46,0,0,0,0,0,0,1
403,11105,10383,bus,46,0,0,0,0,0,0,1
423,11106,10383,bus,46,0,0,0,0,0,0,1
444,11107,10383,bus,46,0,0,0,0,0,0,1
466,11108,10383,bus,46,0,0,0,0,0,0,1
486,11109,10383,bus,46,0,0,0,0,0,0,1
507,11110,10383,bus,46,0,0,0,0,0,0,1
528,11111,10383,bus,46,0,0,0,0,0,0,1
548,11112,10383,bus,46,0,0,0,0,0,0,1
569,11113,10383,bus,46,0,0,0,0,0,0,1
609,11114,10383,bus,46,0,0,0,0,0,0,1
637,11115,10383,bus,46,0,0,0,0,0,0,1
658,11116,10383,bus,46,0,0,0,0,0,0,1
678,11117,10383,bus,46,0,0,0,0,0,0,1
698,11118,10383,bus,46,0,0,0,0,0,0,1
719,11119,10383,bus,46,0,0,0,0,0,0,1
741,11120,10383,bus,46,0,0,0,0,0,0,1
760,11121,10383,bus,46,0,0,0,0,0,0,1
781,11122,10383,bus,46,0,0,0,0,0,0,1
803,11123,10383,bus,46,0,0,0,0,0,0,1
822,11124,10383,bus,46,0,0,0,0,0,0,1
843,11125,10383,bus,46,0,0,0,0,0,0,1
865,11126,10383,bus,46,0,0,0,0,0,0,1
884,11127,10383,bus,46,0,0,0,0,0,0,1
905,11128,10383,bus,46,0,0,0,0,0,0,1
927,11129,10383,bus,46,0,0,0,0,0,0,1
946,11130,10383,bus,46,0,0,0,0,0,0,1
967,11131,10383,bus,46,0,0,0,0,0,0,1
990,11132,10383,bus,46,0,0,0,0,0,0,1
1012,11133,10383,bus,46,0,0,0,0,0,0,1
1033,11134,10383,bus,46,0,0,0,0,0,0,1
1071,11135,10383,bus,46,0,0,0,0,0,0,1
1096,11136,10383,bus,46,0,0,0,0,0,0,1
1120,11137,10383,bus,46,0,0,0,0,0,0,1
1153,11138,10383,bus,46,0,0,0,0,0,0,1
1178,11139,10383,bus,46,0,0,0,0,0,0,1
1202,11140,10383,bus,46,0,0,0,0,0,0,1
1222,11141,10383,bus,46,0,0,0,0,0,0,1
1241,11142,10383,bus,46,0,0,0,0,0,0,1
1263,11143,10383,bus,46,0,0,0,0,0,0,1
1285,11144,10383,bus,46,0,0,0,0,0,0,1
1306,11145,10383,bus,46,0,0,0,0,0,0,1
1327,11146,10383,bus,46,0,0,0,0,0,0,1
1353,11147,10383,bus,46,0,0,0,0,0,0,1
1372,11148,10383,bus,46,0,0,0,0,0,0,1
1391,11149,10383,bus,46,0,0,0,0,0,0,1
339,11150,10381,bus,46,1,1,1,1,1,0,0
353,11151,10381,bus,46,1,1,1,1,1,0,0
367,11152,10381,bus,46,1,1,1,1,1,0,0
382,11153,10381,bus,46,1,1,1,1,1,0,0
395,11154,10381,bus,46,1,1,1,1,1,0,0
409,11155,10381,bus,46,1,1,1,1,1,0,0
422,11156,10381,bus,46,1,1,1,1,1,0,0
433,11157,10381,bus,46,1,1,1,1,1,0,0
444,11158,10381,bus,46,1,1,1,1,1,0,0
456,11159,10381,bus,46,1,1,1,1,1,0,0
467,11160,10381,bus,46,1,1,1,1,1,0,0
480,11161,10381,bus,46,1,1,1,1,1,0,0
494,11162,10381,bus,46,1,1,1,1,1,0,0
507,11163,10381,bus,46,1,1,1,1,1,0,0
518,11164,10381,bus,46,1,1,1,1,1,0,0
530,11165,10381,bus,46,1,1,1,1,1,0,0
541,11166,10381,bus,46,1,1,1,1,1,0,0
553,11167,10381,bus,46,1,1,1,1,1,0,0
567,11168,10381,bus,46,1,1,1,1,1,0,0
585,11169,10381,bus,46,1,1,1,1,1,0,0
611,11170,10381,bus,46,1,1,1,1,1,0,0
643,11171,10381,bus,46,1,1,1,1,1,0,0
662,11172,10381,bus,46,1,1,1,1,1,0,0
681,11173,10381,bus,46,1,1,1,1,1,0,0
701,11174,10381,bus,46,1,1,1,1,1,0,0
720,11175,10381,bus,46,1,1,1,1,1,0,0
738,11176,10381,bus,46,1,1,1,1,1,0,0
755,11177,10381,bus,46,1,1,1,1,1,0,0
773,11178,10381,bus,46,1,1,1,1,1,0,0
791,11179,10381,bus,46,1,1,1,1,1,0,0
809,11180,10381,bus,46,1,1,1,1,1,0,0
827,11181,10381,bus,46,1,1,1,1,1,0,0
845,11182,10381,bus,46,1,1,1,1,1,0,0
861,11183,10381,bus,46,1,1,1,1,1,0,0
879,11184,10381,bus,46,1,1,1,1,1,0,0
898,11185,10381,bus,46,1,1,1,1,1,0,0
917,11186,10381,bus,46,1,1,1,1,1,0,0
931,11187,10381,bus,46,1,1,1,1,1,0,0
944,11188,10381,bus,46,1,1,1,1,1,0,0
957,11189,10381,bus,46,1,1,1,1,1,0,0
969,11190,10381,bus,46,1,1,1,1,1,0,0
982,11191,10381,bus,46,1,1,1,1,1,0,0
996,11192,10381,bus,46,1,1,1,1,1,0,0
1010,11193,10381,bus,46,1,1,1,1,1,0,0
1023,11194,10381,bus,46,1,1,1,1,1,0,0
1036,11195,10381,bus,46,1,1,1,1,1,0,0
1047,11196,10381,bus,46,1,1,1,1,1,0,0
1061,11197,10381,bus,46,1,1,1,1,1,0,0
1075,11198,10381,bus,46,1,1,1,1,1,0,0
1089,11199,10381,bus,46,1,1,1,1,1,0,0
1102,11200,10381,bus,46,1,1,1,1,1,0,0
1116,11201,10381,bus,46,1,1,1,1,1,0,0
1128,11202,10381,bus,46,1,1,1,1,1,0,0
1152,11203,10381,bus,46,1,1,1,1,1,0,0
1175,11204,10381,bus,46,1,1,1,1,1,0,0
1194,11205,10381,bus,46,1,1,1,1,1,0,0
1211,11206,10381,bus,46,1,1,1,1,1,0,0
1229,11207,10381,bus,46,1,1,1,1,1,0,0
1248,11208,10381,bus,46,1,1,1,1,1,0,0
1265,11209,10381,bus,46,1,1,1,1,1,0,0
1282,11210,10381,bus,46,1,1,1,1,1,0,0
1300,11211,10381,bus,46,1,1,1,1,1,0,0
1318,11212,10381,bus,46,1,1,1,1,1,0,0
1335,11213,10381,bus,46,1,1,1,1,1,0,0
1352,11214,10381,bus,46,1,1,1,1,1,0,0
1370,11215,10381,bus,46,1,1,1,1,1,0,0
1390,11216,10381,bus,46,1,1,1,1,1,0,0
340,11217,10382,bus,46,0,0,0,0,0,1,0
361,11218,10382,bus,46,0,0,0,0,0,1,0
382,11219,10382,bus,46,0,0,0,0,0,1,0
403,11220,10382,bus,46,0,0,0,0,0,1,0
423,11221,10382,bus,46,0,0,0,0,0,1,0
444,11222,10382,bus,46,0,0,0,0,0,1,0
466,11223,10382,bus,46,0,0,0,0,0,1,0
486,11224,10382,bus,46,0,0,0,0,0,1,0
507,11225,10382,bus,46,0,0,0,0,0,1,0
528,11226,10382,bus,46,0,0,0,0,0,1,0
548,11227,10382,bus,46,0,0,0,0,0,1,0
569,11228,10382,bus,46,0,0,0,0,0,1,0
609,11229,10382,bus,46,0,0,0,0,0,1,0
637,11230,10382,bus,46,0,0,0,0,0,1,0
658,11231,10382,bus,46,0,0,0,0,0,1,0
678,11232,10382,bus,46,0,0,0,0,0,1,0
698,11233,10382,bus,46,0,0,0,0,0,1,0
719,11234,10382,bus,46,0,0,0,0,0,1,0
741,11235,10382,bus,46,0,0,0,0,0,1,0
760,11236,10382,bus,46,0,0,0,0,0,1,0
781,11237,10382,bus,46,0,0,0,0,0,1,0
803,11238,10382,bus,46,0,0,0,0,0,1,0
822,11239,10382,bus,46,0,0,0,0,0,1,0
843,11240,10382,bus,46,0,0,0,0,0,1,0
865,11241,10382,bus,46,0,0,0,0,0,1,0
884,11242,10382,bus,46,0,0,0,0,0,1,0
905,11243,10382,bus,46,0,0,0,0,0,1,0
927,11244,10382,bus,46,0,0,0,0,0,1,0
946,11245,10382,bus,46,0,0,0,0,0,1,0
967,11246,10382,bus,46,0,0,0,0,0,1,0
990,11247,10382,bus,46,0,0,0,0,0,1,0
1012,11248,10382,bus,46,0,0,0,0,0,1,0
1033,11249,10382,bus,46,0,0,0,0,0,1,0
1071,11250,10382,bus,46,0,0,0,0,0,1,0
1096,11251,10382,bus,46,0,0,0,0,0,1,0
1120,11252,10382,bus,46,0,0,0,0,0,1,0
1153,11253,10382,bus,46,0,0,0,0,0,1,0
1178,11254,10382,bus,46,0,0,0,0,0,1,0
1202,11255,10382,bus,46,0,0,0,0,0,1,0
1222,11256,10382,bus,46,0,0,0,0,0,1,0
1241,11257,10382,bus,46,0,0,0,0,0,1,0
1263,11258,10382,bus,46,0,0,0,0,0,1,0
1285,11259,10382,bus,46,0,0,0,0,0,1,0
1306,11260,10382,bus,46,0,0,0,0,0,1,0
1327,11261,10382,bus,46,0,0,0,0,0,1,0
1353,11262,10382,bus,46,0,0,0,0,0,1,0
1372,11263,10382,bus,46,0,0,0,0,0,1,0
1391,11264,10382,bus,46,0,0,0,0,0,1,0
379,11623,10387,bus,49,1,1,1,1,1,0,0
401,11624,10387,bus,49,1,1,1,1,1,0,0
422,11625,10387,bus,49,1,1,1,1,1,0,0
445,11626,10387,bus,49,1,1,1,1,1,0,0
466,11627,10387,bus,49,1,1,1,1,1,0,0
488,11628,10387,bus,49,1,1,1,1,1,0,0
512,11629,10387,bus,49,1,1,1,1,1,0,0
545,11630,10387,bus,49,1,1,1,1,1,0,0
568,11631,10387,bus,49,1,1,1,1,1,0,0
601,11632,10387,bus,49,1,1,1,1,1,0,0
650,11633,10387,bus,49,1,1,1,1,1,0,0
683,11634,10387,bus,49,1,1,1,1,1,0,0
709,11635,10387,bus,49,1,1,1,1,1,0,0
742,11636,10387,bus,49,1,1,1,1,1,0,0
767,11637,10387,bus,49,1,1,1,1,1,0,0
800,11638,10387,bus,49,1,1,1,1,1,0,0
830,11639,10387,bus,49,1,1,1,1,1,0,0
857,11640,10387,bus,49,1,1,1,1,1,0,0
886,11641,10387,bus,49,1,1,1,1,1,0,0
910,11642,10387,bus,49,1,1,1,1,1,0,0
926,11643,10387,bus,49,1,1,1,1,1,0,0
949,11644,10387,bus,49,1,1,1,1,1,0,0
974,11645,10387,bus,49,1,1,1,1,1,0,0
990,11646,10387,bus,49,1,1,1,1,1,0,0
1014,11647,10387,bus,49,1,1,1,1,1,0,0
1045,11648,10387,bus,49,1,1,1,1,1,0,0
1078,11649,10387,bus,49,1,1,1,1,1,0,0
1100,11650,10387,bus,49,1,1,1,1,1,0,0
1114,11651,10387,bus,49,1,1,1,1,1,0,0
1140,11652,10387,bus,49,1,1,1,1,1,0,0
1161,11653,10387,bus,49,1,1,1,1,1,0,0
1191,11654,10387,bus,49,1,1,1,1,1,0,0
1230,11655,10387,bus,49,1,1,1,1,1,0,0
1247,11656,10387,bus,49,1,1,1,1,1,0,0
1271,11657,10387,bus,49,1,1,1,1,1,0,0
1304,11658,10387,bus,49,1,1,1,1,1,0,0
1338,11659,10387,bus,49,1,1,1,1,1,0,0
1362,11660,10387,bus,49,1,1,1,1,1,0,0
352,11661,9637,bus,49,0,0,0,0,0,1,0
408,11662,9637,bus,49,0,0,0,0,0,1,0
459,11663,9637,bus,49,0,0,0,0,0,1,0
522,11664,9637,bus,49,0,0,0,0,0,1,0
560,11665,9637,bus,49,0,0,0,0,0,1,0
595,11666,9637,bus,49,0,0,0,0,0,1,0
658,11667,9637,bus,49,0,0,0,0,0,1,0
682,11668,9637,bus,49,0,0,0,0,0,1,0
717,11669,9637,bus,49,0,0,0,0,0,1,0
766,11670,9637,bus,49,0,0,0,0,0,1,0
814,11671,9637,bus,49,0,0,0,0,0,1,0
840,11672,9637,bus,49,0,0,0,0,0,1,0
885,11673,9637,bus,49,0,0,0,0,0,1,0
922,11674,9637,bus,49,0,0,0,0,0,1,0
954,11675,9637,bus,49,0,0,0,0,0,1,0
996,11676,9637,bus,49,0,0,0,0,0,1,0
1068,11677,9637,bus,49,0,0,0,0,0,1,0
1133,11678,9637,bus,49,0,0,0,0,0,1,0
1200,11679,9637,bus,49,0,0,0,0,0,1,0
1239,11680,9637,bus,49,0,0,0,0,0,1,0
1301,11681,9637,bus,49,0,0,0,0,0,1,0
1346,11682,9637,bus,49,0,0,0,0,0,1,0
408,11683,9638,bus,49,0,0,0,0,0,0,1
459,11684,9638,bus,49,0,0,0,0,0,0,1
522,11685,9638,bus,49,0,0,0,0,0,0,1
560,11686,9638,bus,49,0,0,0,0,0,0,1
595,11687,9638,bus,49,0,0,0,0,0,0,1
658,11688,9638,bus,49,0,0,0,0,0,0,1
682,11689,9638,bus,49,0,0,0,0,0,0,1
717,11690,9638,bus,49,0,0,0,0,0,0,1
766,11691,9638,bus,49,0,0,0,0,0,0,1
814,11692,9638,bus,49,0,0,0,0,0,0,1
840,11693,9638,bus,49,0,0,0,0,0,0,1
885,11694,9638,bus,49,0,0,0,0,0,0,1
922,11695,9638,bus,49,0,0,0,0,0,0,1
954,11696,9638,bus,49,0,0,0,0,0,0,1
996,11697,9638,bus,49,0,0,0,0,0,0,1
1068,11698,9638,bus,49,0,0,0,0,0,0,1
1133,11699,9638,bus,49,0,0,0,0,0,0,1
1200,11700,9638,bus,49,0,0,0,0,0,0,1
1239,11701,9638,bus,49,0,0,0,0,0,0,1
1301,11702,9638,bus,49,0,0,0,0,0,0,1
1346,11703,9638,bus,49,0,0,0,0,0,0,1
298,11808,10387,bus,49,1,1,1,1,1,0,0
315,11809,10387,bus,49,1,1,1,1,1,0,0
333,11810,10387,bus,49,1,1,1,1,1,0,0
353,11811,10387,bus,49,1,1,1,1,1,0,0
370,11812,10387,bus,49,1,1,1,1,1,0,0
307,11813,9637,bus,49,0,0,0,0,0,1,0
346,11814,9638,bus,49,0,0,0,0,0,0,1
408,12101,9774,bus,51,0,0,0,0,0,1,1
432,12159,10294,bus,52,0,0,0,0,0,0,1
509,12160,10294,bus,52,0,0,0,0,0,0,1
588,12161,10294,bus,52,0,0,0,0,0,0,1
667,12162,10294,bus,52,0,0,0,0,0,0,1
771,12163,10294,bus,52,0,0,0,0,0,0,1
850,12164,10294,bus,52,0,0,0,0,0,0,1
934,12165,10294,bus,52,0,0,0,0,0,0,1
1013,12166,10294,bus,52,0,0,0,0,0,0,1
1092,12167,10294,bus,52,0,0,0,0,0,0,1
1195,12168,10294,bus,52,0,0,0,0,0,0,1
1269,12169,10294,bus,52,0,0,0,0,0,0,1
1343,12170,10294,bus,52,0,0,0,0,0,0,1
356,12171,9642,bus,52,1,1,1,1,1,0,0
382,12172,9642,bus,52,1,1,1,1,1,0,0
410,12173,9642,bus,52,1,1,1,1,1,0,0
441,12174,9642,bus,52,1,1,1,1,1,0,0
464,12175,9642,bus,52,1,1,1,1,1,0,0
495,12176,9642,bus,52,1,1,1,1,1,0,0
524,12177,9642,bus,52,1,1,1,1,1,0,0
549,12178,9642,bus,52,1,1,1,1,1,0,0
581,12179,9642,bus,52,1,1,1,1,1,0,0
608,12180,9642,bus,52,1,1,1,1,1,0,0
654,12181,9642,bus,52,1,1,1,1,1,0,0
687,12182,9642,bus,52,1,1,1,1,1,0,0
714,12183,9642,bus,52,1,1,1,1,1,0,0
742,12184,9642,bus,52,1,1,1,1,1,0,0
777,12185,9642,bus,52,1,1,1,1,1,0,0
795,12186,9642,bus,52,1,1,1,1,1,0,0
823,12187,9642,bus,52,1,1,1,1,1,0,0
858,12188,9642,bus,52,1,1,1,1,1,0,0
876,12189,9642,bus,52,1,1,1,1,1,0,0
912,12190,9642,bus,52,1,1,1,1,1,0,0
947,12191,9642,bus,52,1,1,1,1,1,0,0
961,12192,9642,bus,52,1,1,1,1,1,0,0
994,12193,9642,bus,52,1,1,1,1,1,0,0
1032,12194,9642,bus,52,1,1,1,1,1,0,0
1050,12195,9642,bus,52,1,1,1,1,1,0,0
1082,12196,9642,bus,52,1,1,1,1,1,0,0
1127,12197,9642,bus,52,1,1,1,1,1,0,0
1162,12198,9642,bus,52,1,1,1,1,1,0,0
1191,12199,9642,bus,52,1,1,1,1,1,0,0
1237,12200,9642,bus,52,1,1,1,1,1,0,0
1266,12201,9642,bus,52,1,1,1,1,1,0,0
1289,12202,9642,bus,52,1,1,1,1,1,0,0
1325,12203,9642,bus,52,1,1,1,1,1,0,0
1345,12204,9642,bus,52,1,1,1,1,1,0,0
1363,12205,9642,bus,52,1,1,1,1,1,0,0
1408,12206,9642,bus,52,1,1,1,1,1,0,0
432,12207,9643,bus,52,0,0,0,0,0,1,0
509,12208,9643,bus,52,0,0,0,0,0,1,0
588,12209,9643,bus,52,0,0,0,0,0,1,0
667,12210,9643,bus,52,0,0,0,0,0,1,0
771,12211,9643,bus,52,0,0,0,0,0,1,0
850,12212,9643,bus,52,0,0,0,0,0,1,0
934,12213,9643,bus,52,0,0,0,0,0,1,0
1013,12214,9643,bus,52,0,0,0,0,0,1,0
1092,12215,9643,bus,52,0,0,0,0,0,1,0
1195,12216,9643,bus,52,0,0,0,0,0,1,0
1269,12217,9643,bus,52,0,0,0,0,0,1,0
1343,12218,9643,bus,52,0,0,0,0,0,1,0
382,13159,9466,bus,56,0,0,0,0,0,0,1
417,13160,9466,bus,56,0,0,0,0,0,0,1
450,13161,9466,bus,56,0,0,0,0,0,0,1
483,13162,9466,bus,56,0,0,0,0,0,0,1
525,13163,9466,bus,56,0,0,0,0,0,0,1
579,13164,9466,bus,56,0,0,0,0,0,0,1
629,13165,9466,bus,56,0,0,0,0,0,0,1
660,13166,9466,bus,56,0,0,0,0,0,0,1
698,13167,9466,bus,56,0,0,0,0,0,0,1
729,13168,9466,bus,56,0,0,0,0,0,0,1
767,13169,9466,bus,56,0,0,0,0,0,0,1
805,13170,9466,bus,56,0,0,0,0,0,0,1
840,13171,9466,bus,56,0,0,0,0,0,0,1
879,13172,9466,bus,56,0,0,0,0,0,0,1
914,13173,9466,bus,56,0,0,0,0,0,0,1
948,13174,9466,bus,56,0,0,0,0,0,0,1
983,13175,9466,bus,56,0,0,0,0,0,0,1
1018,13176,9466,bus,56,0,0,0,0,0,0,1
1060,13177,9466,bus,56,0,0,0,0,0,0,1
1112,13178,9466,bus,56,0,0,0,0,0,0,1
1158,13179,9466,bus,56,0,0,0,0,0,0,1
1204,13180,9466,bus,56,0,0,0,0,0,0,1
1226,13181,9466,bus,56,0,0,0,0,0,0,1
1269,13182,9466,bus,56,0,0,0,0,0,0,1
1297,13183,9466,bus,56,0,0,0,0,0,0,1
1338,13184,9466,bus,56,0,0,0,0,0,0,1
1363,13185,9466,bus,56,0,0,0,0,0,0,1
319,13186,10396,bus,56,1,1,1,1,1,0,0
340,13187,10396,bus,56,1,1,1,1,1,0,0
362,13188,10396,bus,56,1,1,1,1,1,0,0
386,13189,10396,bus,56,1,1,1,1,1,0,0
402,13190,10396,bus,56,1,1,1,1,1,0,0
417,13191,10396,bus,56,1,1,1,1,1,0,0
431,13192,10396,bus,56,1,1,1,1,1,0,0
449,13193,10396,bus,56,1,1,1,1,1,0,0
464,13194,10396,bus,56,1,1,1,1,1,0,0
479,13195,10396,bus,56,1,1,1,1,1,0,0
496,13196,10396,bus,56,1,1,1,1,1,0,0
511,13197,10396,bus,56,1,1,1,1,1,0,0
529,13198,10396,bus,56,1,1,1,1,1,0,0
546,13199,10396,bus,56,1,1,1,1,1,0,0
569,13200,10396,bus,56,1,1,1,1,1,0,0
600,13201,10396,bus,56,1,1,1,1,1,0,0
623,13202,10396,bus,56,1,1,1,1,1,0,0
650,13203,10396,bus,56,1,1,1,1,1,0,0
674,13204,10396,bus,56,1,1,1,1,1,0,0
697,13205,10396,bus,56,1,1,1,1,1,0,0
721,13206,10396,bus,56,1,1,1,1,1,0,0
748,13207,10396,bus,56,1,1,1,1,1,0,0
770,13208,10396,bus,56,1,1,1,1,1,0,0
797,13209,10396,bus,56,1,1,1,1,1,0,0
822,13210,10396,bus,56,1,1,1,1,1,0,0
843,13211,10396,bus,56,1,1,1,1,1,0,0
875,13212,10396,bus,56,1,1,1,1,1,0,0
900,13213,10396,bus,56,1,1,1,1,1,0,0
923,13214,10396,bus,56,1,1,1,1,1,0,0
948,13215,10396,bus,56,1,1,1,1,1,0,0
974,13216,10396,bus,56,1,1,1,1,1,0,0
992,13217,10396,bus,56,1,1,1,1,1,0,0
1010,13218,10396,bus,56,1,1,1,1,1,0,0
1030,13219,10396,bus,56,1,1,1,1,1,0,0
1051,13220,10396,bus,56,1,1,1,1,1,0,0
1068,13221,10396,bus,56,1,1,1,1,1,0,0
1088,13222,10396,bus,56,1,1,1,1,1,0,0
1114,13223,10396,bus,56,1,1,1,1,1,0,0
1147,13224,10396,bus,56,1,1,1,1,1,0,0
1164,13225,10396,bus,56,1,1,1,1,1,0,0
1193,13226,10396,bus,56,1,1,1,1,1,0,0
1217,13227,10396,bus,56,1,1,1,1,1,0,0
1242,13228,10396,bus,56,1,1,1,1,1,0,0
1263,13229,10396,bus,56,1,1,1,1,1,0,0
1290,13230,10396,bus,56,1,1,1,1,1,0,0
1314,13231,10396,bus,56,1,1,1,1,1,0,0
1337,13232,10396,bus,56,1,1,1,1,1,0,0
1366,13233,10396,bus,56,1,1,1,1,1,0,0
350,13234,9465,bus,56,0,0,0,0,0,1,0
382,13235,9465,bus,56,0,0,0,0,0,1,0
417,13236,9465,bus,56,0,0,0,0,0,1,0
450,13237,9465,bus,56,0,0,0,0,0,1,0
483,13238,9465,bus,56,0,0,0,0,0,1,0
525,13239,9465,bus,56,0,0,0,0,0,1,0
579,13240,9465,bus,56,0,0,0,0,0,1,0
629,13241,9465,bus,56,0,0,0,0,0,1,0
660,13242,9465,bus,56,0,0,0,0,0,1,0
698,13243,9465,bus,56,0,0,0,0,0,1,0
729,13244,9465,bus,56,0,0,0,0,0,1,0
767,13245,9465,bus,56,0,0,0,0,0,1,0
805,13246,9465,bus,56,0,0,0,0,0,1,0
840,13247,9465,bus,56,0,0,0,0,0,1,0
879,13248,9465,bus,56,0,0,0,0,0,1,0
914,13249,9465,bus,56,0,0,0,0,0,1,0
948,13250,9465,bus,56,0,0,0,0,0,1,0
983,13251,9465,bus,56,0,0,0,0,0,1,0
1018,13252,9465,bus,56,0,0,0,0,0,1,0
1060,13253,9465,bus,56,0,0,0,0,0,1,0
1112,13254,9465,bus,56,0,0,0,0,0,1,0
1158,13255,9465,bus,56,0,0,0,0,0,1,0
1204,13256,9465,bus,56,0,0,0,0,0,1,0
1226,13257,9465,bus,56,0,0,0,0,0,1,0
1269,13258,9465,bus,56,0,0,0,0,0,1,0
1297,13259,9465,bus,56,0,0,0,0,0,1,0
1338,13260,9465,bus,56,0,0,0,0,0,1,0
1363,13261,9465,bus,56,0,0,0,0,0,1,0
325,14337,10403,bus,69,1,1,1,1,1,0,0
348,14338,10403,bus,69,1,1,1,1,1,0,0
369,14339,10403,bus,69,1,1,1,1,1,0,0
393,14340,10403,bus,69,1,1,1,1,1,0,0
435,14341,10403,bus,69,1,1,1,1,1,0,0
477,14342,10403,bus,69,1,1,1,1,1,0,0
496,14343,10403,bus,69,1,1,1,1,1,0,0
528,14344,10403,bus,69,1,1,1,1,1,0,0
580,14345,10403,bus,69,1,1,1,1,1,0,0
617,14346,10403,bus,69,1,1,1,1,1,0,0
640,14347,10403,bus,69,1,1,1,1,1,0,0
690,14348,10403,bus,69,1,1,1,1,1,0,0
755,14349,10403,bus,69,1,1,1,1,1,0,0
783,14350,10403,bus,69,1,1,1,1,1,0,0
810,14351,10403,bus,69,1,1,1,1,1,0,0
870,14352,10403,bus,69,1,1,1,1,1,0,0
898,14353,10403,bus,69,1,1,1,1,1,0,0
936,14354,10403,bus,69,1,1,1,1,1,0,0
959,14355,10403,bus,69,1,1,1,1,1,0,0
999,14356,10403,bus,69,1,1,1,1,1,0,0
1032,14357,10403,bus,69,1,1,1,1,1,0,0
1063,14358,10403,bus,69,1,1,1,1,1,0,0
1087,14359,10403,bus,69,1,1,1,1,1,0,0
1146,14360,10403,bus,69,1,1,1,1,1,0,0
1179,14361,10403,bus,69,1,1,1,1,1,0,0
1209,14362,10403,bus,69,1,1,1,1,1,0,0
1264,14363,10403,bus,69,1,1,1,1,1,0,0
1281,14364,10403,bus,69,1,1,1,1,1,0,0
1318,14365,10403,bus,69,1,1,1,1,1,0,0
339,14366,9660,bus,69,0,0,0,0,0,1,0
442,14367,9660,bus,69,0,0,0,0,0,1,0
573,14368,9660,bus,69,0,0,0,0,0,1,0
624,14369,9660,bus,69,0,0,0,0,0,1,0
703,14370,9660,bus,69,0,0,0,0,0,1,0
736,14371,9660,bus,69,0,0,0,0,0,1,0
807,14372,9660,bus,69,0,0,0,0,0,1,0
871,14373,9660,bus,69,0,0,0,0,0,1,0
915,14374,9660,bus,69,0,0,0,0,0,1,0
977,14375,9660,bus,69,0,0,0,0,0,1,0
1021,14376,9660,bus,69,0,0,0,0,0,1,0
1108,14377,9660,bus,69,0,0,0,0,0,1,0
1156,14378,9660,bus,69,0,0,0,0,0,1,0
1258,14379,9660,bus,69,0,0,0,0,0,1,0
1360,14380,9660,bus,69,0,0,0,0,0,1,0
442,14381,9661,bus,69,0,0,0,0,0,0,1
573,14382,9661,bus,69,0,0,0,0,0,0,1
624,14383,9661,bus,69,0,0,0,0,0,0,1
703,14384,9661,bus,69,0,0,0,0,0,0,1
736,14385,9661,bus,69,0,0,0,0,0,0,1
807,14386,9661,bus,69,0,0,0,0,0,0,1
871,14387,9661,bus,69,0,0,0,0,0,0,1
915,14388,9661,bus,69,0,0,0,0,0,0,1
977,14389,9661,bus,69,0,0,0,0,0,0,1
1021,14390,9661,bus,69,0,0,0,0,0,0,1
1108,14391,9661,bus,69,0,0,0,0,0,0,1
1156,14392,9661,bus,69,0,0,0,0,0,0,1
1258,14393,9661,bus,69,0,0,0,0,0,0,1
1360,14394,9661,bus,69,0,0,0,0,0,0,1
390,14470,10499,bus,73,0,0,0,0,0,0,1
432,14471,10499,bus,73,0,0,0,0,0,0,1
474,14472,10499,bus,73,0,0,0,0,0,0,1
525,14473,10499,bus,73,0,0,0,0,0,0,1
564,14474,10499,bus,73,0,0,0,0,0,0,1
601,14475,10499,bus,73,0,0,0,0,0,0,1
641,14476,10499,bus,73,0,0,0,0,0,0,1
678,14477,10499,bus,73,0,0,0,0,0,0,1
711,14478,10499,bus,73,0,0,0,0,0,0,1
740,14479,10499,bus,73,0,0,0,0,0,0,1
770,14480,10499,bus,73,0,0,0,0,0,0,1
803,14481,10499,bus,73,0,0,0,0,0,0,1
831,14482,10499,bus,73,0,0,0,0,0,0,1
864,14483,10499,bus,73,0,0,0,0,0,0,1
891,14484,10499,bus,73,0,0,0,0,0,0,1
926,14485,10499,bus,73,0,0,0,0,0,0,1
961,14486,10499,bus,73,0,0,0,0,0,0,1
1000,14487,10499,bus,73,0,0,0,0,0,0,1
1021,14488,10499,bus,73,0,0,0,0,0,0,1
1053,14489,10499,bus,73,0,0,0,0,0,0,1
1096,14490,10499,bus,73,0,0,0,0,0,0,1
1143,14491,10499,bus,73,0,0,0,0,0,0,1
1179,14492,10499,bus,73,0,0,0,0,0,0,1
1230,14493,10499,bus,73,0,0,0,0,0,0,1
1289,14494,10499,bus,73,0,0,0,0,0,0,1
1333,14495,10499,bus,73,0,0,0,0,0,0,1
1376,14496,10499,bus,73,0,0,0,0,0,0,1
343,14497,10497,bus,73,1,1,1,1,1,0,0
374,14498,10497,bus,73,1,1,1,1,1,0,0
393,14499,10497,bus,73,1,1,1,1,1,0,0
426,14500,10497,bus,73,1,1,1,1,1,0,0
445,14501,10497,bus,73,1,1,1,1,1,0,0
462,14502,10497,bus,73,1,1,1,1,1,0,0
483,14503,10497,bus,73,1,1,1,1,1,0,0
506,14504,10497,bus,73,1,1,1,1,1,0,0
530,14505,10497,bus,73,1,1,1,1,1,0,0
550,14506,10497,bus,73,1,1,1,1,1,0,0
572,14507,10497,bus,73,1,1,1,1,1,0,0
606,14508,10497,bus,73,1,1,1,1,1,0,0
637,14509,10497,bus,73,1,1,1,1,1,0,0
668,14510,10497,bus,73,1,1,1,1,1,0,0
694,14511,10497,bus,73,1,1,1,1,1,0,0
725,14512,10497,bus,73,1,1,1,1,1,0,0
757,14513,10497,bus,73,1,1,1,1,1,0,0
781,14514,10497,bus,73,1,1,1,1,1,0,0
812,14515,10497,bus,73,1,1,1,1,1,0,0
844,14516,10497,bus,73,1,1,1,1,1,0,0
868,14517,10497,bus,73,1,1,1,1,1,0,0
904,14518,10497,bus,73,1,1,1,1,1,0,0
927,14519,10497,bus,73,1,1,1,1,1,0,0
943,14520,10497,bus,73,1,1,1,1,1,0,0
960,14521,10497,bus,73,1,1,1,1,1,0,0
979,14522,10497,bus,73,1,1,1,1,1,0,0
998,14523,10497,bus,73,1,1,1,1,1,0,0
1026,14524,10497,bus,73,1,1,1,1,1,0,0
1049,14525,10497,bus,73,1,1,1,1,1,0,0
1070,14526,10497,bus,73,1,1,1,1,1,0,0
1088,14527,10497,bus,73,1,1,1,1,1,0,0
1109,14528,10497,bus,73,1,1,1,1,1,0,0
1143,14529,10497,bus,73,1,1,1,1,1,0,0
1182,14530,10497,bus,73,1,1,1,1,1,0,0
1206,14531,10497,bus,73,1,1,1,1,1,0,0
1237,14532,10497,bus,73,1,1,1,1,1,0,0
1269,14533,10497,bus,73,1,1,1,1,1,0,0
1296,14534,10497,bus,73,1,1,1,1,1,0,0
1333,14535,10497,bus,73,1,1,1,1,1,0,0
1360,14536,10497,bus,73,1,1,1,1,1,0,0
1384,14537,10497,bus,73,1,1,1,1,1,0,0
344,14538,10498,bus,73,0,0,0,0,0,1,0
390,14539,10498,bus,73,0,0,0,0,0,1,0
432,14540,10498,bus,73,0,0,0,0,0,1,0
474,14541,10498,bus,73,0,0,0,0,0,1,0
525,14542,10498,bus,73,0,0,0,0,0,1,0
564,14543,10498,bus,73,0,0,0,0,0,1,0
601,14544,10498,bus,73,0,0,0,0,0,1,0
641,14545,10498,bus,73,0,0,0,0,0,1,0
678,14546,10498,bus,73,0,0,0,0,0,1,0
711,14547,10498,bus,73,0,0,0,0,0,1,0
740,14548,10498,bus,73,0,0,0,0,0,1,0
770,14549,10498,bus,73,0,0,0,0,0,1,0
803,14550,10498,bus,73,0,0,0,0,0,1,0
831,14551,10498,bus,73,0,0,0,0,0,1,0
864,14552,10498,bus,73,0,0,0,0,0,1,0
891,14553,10498,bus,73,0,0,0,0,0,1,0
926,14554,10498,bus,73,0,0,0,0,0,1,0
961,14555,10498,bus,73,0,0,0,0,0,1,0
1000,14556,10498,bus,73,0,0,0,0,0,1,0
1021,14557,10498,bus,73,0,0,0,0,0,1,0
1053,14558,10498,bus,73,0,0,0,0,0,1,0
1096,14559,10498,bus,73,0,0,0,0,0,1,0
1143,14560,10498,bus,73,0,0,0,0,0,1,0
1179,14561,10498,bus,73,0,0,0,0,0,1,0
1230,14562,10498,bus,73,0,0,0,0,0,1,0
1289,14563,10498,bus,73,0,0,0,0,0,1,0
1333,14564,10498,bus,73,0,0,0,0,0,1,0
1376,14565,10498,bus,73,0,0,0,0,0,1,0
1435,16370,9971,nightbus,103N,0,0,0,0,1,1,0
1425,16382,9973,nightbus,105N,0,0,0,0,1,1,0
1459,16383,9973,nightbus,105N,0,0,0,0,1,1,0
1496,16384,9973,nightbus,105N,0,0,0,0,1,1,0
1530,16385,9973,nightbus,105N,0,0,0,0,1,1,0
1569,16386,9973,nightbus,105N,0,0,0,0,1,1,0
