timeInMin,trip_id,service_id,tipas,numeris,pirmadienis,antradienis,treciadienis,ketvirtadienis,penktadienis,sestadienis,sekmadienis 
411,1999,10329,expressbus,3G,0,0,0,0,0,0,1
425,2000,10329,expressbus,3G,0,0,0,0,0,0,1
439,2001,10329,expressbus,3G,0,0,0,0,0,0,1
452,2002,10329,expressbus,3G,0,0,0,0,0,0,1
463,2003,10329,expressbus,3G,0,0,0,0,0,0,1
476,2004,10329,expressbus,3G,0,0,0,0,0,0,1
488,2005,10329,expressbus,3G,0,0,0,0,0,0,1
503,2006,10329,expressbus,3G,0,0,0,0,0,0,1
514,2007,10329,expressbus,3G,0,0,0,0,0,0,1
527,2008,10329,expressbus,3G,0,0,0,0,0,0,1
539,2009,10329,expressbus,3G,0,0,0,0,0,0,1
552,2010,10329,expressbus,3G,0,0,0,0,0,0,1
565,2011,10329,expressbus,3G,0,0,0,0,0,0,1
577,2012,10329,expressbus,3G,0,0,0,0,0,0,1
591,2013,10329,expressbus,3G,0,0,0,0,0,0,1
603,2014,10329,expressbus,3G,0,0,0,0,0,0,1
617,2015,10329,expressbus,3G,0,0,0,0,0,0,1
627,2016,10329,expressbus,3G,0,0,0,0,0,0,1
637,2017,10329,expressbus,3G,0,0,0,0,0,0,1
646,2018,10329,expressbus,3G,0,0,0,0,0,0,1
658,2019,10329,expressbus,3G,0,0,0,0,0,0,1
669,2020,10329,expressbus,3G,0,0,0,0,0,0,1
681,2021,10329,expressbus,3G,0,0,0,0,0,0,1
692,2022,10329,expressbus,3G,0,0,0,0,0,0,1
704,2023,10329,expressbus,3G,0,0,0,0,0,0,1
716,2024,10329,expressbus,3G,0,0,0,0,0,0,1
726,2025,10329,expressbus,3G,0,0,0,0,0,0,1
735,2026,10329,expressbus,3G,0,0,0,0,0,0,1
747,2027,10329,expressbus,3G,0,0,0,0,0,0,1
758,2028,10329,expressbus,3G,0,0,0,0,0,0,1
766,2029,10329,expressbus,3G,0,0,0,0,0,0,1
774,2030,10329,expressbus,3G,0,0,0,0,0,0,1
781,2031,10329,expressbus,3G,0,0,0,0,0,0,1
788,2032,10329,expressbus,3G,0,0,0,0,0,0,1
799,2033,10329,expressbus,3G,0,0,0,0,0,0,1
810,2034,10329,expressbus,3G,0,0,0,0,0,0,1
824,2035,10329,expressbus,3G,0,0,0,0,0,0,1
835,2036,10329,expressbus,3G,0,0,0,0,0,0,1
847,2037,10329,expressbus,3G,0,0,0,0,0,0,1
862,2038,10329,expressbus,3G,0,0,0,0,0,0,1
872,2039,10329,expressbus,3G,0,0,0,0,0,0,1
881,2040,10329,expressbus,3G,0,0,0,0,0,0,1
888,2041,10329,expressbus,3G,0,0,0,0,0,0,1
896,2042,10329,expressbus,3G,0,0,0,0,0,0,1
903,2043,10329,expressbus,3G,0,0,0,0,0,0,1
913,2044,10329,expressbus,3G,0,0,0,0,0,0,1
926,2045,10329,expressbus,3G,0,0,0,0,0,0,1
939,2046,10329,expressbus,3G,0,0,0,0,0,0,1
951,2047,10329,expressbus,3G,0,0,0,0,0,0,1
962,2048,10329,expressbus,3G,0,0,0,0,0,0,1
973,2049,10329,expressbus,3G,0,0,0,0,0,0,1
980,2050,10329,expressbus,3G,0,0,0,0,0,0,1
988,2051,10329,expressbus,3G,0,0,0,0,0,0,1
995,2052,10329,expressbus,3G,0,0,0,0,0,0,1
1002,2053,10329,expressbus,3G,0,0,0,0,0,0,1
1009,2054,10329,expressbus,3G,0,0,0,0,0,0,1
1021,2055,10329,expressbus,3G,0,0,0,0,0,0,1
1031,2056,10329,expressbus,3G,0,0,0,0,0,0,1
1041,2057,10329,expressbus,3G,0,0,0,0,0,0,1
1052,2058,10329,expressbus,3G,0,0,0,0,0,0,1
1062,2059,10329,expressbus,3G,0,0,0,0,0,0,1
1072,2060,10329,expressbus,3G,0,0,0,0,0,0,1
1082,2061,10329,expressbus,3G,0,0,0,0,0,0,1
1095,2062,10329,expressbus,3G,0,0,0,0,0,0,1
1105,2063,10329,expressbus,3G,0,0,0,0,0,0,1
1120,2064,10329,expressbus,3G,0,0,0,0,0,0,1
1134,2065,10329,expressbus,3G,0,0,0,0,0,0,1
1147,2066,10329,expressbus,3G,0,0,0,0,0,0,1
1160,2067,10329,expressbus,3G,0,0,0,0,0,0,1
1174,2068,10329,expressbus,3G,0,0,0,0,0,0,1
1190,2069,10329,expressbus,3G,0,0,0,0,0,0,1
1205,2070,10329,expressbus,3G,0,0,0,0,0,0,1
1219,2071,10329,expressbus,3G,0,0,0,0,0,0,1
1233,2072,10329,expressbus,3G,0,0,0,0,0,0,1
1244,2073,10329,expressbus,3G,0,0,0,0,0,0,1
1254,2074,10329,expressbus,3G,0,0,0,0,0,0,1
1267,2075,10329,expressbus,3G,0,0,0,0,0,0,1
1278,2076,10329,expressbus,3G,0,0,0,0,0,0,1
1292,2077,10329,expressbus,3G,0,0,0,0,0,0,1
1304,2078,10329,expressbus,3G,0,0,0,0,0,0,1
1318,2079,10329,expressbus,3G,0,0,0,0,0,0,1
1329,2080,10329,expressbus,3G,0,0,0,0,0,0,1
1340,2081,10329,expressbus,3G,0,0,0,0,0,0,1
1353,2082,10329,expressbus,3G,0,0,0,0,0,0,1
1368,2083,10329,expressbus,3G,0,0,0,0,0,0,1
1385,2084,10329,expressbus,3G,0,0,0,0,0,0,1
1401,2085,10329,expressbus,3G,0,0,0,0,0,0,1
1418,2086,10329,expressbus,3G,0,0,0,0,0,0,1
1433,2087,10329,expressbus,3G,0,0,0,0,0,0,1
340,2088,10327,expressbus,3G,1,1,1,1,1,0,0
352,2089,10327,expressbus,3G,1,1,1,1,1,0,0
362,2090,10327,expressbus,3G,1,1,1,1,1,0,0
372,2091,10327,expressbus,3G,1,1,1,1,1,0,0
380,2092,10327,expressbus,3G,1,1,1,1,1,0,0
388,2093,10327,expressbus,3G,1,1,1,1,1,0,0
396,2094,10327,expressbus,3G,1,1,1,1,1,0,0
406,2095,10327,expressbus,3G,1,1,1,1,1,0,0
416,2096,10327,expressbus,3G,1,1,1,1,1,0,0
424,2097,10327,expressbus,3G,1,1,1,1,1,0,0
432,2098,10327,expressbus,3G,1,1,1,1,1,0,0
438,2099,10327,expressbus,3G,1,1,1,1,1,0,0
444,2100,10327,expressbus,3G,1,1,1,1,1,0,0
451,2101,10327,expressbus,3G,1,1,1,1,1,0,0
455,2102,10327,expressbus,3G,1,1,1,1,1,0,0
461,2103,10327,expressbus,3G,1,1,1,1,1,0,0
466,2104,10327,expressbus,3G,1,1,1,1,1,0,0
471,2105,10327,expressbus,3G,1,1,1,1,1,0,0
476,2106,10327,expressbus,3G,1,1,1,1,1,0,0
482,2107,10327,expressbus,3G,1,1,1,1,1,0,0
490,2108,10327,expressbus,3G,1,1,1,1,1,0,0
495,2109,10327,expressbus,3G,1,1,1,1,1,0,0
500,2110,10327,expressbus,3G,1,1,1,1,1,0,0
505,2111,10327,expressbus,3G,1,1,1,1,1,0,0
511,2112,10327,expressbus,3G,1,1,1,1,1,0,0
517,2113,10327,expressbus,3G,1,1,1,1,1,0,0
522,2114,10327,expressbus,3G,1,1,1,1,1,0,0
527,2115,10327,expressbus,3G,1,1,1,1,1,0,0
532,2116,10327,expressbus,3G,1,1,1,1,1,0,0
538,2117,10327,expressbus,3G,1,1,1,1,1,0,0
543,2118,10327,expressbus,3G,1,1,1,1,1,0,0
548,2119,10327,expressbus,3G,1,1,1,1,1,0,0
553,2120,10327,expressbus,3G,1,1,1,1,1,0,0
559,2121,10327,expressbus,3G,1,1,1,1,1,0,0
565,2122,10327,expressbus,3G,1,1,1,1,1,0,0
570,2123,10327,expressbus,3G,1,1,1,1,1,0,0
575,2124,10327,expressbus,3G,1,1,1,1,1,0,0
580,2125,10327,expressbus,3G,1,1,1,1,1,0,0
585,2126,10327,expressbus,3G,1,1,1,1,1,0,0
591,2127,10327,expressbus,3G,1,1,1,1,1,0,0
597,2128,10327,expressbus,3G,1,1,1,1,1,0,0
602,2129,10327,expressbus,3G,1,1,1,1,1,0,0
607,2130,10327,expressbus,3G,1,1,1,1,1,0,0
612,2131,10327,expressbus,3G,1,1,1,1,1,0,0
617,2132,10327,expressbus,3G,1,1,1,1,1,0,0
622,2133,10327,expressbus,3G,1,1,1,1,1,0,0
627,2134,10327,expressbus,3G,1,1,1,1,1,0,0
634,2135,10327,expressbus,3G,1,1,1,1,1,0,0
640,2136,10327,expressbus,3G,1,1,1,1,1,0,0
647,2137,10327,expressbus,3G,1,1,1,1,1,0,0
655,2138,10327,expressbus,3G,1,1,1,1,1,0,0
663,2139,10327,expressbus,3G,1,1,1,1,1,0,0
671,2140,10327,expressbus,3G,1,1,1,1,1,0,0
681,2141,10327,expressbus,3G,1,1,1,1,1,0,0
692,2142,10327,expressbus,3G,1,1,1,1,1,0,0
703,2143,10327,expressbus,3G,1,1,1,1,1,0,0
714,2144,10327,expressbus,3G,1,1,1,1,1,0,0
724,2145,10327,expressbus,3G,1,1,1,1,1,0,0
734,2146,10327,expressbus,3G,1,1,1,1,1,0,0
743,2147,10327,expressbus,3G,1,1,1,1,1,0,0
753,2148,10327,expressbus,3G,1,1,1,1,1,0,0
762,2149,10327,expressbus,3G,1,1,1,1,1,0,0
769,2150,10327,expressbus,3G,1,1,1,1,1,0,0
776,2151,10327,expressbus,3G,1,1,1,1,1,0,0
784,2152,10327,expressbus,3G,1,1,1,1,1,0,0
792,2153,10327,expressbus,3G,1,1,1,1,1,0,0
800,2154,10327,expressbus,3G,1,1,1,1,1,0,0
810,2155,10327,expressbus,3G,1,1,1,1,1,0,0
819,2156,10327,expressbus,3G,1,1,1,1,1,0,0
826,2157,10327,expressbus,3G,1,1,1,1,1,0,0
836,2158,10327,expressbus,3G,1,1,1,1,1,0,0
845,2159,10327,expressbus,3G,1,1,1,1,1,0,0
855,2160,10327,expressbus,3G,1,1,1,1,1,0,0
864,2161,10327,expressbus,3G,1,1,1,1,1,0,0
871,2162,10327,expressbus,3G,1,1,1,1,1,0,0
878,2163,10327,expressbus,3G,1,1,1,1,1,0,0
887,2164,10327,expressbus,3G,1,1,1,1,1,0,0
897,2165,10327,expressbus,3G,1,1,1,1,1,0,0
905,2166,10327,expressbus,3G,1,1,1,1,1,0,0
912,2167,10327,expressbus,3G,1,1,1,1,1,0,0
921,2168,10327,expressbus,3G,1,1,1,1,1,0,0
929,2169,10327,expressbus,3G,1,1,1,1,1,0,0
939,2170,10327,expressbus,3G,1,1,1,1,1,0,0
948,2171,10327,expressbus,3G,1,1,1,1,1,0,0
957,2172,10327,expressbus,3G,1,1,1,1,1,0,0
966,2173,10327,expressbus,3G,1,1,1,1,1,0,0
974,2174,10327,expressbus,3G,1,1,1,1,1,0,0
984,2175,10327,expressbus,3G,1,1,1,1,1,0,0
989,2176,10327,expressbus,3G,1,1,1,1,1,0,0
995,2177,10327,expressbus,3G,1,1,1,1,1,0,0
1001,2178,10327,expressbus,3G,1,1,1,1,1,0,0
1007,2179,10327,expressbus,3G,1,1,1,1,1,0,0
1012,2180,10327,expressbus,3G,1,1,1,1,1,0,0
1019,2181,10327,expressbus,3G,1,1,1,1,1,0,0
1024,2182,10327,expressbus,3G,1,1,1,1,1,0,0
1029,2183,10327,expressbus,3G,1,1,1,1,1,0,0
1034,2184,10327,expressbus,3G,1,1,1,1,1,0,0
1039,2185,10327,expressbus,3G,1,1,1,1,1,0,0
1044,2186,10327,expressbus,3G,1,1,1,1,1,0,0
1049,2187,10327,expressbus,3G,1,1,1,1,1,0,0
1054,2188,10327,expressbus,3G,1,1,1,1,1,0,0
1059,2189,10327,expressbus,3G,1,1,1,1,1,0,0
1065,2190,10327,expressbus,3G,1,1,1,1,1,0,0
1070,2191,10327,expressbus,3G,1,1,1,1,1,0,0
1076,2192,10327,expressbus,3G,1,1,1,1,1,0,0
1082,2193,10327,expressbus,3G,1,1,1,1,1,0,0
1087,2194,10327,expressbus,3G,1,1,1,1,1,0,0
1091,2195,10327,expressbus,3G,1,1,1,1,1,0,0
1096,2196,10327,expressbus,3G,1,1,1,1,1,0,0
1102,2197,10327,expressbus,3G,1,1,1,1,1,0,0
1109,2198,10327,expressbus,3G,1,1,1,1,1,0,0
1115,2199,10327,expressbus,3G,1,1,1,1,1,0,0
1121,2200,10327,expressbus,3G,1,1,1,1,1,0,0
1126,2201,10327,expressbus,3G,1,1,1,1,1,0,0
1131,2202,10327,expressbus,3G,1,1,1,1,1,0,0
1136,2203,10327,expressbus,3G,1,1,1,1,1,0,0
1141,2204,10327,expressbus,3G,1,1,1,1,1,0,0
1145,2205,10327,expressbus,3G,1,1,1,1,1,0,0
1150,2206,10327,expressbus,3G,1,1,1,1,1,0,0
1154,2207,10327,expressbus,3G,1,1,1,1,1,0,0
1158,2208,10327,expressbus,3G,1,1,1,1,1,0,0
1166,2209,10327,expressbus,3G,1,1,1,1,1,0,0
1176,2210,10327,expressbus,3G,1,1,1,1,1,0,0
1186,2211,10327,expressbus,3G,1,1,1,1,1,0,0
1195,2212,10327,expressbus,3G,1,1,1,1,1,0,0
1203,2213,10327,expressbus,3G,1,1,1,1,1,0,0
1212,2214,10327,expressbus,3G,1,1,1,1,1,0,0
1219,2215,10327,expressbus,3G,1,1,1,1,1,0,0
1228,2216,10327,expressbus,3G,1,1,1,1,1,0,0
1237,2217,10327,expressbus,3G,1,1,1,1,1,0,0
1245,2218,10327,expressbus,3G,1,1,1,1,1,0,0
1254,2219,10327,expressbus,3G,1,1,1,1,1,0,0
1261,2220,10327,expressbus,3G,1,1,1,1,1,0,0
1268,2221,10327,expressbus,3G,1,1,1,1,1,0,0
1276,2222,10327,expressbus,3G,1,1,1,1,1,0,0
1284,2223,10327,expressbus,3G,1,1,1,1,1,0,0
1292,2224,10327,expressbus,3G,1,1,1,1,1,0,0
1300,2225,10327,expressbus,3G,1,1,1,1,1,0,0
1308,2226,10327,expressbus,3G,1,1,1,1,1,0,0
1316,2227,10327,expressbus,3G,1,1,1,1,1,0,0
1325,2228,10327,expressbus,3G,1,1,1,1,1,0,0
1335,2229,10327,expressbus,3G,1,1,1,1,1,0,0
1343,2230,10327,expressbus,3G,1,1,1,1,1,0,0
1351,2231,10327,expressbus,3G,1,1,1,1,1,0,0
1359,2232,10327,expressbus,3G,1,1,1,1,1,0,0
1367,2233,10327,expressbus,3G,1,1,1,1,1,0,0
1377,2234,10327,expressbus,3G,1,1,1,1,1,0,0
1388,2235,10327,expressbus,3G,1,1,1,1,1,0,0
1400,2236,10327,expressbus,3G,1,1,1,1,1,0,0
1413,2237,10327,expressbus,3G,1,1,1,1,1,0,0
1429,2238,10327,expressbus,3G,1,1,1,1,1,0,0
373,2239,10328,expressbus,3G,0,0,0,0,0,1,0
395,2240,10328,expressbus,3G,0,0,0,0,0,1,0
411,2241,10328,expressbus,3G,0,0,0,0,0,1,0
425,2242,10328,expressbus,3G,0,0,0,0,0,1,0
439,2243,10328,expressbus,3G,0,0,0,0,0,1,0
452,2244,10328,expressbus,3G,0,0,0,0,0,1,0
463,2245,10328,expressbus,3G,0,0,0,0,0,1,0
476,2246,10328,expressbus,3G,0,0,0,0,0,1,0
488,2247,10328,expressbus,3G,0,0,0,0,0,1,0
503,2248,10328,expressbus,3G,0,0,0,0,0,1,0
514,2249,10328,expressbus,3G,0,0,0,0,0,1,0
527,2250,10328,expressbus,3G,0,0,0,0,0,1,0
539,2251,10328,expressbus,3G,0,0,0,0,0,1,0
552,2252,10328,expressbus,3G,0,0,0,0,0,1,0
565,2253,10328,expressbus,3G,0,0,0,0,0,1,0
577,2254,10328,expressbus,3G,0,0,0,0,0,1,0
591,2255,10328,expressbus,3G,0,0,0,0,0,1,0
603,2256,10328,expressbus,3G,0,0,0,0,0,1,0
617,2257,10328,expressbus,3G,0,0,0,0,0,1,0
627,2258,10328,expressbus,3G,0,0,0,0,0,1,0
637,2259,10328,expressbus,3G,0,0,0,0,0,1,0
646,2260,10328,expressbus,3G,0,0,0,0,0,1,0
658,2261,10328,expressbus,3G,0,0,0,0,0,1,0
669,2262,10328,expressbus,3G,0,0,0,0,0,1,0
681,2263,10328,expressbus,3G,0,0,0,0,0,1,0
692,2264,10328,expressbus,3G,0,0,0,0,0,1,0
704,2265,10328,expressbus,3G,0,0,0,0,0,1,0
716,2266,10328,expressbus,3G,0,0,0,0,0,1,0
726,2267,10328,expressbus,3G,0,0,0,0,0,1,0
735,2268,10328,expressbus,3G,0,0,0,0,0,1,0
747,2269,10328,expressbus,3G,0,0,0,0,0,1,0
758,2270,10328,expressbus,3G,0,0,0,0,0,1,0
766,2271,10328,expressbus,3G,0,0,0,0,0,1,0
774,2272,10328,expressbus,3G,0,0,0,0,0,1,0
781,2273,10328,expressbus,3G,0,0,0,0,0,1,0
788,2274,10328,expressbus,3G,0,0,0,0,0,1,0
799,2275,10328,expressbus,3G,0,0,0,0,0,1,0
810,2276,10328,expressbus,3G,0,0,0,0,0,1,0
824,2277,10328,expressbus,3G,0,0,0,0,0,1,0
835,2278,10328,expressbus,3G,0,0,0,0,0,1,0
847,2279,10328,expressbus,3G,0,0,0,0,0,1,0
862,2280,10328,expressbus,3G,0,0,0,0,0,1,0
872,2281,10328,expressbus,3G,0,0,0,0,0,1,0
881,2282,10328,expressbus,3G,0,0,0,0,0,1,0
888,2283,10328,expressbus,3G,0,0,0,0,0,1,0
896,2284,10328,expressbus,3G,0,0,0,0,0,1,0
903,2285,10328,expressbus,3G,0,0,0,0,0,1,0
913,2286,10328,expressbus,3G,0,0,0,0,0,1,0
926,2287,10328,expressbus,3G,0,0,0,0,0,1,0
939,2288,10328,expressbus,3G,0,0,0,0,0,1,0
951,2289,10328,expressbus,3G,0,0,0,0,0,1,0
962,2290,10328,expressbus,3G,0,0,0,0,0,1,0
973,2291,10328,expressbus,3G,0,0,0,0,0,1,0
980,2292,10328,expressbus,3G,0,0,0,0,0,1,0
988,2293,10328,expressbus,3G,0,0,0,0,0,1,0
995,2294,10328,expressbus,3G,0,0,0,0,0,1,0
1002,2295,10328,expressbus,3G,0,0,0,0,0,1,0
1009,2296,10328,expressbus,3G,0,0,0,0,0,1,0
1021,2297,10328,expressbus,3G,0,0,0,0,0,1,0
1031,2298,10328,expressbus,3G,0,0,0,0,0,1,0
1041,2299,10328,expressbus,3G,0,0,0,0,0,1,0
1052,2300,10328,expressbus,3G,0,0,0,0,0,1,0
1062,2301,10328,expressbus,3G,0,0,0,0,0,1,0
1072,2302,10328,expressbus,3G,0,0,0,0,0,1,0
1082,2303,10328,expressbus,3G,0,0,0,0,0,1,0
1095,2304,10328,expressbus,3G,0,0,0,0,0,1,0
1105,2305,10328,expressbus,3G,0,0,0,0,0,1,0
1120,2306,10328,expressbus,3G,0,0,0,0,0,1,0
1134,2307,10328,expressbus,3G,0,0,0,0,0,1,0
1147,2308,10328,expressbus,3G,0,0,0,0,0,1,0
1160,2309,10328,expressbus,3G,0,0,0,0,0,1,0
1174,2310,10328,expressbus,3G,0,0,0,0,0,1,0
1190,2311,10328,expressbus,3G,0,0,0,0,0,1,0
1205,2312,10328,expressbus,3G,0,0,0,0,0,1,0
1219,2313,10328,expressbus,3G,0,0,0,0,0,1,0
1233,2314,10328,expressbus,3G,0,0,0,0,0,1,0
1244,2315,10328,expressbus,3G,0,0,0,0,0,1,0
1254,2316,10328,expressbus,3G,0,0,0,0,0,1,0
1267,2317,10328,expressbus,3G,0,0,0,0,0,1,0
1278,2318,10328,expressbus,3G,0,0,0,0,0,1,0
1292,2319,10328,expressbus,3G,0,0,0,0,0,1,0
1304,2320,10328,expressbus,3G,0,0,0,0,0,1,0
1318,2321,10328,expressbus,3G,0,0,0,0,0,1,0
1329,2322,10328,expressbus,3G,0,0,0,0,0,1,0
1340,2323,10328,expressbus,3G,0,0,0,0,0,1,0
1353,2324,10328,expressbus,3G,0,0,0,0,0,1,0
1368,2325,10328,expressbus,3G,0,0,0,0,0,1,0
1385,2326,10328,expressbus,3G,0,0,0,0,0,1,0
1401,2327,10328,expressbus,3G,0,0,0,0,0,1,0
1418,2328,10328,expressbus,3G,0,0,0,0,0,1,0
1433,2329,10328,expressbus,3G,0,0,0,0,0,1,0
381,3149,9930,bus,5,1,1,1,1,1,0,0
405,3150,9930,bus,5,1,1,1,1,1,0,0
433,3151,9930,bus,5,1,1,1,1,1,0,0
460,3152,9930,bus,5,1,1,1,1,1,0,0
484,3153,9930,bus,5,1,1,1,1,1,0,0
513,3154,9930,bus,5,1,1,1,1,1,0,0
538,3155,9930,bus,5,1,1,1,1,1,0,0
562,3156,9930,bus,5,1,1,1,1,1,0,0
592,3157,9930,bus,5,1,1,1,1,1,0,0
641,3158,9930,bus,5,1,1,1,1,1,0,0
665,3159,9930,bus,5,1,1,1,1,1,0,0
694,3160,9930,bus,5,1,1,1,1,1,0,0
717,3161,9930,bus,5,1,1,1,1,1,0,0
741,3162,9930,bus,5,1,1,1,1,1,0,0
770,3163,9930,bus,5,1,1,1,1,1,0,0
793,3164,9930,bus,5,1,1,1,1,1,0,0
817,3165,9930,bus,5,1,1,1,1,1,0,0
846,3166,9930,bus,5,1,1,1,1,1,0,0
874,3167,9930,bus,5,1,1,1,1,1,0,0
898,3168,9930,bus,5,1,1,1,1,1,0,0
927,3169,9930,bus,5,1,1,1,1,1,0,0
950,3170,9930,bus,5,1,1,1,1,1,0,0
974,3171,9930,bus,5,1,1,1,1,1,0,0
1004,3172,9930,bus,5,1,1,1,1,1,0,0
1029,3173,9930,bus,5,1,1,1,1,1,0,0
1055,3174,9930,bus,5,1,1,1,1,1,0,0
1085,3175,9930,bus,5,1,1,1,1,1,0,0
1111,3176,9930,bus,5,1,1,1,1,1,0,0
1141,3177,9930,bus,5,1,1,1,1,1,0,0
1187,3178,9930,bus,5,1,1,1,1,1,0,0
1210,3179,9930,bus,5,1,1,1,1,1,0,0
1237,3180,9930,bus,5,1,1,1,1,1,0,0
1259,3181,9930,bus,5,1,1,1,1,1,0,0
1284,3182,9930,bus,5,1,1,1,1,1,0,0
1308,3183,9930,bus,5,1,1,1,1,1,0,0
1332,3184,9930,bus,5,1,1,1,1,1,0,0
1352,3185,9930,bus,5,1,1,1,1,1,0,0
1377,3186,9930,bus,5,1,1,1,1,1,0,0
377,3187,9600,bus,5,0,0,0,0,0,1,0
444,3188,9600,bus,5,0,0,0,0,0,1,0
513,3189,9600,bus,5,0,0,0,0,0,1,0
574,3190,9600,bus,5,0,0,0,0,0,1,0
606,3191,9600,bus,5,0,0,0,0,0,1,0
644,3192,9600,bus,5,0,0,0,0,0,1,0
702,3193,9600,bus,5,0,0,0,0,0,1,0
740,3194,9600,bus,5,0,0,0,0,0,1,0
772,3195,9600,bus,5,0,0,0,0,0,1,0
810,3196,9600,bus,5,0,0,0,0,0,1,0
853,3197,9600,bus,5,0,0,0,0,0,1,0
905,3198,9600,bus,5,0,0,0,0,0,1,0
933,3199,9600,bus,5,0,0,0,0,0,1,0
977,3200,9600,bus,5,0,0,0,0,0,1,0
1007,3201,9600,bus,5,0,0,0,0,0,1,0
1047,3202,9600,bus,5,0,0,0,0,0,1,0
1102,3203,9600,bus,5,0,0,0,0,0,1,0
1171,3204,9600,bus,5,0,0,0,0,0,1,0
1238,3205,9600,bus,5,0,0,0,0,0,1,0
1305,3206,9600,bus,5,0,0,0,0,0,1,0
1371,3207,9600,bus,5,0,0,0,0,0,1,0
377,3208,9601,bus,5,0,0,0,0,0,0,1
444,3209,9601,bus,5,0,0,0,0,0,0,1
513,3210,9601,bus,5,0,0,0,0,0,0,1
574,3211,9601,bus,5,0,0,0,0,0,0,1
606,3212,9601,bus,5,0,0,0,0,0,0,1
644,3213,9601,bus,5,0,0,0,0,0,0,1
702,3214,9601,bus,5,0,0,0,0,0,0,1
740,3215,9601,bus,5,0,0,0,0,0,0,1
772,3216,9601,bus,5,0,0,0,0,0,0,1
810,3217,9601,bus,5,0,0,0,0,0,0,1
853,3218,9601,bus,5,0,0,0,0,0,0,1
905,3219,9601,bus,5,0,0,0,0,0,0,1
933,3220,9601,bus,5,0,0,0,0,0,0,1
977,3221,9601,bus,5,0,0,0,0,0,0,1
1007,3222,9601,bus,5,0,0,0,0,0,0,1
1047,3223,9601,bus,5,0,0,0,0,0,0,1
1102,3224,9601,bus,5,0,0,0,0,0,0,1
1171,3225,9601,bus,5,0,0,0,0,0,0,1
1238,3226,9601,bus,5,0,0,0,0,0,0,1
1305,3227,9601,bus,5,0,0,0,0,0,0,1
1371,3228,9601,bus,5,0,0,0,0,0,0,1
312,3236,9930,bus,5,1,1,1,1,1,0,0
335,3237,9930,bus,5,1,1,1,1,1,0,0
358,3238,9930,bus,5,1,1,1,1,1,0,0
314,3239,9600,bus,5,0,0,0,0,0,1,0
352,7341,10356,bus,24,1,1,1,1,1,0,0
381,7342,10356,bus,24,1,1,1,1,1,0,0
394,7343,10356,bus,24,1,1,1,1,1,0,0
407,7344,10356,bus,24,1,1,1,1,1,0,0
420,7345,10356,bus,24,1,1,1,1,1,0,0
433,7346,10356,bus,24,1,1,1,1,1,0,0
445,7347,10356,bus,24,1,1,1,1,1,0,0
456,7348,10356,bus,24,1,1,1,1,1,0,0
467,7349,10356,bus,24,1,1,1,1,1,0,0
480,7350,10356,bus,24,1,1,1,1,1,0,0
490,7351,10356,bus,24,1,1,1,1,1,0,0
502,7352,10356,bus,24,1,1,1,1,1,0,0
513,7353,10356,bus,24,1,1,1,1,1,0,0
522,7354,10356,bus,24,1,1,1,1,1,0,0
532,7355,10356,bus,24,1,1,1,1,1,0,0
541,7356,10356,bus,24,1,1,1,1,1,0,0
554,7357,10356,bus,24,1,1,1,1,1,0,0
570,7358,10356,bus,24,1,1,1,1,1,0,0
579,7359,10356,bus,24,1,1,1,1,1,0,0
592,7360,10356,bus,24,1,1,1,1,1,0,0
605,7361,10356,bus,24,1,1,1,1,1,0,0
618,7362,10356,bus,24,1,1,1,1,1,0,0
648,7363,10356,bus,24,1,1,1,1,1,0,0
669,7364,10356,bus,24,1,1,1,1,1,0,0
690,7365,10356,bus,24,1,1,1,1,1,0,0
731,7366,10356,bus,24,1,1,1,1,1,0,0
756,7367,10356,bus,24,1,1,1,1,1,0,0
782,7368,10356,bus,24,1,1,1,1,1,0,0
814,7369,10356,bus,24,1,1,1,1,1,0,0
840,7370,10356,bus,24,1,1,1,1,1,0,0
866,7371,10356,bus,24,1,1,1,1,1,0,0
897,7372,10356,bus,24,1,1,1,1,1,0,0
928,7373,10356,bus,24,1,1,1,1,1,0,0
946,7374,10356,bus,24,1,1,1,1,1,0,0
962,7375,10356,bus,24,1,1,1,1,1,0,0
976,7376,10356,bus,24,1,1,1,1,1,0,0
986,7377,10356,bus,24,1,1,1,1,1,0,0
998,7378,10356,bus,24,1,1,1,1,1,0,0
1008,7379,10356,bus,24,1,1,1,1,1,0,0
1018,7380,10356,bus,24,1,1,1,1,1,0,0
1028,7381,10356,bus,24,1,1,1,1,1,0,0
1040,7382,10356,bus,24,1,1,1,1,1,0,0
1053,7383,10356,bus,24,1,1,1,1,1,0,0
1064,7384,10356,bus,24,1,1,1,1,1,0,0
1075,7385,10356,bus,24,1,1,1,1,1,0,0
1087,7386,10356,bus,24,1,1,1,1,1,0,0
1098,7387,10356,bus,24,1,1,1,1,1,0,0
1109,7388,10356,bus,24,1,1,1,1,1,0,0
1118,7389,10356,bus,24,1,1,1,1,1,0,0
1129,7390,10356,bus,24,1,1,1,1,1,0,0
1142,7391,10356,bus,24,1,1,1,1,1,0,0
1160,7392,10356,bus,24,1,1,1,1,1,0,0
1187,7393,10356,bus,24,1,1,1,1,1,0,0
1222,7394,10356,bus,24,1,1,1,1,1,0,0
1244,7395,10356,bus,24,1,1,1,1,1,0,0
1265,7396,10356,bus,24,1,1,1,1,1,0,0
1298,7397,10356,bus,24,1,1,1,1,1,0,0
1320,7398,10356,bus,24,1,1,1,1,1,0,0
1342,7399,10356,bus,24,1,1,1,1,1,0,0
1374,7400,10356,bus,24,1,1,1,1,1,0,0
1396,7401,10356,bus,24,1,1,1,1,1,0,0
1419,7402,10356,bus,24,1,1,1,1,1,0,0
382,7403,9984,bus,24,0,0,0,0,0,1,0
419,7404,9984,bus,24,0,0,0,0,0,1,0
460,7405,9984,bus,24,0,0,0,0,0,1,0
500,7406,9984,bus,24,0,0,0,0,0,1,0
540,7407,9984,bus,24,0,0,0,0,0,1,0
580,7408,9984,bus,24,0,0,0,0,0,1,0
636,7409,9984,bus,24,0,0,0,0,0,1,0
658,7410,9984,bus,24,0,0,0,0,0,1,0
694,7411,9984,bus,24,0,0,0,0,0,1,0
719,7412,9984,bus,24,0,0,0,0,0,1,0
737,7413,9984,bus,24,0,0,0,0,0,1,0
777,7414,9984,bus,24,0,0,0,0,0,1,0
819,7415,9984,bus,24,0,0,0,0,0,1,0
833,7416,9984,bus,24,0,0,0,0,0,1,0
871,7417,9984,bus,24,0,0,0,0,0,1,0
901,7418,9984,bus,24,0,0,0,0,0,1,0
932,7419,9984,bus,24,0,0,0,0,0,1,0
957,7420,9984,bus,24,0,0,0,0,0,1,0
982,7421,9984,bus,24,0,0,0,0,0,1,0
1008,7422,9984,bus,24,0,0,0,0,0,1,0
1034,7423,9984,bus,24,0,0,0,0,0,1,0
1058,7424,9984,bus,24,0,0,0,0,0,1,0
1090,7425,9984,bus,24,0,0,0,0,0,1,0
1133,7426,9984,bus,24,0,0,0,0,0,1,0
1171,7427,9984,bus,24,0,0,0,0,0,1,0
1206,7428,9984,bus,24,0,0,0,0,0,1,0
1243,7429,9984,bus,24,0,0,0,0,0,1,0
1279,7430,9984,bus,24,0,0,0,0,0,1,0
1315,7431,9984,bus,24,0,0,0,0,0,1,0
1351,7432,9984,bus,24,0,0,0,0,0,1,0
1387,7433,9984,bus,24,0,0,0,0,0,1,0
419,7434,9985,bus,24,0,0,0,0,0,0,1
460,7435,9985,bus,24,0,0,0,0,0,0,1
500,7436,9985,bus,24,0,0,0,0,0,0,1
540,7437,9985,bus,24,0,0,0,0,0,0,1
580,7438,9985,bus,24,0,0,0,0,0,0,1
636,7439,9985,bus,24,0,0,0,0,0,0,1
658,7440,9985,bus,24,0,0,0,0,0,0,1
694,7441,9985,bus,24,0,0,0,0,0,0,1
719,7442,9985,bus,24,0,0,0,0,0,0,1
737,7443,9985,bus,24,0,0,0,0,0,0,1
777,7444,9985,bus,24,0,0,0,0,0,0,1
819,7445,9985,bus,24,0,0,0,0,0,0,1
833,7446,9985,bus,24,0,0,0,0,0,0,1
871,7447,9985,bus,24,0,0,0,0,0,0,1
901,7448,9985,bus,24,0,0,0,0,0,0,1
932,7449,9985,bus,24,0,0,0,0,0,0,1
957,7450,9985,bus,24,0,0,0,0,0,0,1
982,7451,9985,bus,24,0,0,0,0,0,0,1
1008,7452,9985,bus,24,0,0,0,0,0,0,1
1034,7453,9985,bus,24,0,0,0,0,0,0,1
1058,7454,9985,bus,24,0,0,0,0,0,0,1
1090,7455,9985,bus,24,0,0,0,0,0,0,1
1133,7456,9985,bus,24,0,0,0,0,0,0,1
1171,7457,9985,bus,24,0,0,0,0,0,0,1
1206,7458,9985,bus,24,0,0,0,0,0,0,1
1243,7459,9985,bus,24,0,0,0,0,0,0,1
1279,7460,9985,bus,24,0,0,0,0,0,0,1
1315,7461,9985,bus,24,0,0,0,0,0,0,1
1351,7462,9985,bus,24,0,0,0,0,0,0,1
1387,7463,9985,bus,24,0,0,0,0,0,0,1
399,10262,10380,bus,40,0,0,0,0,0,0,1
416,10263,10380,bus,40,0,0,0,0,0,0,1
429,10264,10380,bus,40,0,0,0,0,0,0,1
445,10265,10380,bus,40,0,0,0,0,0,0,1
465,10266,10380,bus,40,0,0,0,0,0,0,1
482,10267,10380,bus,40,0,0,0,0,0,0,1
496,10268,10380,bus,40,0,0,0,0,0,0,1
511,10269,10380,bus,40,0,0,0,0,0,0,1
531,10270,10380,bus,40,0,0,0,0,0,0,1
548,10271,10380,bus,40,0,0,0,0,0,0,1
563,10272,10380,bus,40,0,0,0,0,0,0,1
577,10273,10380,bus,40,0,0,0,0,0,0,1
595,10274,10380,bus,40,0,0,0,0,0,0,1
611,10275,10380,bus,40,0,0,0,0,0,0,1
625,10276,10380,bus,40,0,0,0,0,0,0,1
639,10277,10380,bus,40,0,0,0,0,0,0,1
654,10278,10380,bus,40,0,0,0,0,0,0,1
666,10279,10380,bus,40,0,0,0,0,0,0,1
678,10280,10380,bus,40,0,0,0,0,0,0,1
689,10281,10380,bus,40,0,0,0,0,0,0,1
698,10282,10380,bus,40,0,0,0,0,0,0,1
708,10283,10380,bus,40,0,0,0,0,0,0,1
719,10284,10380,bus,40,0,0,0,0,0,0,1
730,10285,10380,bus,40,0,0,0,0,0,0,1
744,10286,10380,bus,40,0,0,0,0,0,0,1
753,10287,10380,bus,40,0,0,0,0,0,0,1
765,10288,10380,bus,40,0,0,0,0,0,0,1
775,10289,10380,bus,40,0,0,0,0,0,0,1
785,10290,10380,bus,40,0,0,0,0,0,0,1
800,10291,10380,bus,40,0,0,0,0,0,0,1
815,10292,10380,bus,40,0,0,0,0,0,0,1
829,10293,10380,bus,40,0,0,0,0,0,0,1
839,10294,10380,bus,40,0,0,0,0,0,0,1
849,10295,10380,bus,40,0,0,0,0,0,0,1
859,10296,10380,bus,40,0,0,0,0,0,0,1
871,10297,10380,bus,40,0,0,0,0,0,0,1
893,10298,10380,bus,40,0,0,0,0,0,0,1
903,10299,10380,bus,40,0,0,0,0,0,0,1
913,10300,10380,bus,40,0,0,0,0,0,0,1
923,10301,10380,bus,40,0,0,0,0,0,0,1
935,10302,10380,bus,40,0,0,0,0,0,0,1
944,10303,10380,bus,40,0,0,0,0,0,0,1
957,10304,10380,bus,40,0,0,0,0,0,0,1
968,10305,10380,bus,40,0,0,0,0,0,0,1
978,10306,10380,bus,40,0,0,0,0,0,0,1
989,10307,10380,bus,40,0,0,0,0,0,0,1
999,10308,10380,bus,40,0,0,0,0,0,0,1
1008,10309,10380,bus,40,0,0,0,0,0,0,1
1022,10310,10380,bus,40,0,0,0,0,0,0,1
1034,10311,10380,bus,40,0,0,0,0,0,0,1
1045,10312,10380,bus,40,0,0,0,0,0,0,1
1057,10313,10380,bus,40,0,0,0,0,0,0,1
1070,10314,10380,bus,40,0,0,0,0,0,0,1
1081,10315,10380,bus,40,0,0,0,0,0,0,1
1100,10316,10380,bus,40,0,0,0,0,0,0,1
1117,10317,10380,bus,40,0,0,0,0,0,0,1
1139,10318,10380,bus,40,0,0,0,0,0,0,1
1162,10319,10380,bus,40,0,0,0,0,0,0,1
1182,10320,10380,bus,40,0,0,0,0,0,0,1
1203,10321,10380,bus,40,0,0,0,0,0,0,1
1215,10322,10380,bus,40,0,0,0,0,0,0,1
1228,10323,10380,bus,40,0,0,0,0,0,0,1
1243,10324,10380,bus,40,0,0,0,0,0,0,1
1263,10325,10380,bus,40,0,0,0,0,0,0,1
1275,10326,10380,bus,40,0,0,0,0,0,0,1
1288,10327,10380,bus,40,0,0,0,0,0,0,1
1303,10328,10380,bus,40,0,0,0,0,0,0,1
1323,10329,10380,bus,40,0,0,0,0,0,0,1
1341,10330,10380,bus,40,0,0,0,0,0,0,1
1363,10331,10380,bus,40,0,0,0,0,0,0,1
1385,10332,10380,bus,40,0,0,0,0,0,0,1
353,10333,10378,bus,40,1,1,1,1,1,0,0
371,10334,10378,bus,40,1,1,1,1,1,0,0
387,10335,10378,bus,40,1,1,1,1,1,0,0
398,10336,10378,bus,40,1,1,1,1,1,0,0
408,10337,10378,bus,40,1,1,1,1,1,0,0
416,10338,10378,bus,40,1,1,1,1,1,0,0
423,10339,10378,bus,40,1,1,1,1,1,0,0
429,10340,10378,bus,40,1,1,1,1,1,0,0
435,10341,10378,bus,40,1,1,1,1,1,0,0
442,10342,10378,bus,40,1,1,1,1,1,0,0
451,10343,10378,bus,40,1,1,1,1,1,0,0
458,10344,10378,bus,40,1,1,1,1,1,0,0
465,10345,10378,bus,40,1,1,1,1,1,0,0
472,10346,10378,bus,40,1,1,1,1,1,0,0
479,10347,10378,bus,40,1,1,1,1,1,0,0
486,10348,10378,bus,40,1,1,1,1,1,0,0
494,10349,10378,bus,40,1,1,1,1,1,0,0
500,10350,10378,bus,40,1,1,1,1,1,0,0
508,10351,10378,bus,40,1,1,1,1,1,0,0
515,10352,10378,bus,40,1,1,1,1,1,0,0
522,10353,10378,bus,40,1,1,1,1,1,0,0
529,10354,10378,bus,40,1,1,1,1,1,0,0
536,10355,10378,bus,40,1,1,1,1,1,0,0
543,10356,10378,bus,40,1,1,1,1,1,0,0
550,10357,10378,bus,40,1,1,1,1,1,0,0
557,10358,10378,bus,40,1,1,1,1,1,0,0
565,10359,10378,bus,40,1,1,1,1,1,0,0
571,10360,10378,bus,40,1,1,1,1,1,0,0
578,10361,10378,bus,40,1,1,1,1,1,0,0
585,10362,10378,bus,40,1,1,1,1,1,0,0
592,10363,10378,bus,40,1,1,1,1,1,0,0
598,10364,10378,bus,40,1,1,1,1,1,0,0
606,10365,10378,bus,40,1,1,1,1,1,0,0
612,10366,10378,bus,40,1,1,1,1,1,0,0
619,10367,10378,bus,40,1,1,1,1,1,0,0
628,10368,10378,bus,40,1,1,1,1,1,0,0
642,10369,10378,bus,40,1,1,1,1,1,0,0
658,10370,10378,bus,40,1,1,1,1,1,0,0
674,10371,10378,bus,40,1,1,1,1,1,0,0
690,10372,10378,bus,40,1,1,1,1,1,0,0
708,10373,10378,bus,40,1,1,1,1,1,0,0
720,10374,10378,bus,40,1,1,1,1,1,0,0
734,10375,10378,bus,40,1,1,1,1,1,0,0
747,10376,10378,bus,40,1,1,1,1,1,0,0
760,10377,10378,bus,40,1,1,1,1,1,0,0
776,10378,10378,bus,40,1,1,1,1,1,0,0
789,10379,10378,bus,40,1,1,1,1,1,0,0
802,10380,10378,bus,40,1,1,1,1,1,0,0
816,10381,10378,bus,40,1,1,1,1,1,0,0
829,10382,10378,bus,40,1,1,1,1,1,0,0
845,10383,10378,bus,40,1,1,1,1,1,0,0
858,10384,10378,bus,40,1,1,1,1,1,0,0
871,10385,10378,bus,40,1,1,1,1,1,0,0
885,10386,10378,bus,40,1,1,1,1,1,0,0
898,10387,10378,bus,40,1,1,1,1,1,0,0
914,10388,10378,bus,40,1,1,1,1,1,0,0
927,10389,10378,bus,40,1,1,1,1,1,0,0
940,10390,10378,bus,40,1,1,1,1,1,0,0
955,10391,10378,bus,40,1,1,1,1,1,0,0
971,10392,10378,bus,40,1,1,1,1,1,0,0
979,10393,10378,bus,40,1,1,1,1,1,0,0
987,10394,10378,bus,40,1,1,1,1,1,0,0
994,10395,10378,bus,40,1,1,1,1,1,0,0
1002,10396,10378,bus,40,1,1,1,1,1,0,0
1010,10397,10378,bus,40,1,1,1,1,1,0,0
1017,10398,10378,bus,40,1,1,1,1,1,0,0
1025,10399,10378,bus,40,1,1,1,1,1,0,0
1032,10400,10378,bus,40,1,1,1,1,1,0,0
1038,10401,10378,bus,40,1,1,1,1,1,0,0
1044,10402,10378,bus,40,1,1,1,1,1,0,0
1050,10403,10378,bus,40,1,1,1,1,1,0,0
1056,10404,10378,bus,40,1,1,1,1,1,0,0
1062,10405,10378,bus,40,1,1,1,1,1,0,0
1068,10406,10378,bus,40,1,1,1,1,1,0,0
1074,10407,10378,bus,40,1,1,1,1,1,0,0
1080,10408,10378,bus,40,1,1,1,1,1,0,0
1088,10409,10378,bus,40,1,1,1,1,1,0,0
1095,10410,10378,bus,40,1,1,1,1,1,0,0
1103,10411,10378,bus,40,1,1,1,1,1,0,0
1109,10412,10378,bus,40,1,1,1,1,1,0,0
1115,10413,10378,bus,40,1,1,1,1,1,0,0
1121,10414,10378,bus,40,1,1,1,1,1,0,0
1129,10415,10378,bus,40,1,1,1,1,1,0,0
1137,10416,10378,bus,40,1,1,1,1,1,0,0
1145,10417,10378,bus,40,1,1,1,1,1,0,0
1149,10418,10378,bus,40,1,1,1,1,1,0,0
1157,10419,10378,bus,40,1,1,1,1,1,0,0
1168,10420,10378,bus,40,1,1,1,1,1,0,0
1176,10421,10378,bus,40,1,1,1,1,1,0,0
1185,10422,10378,bus,40,1,1,1,1,1,0,0
1192,10423,10378,bus,40,1,1,1,1,1,0,0
1203,10424,10378,bus,40,1,1,1,1,1,0,0
1212,10425,10378,bus,40,1,1,1,1,1,0,0
1222,10426,10378,bus,40,1,1,1,1,1,0,0
1234,10427,10378,bus,40,1,1,1,1,1,0,0
1246,10428,10378,bus,40,1,1,1,1,1,0,0
1260,10429,10378,bus,40,1,1,1,1,1,0,0
1276,10430,10378,bus,40,1,1,1,1,1,0,0
1288,10431,10378,bus,40,1,1,1,1,1,0,0
1299,10432,10378,bus,40,1,1,1,1,1,0,0
1311,10433,10378,bus,40,1,1,1,1,1,0,0
1325,10434,10378,bus,40,1,1,1,1,1,0,0
1339,10435,10378,bus,40,1,1,1,1,1,0,0
1353,10436,10378,bus,40,1,1,1,1,1,0,0
1364,10437,10378,bus,40,1,1,1,1,1,0,0
1376,10438,10378,bus,40,1,1,1,1,1,0,0
1391,10439,10378,bus,40,1,1,1,1,1,0,0
1404,10440,10378,bus,40,1,1,1,1,1,0,0
1419,10441,10378,bus,40,1,1,1,1,1,0,0
364,10442,10379,bus,40,0,0,0,0,0,1,0
381,10443,10379,bus,40,0,0,0,0,0,1,0
399,10444,10379,bus,40,0,0,0,0,0,1,0
416,10445,10379,bus,40,0,0,0,0,0,1,0
429,10446,10379,bus,40,0,0,0,0,0,1,0
445,10447,10379,bus,40,0,0,0,0,0,1,0
465,10448,10379,bus,40,0,0,0,0,0,1,0
482,10449,10379,bus,40,0,0,0,0,0,1,0
496,10450,10379,bus,40,0,0,0,0,0,1,0
511,10451,10379,bus,40,0,0,0,0,0,1,0
531,10452,10379,bus,40,0,0,0,0,0,1,0
548,10453,10379,bus,40,0,0,0,0,0,1,0
563,10454,10379,bus,40,0,0,0,0,0,1,0
577,10455,10379,bus,40,0,0,0,0,0,1,0
595,10456,10379,bus,40,0,0,0,0,0,1,0
611,10457,10379,bus,40,0,0,0,0,0,1,0
625,10458,10379,bus,40,0,0,0,0,0,1,0
639,10459,10379,bus,40,0,0,0,0,0,1,0
654,10460,10379,bus,40,0,0,0,0,0,1,0
666,10461,10379,bus,40,0,0,0,0,0,1,0
678,10462,10379,bus,40,0,0,0,0,0,1,0
689,10463,10379,bus,40,0,0,0,0,0,1,0
698,10464,10379,bus,40,0,0,0,0,0,1,0
708,10465,10379,bus,40,0,0,0,0,0,1,0
719,10466,10379,bus,40,0,0,0,0,0,1,0
730,10467,10379,bus,40,0,0,0,0,0,1,0
744,10468,10379,bus,40,0,0,0,0,0,1,0
753,10469,10379,bus,40,0,0,0,0,0,1,0
765,10470,10379,bus,40,0,0,0,0,0,1,0
775,10471,10379,bus,40,0,0,0,0,0,1,0
785,10472,10379,bus,40,0,0,0,0,0,1,0
800,10473,10379,bus,40,0,0,0,0,0,1,0
815,10474,10379,bus,40,0,0,0,0,0,1,0
829,10475,10379,bus,40,0,0,0,0,0,1,0
839,10476,10379,bus,40,0,0,0,0,0,1,0
849,10477,10379,bus,40,0,0,0,0,0,1,0
859,10478,10379,bus,40,0,0,0,0,0,1,0
871,10479,10379,bus,40,0,0,0,0,0,1,0
893,10480,10379,bus,40,0,0,0,0,0,1,0
903,10481,10379,bus,40,0,0,0,0,0,1,0
913,10482,10379,bus,40,0,0,0,0,0,1,0
923,10483,10379,bus,40,0,0,0,0,0,1,0
935,10484,10379,bus,40,0,0,0,0,0,1,0
944,10485,10379,bus,40,0,0,0,0,0,1,0
957,10486,10379,bus,40,0,0,0,0,0,1,0
968,10487,10379,bus,40,0,0,0,0,0,1,0
978,10488,10379,bus,40,0,0,0,0,0,1,0
989,10489,10379,bus,40,0,0,0,0,0,1,0
999,10490,10379,bus,40,0,0,0,0,0,1,0
1008,10491,10379,bus,40,0,0,0,0,0,1,0
1022,10492,10379,bus,40,0,0,0,0,0,1,0
1034,10493,10379,bus,40,0,0,0,0,0,1,0
1045,10494,10379,bus,40,0,0,0,0,0,1,0
1057,10495,10379,bus,40,0,0,0,0,0,1,0
1070,10496,10379,bus,40,0,0,0,0,0,1,0
1081,10497,10379,bus,40,0,0,0,0,0,1,0
1100,10498,10379,bus,40,0,0,0,0,0,1,0
1117,10499,10379,bus,40,0,0,0,0,0,1,0
1139,10500,10379,bus,40,0,0,0,0,0,1,0
1162,10501,10379,bus,40,0,0,0,0,0,1,0
1182,10502,10379,bus,40,0,0,0,0,0,1,0
1203,10503,10379,bus,40,0,0,0,0,0,1,0
1215,10504,10379,bus,40,0,0,0,0,0,1,0
1228,10505,10379,bus,40,0,0,0,0,0,1,0
1243,10506,10379,bus,40,0,0,0,0,0,1,0
1263,10507,10379,bus,40,0,0,0,0,0,1,0
1275,10508,10379,bus,40,0,0,0,0,0,1,0
1288,10509,10379,bus,40,0,0,0,0,0,1,0
1303,10510,10379,bus,40,0,0,0,0,0,1,0
1323,10511,10379,bus,40,0,0,0,0,0,1,0
1341,10512,10379,bus,40,0,0,0,0,0,1,0
1363,10513,10379,bus,40,0,0,0,0,0,1,0
1385,10514,10379,bus,40,0,0,0,0,0,1,0
341,10939,10596,bus,43,1,1,1,1,1,0,0
361,10940,10596,bus,43,1,1,1,1,1,0,0
377,10941,10596,bus,43,1,1,1,1,1,0,0
398,10942,10596,bus,43,1,1,1,1,1,0,0
416,10943,10596,bus,43,1,1,1,1,1,0,0
431,10944,10596,bus,43,1,1,1,1,1,0,0
444,10945,10596,bus,43,1,1,1,1,1,0,0
461,10946,10596,bus,43,1,1,1,1,1,0,0
479,10947,10596,bus,43,1,1,1,1,1,0,0
495,10948,10596,bus,43,1,1,1,1,1,0,0
513,10949,10596,bus,43,1,1,1,1,1,0,0
527,10950,10596,bus,43,1,1,1,1,1,0,0
542,10951,10596,bus,43,1,1,1,1,1,0,0
558,10952,10596,bus,43,1,1,1,1,1,0,0
576,10953,10596,bus,43,1,1,1,1,1,0,0
591,10954,10596,bus,43,1,1,1,1,1,0,0
609,10955,10596,bus,43,1,1,1,1,1,0,0
628,10956,10596,bus,43,1,1,1,1,1,0,0
646,10957,10596,bus,43,1,1,1,1,1,0,0
666,10958,10596,bus,43,1,1,1,1,1,0,0
687,10959,10596,bus,43,1,1,1,1,1,0,0
706,10960,10596,bus,43,1,1,1,1,1,0,0
727,10961,10596,bus,43,1,1,1,1,1,0,0
746,10962,10596,bus,43,1,1,1,1,1,0,0
765,10963,10596,bus,43,1,1,1,1,1,0,0
783,10964,10596,bus,43,1,1,1,1,1,0,0
806,10965,10596,bus,43,1,1,1,1,1,0,0
823,10966,10596,bus,43,1,1,1,1,1,0,0
843,10967,10596,bus,43,1,1,1,1,1,0,0
866,10968,10596,bus,43,1,1,1,1,1,0,0
888,10969,10596,bus,43,1,1,1,1,1,0,0
911,10970,10596,bus,43,1,1,1,1,1,0,0
928,10971,10596,bus,43,1,1,1,1,1,0,0
944,10972,10596,bus,43,1,1,1,1,1,0,0
959,10973,10596,bus,43,1,1,1,1,1,0,0
974,10974,10596,bus,43,1,1,1,1,1,0,0
989,10975,10596,bus,43,1,1,1,1,1,0,0
999,10976,10596,bus,43,1,1,1,1,1,0,0
1016,10977,10596,bus,43,1,1,1,1,1,0,0
1028,10978,10596,bus,43,1,1,1,1,1,0,0
1045,10979,10596,bus,43,1,1,1,1,1,0,0
1061,10980,10596,bus,43,1,1,1,1,1,0,0
1075,10981,10596,bus,43,1,1,1,1,1,0,0
1089,10982,10596,bus,43,1,1,1,1,1,0,0
1102,10983,10596,bus,43,1,1,1,1,1,0,0
1121,10984,10596,bus,43,1,1,1,1,1,0,0
1137,10985,10596,bus,43,1,1,1,1,1,0,0
1154,10986,10596,bus,43,1,1,1,1,1,0,0
1172,10987,10596,bus,43,1,1,1,1,1,0,0
1196,10988,10596,bus,43,1,1,1,1,1,0,0
1213,10989,10596,bus,43,1,1,1,1,1,0,0
1235,10990,10596,bus,43,1,1,1,1,1,0,0
1256,10991,10596,bus,43,1,1,1,1,1,0,0
1274,10992,10596,bus,43,1,1,1,1,1,0,0
1294,10993,10596,bus,43,1,1,1,1,1,0,0
1310,10994,10596,bus,43,1,1,1,1,1,0,0
1332,10995,10596,bus,43,1,1,1,1,1,0,0
1352,10996,10596,bus,43,1,1,1,1,1,0,0
1369,10997,10596,bus,43,1,1,1,1,1,0,0
1387,10998,10596,bus,43,1,1,1,1,1,0,0
1405,10999,10596,bus,43,1,1,1,1,1,0,0
409,11000,10598,bus,43,0,0,0,0,0,0,1
446,11001,10598,bus,43,0,0,0,0,0,0,1
480,11002,10598,bus,43,0,0,0,0,0,0,1
517,11003,10598,bus,43,0,0,0,0,0,0,1
553,11004,10598,bus,43,0,0,0,0,0,0,1
586,11005,10598,bus,43,0,0,0,0,0,0,1
613,11006,10598,bus,43,0,0,0,0,0,0,1
631,11007,10598,bus,43,0,0,0,0,0,0,1
657,11008,10598,bus,43,0,0,0,0,0,0,1
674,11009,10598,bus,43,0,0,0,0,0,0,1
694,11010,10598,bus,43,0,0,0,0,0,0,1
708,11011,10598,bus,43,0,0,0,0,0,0,1
736,11012,10598,bus,43,0,0,0,0,0,0,1
762,11013,10598,bus,43,0,0,0,0,0,0,1
781,11014,10598,bus,43,0,0,0,0,0,0,1
804,11015,10598,bus,43,0,0,0,0,0,0,1
829,11016,10598,bus,43,0,0,0,0,0,0,1
855,11017,10598,bus,43,0,0,0,0,0,0,1
873,11018,10598,bus,43,0,0,0,0,0,0,1
892,11019,10598,bus,43,0,0,0,0,0,0,1
909,11020,10598,bus,43,0,0,0,0,0,0,1
933,11021,10598,bus,43,0,0,0,0,0,0,1
958,11022,10598,bus,43,0,0,0,0,0,0,1
984,11023,10598,bus,43,0,0,0,0,0,0,1
1003,11024,10598,bus,43,0,0,0,0,0,0,1
1025,11025,10598,bus,43,0,0,0,0,0,0,1
1041,11026,10598,bus,43,0,0,0,0,0,0,1
1061,11027,10598,bus,43,0,0,0,0,0,0,1
1083,11028,10598,bus,43,0,0,0,0,0,0,1
1108,11029,10598,bus,43,0,0,0,0,0,0,1
1159,11030,10598,bus,43,0,0,0,0,0,0,1
1205,11031,10598,bus,43,0,0,0,0,0,0,1
1242,11032,10598,bus,43,0,0,0,0,0,0,1
1275,11033,10598,bus,43,0,0,0,0,0,0,1
1312,11034,10598,bus,43,0,0,0,0,0,0,1
1352,11035,10598,bus,43,0,0,0,0,0,0,1
1390,11036,10598,bus,43,0,0,0,0,0,0,1
338,11037,10597,bus,43,0,0,0,0,0,1,0
368,11038,10597,bus,43,0,0,0,0,0,1,0
409,11039,10597,bus,43,0,0,0,0,0,1,0
446,11040,10597,bus,43,0,0,0,0,0,1,0
480,11041,10597,bus,43,0,0,0,0,0,1,0
517,11042,10597,bus,43,0,0,0,0,0,1,0
553,11043,10597,bus,43,0,0,0,0,0,1,0
586,11044,10597,bus,43,0,0,0,0,0,1,0
613,11045,10597,bus,43,0,0,0,0,0,1,0
631,11046,10597,bus,43,0,0,0,0,0,1,0
657,11047,10597,bus,43,0,0,0,0,0,1,0
674,11048,10597,bus,43,0,0,0,0,0,1,0
694,11049,10597,bus,43,0,0,0,0,0,1,0
708,11050,10597,bus,43,0,0,0,0,0,1,0
736,11051,10597,bus,43,0,0,0,0,0,1,0
762,11052,10597,bus,43,0,0,0,0,0,1,0
781,11053,10597,bus,43,0,0,0,0,0,1,0
804,11054,10597,bus,43,0,0,0,0,0,1,0
829,11055,10597,bus,43,0,0,0,0,0,1,0
855,11056,10597,bus,43,0,0,0,0,0,1,0
873,11057,10597,bus,43,0,0,0,0,0,1,0
892,11058,10597,bus,43,0,0,0,0,0,1,0
909,11059,10597,bus,43,0,0,0,0,0,1,0
933,11060,10597,bus,43,0,0,0,0,0,1,0
958,11061,10597,bus,43,0,0,0,0,0,1,0
984,11062,10597,bus,43,0,0,0,0,0,1,0
1003,11063,10597,bus,43,0,0,0,0,0,1,0
1025,11064,10597,bus,43,0,0,0,0,0,1,0
1041,11065,10597,bus,43,0,0,0,0,0,1,0
1061,11066,10597,bus,43,0,0,0,0,0,1,0
1083,11067,10597,bus,43,0,0,0,0,0,1,0
1108,11068,10597,bus,43,0,0,0,0,0,1,0
1159,11069,10597,bus,43,0,0,0,0,0,1,0
1205,11070,10597,bus,43,0,0,0,0,0,1,0
1242,11071,10597,bus,43,0,0,0,0,0,1,0
1275,11072,10597,bus,43,0,0,0,0,0,1,0
1312,11073,10597,bus,43,0,0,0,0,0,1,0
1352,11074,10597,bus,43,0,0,0,0,0,1,0
1390,11075,10597,bus,43,0,0,0,0,0,1,0
1426,11087,10596,bus,43,1,1,1,1,1,0,0
1424,11088,10598,bus,43,0,0,0,0,0,0,1
1424,11089,10597,bus,43,0,0,0,0,0,1,0
390,11265,10383,bus,46,0,0,0,0,0,0,1
421,11266,10383,bus,46,0,0,0,0,0,0,1
441,11267,10383,bus,46,0,0,0,0,0,0,1
462,11268,10383,bus,46,0,0,0,0,0,0,1
484,11269,10383,bus,46,0,0,0,0,0,0,1
504,11270,10383,bus,46,0,0,0,0,0,0,1
525,11271,10383,bus,46,0,0,0,0,0,0,1
546,11272,10383,bus,46,0,0,0,0,0,0,1
566,11273,10383,bus,46,0,0,0,0,0,0,1
587,11274,10383,bus,46,0,0,0,0,0,0,1
627,11275,10383,bus,46,0,0,0,0,0,0,1
655,11276,10383,bus,46,0,0,0,0,0,0,1
676,11277,10383,bus,46,0,0,0,0,0,0,1
696,11278,10383,bus,46,0,0,0,0,0,0,1
716,11279,10383,bus,46,0,0,0,0,0,0,1
737,11280,10383,bus,46,0,0,0,0,0,0,1
759,11281,10383,bus,46,0,0,0,0,0,0,1
778,11282,10383,bus,46,0,0,0,0,0,0,1
799,11283,10383,bus,46,0,0,0,0,0,0,1
821,11284,10383,bus,46,0,0,0,0,0,0,1
840,11285,10383,bus,46,0,0,0,0,0,0,1
861,11286,10383,bus,46,0,0,0,0,0,0,1
883,11287,10383,bus,46,0,0,0,0,0,0,1
902,11288,10383,bus,46,0,0,0,0,0,0,1
923,11289,10383,bus,46,0,0,0,0,0,0,1
945,11290,10383,bus,46,0,0,0,0,0,0,1
964,11291,10383,bus,46,0,0,0,0,0,0,1
985,11292,10383,bus,46,0,0,0,0,0,0,1
1008,11293,10383,bus,46,0,0,0,0,0,0,1
1030,11294,10383,bus,46,0,0,0,0,0,0,1
1051,11295,10383,bus,46,0,0,0,0,0,0,1
1089,11296,10383,bus,46,0,0,0,0,0,0,1
1114,11297,10383,bus,46,0,0,0,0,0,0,1
1138,11298,10383,bus,46,0,0,0,0,0,0,1
1171,11299,10383,bus,46,0,0,0,0,0,0,1
1196,11300,10383,bus,46,0,0,0,0,0,0,1
1220,11301,10383,bus,46,0,0,0,0,0,0,1
1240,11302,10383,bus,46,0,0,0,0,0,0,1
1259,11303,10383,bus,46,0,0,0,0,0,0,1
1281,11304,10383,bus,46,0,0,0,0,0,0,1
1303,11305,10383,bus,46,0,0,0,0,0,0,1
1324,11306,10383,bus,46,0,0,0,0,0,0,1
1345,11307,10383,bus,46,0,0,0,0,0,0,1
1371,11308,10383,bus,46,0,0,0,0,0,0,1
1390,11309,10383,bus,46,0,0,0,0,0,0,1
1409,11310,10383,bus,46,0,0,0,0,0,0,1
358,11311,10381,bus,46,1,1,1,1,1,0,0
372,11312,10381,bus,46,1,1,1,1,1,0,0
386,11313,10381,bus,46,1,1,1,1,1,0,0
401,11314,10381,bus,46,1,1,1,1,1,0,0
414,11315,10381,bus,46,1,1,1,1,1,0,0
430,11316,10381,bus,46,1,1,1,1,1,0,0
443,11317,10381,bus,46,1,1,1,1,1,0,0
454,11318,10381,bus,46,1,1,1,1,1,0,0
465,11319,10381,bus,46,1,1,1,1,1,0,0
477,11320,10381,bus,46,1,1,1,1,1,0,0
488,11321,10381,bus,46,1,1,1,1,1,0,0
501,11322,10381,bus,46,1,1,1,1,1,0,0
515,11323,10381,bus,46,1,1,1,1,1,0,0
528,11324,10381,bus,46,1,1,1,1,1,0,0
539,11325,10381,bus,46,1,1,1,1,1,0,0
551,11326,10381,bus,46,1,1,1,1,1,0,0
562,11327,10381,bus,46,1,1,1,1,1,0,0
574,11328,10381,bus,46,1,1,1,1,1,0,0
588,11329,10381,bus,46,1,1,1,1,1,0,0
606,11330,10381,bus,46,1,1,1,1,1,0,0
632,11331,10381,bus,46,1,1,1,1,1,0,0
664,11332,10381,bus,46,1,1,1,1,1,0,0
683,11333,10381,bus,46,1,1,1,1,1,0,0
702,11334,10381,bus,46,1,1,1,1,1,0,0
722,11335,10381,bus,46,1,1,1,1,1,0,0
741,11336,10381,bus,46,1,1,1,1,1,0,0
759,11337,10381,bus,46,1,1,1,1,1,0,0
776,11338,10381,bus,46,1,1,1,1,1,0,0
794,11339,10381,bus,46,1,1,1,1,1,0,0
812,11340,10381,bus,46,1,1,1,1,1,0,0
830,11341,10381,bus,46,1,1,1,1,1,0,0
848,11342,10381,bus,46,1,1,1,1,1,0,0
866,11343,10381,bus,46,1,1,1,1,1,0,0
882,11344,10381,bus,46,1,1,1,1,1,0,0
900,11345,10381,bus,46,1,1,1,1,1,0,0
919,11346,10381,bus,46,1,1,1,1,1,0,0
938,11347,10381,bus,46,1,1,1,1,1,0,0
952,11348,10381,bus,46,1,1,1,1,1,0,0
965,11349,10381,bus,46,1,1,1,1,1,0,0
978,11350,10381,bus,46,1,1,1,1,1,0,0
990,11351,10381,bus,46,1,1,1,1,1,0,0
1003,11352,10381,bus,46,1,1,1,1,1,0,0
1017,11353,10381,bus,46,1,1,1,1,1,0,0
1031,11354,10381,bus,46,1,1,1,1,1,0,0
1044,11355,10381,bus,46,1,1,1,1,1,0,0
1057,11356,10381,bus,46,1,1,1,1,1,0,0
1068,11357,10381,bus,46,1,1,1,1,1,0,0
1082,11358,10381,bus,46,1,1,1,1,1,0,0
1096,11359,10381,bus,46,1,1,1,1,1,0,0
1110,11360,10381,bus,46,1,1,1,1,1,0,0
1123,11361,10381,bus,46,1,1,1,1,1,0,0
1137,11362,10381,bus,46,1,1,1,1,1,0,0
1149,11363,10381,bus,46,1,1,1,1,1,0,0
1173,11364,10381,bus,46,1,1,1,1,1,0,0
1196,11365,10381,bus,46,1,1,1,1,1,0,0
1215,11366,10381,bus,46,1,1,1,1,1,0,0
1232,11367,10381,bus,46,1,1,1,1,1,0,0
1248,11368,10381,bus,46,1,1,1,1,1,0,0
1267,11369,10381,bus,46,1,1,1,1,1,0,0
1284,11370,10381,bus,46,1,1,1,1,1,0,0
1301,11371,10381,bus,46,1,1,1,1,1,0,0
1319,11372,10381,bus,46,1,1,1,1,1,0,0
1337,11373,10381,bus,46,1,1,1,1,1,0,0
1354,11374,10381,bus,46,1,1,1,1,1,0,0
1371,11375,10381,bus,46,1,1,1,1,1,0,0
1389,11376,10381,bus,46,1,1,1,1,1,0,0
1409,11377,10381,bus,46,1,1,1,1,1,0,0
358,11378,10382,bus,46,0,0,0,0,0,1,0
379,11379,10382,bus,46,0,0,0,0,0,1,0
400,11380,10382,bus,46,0,0,0,0,0,1,0
421,11381,10382,bus,46,0,0,0,0,0,1,0
441,11382,10382,bus,46,0,0,0,0,0,1,0
462,11383,10382,bus,46,0,0,0,0,0,1,0
484,11384,10382,bus,46,0,0,0,0,0,1,0
504,11385,10382,bus,46,0,0,0,0,0,1,0
525,11386,10382,bus,46,0,0,0,0,0,1,0
546,11387,10382,bus,46,0,0,0,0,0,1,0
566,11388,10382,bus,46,0,0,0,0,0,1,0
587,11389,10382,bus,46,0,0,0,0,0,1,0
627,11390,10382,bus,46,0,0,0,0,0,1,0
655,11391,10382,bus,46,0,0,0,0,0,1,0
676,11392,10382,bus,46,0,0,0,0,0,1,0
696,11393,10382,bus,46,0,0,0,0,0,1,0
716,11394,10382,bus,46,0,0,0,0,0,1,0
737,11395,10382,bus,46,0,0,0,0,0,1,0
759,11396,10382,bus,46,0,0,0,0,0,1,0
778,11397,10382,bus,46,0,0,0,0,0,1,0
799,11398,10382,bus,46,0,0,0,0,0,1,0
821,11399,10382,bus,46,0,0,0,0,0,1,0
840,11400,10382,bus,46,0,0,0,0,0,1,0
861,11401,10382,bus,46,0,0,0,0,0,1,0
883,11402,10382,bus,46,0,0,0,0,0,1,0
902,11403,10382,bus,46,0,0,0,0,0,1,0
923,11404,10382,bus,46,0,0,0,0,0,1,0
945,11405,10382,bus,46,0,0,0,0,0,1,0
964,11406,10382,bus,46,0,0,0,0,0,1,0
985,11407,10382,bus,46,0,0,0,0,0,1,0
1008,11408,10382,bus,46,0,0,0,0,0,1,0
1030,11409,10382,bus,46,0,0,0,0,0,1,0
1051,11410,10382,bus,46,0,0,0,0,0,1,0
1089,11411,10382,bus,46,0,0,0,0,0,1,0
1114,11412,10382,bus,46,0,0,0,0,0,1,0
1138,11413,10382,bus,46,0,0,0,0,0,1,0
1171,11414,10382,bus,46,0,0,0,0,0,1,0
1196,11415,10382,bus,46,0,0,0,0,0,1,0
1220,11416,10382,bus,46,0,0,0,0,0,1,0
1240,11417,10382,bus,46,0,0,0,0,0,1,0
1259,11418,10382,bus,46,0,0,0,0,0,1,0
1281,11419,10382,bus,46,0,0,0,0,0,1,0
1303,11420,10382,bus,46,0,0,0,0,0,1,0
1324,11421,10382,bus,46,0,0,0,0,0,1,0
1345,11422,10382,bus,46,0,0,0,0,0,1,0
1371,11423,10382,bus,46,0,0,0,0,0,1,0
1390,11424,10382,bus,46,0,0,0,0,0,1,0
1409,11425,10382,bus,46,0,0,0,0,0,1,0
461,12102,10294,bus,52,0,0,0,0,0,0,1
540,12103,10294,bus,52,0,0,0,0,0,0,1
619,12104,10294,bus,52,0,0,0,0,0,0,1
723,12105,10294,bus,52,0,0,0,0,0,0,1
802,12106,10294,bus,52,0,0,0,0,0,0,1
886,12107,10294,bus,52,0,0,0,0,0,0,1
965,12108,10294,bus,52,0,0,0,0,0,0,1
1044,12109,10294,bus,52,0,0,0,0,0,0,1
1148,12110,10294,bus,52,0,0,0,0,0,0,1
1223,12111,10294,bus,52,0,0,0,0,0,0,1
1297,12112,10294,bus,52,0,0,0,0,0,0,1
334,12113,9642,bus,52,1,1,1,1,1,0,0
362,12114,9642,bus,52,1,1,1,1,1,0,0
387,12115,9642,bus,52,1,1,1,1,1,0,0
412,12116,9642,bus,52,1,1,1,1,1,0,0
442,12117,9642,bus,52,1,1,1,1,1,0,0
477,12118,9642,bus,52,1,1,1,1,1,0,0
500,12119,9642,bus,52,1,1,1,1,1,0,0
532,12120,9642,bus,52,1,1,1,1,1,0,0
559,12121,9642,bus,52,1,1,1,1,1,0,0
607,12122,9642,bus,52,1,1,1,1,1,0,0
638,12123,9642,bus,52,1,1,1,1,1,0,0
665,12124,9642,bus,52,1,1,1,1,1,0,0
692,12125,9642,bus,52,1,1,1,1,1,0,0
727,12126,9642,bus,52,1,1,1,1,1,0,0
746,12127,9642,bus,52,1,1,1,1,1,0,0
774,12128,9642,bus,52,1,1,1,1,1,0,0
809,12129,9642,bus,52,1,1,1,1,1,0,0
827,12130,9642,bus,52,1,1,1,1,1,0,0
863,12131,9642,bus,52,1,1,1,1,1,0,0
895,12132,9642,bus,52,1,1,1,1,1,0,0
912,12133,9642,bus,52,1,1,1,1,1,0,0
945,12134,9642,bus,52,1,1,1,1,1,0,0
980,12135,9642,bus,52,1,1,1,1,1,0,0
998,12136,9642,bus,52,1,1,1,1,1,0,0
1030,12137,9642,bus,52,1,1,1,1,1,0,0
1075,12138,9642,bus,52,1,1,1,1,1,0,0
1111,12139,9642,bus,52,1,1,1,1,1,0,0
1142,12140,9642,bus,52,1,1,1,1,1,0,0
1188,12141,9642,bus,52,1,1,1,1,1,0,0
1219,12142,9642,bus,52,1,1,1,1,1,0,0
1245,12143,9642,bus,52,1,1,1,1,1,0,0
1276,12144,9642,bus,52,1,1,1,1,1,0,0
1297,12145,9642,bus,52,1,1,1,1,1,0,0
1319,12146,9642,bus,52,1,1,1,1,1,0,0
1359,12147,9642,bus,52,1,1,1,1,1,0,0
461,12148,9643,bus,52,0,0,0,0,0,1,0
540,12149,9643,bus,52,0,0,0,0,0,1,0
619,12150,9643,bus,52,0,0,0,0,0,1,0
723,12151,9643,bus,52,0,0,0,0,0,1,0
802,12152,9643,bus,52,0,0,0,0,0,1,0
886,12153,9643,bus,52,0,0,0,0,0,1,0
965,12154,9643,bus,52,0,0,0,0,0,1,0
1044,12155,9643,bus,52,0,0,0,0,0,1,0
1148,12156,9643,bus,52,0,0,0,0,0,1,0
1223,12157,9643,bus,52,0,0,0,0,0,1,0
1297,12158,9643,bus,52,0,0,0,0,0,1,0
410,13262,9466,bus,56,0,0,0,0,0,0,1
445,13263,9466,bus,56,0,0,0,0,0,0,1
478,13264,9466,bus,56,0,0,0,0,0,0,1
511,13265,9466,bus,56,0,0,0,0,0,0,1
555,13266,9466,bus,56,0,0,0,0,0,0,1
609,13267,9466,bus,56,0,0,0,0,0,0,1
659,13268,9466,bus,56,0,0,0,0,0,0,1
690,13269,9466,bus,56,0,0,0,0,0,0,1
728,13270,9466,bus,56,0,0,0,0,0,0,1
763,13271,9466,bus,56,0,0,0,0,0,0,1
797,13272,9466,bus,56,0,0,0,0,0,0,1
835,13273,9466,bus,56,0,0,0,0,0,0,1
875,13274,9466,bus,56,0,0,0,0,0,0,1
910,13275,9466,bus,56,0,0,0,0,0,0,1
944,13276,9466,bus,56,0,0,0,0,0,0,1
979,13277,9466,bus,56,0,0,0,0,0,0,1
1013,13278,9466,bus,56,0,0,0,0,0,0,1
1048,13279,9466,bus,56,0,0,0,0,0,0,1
1090,13280,9466,bus,56,0,0,0,0,0,0,1
1142,13281,9466,bus,56,0,0,0,0,0,0,1
1188,13282,9466,bus,56,0,0,0,0,0,0,1
1232,13283,9466,bus,56,0,0,0,0,0,0,1
1255,13284,9466,bus,56,0,0,0,0,0,0,1
1298,13285,9466,bus,56,0,0,0,0,0,0,1
1326,13286,9466,bus,56,0,0,0,0,0,0,1
1366,13287,9466,bus,56,0,0,0,0,0,0,1
1391,13288,9466,bus,56,0,0,0,0,0,0,1
348,13289,10396,bus,56,1,1,1,1,1,0,0
374,13290,10396,bus,56,1,1,1,1,1,0,0
391,13291,10396,bus,56,1,1,1,1,1,0,0
416,13292,10396,bus,56,1,1,1,1,1,0,0
435,13293,10396,bus,56,1,1,1,1,1,0,0
452,13294,10396,bus,56,1,1,1,1,1,0,0
467,13295,10396,bus,56,1,1,1,1,1,0,0
485,13296,10396,bus,56,1,1,1,1,1,0,0
501,13297,10396,bus,56,1,1,1,1,1,0,0
516,13298,10396,bus,56,1,1,1,1,1,0,0
533,13299,10396,bus,56,1,1,1,1,1,0,0
546,13300,10396,bus,56,1,1,1,1,1,0,0
564,13301,10396,bus,56,1,1,1,1,1,0,0
583,13302,10396,bus,56,1,1,1,1,1,0,0
601,13303,10396,bus,56,1,1,1,1,1,0,0
632,13304,10396,bus,56,1,1,1,1,1,0,0
655,13305,10396,bus,56,1,1,1,1,1,0,0
681,13306,10396,bus,56,1,1,1,1,1,0,0
706,13307,10396,bus,56,1,1,1,1,1,0,0
729,13308,10396,bus,56,1,1,1,1,1,0,0
753,13309,10396,bus,56,1,1,1,1,1,0,0
780,13310,10396,bus,56,1,1,1,1,1,0,0
802,13311,10396,bus,56,1,1,1,1,1,0,0
829,13312,10396,bus,56,1,1,1,1,1,0,0
854,13313,10396,bus,56,1,1,1,1,1,0,0
881,13314,10396,bus,56,1,1,1,1,1,0,0
907,13315,10396,bus,56,1,1,1,1,1,0,0
932,13316,10396,bus,56,1,1,1,1,1,0,0
957,13317,10396,bus,56,1,1,1,1,1,0,0
981,13318,10396,bus,56,1,1,1,1,1,0,0
1007,13319,10396,bus,56,1,1,1,1,1,0,0
1025,13320,10396,bus,56,1,1,1,1,1,0,0
1044,13321,10396,bus,56,1,1,1,1,1,0,0
1064,13322,10396,bus,56,1,1,1,1,1,0,0
1086,13323,10396,bus,56,1,1,1,1,1,0,0
1104,13324,10396,bus,56,1,1,1,1,1,0,0
1126,13325,10396,bus,56,1,1,1,1,1,0,0
1151,13326,10396,bus,56,1,1,1,1,1,0,0
1181,13327,10396,bus,56,1,1,1,1,1,0,0
1202,13328,10396,bus,56,1,1,1,1,1,0,0
1225,13329,10396,bus,56,1,1,1,1,1,0,0
1250,13330,10396,bus,56,1,1,1,1,1,0,0
1272,13331,10396,bus,56,1,1,1,1,1,0,0
1296,13332,10396,bus,56,1,1,1,1,1,0,0
1321,13333,10396,bus,56,1,1,1,1,1,0,0
1346,13334,10396,bus,56,1,1,1,1,1,0,0
1370,13335,10396,bus,56,1,1,1,1,1,0,0
1399,13336,10396,bus,56,1,1,1,1,1,0,0
379,13337,9465,bus,56,0,0,0,0,0,1,0
410,13338,9465,bus,56,0,0,0,0,0,1,0
445,13339,9465,bus,56,0,0,0,0,0,1,0
478,13340,9465,bus,56,0,0,0,0,0,1,0
511,13341,9465,bus,56,0,0,0,0,0,1,0
555,13342,9465,bus,56,0,0,0,0,0,1,0
609,13343,9465,bus,56,0,0,0,0,0,1,0
659,13344,9465,bus,56,0,0,0,0,0,1,0
690,13345,9465,bus,56,0,0,0,0,0,1,0
728,13346,9465,bus,56,0,0,0,0,0,1,0
763,13347,9465,bus,56,0,0,0,0,0,1,0
797,13348,9465,bus,56,0,0,0,0,0,1,0
835,13349,9465,bus,56,0,0,0,0,0,1,0
875,13350,9465,bus,56,0,0,0,0,0,1,0
910,13351,9465,bus,56,0,0,0,0,0,1,0
944,13352,9465,bus,56,0,0,0,0,0,1,0
979,13353,9465,bus,56,0,0,0,0,0,1,0
1013,13354,9465,bus,56,0,0,0,0,0,1,0
1048,13355,9465,bus,56,0,0,0,0,0,1,0
1090,13356,9465,bus,56,0,0,0,0,0,1,0
1142,13357,9465,bus,56,0,0,0,0,0,1,0
1188,13358,9465,bus,56,0,0,0,0,0,1,0
1232,13359,9465,bus,56,0,0,0,0,0,1,0
1255,13360,9465,bus,56,0,0,0,0,0,1,0
1298,13361,9465,bus,56,0,0,0,0,0,1,0
1326,13362,9465,bus,56,0,0,0,0,0,1,0
1366,13363,9465,bus,56,0,0,0,0,0,1,0
1391,13364,9465,bus,56,0,0,0,0,0,1,0
391,14566,10499,bus,73,0,0,0,0,0,0,1
435,14567,10499,bus,73,0,0,0,0,0,0,1
486,14568,10499,bus,73,0,0,0,0,0,0,1
526,14569,10499,bus,73,0,0,0,0,0,0,1
570,14570,10499,bus,73,0,0,0,0,0,0,1
608,14571,10499,bus,73,0,0,0,0,0,0,1
646,14572,10499,bus,73,0,0,0,0,0,0,1
687,14573,10499,bus,73,0,0,0,0,0,0,1
725,14574,10499,bus,73,0,0,0,0,0,0,1
755,14575,10499,bus,73,0,0,0,0,0,0,1
791,14576,10499,bus,73,0,0,0,0,0,0,1
815,14577,10499,bus,73,0,0,0,0,0,0,1
847,14578,10499,bus,73,0,0,0,0,0,0,1
887,14579,10499,bus,73,0,0,0,0,0,0,1
916,14580,10499,bus,73,0,0,0,0,0,0,1
937,14581,10499,bus,73,0,0,0,0,0,0,1
974,14582,10499,bus,73,0,0,0,0,0,0,1
1010,14583,10499,bus,73,0,0,0,0,0,0,1
1046,14584,10499,bus,73,0,0,0,0,0,0,1
1075,14585,10499,bus,73,0,0,0,0,0,0,1
1101,14586,10499,bus,73,0,0,0,0,0,0,1
1140,14587,10499,bus,73,0,0,0,0,0,0,1
1187,14588,10499,bus,73,0,0,0,0,0,0,1
1223,14589,10499,bus,73,0,0,0,0,0,0,1
1282,14590,10499,bus,73,0,0,0,0,0,0,1
1338,14591,10499,bus,73,0,0,0,0,0,0,1
1377,14592,10499,bus,73,0,0,0,0,0,0,1
1418,14593,10499,bus,73,0,0,0,0,0,0,1
351,14594,10497,bus,73,1,1,1,1,1,0,0
388,14595,10497,bus,73,1,1,1,1,1,0,0
423,14596,10497,bus,73,1,1,1,1,1,0,0
450,14597,10497,bus,73,1,1,1,1,1,0,0
475,14598,10497,bus,73,1,1,1,1,1,0,0
499,14599,10497,bus,73,1,1,1,1,1,0,0
518,14600,10497,bus,73,1,1,1,1,1,0,0
538,14601,10497,bus,73,1,1,1,1,1,0,0
563,14602,10497,bus,73,1,1,1,1,1,0,0
584,14603,10497,bus,73,1,1,1,1,1,0,0
599,14604,10497,bus,73,1,1,1,1,1,0,0
623,14605,10497,bus,73,1,1,1,1,1,0,0
652,14606,10497,bus,73,1,1,1,1,1,0,0
682,14607,10497,bus,73,1,1,1,1,1,0,0
714,14608,10497,bus,73,1,1,1,1,1,0,0
739,14609,10497,bus,73,1,1,1,1,1,0,0
770,14610,10497,bus,73,1,1,1,1,1,0,0
802,14611,10497,bus,73,1,1,1,1,1,0,0
826,14612,10497,bus,73,1,1,1,1,1,0,0
862,14613,10497,bus,73,1,1,1,1,1,0,0
899,14614,10497,bus,73,1,1,1,1,1,0,0
918,14615,10497,bus,73,1,1,1,1,1,0,0
951,14616,10497,bus,73,1,1,1,1,1,0,0
980,14617,10497,bus,73,1,1,1,1,1,0,0
998,14618,10497,bus,73,1,1,1,1,1,0,0
1015,14619,10497,bus,73,1,1,1,1,1,0,0
1035,14620,10497,bus,73,1,1,1,1,1,0,0
1057,14621,10497,bus,73,1,1,1,1,1,0,0
1084,14622,10497,bus,73,1,1,1,1,1,0,0
1109,14623,10497,bus,73,1,1,1,1,1,0,0
1135,14624,10497,bus,73,1,1,1,1,1,0,0
1147,14625,10497,bus,73,1,1,1,1,1,0,0
1165,14626,10497,bus,73,1,1,1,1,1,0,0
1191,14627,10497,bus,73,1,1,1,1,1,0,0
1226,14628,10497,bus,73,1,1,1,1,1,0,0
1251,14629,10497,bus,73,1,1,1,1,1,0,0
1287,14630,10497,bus,73,1,1,1,1,1,0,0
1316,14631,10497,bus,73,1,1,1,1,1,0,0
1342,14632,10497,bus,73,1,1,1,1,1,0,0
1377,14633,10497,bus,73,1,1,1,1,1,0,0
1410,14634,10497,bus,73,1,1,1,1,1,0,0
350,14635,10498,bus,73,0,0,0,0,0,1,0
391,14636,10498,bus,73,0,0,0,0,0,1,0
435,14637,10498,bus,73,0,0,0,0,0,1,0
486,14638,10498,bus,73,0,0,0,0,0,1,0
526,14639,10498,bus,73,0,0,0,0,0,1,0
570,14640,10498,bus,73,0,0,0,0,0,1,0
608,14641,10498,bus,73,0,0,0,0,0,1,0
646,14642,10498,bus,73,0,0,0,0,0,1,0
687,14643,10498,bus,73,0,0,0,0,0,1,0
725,14644,10498,bus,73,0,0,0,0,0,1,0
755,14645,10498,bus,73,0,0,0,0,0,1,0
791,14646,10498,bus,73,0,0,0,0,0,1,0
815,14647,10498,bus,73,0,0,0,0,0,1,0
847,14648,10498,bus,73,0,0,0,0,0,1,0
887,14649,10498,bus,73,0,0,0,0,0,1,0
916,14650,10498,bus,73,0,0,0,0,0,1,0
937,14651,10498,bus,73,0,0,0,0,0,1,0
974,14652,10498,bus,73,0,0,0,0,0,1,0
1010,14653,10498,bus,73,0,0,0,0,0,1,0
1046,14654,10498,bus,73,0,0,0,0,0,1,0
1075,14655,10498,bus,73,0,0,0,0,0,1,0
1101,14656,10498,bus,73,0,0,0,0,0,1,0
1140,14657,10498,bus,73,0,0,0,0,0,1,0
1187,14658,10498,bus,73,0,0,0,0,0,1,0
1223,14659,10498,bus,73,0,0,0,0,0,1,0
1282,14660,10498,bus,73,0,0,0,0,0,1,0
1338,14661,10498,bus,73,0,0,0,0,0,1,0
1377,14662,10498,bus,73,0,0,0,0,0,1,0
1418,14663,10498,bus,73,0,0,0,0,0,1,0
1462,16387,9973,nightbus,105N,0,0,0,0,1,1,0
1496,16388,9973,nightbus,105N,0,0,0,0,1,1,0
1533,16389,9973,nightbus,105N,0,0,0,0,1,1,0
1567,16390,9973,nightbus,105N,0,0,0,0,1,1,0
1606,16391,9973,nightbus,105N,0,0,0,0,1,1,0
