timeInMin,trip_id,service_id,tipas,numeris,pirmadienis,antradienis,treciadienis,ketvirtadienis,penktadienis,sestadienis,sekmadienis 
394,1625,8395,bus,3,1,1,1,1,1,0,0
419,1626,8395,bus,3,1,1,1,1,1,0,0
464,1627,8395,bus,3,1,1,1,1,1,0,0
496,1628,8395,bus,3,1,1,1,1,1,0,0
536,1629,8395,bus,3,1,1,1,1,1,0,0
566,1630,8395,bus,3,1,1,1,1,1,0,0
592,1631,8395,bus,3,1,1,1,1,1,0,0
638,1632,8395,bus,3,1,1,1,1,1,0,0
719,1633,8395,bus,3,1,1,1,1,1,0,0
778,1634,8395,bus,3,1,1,1,1,1,0,0
814,1635,8395,bus,3,1,1,1,1,1,0,0
876,1636,8395,bus,3,1,1,1,1,1,0,0
927,1637,8395,bus,3,1,1,1,1,1,0,0
980,1638,8395,bus,3,1,1,1,1,1,0,0
1004,1639,8395,bus,3,1,1,1,1,1,0,0
1040,1640,8395,bus,3,1,1,1,1,1,0,0
1088,1641,8395,bus,3,1,1,1,1,1,0,0
1118,1642,8395,bus,3,1,1,1,1,1,0,0
1144,1643,8395,bus,3,1,1,1,1,1,0,0
1218,1644,8395,bus,3,1,1,1,1,1,0,0
695,1645,8396,bus,3,0,0,0,0,0,1,0
791,1646,8396,bus,3,0,0,0,0,0,1,0
898,1647,8396,bus,3,0,0,0,0,0,1,0
1002,1648,8396,bus,3,0,0,0,0,0,1,0
1148,1649,8396,bus,3,0,0,0,0,0,1,0
720,1650,8397,bus,3,0,0,0,0,0,0,1
827,1651,8397,bus,3,0,0,0,0,0,0,1
934,1652,8397,bus,3,0,0,0,0,0,0,1
1039,1653,8397,bus,3,0,0,0,0,0,0,1
1166,1654,8397,bus,3,0,0,0,0,0,0,1
1268,1655,8395,bus,3,1,1,1,1,1,0,0
1319,1656,8395,bus,3,1,1,1,1,1,0,0
1371,1657,8395,bus,3,1,1,1,1,1,0,0
372,1658,8396,bus,3,0,0,0,0,0,1,0
462,1659,8396,bus,3,0,0,0,0,0,1,0
558,1660,8396,bus,3,0,0,0,0,0,1,0
1252,1661,8396,bus,3,0,0,0,0,0,1,0
413,1662,8397,bus,3,0,0,0,0,0,0,1
510,1663,8397,bus,3,0,0,0,0,0,0,1
598,1664,8397,bus,3,0,0,0,0,0,0,1
1263,1665,8397,bus,3,0,0,0,0,0,0,1
365,10561,8030,bus,41,1,1,1,1,1,0,0
445,10562,8030,bus,41,1,1,1,1,1,0,0
506,10563,8030,bus,41,1,1,1,1,1,0,0
566,10564,8030,bus,41,1,1,1,1,1,0,0
651,10565,8030,bus,41,1,1,1,1,1,0,0
710,10566,8030,bus,41,1,1,1,1,1,0,0
765,10567,8030,bus,41,1,1,1,1,1,0,0
821,10568,8030,bus,41,1,1,1,1,1,0,0
886,10569,8030,bus,41,1,1,1,1,1,0,0
946,10570,8030,bus,41,1,1,1,1,1,0,0
1003,10571,8030,bus,41,1,1,1,1,1,0,0
1061,10572,8030,bus,41,1,1,1,1,1,0,0
1119,10573,8030,bus,41,1,1,1,1,1,0,0
1204,10574,8030,bus,41,1,1,1,1,1,0,0
1257,10575,8030,bus,41,1,1,1,1,1,0,0
1312,10576,8030,bus,41,1,1,1,1,1,0,0
1366,10577,8030,bus,41,1,1,1,1,1,0,0
377,10578,8031,bus,41,0,0,0,0,0,1,0
445,10579,8031,bus,41,0,0,0,0,0,1,0
506,10580,8031,bus,41,0,0,0,0,0,1,0
609,10581,8031,bus,41,0,0,0,0,0,1,0
679,10582,8031,bus,41,0,0,0,0,0,1,0
737,10583,8031,bus,41,0,0,0,0,0,1,0
796,10584,8031,bus,41,0,0,0,0,0,1,0
862,10585,8031,bus,41,0,0,0,0,0,1,0
923,10586,8031,bus,41,0,0,0,0,0,1,0
986,10587,8031,bus,41,0,0,0,0,0,1,0
1047,10588,8031,bus,41,0,0,0,0,0,1,0
1140,10589,8031,bus,41,0,0,0,0,0,1,0
1201,10590,8031,bus,41,0,0,0,0,0,1,0
1264,10591,8031,bus,41,0,0,0,0,0,1,0
1323,10592,8031,bus,41,0,0,0,0,0,1,0
445,10593,10248,bus,41,0,0,0,0,0,0,1
506,10594,10248,bus,41,0,0,0,0,0,0,1
609,10595,10248,bus,41,0,0,0,0,0,0,1
679,10596,10248,bus,41,0,0,0,0,0,0,1
737,10597,10248,bus,41,0,0,0,0,0,0,1
796,10598,10248,bus,41,0,0,0,0,0,0,1
862,10599,10248,bus,41,0,0,0,0,0,0,1
923,10600,10248,bus,41,0,0,0,0,0,0,1
986,10601,10248,bus,41,0,0,0,0,0,0,1
1047,10602,10248,bus,41,0,0,0,0,0,0,1
1140,10603,10248,bus,41,0,0,0,0,0,0,1
1201,10604,10248,bus,41,0,0,0,0,0,0,1
1264,10605,10248,bus,41,0,0,0,0,0,0,1
1323,10606,10248,bus,41,0,0,0,0,0,0,1
330,10700,9629,bus,42,1,1,1,1,1,0,0
377,10701,9629,bus,42,1,1,1,1,1,0,0
395,10702,9629,bus,42,1,1,1,1,1,0,0
422,10703,9629,bus,42,1,1,1,1,1,0,0
449,10704,9629,bus,42,1,1,1,1,1,0,0
468,10705,9629,bus,42,1,1,1,1,1,0,0
498,10706,9629,bus,42,1,1,1,1,1,0,0
521,10707,9629,bus,42,1,1,1,1,1,0,0
541,10708,9629,bus,42,1,1,1,1,1,0,0
573,10709,9629,bus,42,1,1,1,1,1,0,0
622,10710,9629,bus,42,1,1,1,1,1,0,0
660,10711,9629,bus,42,1,1,1,1,1,0,0
699,10712,9629,bus,42,1,1,1,1,1,0,0
730,10713,9629,bus,42,1,1,1,1,1,0,0
767,10714,9629,bus,42,1,1,1,1,1,0,0
804,10715,9629,bus,42,1,1,1,1,1,0,0
836,10716,9629,bus,42,1,1,1,1,1,0,0
877,10717,9629,bus,42,1,1,1,1,1,0,0
907,10718,9629,bus,42,1,1,1,1,1,0,0
948,10719,9629,bus,42,1,1,1,1,1,0,0
983,10720,9629,bus,42,1,1,1,1,1,0,0
1006,10721,9629,bus,42,1,1,1,1,1,0,0
1029,10722,9629,bus,42,1,1,1,1,1,0,0
1055,10723,9629,bus,42,1,1,1,1,1,0,0
1078,10724,9629,bus,42,1,1,1,1,1,0,0
1103,10725,9629,bus,42,1,1,1,1,1,0,0
1125,10726,9629,bus,42,1,1,1,1,1,0,0
1156,10727,9629,bus,42,1,1,1,1,1,0,0
1207,10728,9629,bus,42,1,1,1,1,1,0,0
1242,10729,9629,bus,42,1,1,1,1,1,0,0
1281,10730,9629,bus,42,1,1,1,1,1,0,0
1310,10731,9629,bus,42,1,1,1,1,1,0,0
1347,10732,9629,bus,42,1,1,1,1,1,0,0
1392,10733,9629,bus,42,1,1,1,1,1,0,0
362,10734,9630,bus,42,0,0,0,0,0,1,0
396,10735,9630,bus,42,0,0,0,0,0,1,0
434,10736,9630,bus,42,0,0,0,0,0,1,0
473,10737,9630,bus,42,0,0,0,0,0,1,0
503,10738,9630,bus,42,0,0,0,0,0,1,0
544,10739,9630,bus,42,0,0,0,0,0,1,0
570,10740,9630,bus,42,0,0,0,0,0,1,0
640,10741,9630,bus,42,0,0,0,0,0,1,0
674,10742,9630,bus,42,0,0,0,0,0,1,0
708,10743,9630,bus,42,0,0,0,0,0,1,0
744,10744,9630,bus,42,0,0,0,0,0,1,0
776,10745,9630,bus,42,0,0,0,0,0,1,0
812,10746,9630,bus,42,0,0,0,0,0,1,0
845,10747,9630,bus,42,0,0,0,0,0,1,0
885,10748,9630,bus,42,0,0,0,0,0,1,0
918,10749,9630,bus,42,0,0,0,0,0,1,0
953,10750,9630,bus,42,0,0,0,0,0,1,0
991,10751,9630,bus,42,0,0,0,0,0,1,0
1025,10752,9630,bus,42,0,0,0,0,0,1,0
1070,10753,9630,bus,42,0,0,0,0,0,1,0
1093,10754,9630,bus,42,0,0,0,0,0,1,0
1172,10755,9630,bus,42,0,0,0,0,0,1,0
1196,10756,9630,bus,42,0,0,0,0,0,1,0
1242,10757,9630,bus,42,0,0,0,0,0,1,0
1276,10758,9630,bus,42,0,0,0,0,0,1,0
1310,10759,9630,bus,42,0,0,0,0,0,1,0
1352,10760,9630,bus,42,0,0,0,0,0,1,0
1379,10761,9630,bus,42,0,0,0,0,0,1,0
434,10762,9631,bus,42,0,0,0,0,0,0,1
473,10763,9631,bus,42,0,0,0,0,0,0,1
503,10764,9631,bus,42,0,0,0,0,0,0,1
544,10765,9631,bus,42,0,0,0,0,0,0,1
570,10766,9631,bus,42,0,0,0,0,0,0,1
640,10767,9631,bus,42,0,0,0,0,0,0,1
674,10768,9631,bus,42,0,0,0,0,0,0,1
708,10769,9631,bus,42,0,0,0,0,0,0,1
744,10770,9631,bus,42,0,0,0,0,0,0,1
776,10771,9631,bus,42,0,0,0,0,0,0,1
812,10772,9631,bus,42,0,0,0,0,0,0,1
845,10773,9631,bus,42,0,0,0,0,0,0,1
885,10774,9631,bus,42,0,0,0,0,0,0,1
918,10775,9631,bus,42,0,0,0,0,0,0,1
953,10776,9631,bus,42,0,0,0,0,0,0,1
991,10777,9631,bus,42,0,0,0,0,0,0,1
1025,10778,9631,bus,42,0,0,0,0,0,0,1
1070,10779,9631,bus,42,0,0,0,0,0,0,1
1093,10780,9631,bus,42,0,0,0,0,0,0,1
1172,10781,9631,bus,42,0,0,0,0,0,0,1
1196,10782,9631,bus,42,0,0,0,0,0,0,1
1242,10783,9631,bus,42,0,0,0,0,0,0,1
1276,10784,9631,bus,42,0,0,0,0,0,0,1
1310,10785,9631,bus,42,0,0,0,0,0,0,1
1352,10786,9631,bus,42,0,0,0,0,0,0,1
1379,10787,9631,bus,42,0,0,0,0,0,0,1
378,15322,10408,bus,78,1,1,1,1,1,0,0
398,15323,10408,bus,78,1,1,1,1,1,0,0
435,15324,10408,bus,78,1,1,1,1,1,0,0
463,15325,10408,bus,78,1,1,1,1,1,0,0
481,15326,10408,bus,78,1,1,1,1,1,0,0
520,15327,10408,bus,78,1,1,1,1,1,0,0
547,15328,10408,bus,78,1,1,1,1,1,0,0
578,15329,10408,bus,78,1,1,1,1,1,0,0
611,15330,10408,bus,78,1,1,1,1,1,0,0
654,15331,10408,bus,78,1,1,1,1,1,0,0
694,15332,10408,bus,78,1,1,1,1,1,0,0
732,15333,10408,bus,78,1,1,1,1,1,0,0
776,15334,10408,bus,78,1,1,1,1,1,0,0
810,15335,10408,bus,78,1,1,1,1,1,0,0
864,15336,10408,bus,78,1,1,1,1,1,0,0
895,15337,10408,bus,78,1,1,1,1,1,0,0
953,15338,10408,bus,78,1,1,1,1,1,0,0
988,15339,10408,bus,78,1,1,1,1,1,0,0
1024,15340,10408,bus,78,1,1,1,1,1,0,0
1048,15341,10408,bus,78,1,1,1,1,1,0,0
1076,15342,10408,bus,78,1,1,1,1,1,0,0
1125,15343,10408,bus,78,1,1,1,1,1,0,0
1161,15344,10408,bus,78,1,1,1,1,1,0,0
1203,15345,10408,bus,78,1,1,1,1,1,0,0
1250,15346,10408,bus,78,1,1,1,1,1,0,0
1284,15347,10408,bus,78,1,1,1,1,1,0,0
1333,15348,10408,bus,78,1,1,1,1,1,0,0
1368,15349,10408,bus,78,1,1,1,1,1,0,0
1410,15350,10408,bus,78,1,1,1,1,1,0,0
383,15351,8037,bus,78,0,0,0,0,0,1,0
428,15352,8037,bus,78,0,0,0,0,0,1,0
468,15353,8037,bus,78,0,0,0,0,0,1,0
516,15354,8037,bus,78,0,0,0,0,0,1,0
552,15355,8037,bus,78,0,0,0,0,0,1,0
599,15356,8037,bus,78,0,0,0,0,0,1,0
668,15357,8037,bus,78,0,0,0,0,0,1,0
714,15358,8037,bus,78,0,0,0,0,0,1,0
757,15359,8037,bus,78,0,0,0,0,0,1,0
803,15360,8037,bus,78,0,0,0,0,0,1,0
840,15361,8037,bus,78,0,0,0,0,0,1,0
894,15362,8037,bus,78,0,0,0,0,0,1,0
936,15363,8037,bus,78,0,0,0,0,0,1,0
982,15364,8037,bus,78,0,0,0,0,0,1,0
1020,15365,8037,bus,78,0,0,0,0,0,1,0
1065,15366,8037,bus,78,0,0,0,0,0,1,0
1133,15367,8037,bus,78,0,0,0,0,0,1,0
1177,15368,8037,bus,78,0,0,0,0,0,1,0
1216,15369,8037,bus,78,0,0,0,0,0,1,0
1260,15370,8037,bus,78,0,0,0,0,0,1,0
1302,15371,8037,bus,78,0,0,0,0,0,1,0
1342,15372,8037,bus,78,0,0,0,0,0,1,0
1386,15373,8037,bus,78,0,0,0,0,0,1,0
1419,15374,8037,bus,78,0,0,0,0,0,1,0
428,15375,8038,bus,78,0,0,0,0,0,0,1
468,15376,8038,bus,78,0,0,0,0,0,0,1
516,15377,8038,bus,78,0,0,0,0,0,0,1
552,15378,8038,bus,78,0,0,0,0,0,0,1
599,15379,8038,bus,78,0,0,0,0,0,0,1
668,15380,8038,bus,78,0,0,0,0,0,0,1
714,15381,8038,bus,78,0,0,0,0,0,0,1
757,15382,8038,bus,78,0,0,0,0,0,0,1
803,15383,8038,bus,78,0,0,0,0,0,0,1
840,15384,8038,bus,78,0,0,0,0,0,0,1
894,15385,8038,bus,78,0,0,0,0,0,0,1
936,15386,8038,bus,78,0,0,0,0,0,0,1
982,15387,8038,bus,78,0,0,0,0,0,0,1
1020,15388,8038,bus,78,0,0,0,0,0,0,1
1065,15389,8038,bus,78,0,0,0,0,0,0,1
1133,15390,8038,bus,78,0,0,0,0,0,0,1
1177,15391,8038,bus,78,0,0,0,0,0,0,1
1216,15392,8038,bus,78,0,0,0,0,0,0,1
1260,15393,8038,bus,78,0,0,0,0,0,0,1
1302,15394,8038,bus,78,0,0,0,0,0,0,1
1342,15395,8038,bus,78,0,0,0,0,0,0,1
1386,15396,8038,bus,78,0,0,0,0,0,0,1
1419,15397,8038,bus,78,0,0,0,0,0,0,1
