timeInMin,trip_id,service_id,tipas,numeris,pirmadienis,antradienis,treciadienis,ketvirtadienis,penktadienis,sestadienis,sekmadienis 
393,1625,8395,bus,3,1,1,1,1,1,0,0
418,1626,8395,bus,3,1,1,1,1,1,0,0
463,1627,8395,bus,3,1,1,1,1,1,0,0
495,1628,8395,bus,3,1,1,1,1,1,0,0
535,1629,8395,bus,3,1,1,1,1,1,0,0
565,1630,8395,bus,3,1,1,1,1,1,0,0
591,1631,8395,bus,3,1,1,1,1,1,0,0
637,1632,8395,bus,3,1,1,1,1,1,0,0
718,1633,8395,bus,3,1,1,1,1,1,0,0
776,1634,8395,bus,3,1,1,1,1,1,0,0
813,1635,8395,bus,3,1,1,1,1,1,0,0
875,1636,8395,bus,3,1,1,1,1,1,0,0
926,1637,8395,bus,3,1,1,1,1,1,0,0
979,1638,8395,bus,3,1,1,1,1,1,0,0
1003,1639,8395,bus,3,1,1,1,1,1,0,0
1039,1640,8395,bus,3,1,1,1,1,1,0,0
1087,1641,8395,bus,3,1,1,1,1,1,0,0
1117,1642,8395,bus,3,1,1,1,1,1,0,0
1143,1643,8395,bus,3,1,1,1,1,1,0,0
1217,1644,8395,bus,3,1,1,1,1,1,0,0
694,1645,8396,bus,3,0,0,0,0,0,1,0
790,1646,8396,bus,3,0,0,0,0,0,1,0
897,1647,8396,bus,3,0,0,0,0,0,1,0
1001,1648,8396,bus,3,0,0,0,0,0,1,0
1147,1649,8396,bus,3,0,0,0,0,0,1,0
719,1650,8397,bus,3,0,0,0,0,0,0,1
826,1651,8397,bus,3,0,0,0,0,0,0,1
933,1652,8397,bus,3,0,0,0,0,0,0,1
1038,1653,8397,bus,3,0,0,0,0,0,0,1
1165,1654,8397,bus,3,0,0,0,0,0,0,1
1267,1655,8395,bus,3,1,1,1,1,1,0,0
1318,1656,8395,bus,3,1,1,1,1,1,0,0
1370,1657,8395,bus,3,1,1,1,1,1,0,0
371,1658,8396,bus,3,0,0,0,0,0,1,0
461,1659,8396,bus,3,0,0,0,0,0,1,0
557,1660,8396,bus,3,0,0,0,0,0,1,0
1251,1661,8396,bus,3,0,0,0,0,0,1,0
412,1662,8397,bus,3,0,0,0,0,0,0,1
509,1663,8397,bus,3,0,0,0,0,0,0,1
597,1664,8397,bus,3,0,0,0,0,0,0,1
1262,1665,8397,bus,3,0,0,0,0,0,0,1
363,10561,8030,bus,41,1,1,1,1,1,0,0
443,10562,8030,bus,41,1,1,1,1,1,0,0
504,10563,8030,bus,41,1,1,1,1,1,0,0
564,10564,8030,bus,41,1,1,1,1,1,0,0
649,10565,8030,bus,41,1,1,1,1,1,0,0
708,10566,8030,bus,41,1,1,1,1,1,0,0
763,10567,8030,bus,41,1,1,1,1,1,0,0
819,10568,8030,bus,41,1,1,1,1,1,0,0
884,10569,8030,bus,41,1,1,1,1,1,0,0
944,10570,8030,bus,41,1,1,1,1,1,0,0
1001,10571,8030,bus,41,1,1,1,1,1,0,0
1059,10572,8030,bus,41,1,1,1,1,1,0,0
1117,10573,8030,bus,41,1,1,1,1,1,0,0
1202,10574,8030,bus,41,1,1,1,1,1,0,0
1255,10575,8030,bus,41,1,1,1,1,1,0,0
1310,10576,8030,bus,41,1,1,1,1,1,0,0
1364,10577,8030,bus,41,1,1,1,1,1,0,0
375,10578,8031,bus,41,0,0,0,0,0,1,0
443,10579,8031,bus,41,0,0,0,0,0,1,0
504,10580,8031,bus,41,0,0,0,0,0,1,0
607,10581,8031,bus,41,0,0,0,0,0,1,0
677,10582,8031,bus,41,0,0,0,0,0,1,0
735,10583,8031,bus,41,0,0,0,0,0,1,0
794,10584,8031,bus,41,0,0,0,0,0,1,0
860,10585,8031,bus,41,0,0,0,0,0,1,0
921,10586,8031,bus,41,0,0,0,0,0,1,0
984,10587,8031,bus,41,0,0,0,0,0,1,0
1045,10588,8031,bus,41,0,0,0,0,0,1,0
1138,10589,8031,bus,41,0,0,0,0,0,1,0
1199,10590,8031,bus,41,0,0,0,0,0,1,0
1262,10591,8031,bus,41,0,0,0,0,0,1,0
1321,10592,8031,bus,41,0,0,0,0,0,1,0
443,10593,10248,bus,41,0,0,0,0,0,0,1
504,10594,10248,bus,41,0,0,0,0,0,0,1
607,10595,10248,bus,41,0,0,0,0,0,0,1
677,10596,10248,bus,41,0,0,0,0,0,0,1
735,10597,10248,bus,41,0,0,0,0,0,0,1
794,10598,10248,bus,41,0,0,0,0,0,0,1
860,10599,10248,bus,41,0,0,0,0,0,0,1
921,10600,10248,bus,41,0,0,0,0,0,0,1
984,10601,10248,bus,41,0,0,0,0,0,0,1
1045,10602,10248,bus,41,0,0,0,0,0,0,1
1138,10603,10248,bus,41,0,0,0,0,0,0,1
1199,10604,10248,bus,41,0,0,0,0,0,0,1
1262,10605,10248,bus,41,0,0,0,0,0,0,1
1321,10606,10248,bus,41,0,0,0,0,0,0,1
329,10700,9629,bus,42,1,1,1,1,1,0,0
375,10701,9629,bus,42,1,1,1,1,1,0,0
393,10702,9629,bus,42,1,1,1,1,1,0,0
420,10703,9629,bus,42,1,1,1,1,1,0,0
447,10704,9629,bus,42,1,1,1,1,1,0,0
466,10705,9629,bus,42,1,1,1,1,1,0,0
496,10706,9629,bus,42,1,1,1,1,1,0,0
519,10707,9629,bus,42,1,1,1,1,1,0,0
539,10708,9629,bus,42,1,1,1,1,1,0,0
571,10709,9629,bus,42,1,1,1,1,1,0,0
620,10710,9629,bus,42,1,1,1,1,1,0,0
658,10711,9629,bus,42,1,1,1,1,1,0,0
697,10712,9629,bus,42,1,1,1,1,1,0,0
728,10713,9629,bus,42,1,1,1,1,1,0,0
765,10714,9629,bus,42,1,1,1,1,1,0,0
802,10715,9629,bus,42,1,1,1,1,1,0,0
834,10716,9629,bus,42,1,1,1,1,1,0,0
875,10717,9629,bus,42,1,1,1,1,1,0,0
905,10718,9629,bus,42,1,1,1,1,1,0,0
946,10719,9629,bus,42,1,1,1,1,1,0,0
981,10720,9629,bus,42,1,1,1,1,1,0,0
1004,10721,9629,bus,42,1,1,1,1,1,0,0
1027,10722,9629,bus,42,1,1,1,1,1,0,0
1053,10723,9629,bus,42,1,1,1,1,1,0,0
1076,10724,9629,bus,42,1,1,1,1,1,0,0
1101,10725,9629,bus,42,1,1,1,1,1,0,0
1123,10726,9629,bus,42,1,1,1,1,1,0,0
1154,10727,9629,bus,42,1,1,1,1,1,0,0
1205,10728,9629,bus,42,1,1,1,1,1,0,0
1240,10729,9629,bus,42,1,1,1,1,1,0,0
1279,10730,9629,bus,42,1,1,1,1,1,0,0
1308,10731,9629,bus,42,1,1,1,1,1,0,0
1345,10732,9629,bus,42,1,1,1,1,1,0,0
1390,10733,9629,bus,42,1,1,1,1,1,0,0
360,10734,9630,bus,42,0,0,0,0,0,1,0
394,10735,9630,bus,42,0,0,0,0,0,1,0
432,10736,9630,bus,42,0,0,0,0,0,1,0
471,10737,9630,bus,42,0,0,0,0,0,1,0
501,10738,9630,bus,42,0,0,0,0,0,1,0
542,10739,9630,bus,42,0,0,0,0,0,1,0
568,10740,9630,bus,42,0,0,0,0,0,1,0
638,10741,9630,bus,42,0,0,0,0,0,1,0
672,10742,9630,bus,42,0,0,0,0,0,1,0
706,10743,9630,bus,42,0,0,0,0,0,1,0
742,10744,9630,bus,42,0,0,0,0,0,1,0
774,10745,9630,bus,42,0,0,0,0,0,1,0
810,10746,9630,bus,42,0,0,0,0,0,1,0
843,10747,9630,bus,42,0,0,0,0,0,1,0
883,10748,9630,bus,42,0,0,0,0,0,1,0
916,10749,9630,bus,42,0,0,0,0,0,1,0
951,10750,9630,bus,42,0,0,0,0,0,1,0
989,10751,9630,bus,42,0,0,0,0,0,1,0
1023,10752,9630,bus,42,0,0,0,0,0,1,0
1068,10753,9630,bus,42,0,0,0,0,0,1,0
1091,10754,9630,bus,42,0,0,0,0,0,1,0
1170,10755,9630,bus,42,0,0,0,0,0,1,0
1194,10756,9630,bus,42,0,0,0,0,0,1,0
1240,10757,9630,bus,42,0,0,0,0,0,1,0
1274,10758,9630,bus,42,0,0,0,0,0,1,0
1308,10759,9630,bus,42,0,0,0,0,0,1,0
1350,10760,9630,bus,42,0,0,0,0,0,1,0
1377,10761,9630,bus,42,0,0,0,0,0,1,0
432,10762,9631,bus,42,0,0,0,0,0,0,1
471,10763,9631,bus,42,0,0,0,0,0,0,1
501,10764,9631,bus,42,0,0,0,0,0,0,1
542,10765,9631,bus,42,0,0,0,0,0,0,1
568,10766,9631,bus,42,0,0,0,0,0,0,1
638,10767,9631,bus,42,0,0,0,0,0,0,1
672,10768,9631,bus,42,0,0,0,0,0,0,1
706,10769,9631,bus,42,0,0,0,0,0,0,1
742,10770,9631,bus,42,0,0,0,0,0,0,1
774,10771,9631,bus,42,0,0,0,0,0,0,1
810,10772,9631,bus,42,0,0,0,0,0,0,1
843,10773,9631,bus,42,0,0,0,0,0,0,1
883,10774,9631,bus,42,0,0,0,0,0,0,1
916,10775,9631,bus,42,0,0,0,0,0,0,1
951,10776,9631,bus,42,0,0,0,0,0,0,1
989,10777,9631,bus,42,0,0,0,0,0,0,1
1023,10778,9631,bus,42,0,0,0,0,0,0,1
1068,10779,9631,bus,42,0,0,0,0,0,0,1
1091,10780,9631,bus,42,0,0,0,0,0,0,1
1170,10781,9631,bus,42,0,0,0,0,0,0,1
1194,10782,9631,bus,42,0,0,0,0,0,0,1
1240,10783,9631,bus,42,0,0,0,0,0,0,1
1274,10784,9631,bus,42,0,0,0,0,0,0,1
1308,10785,9631,bus,42,0,0,0,0,0,0,1
1350,10786,9631,bus,42,0,0,0,0,0,0,1
1377,10787,9631,bus,42,0,0,0,0,0,0,1
376,15322,10408,bus,78,1,1,1,1,1,0,0
396,15323,10408,bus,78,1,1,1,1,1,0,0
433,15324,10408,bus,78,1,1,1,1,1,0,0
461,15325,10408,bus,78,1,1,1,1,1,0,0
479,15326,10408,bus,78,1,1,1,1,1,0,0
518,15327,10408,bus,78,1,1,1,1,1,0,0
545,15328,10408,bus,78,1,1,1,1,1,0,0
576,15329,10408,bus,78,1,1,1,1,1,0,0
609,15330,10408,bus,78,1,1,1,1,1,0,0
652,15331,10408,bus,78,1,1,1,1,1,0,0
692,15332,10408,bus,78,1,1,1,1,1,0,0
730,15333,10408,bus,78,1,1,1,1,1,0,0
774,15334,10408,bus,78,1,1,1,1,1,0,0
808,15335,10408,bus,78,1,1,1,1,1,0,0
862,15336,10408,bus,78,1,1,1,1,1,0,0
893,15337,10408,bus,78,1,1,1,1,1,0,0
951,15338,10408,bus,78,1,1,1,1,1,0,0
986,15339,10408,bus,78,1,1,1,1,1,0,0
1022,15340,10408,bus,78,1,1,1,1,1,0,0
1046,15341,10408,bus,78,1,1,1,1,1,0,0
1074,15342,10408,bus,78,1,1,1,1,1,0,0
1123,15343,10408,bus,78,1,1,1,1,1,0,0
1159,15344,10408,bus,78,1,1,1,1,1,0,0
1201,15345,10408,bus,78,1,1,1,1,1,0,0
1248,15346,10408,bus,78,1,1,1,1,1,0,0
1282,15347,10408,bus,78,1,1,1,1,1,0,0
1331,15348,10408,bus,78,1,1,1,1,1,0,0
1366,15349,10408,bus,78,1,1,1,1,1,0,0
1409,15350,10408,bus,78,1,1,1,1,1,0,0
381,15351,8037,bus,78,0,0,0,0,0,1,0
426,15352,8037,bus,78,0,0,0,0,0,1,0
466,15353,8037,bus,78,0,0,0,0,0,1,0
514,15354,8037,bus,78,0,0,0,0,0,1,0
550,15355,8037,bus,78,0,0,0,0,0,1,0
597,15356,8037,bus,78,0,0,0,0,0,1,0
666,15357,8037,bus,78,0,0,0,0,0,1,0
712,15358,8037,bus,78,0,0,0,0,0,1,0
755,15359,8037,bus,78,0,0,0,0,0,1,0
801,15360,8037,bus,78,0,0,0,0,0,1,0
838,15361,8037,bus,78,0,0,0,0,0,1,0
892,15362,8037,bus,78,0,0,0,0,0,1,0
934,15363,8037,bus,78,0,0,0,0,0,1,0
980,15364,8037,bus,78,0,0,0,0,0,1,0
1018,15365,8037,bus,78,0,0,0,0,0,1,0
1063,15366,8037,bus,78,0,0,0,0,0,1,0
1131,15367,8037,bus,78,0,0,0,0,0,1,0
1175,15368,8037,bus,78,0,0,0,0,0,1,0
1214,15369,8037,bus,78,0,0,0,0,0,1,0
1258,15370,8037,bus,78,0,0,0,0,0,1,0
1300,15371,8037,bus,78,0,0,0,0,0,1,0
1340,15372,8037,bus,78,0,0,0,0,0,1,0
1384,15373,8037,bus,78,0,0,0,0,0,1,0
1418,15374,8037,bus,78,0,0,0,0,0,1,0
426,15375,8038,bus,78,0,0,0,0,0,0,1
466,15376,8038,bus,78,0,0,0,0,0,0,1
514,15377,8038,bus,78,0,0,0,0,0,0,1
550,15378,8038,bus,78,0,0,0,0,0,0,1
597,15379,8038,bus,78,0,0,0,0,0,0,1
666,15380,8038,bus,78,0,0,0,0,0,0,1
712,15381,8038,bus,78,0,0,0,0,0,0,1
755,15382,8038,bus,78,0,0,0,0,0,0,1
801,15383,8038,bus,78,0,0,0,0,0,0,1
838,15384,8038,bus,78,0,0,0,0,0,0,1
892,15385,8038,bus,78,0,0,0,0,0,0,1
934,15386,8038,bus,78,0,0,0,0,0,0,1
980,15387,8038,bus,78,0,0,0,0,0,0,1
1018,15388,8038,bus,78,0,0,0,0,0,0,1
1063,15389,8038,bus,78,0,0,0,0,0,0,1
1131,15390,8038,bus,78,0,0,0,0,0,0,1
1175,15391,8038,bus,78,0,0,0,0,0,0,1
1214,15392,8038,bus,78,0,0,0,0,0,0,1
1258,15393,8038,bus,78,0,0,0,0,0,0,1
1300,15394,8038,bus,78,0,0,0,0,0,0,1
1340,15395,8038,bus,78,0,0,0,0,0,0,1
1384,15396,8038,bus,78,0,0,0,0,0,0,1
1418,15397,8038,bus,78,0,0,0,0,0,0,1
