timeInMin,trip_id,service_id,tipas,numeris,pirmadienis,antradienis,treciadienis,ketvirtadienis,penktadienis,sestadienis,sekmadienis 
327,1585,8395,bus,3,1,1,1,1,1,0,0
357,1586,8395,bus,3,1,1,1,1,1,0,0
405,1587,8395,bus,3,1,1,1,1,1,0,0
440,1588,8395,bus,3,1,1,1,1,1,0,0
470,1589,8395,bus,3,1,1,1,1,1,0,0
507,1590,8395,bus,3,1,1,1,1,1,0,0
535,1591,8395,bus,3,1,1,1,1,1,0,0
576,1592,8395,bus,3,1,1,1,1,1,0,0
658,1593,8395,bus,3,1,1,1,1,1,0,0
714,1594,8395,bus,3,1,1,1,1,1,0,0
757,1595,8395,bus,3,1,1,1,1,1,0,0
820,1596,8395,bus,3,1,1,1,1,1,0,0
857,1597,8395,bus,3,1,1,1,1,1,0,0
923,1598,8395,bus,3,1,1,1,1,1,0,0
945,1599,8395,bus,3,1,1,1,1,1,0,0
976,1600,8395,bus,3,1,1,1,1,1,0,0
1030,1601,8395,bus,3,1,1,1,1,1,0,0
1059,1602,8395,bus,3,1,1,1,1,1,0,0
1088,1603,8395,bus,3,1,1,1,1,1,0,0
1159,1604,8395,bus,3,1,1,1,1,1,0,0
630,1605,8396,bus,3,0,0,0,0,0,1,0
733,1606,8396,bus,3,0,0,0,0,0,1,0
834,1607,8396,bus,3,0,0,0,0,0,1,0
941,1608,8396,bus,3,0,0,0,0,0,1,0
1090,1609,8396,bus,3,0,0,0,0,0,1,0
664,1610,8397,bus,3,0,0,0,0,0,0,1
763,1611,8397,bus,3,0,0,0,0,0,0,1
870,1612,8397,bus,3,0,0,0,0,0,0,1
978,1613,8397,bus,3,0,0,0,0,0,0,1
1110,1614,8397,bus,3,0,0,0,0,0,0,1
