timeInMin,trip_id,service_id,tipas,numeris,pirmadienis,antradienis,treciadienis,ketvirtadienis,penktadienis,sestadienis,sekmadienis 
367,425,10323,expressbus,1G,0,0,0,0,0,0,1
382,426,10323,expressbus,1G,0,0,0,0,0,0,1
397,427,10323,expressbus,1G,0,0,0,0,0,0,1
411,428,10323,expressbus,1G,0,0,0,0,0,0,1
424,429,10323,expressbus,1G,0,0,0,0,0,0,1
434,430,10323,expressbus,1G,0,0,0,0,0,0,1
445,431,10323,expressbus,1G,0,0,0,0,0,0,1
454,432,10323,expressbus,1G,0,0,0,0,0,0,1
462,433,10323,expressbus,1G,0,0,0,0,0,0,1
470,434,10323,expressbus,1G,0,0,0,0,0,0,1
479,435,10323,expressbus,1G,0,0,0,0,0,0,1
488,436,10323,expressbus,1G,0,0,0,0,0,0,1
500,437,10323,expressbus,1G,0,0,0,0,0,0,1
511,438,10323,expressbus,1G,0,0,0,0,0,0,1
523,439,10323,expressbus,1G,0,0,0,0,0,0,1
531,440,10323,expressbus,1G,0,0,0,0,0,0,1
540,441,10323,expressbus,1G,0,0,0,0,0,0,1
548,442,10323,expressbus,1G,0,0,0,0,0,0,1
557,443,10323,expressbus,1G,0,0,0,0,0,0,1
565,444,10323,expressbus,1G,0,0,0,0,0,0,1
572,445,10323,expressbus,1G,0,0,0,0,0,0,1
581,446,10323,expressbus,1G,0,0,0,0,0,0,1
589,447,10323,expressbus,1G,0,0,0,0,0,0,1
598,448,10323,expressbus,1G,0,0,0,0,0,0,1
608,449,10323,expressbus,1G,0,0,0,0,0,0,1
615,450,10323,expressbus,1G,0,0,0,0,0,0,1
632,451,10323,expressbus,1G,0,0,0,0,0,0,1
646,452,10323,expressbus,1G,0,0,0,0,0,0,1
658,453,10323,expressbus,1G,0,0,0,0,0,0,1
672,454,10323,expressbus,1G,0,0,0,0,0,0,1
683,455,10323,expressbus,1G,0,0,0,0,0,0,1
692,456,10323,expressbus,1G,0,0,0,0,0,0,1
702,457,10323,expressbus,1G,0,0,0,0,0,0,1
713,458,10323,expressbus,1G,0,0,0,0,0,0,1
724,459,10323,expressbus,1G,0,0,0,0,0,0,1
737,460,10323,expressbus,1G,0,0,0,0,0,0,1
751,461,10323,expressbus,1G,0,0,0,0,0,0,1
764,462,10323,expressbus,1G,0,0,0,0,0,0,1
773,463,10323,expressbus,1G,0,0,0,0,0,0,1
782,464,10323,expressbus,1G,0,0,0,0,0,0,1
794,465,10323,expressbus,1G,0,0,0,0,0,0,1
806,466,10323,expressbus,1G,0,0,0,0,0,0,1
818,467,10323,expressbus,1G,0,0,0,0,0,0,1
830,468,10323,expressbus,1G,0,0,0,0,0,0,1
843,469,10323,expressbus,1G,0,0,0,0,0,0,1
855,470,10323,expressbus,1G,0,0,0,0,0,0,1
865,471,10323,expressbus,1G,0,0,0,0,0,0,1
872,472,10323,expressbus,1G,0,0,0,0,0,0,1
879,473,10323,expressbus,1G,0,0,0,0,0,0,1
886,474,10323,expressbus,1G,0,0,0,0,0,0,1
894,475,10323,expressbus,1G,0,0,0,0,0,0,1
901,476,10323,expressbus,1G,0,0,0,0,0,0,1
909,477,10323,expressbus,1G,0,0,0,0,0,0,1
919,478,10323,expressbus,1G,0,0,0,0,0,0,1
929,479,10323,expressbus,1G,0,0,0,0,0,0,1
940,480,10323,expressbus,1G,0,0,0,0,0,0,1
949,481,10323,expressbus,1G,0,0,0,0,0,0,1
960,482,10323,expressbus,1G,0,0,0,0,0,0,1
969,483,10323,expressbus,1G,0,0,0,0,0,0,1
978,484,10323,expressbus,1G,0,0,0,0,0,0,1
986,485,10323,expressbus,1G,0,0,0,0,0,0,1
994,486,10323,expressbus,1G,0,0,0,0,0,0,1
1004,487,10323,expressbus,1G,0,0,0,0,0,0,1
1011,488,10323,expressbus,1G,0,0,0,0,0,0,1
1019,489,10323,expressbus,1G,0,0,0,0,0,0,1
1026,490,10323,expressbus,1G,0,0,0,0,0,0,1
1034,491,10323,expressbus,1G,0,0,0,0,0,0,1
1043,492,10323,expressbus,1G,0,0,0,0,0,0,1
1052,493,10323,expressbus,1G,0,0,0,0,0,0,1
1061,494,10323,expressbus,1G,0,0,0,0,0,0,1
1075,495,10323,expressbus,1G,0,0,0,0,0,0,1
1088,496,10323,expressbus,1G,0,0,0,0,0,0,1
1103,497,10323,expressbus,1G,0,0,0,0,0,0,1
1115,498,10323,expressbus,1G,0,0,0,0,0,0,1
1131,499,10323,expressbus,1G,0,0,0,0,0,0,1
1146,500,10323,expressbus,1G,0,0,0,0,0,0,1
1159,501,10323,expressbus,1G,0,0,0,0,0,0,1
1174,502,10323,expressbus,1G,0,0,0,0,0,0,1
1185,503,10323,expressbus,1G,0,0,0,0,0,0,1
1196,504,10323,expressbus,1G,0,0,0,0,0,0,1
1210,505,10323,expressbus,1G,0,0,0,0,0,0,1
1219,506,10323,expressbus,1G,0,0,0,0,0,0,1
1229,507,10323,expressbus,1G,0,0,0,0,0,0,1
1242,508,10323,expressbus,1G,0,0,0,0,0,0,1
1256,509,10323,expressbus,1G,0,0,0,0,0,0,1
1266,510,10323,expressbus,1G,0,0,0,0,0,0,1
1276,511,10323,expressbus,1G,0,0,0,0,0,0,1
1289,512,10323,expressbus,1G,0,0,0,0,0,0,1
1301,513,10323,expressbus,1G,0,0,0,0,0,0,1
1313,514,10323,expressbus,1G,0,0,0,0,0,0,1
1325,515,10323,expressbus,1G,0,0,0,0,0,0,1
1335,516,10323,expressbus,1G,0,0,0,0,0,0,1
1347,517,10323,expressbus,1G,0,0,0,0,0,0,1
1358,518,10323,expressbus,1G,0,0,0,0,0,0,1
1369,519,10323,expressbus,1G,0,0,0,0,0,0,1
1378,520,10323,expressbus,1G,0,0,0,0,0,0,1
1391,521,10323,expressbus,1G,0,0,0,0,0,0,1
1407,522,10323,expressbus,1G,0,0,0,0,0,0,1
1424,523,10323,expressbus,1G,0,0,0,0,0,0,1
337,524,10321,expressbus,1G,1,1,1,1,1,0,0
346,525,10321,expressbus,1G,1,1,1,1,1,0,0
358,526,10321,expressbus,1G,1,1,1,1,1,0,0
370,527,10321,expressbus,1G,1,1,1,1,1,0,0
378,528,10321,expressbus,1G,1,1,1,1,1,0,0
384,529,10321,expressbus,1G,1,1,1,1,1,0,0
390,530,10321,expressbus,1G,1,1,1,1,1,0,0
398,531,10321,expressbus,1G,1,1,1,1,1,0,0
406,532,10321,expressbus,1G,1,1,1,1,1,0,0
415,533,10321,expressbus,1G,1,1,1,1,1,0,0
423,534,10321,expressbus,1G,1,1,1,1,1,0,0
431,535,10321,expressbus,1G,1,1,1,1,1,0,0
438,536,10321,expressbus,1G,1,1,1,1,1,0,0
445,537,10321,expressbus,1G,1,1,1,1,1,0,0
454,538,10321,expressbus,1G,1,1,1,1,1,0,0
459,539,10321,expressbus,1G,1,1,1,1,1,0,0
465,540,10321,expressbus,1G,1,1,1,1,1,0,0
470,541,10321,expressbus,1G,1,1,1,1,1,0,0
475,542,10321,expressbus,1G,1,1,1,1,1,0,0
480,543,10321,expressbus,1G,1,1,1,1,1,0,0
486,544,10321,expressbus,1G,1,1,1,1,1,0,0
491,545,10321,expressbus,1G,1,1,1,1,1,0,0
496,546,10321,expressbus,1G,1,1,1,1,1,0,0
501,547,10321,expressbus,1G,1,1,1,1,1,0,0
507,548,10321,expressbus,1G,1,1,1,1,1,0,0
513,549,10321,expressbus,1G,1,1,1,1,1,0,0
520,550,10321,expressbus,1G,1,1,1,1,1,0,0
527,551,10321,expressbus,1G,1,1,1,1,1,0,0
533,552,10321,expressbus,1G,1,1,1,1,1,0,0
538,553,10321,expressbus,1G,1,1,1,1,1,0,0
544,554,10321,expressbus,1G,1,1,1,1,1,0,0
549,555,10321,expressbus,1G,1,1,1,1,1,0,0
553,556,10321,expressbus,1G,1,1,1,1,1,0,0
557,557,10321,expressbus,1G,1,1,1,1,1,0,0
562,558,10321,expressbus,1G,1,1,1,1,1,0,0
567,559,10321,expressbus,1G,1,1,1,1,1,0,0
572,560,10321,expressbus,1G,1,1,1,1,1,0,0
577,561,10321,expressbus,1G,1,1,1,1,1,0,0
581,562,10321,expressbus,1G,1,1,1,1,1,0,0
586,563,10321,expressbus,1G,1,1,1,1,1,0,0
591,564,10321,expressbus,1G,1,1,1,1,1,0,0
596,565,10321,expressbus,1G,1,1,1,1,1,0,0
601,566,10321,expressbus,1G,1,1,1,1,1,0,0
606,567,10321,expressbus,1G,1,1,1,1,1,0,0
611,568,10321,expressbus,1G,1,1,1,1,1,0,0
616,569,10321,expressbus,1G,1,1,1,1,1,0,0
622,570,10321,expressbus,1G,1,1,1,1,1,0,0
627,571,10321,expressbus,1G,1,1,1,1,1,0,0
633,572,10321,expressbus,1G,1,1,1,1,1,0,0
639,573,10321,expressbus,1G,1,1,1,1,1,0,0
645,574,10321,expressbus,1G,1,1,1,1,1,0,0
650,575,10321,expressbus,1G,1,1,1,1,1,0,0
659,576,10321,expressbus,1G,1,1,1,1,1,0,0
667,577,10321,expressbus,1G,1,1,1,1,1,0,0
674,578,10321,expressbus,1G,1,1,1,1,1,0,0
682,579,10321,expressbus,1G,1,1,1,1,1,0,0
690,580,10321,expressbus,1G,1,1,1,1,1,0,0
698,581,10321,expressbus,1G,1,1,1,1,1,0,0
707,582,10321,expressbus,1G,1,1,1,1,1,0,0
718,583,10321,expressbus,1G,1,1,1,1,1,0,0
730,584,10321,expressbus,1G,1,1,1,1,1,0,0
740,585,10321,expressbus,1G,1,1,1,1,1,0,0
749,586,10321,expressbus,1G,1,1,1,1,1,0,0
757,587,10321,expressbus,1G,1,1,1,1,1,0,0
765,588,10321,expressbus,1G,1,1,1,1,1,0,0
773,589,10321,expressbus,1G,1,1,1,1,1,0,0
782,590,10321,expressbus,1G,1,1,1,1,1,0,0
790,591,10321,expressbus,1G,1,1,1,1,1,0,0
798,592,10321,expressbus,1G,1,1,1,1,1,0,0
806,593,10321,expressbus,1G,1,1,1,1,1,0,0
814,594,10321,expressbus,1G,1,1,1,1,1,0,0
825,595,10321,expressbus,1G,1,1,1,1,1,0,0
833,596,10321,expressbus,1G,1,1,1,1,1,0,0
841,597,10321,expressbus,1G,1,1,1,1,1,0,0
850,598,10321,expressbus,1G,1,1,1,1,1,0,0
857,599,10321,expressbus,1G,1,1,1,1,1,0,0
867,600,10321,expressbus,1G,1,1,1,1,1,0,0
873,601,10321,expressbus,1G,1,1,1,1,1,0,0
881,602,10321,expressbus,1G,1,1,1,1,1,0,0
893,603,10321,expressbus,1G,1,1,1,1,1,0,0
900,604,10321,expressbus,1G,1,1,1,1,1,0,0
911,605,10321,expressbus,1G,1,1,1,1,1,0,0
918,606,10321,expressbus,1G,1,1,1,1,1,0,0
927,607,10321,expressbus,1G,1,1,1,1,1,0,0
937,608,10321,expressbus,1G,1,1,1,1,1,0,0
946,609,10321,expressbus,1G,1,1,1,1,1,0,0
955,610,10321,expressbus,1G,1,1,1,1,1,0,0
962,611,10321,expressbus,1G,1,1,1,1,1,0,0
970,612,10321,expressbus,1G,1,1,1,1,1,0,0
977,613,10321,expressbus,1G,1,1,1,1,1,0,0
983,614,10321,expressbus,1G,1,1,1,1,1,0,0
989,615,10321,expressbus,1G,1,1,1,1,1,0,0
995,616,10321,expressbus,1G,1,1,1,1,1,0,0
1000,617,10321,expressbus,1G,1,1,1,1,1,0,0
1007,618,10321,expressbus,1G,1,1,1,1,1,0,0
1014,619,10321,expressbus,1G,1,1,1,1,1,0,0
1019,620,10321,expressbus,1G,1,1,1,1,1,0,0
1025,621,10321,expressbus,1G,1,1,1,1,1,0,0
1031,622,10321,expressbus,1G,1,1,1,1,1,0,0
1039,623,10321,expressbus,1G,1,1,1,1,1,0,0
1046,624,10321,expressbus,1G,1,1,1,1,1,0,0
1052,625,10321,expressbus,1G,1,1,1,1,1,0,0
1058,626,10321,expressbus,1G,1,1,1,1,1,0,0
1065,627,10321,expressbus,1G,1,1,1,1,1,0,0
1070,628,10321,expressbus,1G,1,1,1,1,1,0,0
1077,629,10321,expressbus,1G,1,1,1,1,1,0,0
1083,630,10321,expressbus,1G,1,1,1,1,1,0,0
1088,631,10321,expressbus,1G,1,1,1,1,1,0,0
1093,632,10321,expressbus,1G,1,1,1,1,1,0,0
1097,633,10321,expressbus,1G,1,1,1,1,1,0,0
1102,634,10321,expressbus,1G,1,1,1,1,1,0,0
1107,635,10321,expressbus,1G,1,1,1,1,1,0,0
1111,636,10321,expressbus,1G,1,1,1,1,1,0,0
1116,637,10321,expressbus,1G,1,1,1,1,1,0,0
1121,638,10321,expressbus,1G,1,1,1,1,1,0,0
1126,639,10321,expressbus,1G,1,1,1,1,1,0,0
1134,640,10321,expressbus,1G,1,1,1,1,1,0,0
1141,641,10321,expressbus,1G,1,1,1,1,1,0,0
1147,642,10321,expressbus,1G,1,1,1,1,1,0,0
1153,643,10321,expressbus,1G,1,1,1,1,1,0,0
1160,644,10321,expressbus,1G,1,1,1,1,1,0,0
1168,645,10321,expressbus,1G,1,1,1,1,1,0,0
1176,646,10321,expressbus,1G,1,1,1,1,1,0,0
1183,647,10321,expressbus,1G,1,1,1,1,1,0,0
1189,648,10321,expressbus,1G,1,1,1,1,1,0,0
1194,649,10321,expressbus,1G,1,1,1,1,1,0,0
1199,650,10321,expressbus,1G,1,1,1,1,1,0,0
1205,651,10321,expressbus,1G,1,1,1,1,1,0,0
1212,652,10321,expressbus,1G,1,1,1,1,1,0,0
1219,653,10321,expressbus,1G,1,1,1,1,1,0,0
1227,654,10321,expressbus,1G,1,1,1,1,1,0,0
1237,655,10321,expressbus,1G,1,1,1,1,1,0,0
1247,656,10321,expressbus,1G,1,1,1,1,1,0,0
1256,657,10321,expressbus,1G,1,1,1,1,1,0,0
1264,658,10321,expressbus,1G,1,1,1,1,1,0,0
1273,659,10321,expressbus,1G,1,1,1,1,1,0,0
1282,660,10321,expressbus,1G,1,1,1,1,1,0,0
1291,661,10321,expressbus,1G,1,1,1,1,1,0,0
1301,662,10321,expressbus,1G,1,1,1,1,1,0,0
1310,663,10321,expressbus,1G,1,1,1,1,1,0,0
1320,664,10321,expressbus,1G,1,1,1,1,1,0,0
1331,665,10321,expressbus,1G,1,1,1,1,1,0,0
1338,666,10321,expressbus,1G,1,1,1,1,1,0,0
1348,667,10321,expressbus,1G,1,1,1,1,1,0,0
1360,668,10321,expressbus,1G,1,1,1,1,1,0,0
1374,669,10321,expressbus,1G,1,1,1,1,1,0,0
1389,670,10321,expressbus,1G,1,1,1,1,1,0,0
1403,671,10321,expressbus,1G,1,1,1,1,1,0,0
1417,672,10321,expressbus,1G,1,1,1,1,1,0,0
347,673,10322,expressbus,1G,0,0,0,0,0,1,0
367,674,10322,expressbus,1G,0,0,0,0,0,1,0
382,675,10322,expressbus,1G,0,0,0,0,0,1,0
397,676,10322,expressbus,1G,0,0,0,0,0,1,0
411,677,10322,expressbus,1G,0,0,0,0,0,1,0
424,678,10322,expressbus,1G,0,0,0,0,0,1,0
434,679,10322,expressbus,1G,0,0,0,0,0,1,0
445,680,10322,expressbus,1G,0,0,0,0,0,1,0
454,681,10322,expressbus,1G,0,0,0,0,0,1,0
462,682,10322,expressbus,1G,0,0,0,0,0,1,0
470,683,10322,expressbus,1G,0,0,0,0,0,1,0
479,684,10322,expressbus,1G,0,0,0,0,0,1,0
488,685,10322,expressbus,1G,0,0,0,0,0,1,0
500,686,10322,expressbus,1G,0,0,0,0,0,1,0
511,687,10322,expressbus,1G,0,0,0,0,0,1,0
523,688,10322,expressbus,1G,0,0,0,0,0,1,0
531,689,10322,expressbus,1G,0,0,0,0,0,1,0
540,690,10322,expressbus,1G,0,0,0,0,0,1,0
548,691,10322,expressbus,1G,0,0,0,0,0,1,0
557,692,10322,expressbus,1G,0,0,0,0,0,1,0
565,693,10322,expressbus,1G,0,0,0,0,0,1,0
572,694,10322,expressbus,1G,0,0,0,0,0,1,0
581,695,10322,expressbus,1G,0,0,0,0,0,1,0
589,696,10322,expressbus,1G,0,0,0,0,0,1,0
598,697,10322,expressbus,1G,0,0,0,0,0,1,0
608,698,10322,expressbus,1G,0,0,0,0,0,1,0
615,699,10322,expressbus,1G,0,0,0,0,0,1,0
632,700,10322,expressbus,1G,0,0,0,0,0,1,0
646,701,10322,expressbus,1G,0,0,0,0,0,1,0
658,702,10322,expressbus,1G,0,0,0,0,0,1,0
672,703,10322,expressbus,1G,0,0,0,0,0,1,0
683,704,10322,expressbus,1G,0,0,0,0,0,1,0
692,705,10322,expressbus,1G,0,0,0,0,0,1,0
702,706,10322,expressbus,1G,0,0,0,0,0,1,0
713,707,10322,expressbus,1G,0,0,0,0,0,1,0
724,708,10322,expressbus,1G,0,0,0,0,0,1,0
737,709,10322,expressbus,1G,0,0,0,0,0,1,0
751,710,10322,expressbus,1G,0,0,0,0,0,1,0
764,711,10322,expressbus,1G,0,0,0,0,0,1,0
773,712,10322,expressbus,1G,0,0,0,0,0,1,0
782,713,10322,expressbus,1G,0,0,0,0,0,1,0
794,714,10322,expressbus,1G,0,0,0,0,0,1,0
806,715,10322,expressbus,1G,0,0,0,0,0,1,0
818,716,10322,expressbus,1G,0,0,0,0,0,1,0
830,717,10322,expressbus,1G,0,0,0,0,0,1,0
843,718,10322,expressbus,1G,0,0,0,0,0,1,0
855,719,10322,expressbus,1G,0,0,0,0,0,1,0
865,720,10322,expressbus,1G,0,0,0,0,0,1,0
872,721,10322,expressbus,1G,0,0,0,0,0,1,0
879,722,10322,expressbus,1G,0,0,0,0,0,1,0
886,723,10322,expressbus,1G,0,0,0,0,0,1,0
894,724,10322,expressbus,1G,0,0,0,0,0,1,0
901,725,10322,expressbus,1G,0,0,0,0,0,1,0
909,726,10322,expressbus,1G,0,0,0,0,0,1,0
919,727,10322,expressbus,1G,0,0,0,0,0,1,0
929,728,10322,expressbus,1G,0,0,0,0,0,1,0
940,729,10322,expressbus,1G,0,0,0,0,0,1,0
949,730,10322,expressbus,1G,0,0,0,0,0,1,0
960,731,10322,expressbus,1G,0,0,0,0,0,1,0
969,732,10322,expressbus,1G,0,0,0,0,0,1,0
978,733,10322,expressbus,1G,0,0,0,0,0,1,0
986,734,10322,expressbus,1G,0,0,0,0,0,1,0
994,735,10322,expressbus,1G,0,0,0,0,0,1,0
1004,736,10322,expressbus,1G,0,0,0,0,0,1,0
1011,737,10322,expressbus,1G,0,0,0,0,0,1,0
1019,738,10322,expressbus,1G,0,0,0,0,0,1,0
1026,739,10322,expressbus,1G,0,0,0,0,0,1,0
1034,740,10322,expressbus,1G,0,0,0,0,0,1,0
1043,741,10322,expressbus,1G,0,0,0,0,0,1,0
1052,742,10322,expressbus,1G,0,0,0,0,0,1,0
1061,743,10322,expressbus,1G,0,0,0,0,0,1,0
1075,744,10322,expressbus,1G,0,0,0,0,0,1,0
1088,745,10322,expressbus,1G,0,0,0,0,0,1,0
1103,746,10322,expressbus,1G,0,0,0,0,0,1,0
1115,747,10322,expressbus,1G,0,0,0,0,0,1,0
1131,748,10322,expressbus,1G,0,0,0,0,0,1,0
1146,749,10322,expressbus,1G,0,0,0,0,0,1,0
1159,750,10322,expressbus,1G,0,0,0,0,0,1,0
1174,751,10322,expressbus,1G,0,0,0,0,0,1,0
1185,752,10322,expressbus,1G,0,0,0,0,0,1,0
1196,753,10322,expressbus,1G,0,0,0,0,0,1,0
1210,754,10322,expressbus,1G,0,0,0,0,0,1,0
1219,755,10322,expressbus,1G,0,0,0,0,0,1,0
1229,756,10322,expressbus,1G,0,0,0,0,0,1,0
1242,757,10322,expressbus,1G,0,0,0,0,0,1,0
1256,758,10322,expressbus,1G,0,0,0,0,0,1,0
1266,759,10322,expressbus,1G,0,0,0,0,0,1,0
1276,760,10322,expressbus,1G,0,0,0,0,0,1,0
1289,761,10322,expressbus,1G,0,0,0,0,0,1,0
1301,762,10322,expressbus,1G,0,0,0,0,0,1,0
1313,763,10322,expressbus,1G,0,0,0,0,0,1,0
1325,764,10322,expressbus,1G,0,0,0,0,0,1,0
1335,765,10322,expressbus,1G,0,0,0,0,0,1,0
1347,766,10322,expressbus,1G,0,0,0,0,0,1,0
1358,767,10322,expressbus,1G,0,0,0,0,0,1,0
1369,768,10322,expressbus,1G,0,0,0,0,0,1,0
1378,769,10322,expressbus,1G,0,0,0,0,0,1,0
1391,770,10322,expressbus,1G,0,0,0,0,0,1,0
1407,771,10322,expressbus,1G,0,0,0,0,0,1,0
1424,772,10322,expressbus,1G,0,0,0,0,0,1,0
351,813,10323,expressbus,1G,0,0,0,0,0,0,1
359,814,10323,expressbus,1G,0,0,0,0,0,0,1
377,815,10323,expressbus,1G,0,0,0,0,0,0,1
392,816,10323,expressbus,1G,0,0,0,0,0,0,1
489,817,10323,expressbus,1G,0,0,0,0,0,0,1
518,818,10323,expressbus,1G,0,0,0,0,0,0,1
306,819,10321,expressbus,1G,1,1,1,1,1,0,0
317,820,10321,expressbus,1G,1,1,1,1,1,0,0
327,821,10321,expressbus,1G,1,1,1,1,1,0,0
353,822,10321,expressbus,1G,1,1,1,1,1,0,0
365,823,10321,expressbus,1G,1,1,1,1,1,0,0
374,824,10321,expressbus,1G,1,1,1,1,1,0,0
394,825,10321,expressbus,1G,1,1,1,1,1,0,0
402,826,10321,expressbus,1G,1,1,1,1,1,0,0
409,827,10321,expressbus,1G,1,1,1,1,1,0,0
412,828,10321,expressbus,1G,1,1,1,1,1,0,0
419,829,10321,expressbus,1G,1,1,1,1,1,0,0
427,830,10321,expressbus,1G,1,1,1,1,1,0,0
309,831,10322,expressbus,1G,0,0,0,0,0,1,0
325,832,10322,expressbus,1G,0,0,0,0,0,1,0
340,833,10322,expressbus,1G,0,0,0,0,0,1,0
359,834,10322,expressbus,1G,0,0,0,0,0,1,0
377,835,10322,expressbus,1G,0,0,0,0,0,1,0
392,836,10322,expressbus,1G,0,0,0,0,0,1,0
489,837,10322,expressbus,1G,0,0,0,0,0,1,0
518,838,10322,expressbus,1G,0,0,0,0,0,1,0
298,1575,10324,expressbus,2G,1,1,1,1,1,0,0
313,1576,10324,expressbus,2G,1,1,1,1,1,0,0
326,1577,10324,expressbus,2G,1,1,1,1,1,0,0
340,1578,10324,expressbus,2G,1,1,1,1,1,0,0
353,1579,10324,expressbus,2G,1,1,1,1,1,0,0
311,1580,10325,expressbus,2G,0,0,0,0,0,1,0
327,1581,10325,expressbus,2G,0,0,0,0,0,1,0
347,1582,10325,expressbus,2G,0,0,0,0,0,1,0
347,1583,10326,expressbus,2G,0,0,0,0,0,0,1
363,1584,10326,expressbus,2G,0,0,0,0,0,0,1
359,6752,10354,bus,21,1,1,1,1,1,0,0
386,6753,10354,bus,21,1,1,1,1,1,0,0
408,6754,10354,bus,21,1,1,1,1,1,0,0
433,6755,10354,bus,21,1,1,1,1,1,0,0
461,6756,10354,bus,21,1,1,1,1,1,0,0
482,6757,10354,bus,21,1,1,1,1,1,0,0
507,6758,10354,bus,21,1,1,1,1,1,0,0
535,6759,10354,bus,21,1,1,1,1,1,0,0
598,6760,10354,bus,21,1,1,1,1,1,0,0
637,6761,10354,bus,21,1,1,1,1,1,0,0
688,6762,10354,bus,21,1,1,1,1,1,0,0
727,6763,10354,bus,21,1,1,1,1,1,0,0
764,6764,10354,bus,21,1,1,1,1,1,0,0
803,6765,10354,bus,21,1,1,1,1,1,0,0
839,6766,10354,bus,21,1,1,1,1,1,0,0
875,6767,10354,bus,21,1,1,1,1,1,0,0
912,6768,10354,bus,21,1,1,1,1,1,0,0
951,6769,10354,bus,21,1,1,1,1,1,0,0
985,6770,10354,bus,21,1,1,1,1,1,0,0
1008,6771,10354,bus,21,1,1,1,1,1,0,0
1032,6772,10354,bus,21,1,1,1,1,1,0,0
1059,6773,10354,bus,21,1,1,1,1,1,0,0
1085,6774,10354,bus,21,1,1,1,1,1,0,0
1108,6775,10354,bus,21,1,1,1,1,1,0,0
1153,6776,10354,bus,21,1,1,1,1,1,0,0
1202,6777,10354,bus,21,1,1,1,1,1,0,0
1255,6778,10354,bus,21,1,1,1,1,1,0,0
1294,6779,10354,bus,21,1,1,1,1,1,0,0
1327,6780,10354,bus,21,1,1,1,1,1,0,0
1366,6781,10354,bus,21,1,1,1,1,1,0,0
382,6782,9374,bus,21,0,0,0,0,0,1,0
454,6783,9374,bus,21,0,0,0,0,0,1,0
528,6784,9374,bus,21,0,0,0,0,0,1,0
614,6785,9374,bus,21,0,0,0,0,0,1,0
704,6786,9374,bus,21,0,0,0,0,0,1,0
770,6787,9374,bus,21,0,0,0,0,0,1,0
842,6788,9374,bus,21,0,0,0,0,0,1,0
913,6789,9374,bus,21,0,0,0,0,0,1,0
983,6790,9374,bus,21,0,0,0,0,0,1,0
1054,6791,9374,bus,21,0,0,0,0,0,1,0
1140,6792,9374,bus,21,0,0,0,0,0,1,0
1226,6793,9374,bus,21,0,0,0,0,0,1,0
1292,6794,9374,bus,21,0,0,0,0,0,1,0
1358,6795,9374,bus,21,0,0,0,0,0,1,0
421,6796,9375,bus,21,0,0,0,0,0,0,1
495,6797,9375,bus,21,0,0,0,0,0,0,1
596,6798,9375,bus,21,0,0,0,0,0,0,1
668,6799,9375,bus,21,0,0,0,0,0,0,1
745,6800,9375,bus,21,0,0,0,0,0,0,1
816,6801,9375,bus,21,0,0,0,0,0,0,1
887,6802,9375,bus,21,0,0,0,0,0,0,1
958,6803,9375,bus,21,0,0,0,0,0,0,1
1029,6804,9375,bus,21,0,0,0,0,0,0,1
1130,6805,9375,bus,21,0,0,0,0,0,0,1
1201,6806,9375,bus,21,0,0,0,0,0,0,1
1272,6807,9375,bus,21,0,0,0,0,0,0,1
1343,6808,9375,bus,21,0,0,0,0,0,0,1
930,6809,10354,bus,21,1,1,1,1,1,0,0
397,12229,10394,bus,53,0,0,0,0,0,0,1
412,12230,10394,bus,53,0,0,0,0,0,0,1
427,12231,10394,bus,53,0,0,0,0,0,0,1
444,12232,10394,bus,53,0,0,0,0,0,0,1
460,12233,10394,bus,53,0,0,0,0,0,0,1
475,12234,10394,bus,53,0,0,0,0,0,0,1
490,12235,10394,bus,53,0,0,0,0,0,0,1
505,12236,10394,bus,53,0,0,0,0,0,0,1
520,12237,10394,bus,53,0,0,0,0,0,0,1
536,12238,10394,bus,53,0,0,0,0,0,0,1
551,12239,10394,bus,53,0,0,0,0,0,0,1
562,12240,10394,bus,53,0,0,0,0,0,0,1
573,12241,10394,bus,53,0,0,0,0,0,0,1
583,12242,10394,bus,53,0,0,0,0,0,0,1
592,12243,10394,bus,53,0,0,0,0,0,0,1
602,12244,10394,bus,53,0,0,0,0,0,0,1
612,12245,10394,bus,53,0,0,0,0,0,0,1
624,12246,10394,bus,53,0,0,0,0,0,0,1
637,12247,10394,bus,53,0,0,0,0,0,0,1
647,12248,10394,bus,53,0,0,0,0,0,0,1
656,12249,10394,bus,53,0,0,0,0,0,0,1
665,12250,10394,bus,53,0,0,0,0,0,0,1
676,12251,10394,bus,53,0,0,0,0,0,0,1
688,12252,10394,bus,53,0,0,0,0,0,0,1
699,12253,10394,bus,53,0,0,0,0,0,0,1
709,12254,10394,bus,53,0,0,0,0,0,0,1
719,12255,10394,bus,53,0,0,0,0,0,0,1
731,12256,10394,bus,53,0,0,0,0,0,0,1
744,12257,10394,bus,53,0,0,0,0,0,0,1
761,12258,10394,bus,53,0,0,0,0,0,0,1
770,12259,10394,bus,53,0,0,0,0,0,0,1
781,12260,10394,bus,53,0,0,0,0,0,0,1
790,12261,10394,bus,53,0,0,0,0,0,0,1
796,12262,10394,bus,53,0,0,0,0,0,0,1
807,12263,10394,bus,53,0,0,0,0,0,0,1
815,12264,10394,bus,53,0,0,0,0,0,0,1
824,12265,10394,bus,53,0,0,0,0,0,0,1
832,12266,10394,bus,53,0,0,0,0,0,0,1
842,12267,10394,bus,53,0,0,0,0,0,0,1
856,12268,10394,bus,53,0,0,0,0,0,0,1
866,12269,10394,bus,53,0,0,0,0,0,0,1
879,12270,10394,bus,53,0,0,0,0,0,0,1
889,12271,10394,bus,53,0,0,0,0,0,0,1
898,12272,10394,bus,53,0,0,0,0,0,0,1
907,12273,10394,bus,53,0,0,0,0,0,0,1
916,12274,10394,bus,53,0,0,0,0,0,0,1
926,12275,10394,bus,53,0,0,0,0,0,0,1
935,12276,10394,bus,53,0,0,0,0,0,0,1
945,12277,10394,bus,53,0,0,0,0,0,0,1
958,12278,10394,bus,53,0,0,0,0,0,0,1
972,12279,10394,bus,53,0,0,0,0,0,0,1
985,12280,10394,bus,53,0,0,0,0,0,0,1
995,12281,10394,bus,53,0,0,0,0,0,0,1
1004,12282,10394,bus,53,0,0,0,0,0,0,1
1014,12283,10394,bus,53,0,0,0,0,0,0,1
1025,12284,10394,bus,53,0,0,0,0,0,0,1
1036,12285,10394,bus,53,0,0,0,0,0,0,1
1051,12286,10394,bus,53,0,0,0,0,0,0,1
1067,12287,10394,bus,53,0,0,0,0,0,0,1
1083,12288,10394,bus,53,0,0,0,0,0,0,1
1103,12289,10394,bus,53,0,0,0,0,0,0,1
1124,12290,10394,bus,53,0,0,0,0,0,0,1
1139,12291,10394,bus,53,0,0,0,0,0,0,1
1164,12292,10394,bus,53,0,0,0,0,0,0,1
1188,12293,10394,bus,53,0,0,0,0,0,0,1
1203,12294,10394,bus,53,0,0,0,0,0,0,1
1220,12295,10394,bus,53,0,0,0,0,0,0,1
1240,12296,10394,bus,53,0,0,0,0,0,0,1
1252,12297,10394,bus,53,0,0,0,0,0,0,1
1264,12298,10394,bus,53,0,0,0,0,0,0,1
1279,12299,10394,bus,53,0,0,0,0,0,0,1
1293,12300,10394,bus,53,0,0,0,0,0,0,1
1309,12301,10394,bus,53,0,0,0,0,0,0,1
1324,12302,10394,bus,53,0,0,0,0,0,0,1
1338,12303,10394,bus,53,0,0,0,0,0,0,1
1352,12304,10394,bus,53,0,0,0,0,0,0,1
1365,12305,10394,bus,53,0,0,0,0,0,0,1
1381,12306,10394,bus,53,0,0,0,0,0,0,1
1399,12307,10394,bus,53,0,0,0,0,0,0,1
345,12308,10392,bus,53,1,1,1,1,1,0,0
356,12309,10392,bus,53,1,1,1,1,1,0,0
368,12310,10392,bus,53,1,1,1,1,1,0,0
383,12311,10392,bus,53,1,1,1,1,1,0,0
395,12312,10392,bus,53,1,1,1,1,1,0,0
402,12313,10392,bus,53,1,1,1,1,1,0,0
408,12314,10392,bus,53,1,1,1,1,1,0,0
414,12315,10392,bus,53,1,1,1,1,1,0,0
420,12316,10392,bus,53,1,1,1,1,1,0,0
426,12317,10392,bus,53,1,1,1,1,1,0,0
434,12318,10392,bus,53,1,1,1,1,1,0,0
443,12319,10392,bus,53,1,1,1,1,1,0,0
451,12320,10392,bus,53,1,1,1,1,1,0,0
461,12321,10392,bus,53,1,1,1,1,1,0,0
468,12322,10392,bus,53,1,1,1,1,1,0,0
474,12323,10392,bus,53,1,1,1,1,1,0,0
481,12324,10392,bus,53,1,1,1,1,1,0,0
488,12325,10392,bus,53,1,1,1,1,1,0,0
496,12326,10392,bus,53,1,1,1,1,1,0,0
504,12327,10392,bus,53,1,1,1,1,1,0,0
511,12328,10392,bus,53,1,1,1,1,1,0,0
520,12329,10392,bus,53,1,1,1,1,1,0,0
528,12330,10392,bus,53,1,1,1,1,1,0,0
537,12331,10392,bus,53,1,1,1,1,1,0,0
545,12332,10392,bus,53,1,1,1,1,1,0,0
553,12333,10392,bus,53,1,1,1,1,1,0,0
561,12334,10392,bus,53,1,1,1,1,1,0,0
569,12335,10392,bus,53,1,1,1,1,1,0,0
577,12336,10392,bus,53,1,1,1,1,1,0,0
584,12337,10392,bus,53,1,1,1,1,1,0,0
592,12338,10392,bus,53,1,1,1,1,1,0,0
603,12339,10392,bus,53,1,1,1,1,1,0,0
613,12340,10392,bus,53,1,1,1,1,1,0,0
625,12341,10392,bus,53,1,1,1,1,1,0,0
635,12342,10392,bus,53,1,1,1,1,1,0,0
645,12343,10392,bus,53,1,1,1,1,1,0,0
654,12344,10392,bus,53,1,1,1,1,1,0,0
664,12345,10392,bus,53,1,1,1,1,1,0,0
675,12346,10392,bus,53,1,1,1,1,1,0,0
688,12347,10392,bus,53,1,1,1,1,1,0,0
700,12348,10392,bus,53,1,1,1,1,1,0,0
711,12349,10392,bus,53,1,1,1,1,1,0,0
719,12350,10392,bus,53,1,1,1,1,1,0,0
727,12351,10392,bus,53,1,1,1,1,1,0,0
735,12352,10392,bus,53,1,1,1,1,1,0,0
745,12353,10392,bus,53,1,1,1,1,1,0,0
755,12354,10392,bus,53,1,1,1,1,1,0,0
765,12355,10392,bus,53,1,1,1,1,1,0,0
775,12356,10392,bus,53,1,1,1,1,1,0,0
786,12357,10392,bus,53,1,1,1,1,1,0,0
797,12358,10392,bus,53,1,1,1,1,1,0,0
809,12359,10392,bus,53,1,1,1,1,1,0,0
819,12360,10392,bus,53,1,1,1,1,1,0,0
828,12361,10392,bus,53,1,1,1,1,1,0,0
838,12362,10392,bus,53,1,1,1,1,1,0,0
847,12363,10392,bus,53,1,1,1,1,1,0,0
855,12364,10392,bus,53,1,1,1,1,1,0,0
865,12365,10392,bus,53,1,1,1,1,1,0,0
874,12366,10392,bus,53,1,1,1,1,1,0,0
884,12367,10392,bus,53,1,1,1,1,1,0,0
895,12368,10392,bus,53,1,1,1,1,1,0,0
907,12369,10392,bus,53,1,1,1,1,1,0,0
916,12370,10392,bus,53,1,1,1,1,1,0,0
925,12371,10392,bus,53,1,1,1,1,1,0,0
931,12372,10392,bus,53,1,1,1,1,1,0,0
938,12373,10392,bus,53,1,1,1,1,1,0,0
946,12374,10392,bus,53,1,1,1,1,1,0,0
954,12375,10392,bus,53,1,1,1,1,1,0,0
961,12376,10392,bus,53,1,1,1,1,1,0,0
968,12377,10392,bus,53,1,1,1,1,1,0,0
977,12378,10392,bus,53,1,1,1,1,1,0,0
986,12379,10392,bus,53,1,1,1,1,1,0,0
992,12380,10392,bus,53,1,1,1,1,1,0,0
998,12381,10392,bus,53,1,1,1,1,1,0,0
1004,12382,10392,bus,53,1,1,1,1,1,0,0
1011,12383,10392,bus,53,1,1,1,1,1,0,0
1020,12384,10392,bus,53,1,1,1,1,1,0,0
1028,12385,10392,bus,53,1,1,1,1,1,0,0
1036,12386,10392,bus,53,1,1,1,1,1,0,0
1045,12387,10392,bus,53,1,1,1,1,1,0,0
1054,12388,10392,bus,53,1,1,1,1,1,0,0
1066,12389,10392,bus,53,1,1,1,1,1,0,0
1076,12390,10392,bus,53,1,1,1,1,1,0,0
1087,12391,10392,bus,53,1,1,1,1,1,0,0
1098,12392,10392,bus,53,1,1,1,1,1,0,0
1112,12393,10392,bus,53,1,1,1,1,1,0,0
1125,12394,10392,bus,53,1,1,1,1,1,0,0
1132,12395,10392,bus,53,1,1,1,1,1,0,0
1140,12396,10392,bus,53,1,1,1,1,1,0,0
1147,12397,10392,bus,53,1,1,1,1,1,0,0
1156,12398,10392,bus,53,1,1,1,1,1,0,0
1168,12399,10392,bus,53,1,1,1,1,1,0,0
1181,12400,10392,bus,53,1,1,1,1,1,0,0
1192,12401,10392,bus,53,1,1,1,1,1,0,0
1203,12402,10392,bus,53,1,1,1,1,1,0,0
1213,12403,10392,bus,53,1,1,1,1,1,0,0
1223,12404,10392,bus,53,1,1,1,1,1,0,0
1230,12405,10392,bus,53,1,1,1,1,1,0,0
1238,12406,10392,bus,53,1,1,1,1,1,0,0
1247,12407,10392,bus,53,1,1,1,1,1,0,0
1255,12408,10392,bus,53,1,1,1,1,1,0,0
1264,12409,10392,bus,53,1,1,1,1,1,0,0
1273,12410,10392,bus,53,1,1,1,1,1,0,0
1286,12411,10392,bus,53,1,1,1,1,1,0,0
1297,12412,10392,bus,53,1,1,1,1,1,0,0
1307,12413,10392,bus,53,1,1,1,1,1,0,0
1316,12414,10392,bus,53,1,1,1,1,1,0,0
1324,12415,10392,bus,53,1,1,1,1,1,0,0
1332,12416,10392,bus,53,1,1,1,1,1,0,0
1342,12417,10392,bus,53,1,1,1,1,1,0,0
1351,12418,10392,bus,53,1,1,1,1,1,0,0
1360,12419,10392,bus,53,1,1,1,1,1,0,0
1368,12420,10392,bus,53,1,1,1,1,1,0,0
1377,12421,10392,bus,53,1,1,1,1,1,0,0
1388,12422,10392,bus,53,1,1,1,1,1,0,0
1397,12423,10392,bus,53,1,1,1,1,1,0,0
1406,12424,10392,bus,53,1,1,1,1,1,0,0
341,12425,10393,bus,53,0,0,0,0,0,1,0
367,12426,10393,bus,53,0,0,0,0,0,1,0
382,12427,10393,bus,53,0,0,0,0,0,1,0
397,12428,10393,bus,53,0,0,0,0,0,1,0
412,12429,10393,bus,53,0,0,0,0,0,1,0
427,12430,10393,bus,53,0,0,0,0,0,1,0
444,12431,10393,bus,53,0,0,0,0,0,1,0
460,12432,10393,bus,53,0,0,0,0,0,1,0
475,12433,10393,bus,53,0,0,0,0,0,1,0
490,12434,10393,bus,53,0,0,0,0,0,1,0
505,12435,10393,bus,53,0,0,0,0,0,1,0
520,12436,10393,bus,53,0,0,0,0,0,1,0
536,12437,10393,bus,53,0,0,0,0,0,1,0
551,12438,10393,bus,53,0,0,0,0,0,1,0
562,12439,10393,bus,53,0,0,0,0,0,1,0
573,12440,10393,bus,53,0,0,0,0,0,1,0
583,12441,10393,bus,53,0,0,0,0,0,1,0
592,12442,10393,bus,53,0,0,0,0,0,1,0
602,12443,10393,bus,53,0,0,0,0,0,1,0
612,12444,10393,bus,53,0,0,0,0,0,1,0
624,12445,10393,bus,53,0,0,0,0,0,1,0
637,12446,10393,bus,53,0,0,0,0,0,1,0
647,12447,10393,bus,53,0,0,0,0,0,1,0
656,12448,10393,bus,53,0,0,0,0,0,1,0
665,12449,10393,bus,53,0,0,0,0,0,1,0
676,12450,10393,bus,53,0,0,0,0,0,1,0
688,12451,10393,bus,53,0,0,0,0,0,1,0
699,12452,10393,bus,53,0,0,0,0,0,1,0
709,12453,10393,bus,53,0,0,0,0,0,1,0
719,12454,10393,bus,53,0,0,0,0,0,1,0
731,12455,10393,bus,53,0,0,0,0,0,1,0
744,12456,10393,bus,53,0,0,0,0,0,1,0
761,12457,10393,bus,53,0,0,0,0,0,1,0
770,12458,10393,bus,53,0,0,0,0,0,1,0
781,12459,10393,bus,53,0,0,0,0,0,1,0
790,12460,10393,bus,53,0,0,0,0,0,1,0
796,12461,10393,bus,53,0,0,0,0,0,1,0
807,12462,10393,bus,53,0,0,0,0,0,1,0
815,12463,10393,bus,53,0,0,0,0,0,1,0
824,12464,10393,bus,53,0,0,0,0,0,1,0
832,12465,10393,bus,53,0,0,0,0,0,1,0
842,12466,10393,bus,53,0,0,0,0,0,1,0
856,12467,10393,bus,53,0,0,0,0,0,1,0
866,12468,10393,bus,53,0,0,0,0,0,1,0
879,12469,10393,bus,53,0,0,0,0,0,1,0
889,12470,10393,bus,53,0,0,0,0,0,1,0
898,12471,10393,bus,53,0,0,0,0,0,1,0
907,12472,10393,bus,53,0,0,0,0,0,1,0
916,12473,10393,bus,53,0,0,0,0,0,1,0
926,12474,10393,bus,53,0,0,0,0,0,1,0
935,12475,10393,bus,53,0,0,0,0,0,1,0
945,12476,10393,bus,53,0,0,0,0,0,1,0
958,12477,10393,bus,53,0,0,0,0,0,1,0
972,12478,10393,bus,53,0,0,0,0,0,1,0
985,12479,10393,bus,53,0,0,0,0,0,1,0
995,12480,10393,bus,53,0,0,0,0,0,1,0
1004,12481,10393,bus,53,0,0,0,0,0,1,0
1014,12482,10393,bus,53,0,0,0,0,0,1,0
1025,12483,10393,bus,53,0,0,0,0,0,1,0
1036,12484,10393,bus,53,0,0,0,0,0,1,0
1051,12485,10393,bus,53,0,0,0,0,0,1,0
1067,12486,10393,bus,53,0,0,0,0,0,1,0
1083,12487,10393,bus,53,0,0,0,0,0,1,0
1103,12488,10393,bus,53,0,0,0,0,0,1,0
1124,12489,10393,bus,53,0,0,0,0,0,1,0
1139,12490,10393,bus,53,0,0,0,0,0,1,0
1164,12491,10393,bus,53,0,0,0,0,0,1,0
1188,12492,10393,bus,53,0,0,0,0,0,1,0
1203,12493,10393,bus,53,0,0,0,0,0,1,0
1220,12494,10393,bus,53,0,0,0,0,0,1,0
1240,12495,10393,bus,53,0,0,0,0,0,1,0
1252,12496,10393,bus,53,0,0,0,0,0,1,0
1264,12497,10393,bus,53,0,0,0,0,0,1,0
1279,12498,10393,bus,53,0,0,0,0,0,1,0
1293,12499,10393,bus,53,0,0,0,0,0,1,0
1309,12500,10393,bus,53,0,0,0,0,0,1,0
1324,12501,10393,bus,53,0,0,0,0,0,1,0
1338,12502,10393,bus,53,0,0,0,0,0,1,0
1352,12503,10393,bus,53,0,0,0,0,0,1,0
1365,12504,10393,bus,53,0,0,0,0,0,1,0
1381,12505,10393,bus,53,0,0,0,0,0,1,0
1399,12506,10393,bus,53,0,0,0,0,0,1,0
318,12845,10392,bus,53,1,1,1,1,1,0,0
336,12846,10392,bus,53,1,1,1,1,1,0,0
378,12847,10392,bus,53,1,1,1,1,1,0,0
356,12848,10394,bus,53,0,0,0,0,0,0,1
371,12849,10394,bus,53,0,0,0,0,0,0,1
385,12850,10394,bus,53,0,0,0,0,0,0,1
323,12851,10393,bus,53,0,0,0,0,0,1,0
356,12852,10393,bus,53,0,0,0,0,0,1,0
384,15692,9847,bus,88,0,0,0,0,0,0,1
417,15693,9847,bus,88,0,0,0,0,0,0,1
460,15694,9847,bus,88,0,0,0,0,0,0,1
494,15695,9847,bus,88,0,0,0,0,0,0,1
537,15696,9847,bus,88,0,0,0,0,0,0,1
573,15697,9847,bus,88,0,0,0,0,0,0,1
741,15698,9847,bus,88,0,0,0,0,0,0,1
781,15699,9847,bus,88,0,0,0,0,0,0,1
818,15700,9847,bus,88,0,0,0,0,0,0,1
858,15701,9847,bus,88,0,0,0,0,0,0,1
895,15702,9847,bus,88,0,0,0,0,0,0,1
935,15703,9847,bus,88,0,0,0,0,0,0,1
972,15704,9847,bus,88,0,0,0,0,0,0,1
1012,15705,9847,bus,88,0,0,0,0,0,0,1
1049,15706,9847,bus,88,0,0,0,0,0,0,1
1089,15707,9847,bus,88,0,0,0,0,0,0,1
1248,15708,9847,bus,88,0,0,0,0,0,0,1
1288,15709,9847,bus,88,0,0,0,0,0,0,1
1323,15710,9847,bus,88,0,0,0,0,0,0,1
1363,15711,9847,bus,88,0,0,0,0,0,0,1
1398,15712,9847,bus,88,0,0,0,0,0,0,1
335,15713,10244,bus,88,1,1,1,1,1,0,0
359,15714,10244,bus,88,1,1,1,1,1,0,0
386,15715,10244,bus,88,1,1,1,1,1,0,0
411,15716,10244,bus,88,1,1,1,1,1,0,0
435,15717,10244,bus,88,1,1,1,1,1,0,0
462,15718,10244,bus,88,1,1,1,1,1,0,0
490,15719,10244,bus,88,1,1,1,1,1,0,0
513,15720,10244,bus,88,1,1,1,1,1,0,0
666,15721,10244,bus,88,1,1,1,1,1,0,0
695,15722,10244,bus,88,1,1,1,1,1,0,0
725,15723,10244,bus,88,1,1,1,1,1,0,0
748,15724,10244,bus,88,1,1,1,1,1,0,0
772,15725,10244,bus,88,1,1,1,1,1,0,0
802,15726,10244,bus,88,1,1,1,1,1,0,0
825,15727,10244,bus,88,1,1,1,1,1,0,0
849,15728,10244,bus,88,1,1,1,1,1,0,0
879,15729,10244,bus,88,1,1,1,1,1,0,0
902,15730,10244,bus,88,1,1,1,1,1,0,0
926,15731,10244,bus,88,1,1,1,1,1,0,0
956,15732,10244,bus,88,1,1,1,1,1,0,0
979,15733,10244,bus,88,1,1,1,1,1,0,0
1003,15734,10244,bus,88,1,1,1,1,1,0,0
1034,15735,10244,bus,88,1,1,1,1,1,0,0
1059,15736,10244,bus,88,1,1,1,1,1,0,0
1084,15737,10244,bus,88,1,1,1,1,1,0,0
1113,15738,10244,bus,88,1,1,1,1,1,0,0
1262,15739,10244,bus,88,1,1,1,1,1,0,0
1288,15740,10244,bus,88,1,1,1,1,1,0,0
1317,15741,10244,bus,88,1,1,1,1,1,0,0
1342,15742,10244,bus,88,1,1,1,1,1,0,0
1365,15743,10244,bus,88,1,1,1,1,1,0,0
1398,15744,10244,bus,88,1,1,1,1,1,0,0
335,15745,9846,bus,88,0,0,0,0,0,1,0
374,15746,9846,bus,88,0,0,0,0,0,1,0
411,15747,9846,bus,88,0,0,0,0,0,1,0
450,15748,9846,bus,88,0,0,0,0,0,1,0
488,15749,9846,bus,88,0,0,0,0,0,1,0
529,15750,9846,bus,88,0,0,0,0,0,1,0
694,15751,9846,bus,88,0,0,0,0,0,1,0
741,15752,9846,bus,88,0,0,0,0,0,1,0
780,15753,9846,bus,88,0,0,0,0,0,1,0
818,15754,9846,bus,88,0,0,0,0,0,1,0
857,15755,9846,bus,88,0,0,0,0,0,1,0
895,15756,9846,bus,88,0,0,0,0,0,1,0
937,15757,9846,bus,88,0,0,0,0,0,1,0
972,15758,9846,bus,88,0,0,0,0,0,1,0
1015,15759,9846,bus,88,0,0,0,0,0,1,0
1049,15760,9846,bus,88,0,0,0,0,0,1,0
1093,15761,9846,bus,88,0,0,0,0,0,1,0
1125,15762,9846,bus,88,0,0,0,0,0,1,0
1295,15763,9846,bus,88,0,0,0,0,0,1,0
1323,15764,9846,bus,88,0,0,0,0,0,1,0
1370,15765,9846,bus,88,0,0,0,0,0,1,0
1398,15766,9846,bus,88,0,0,0,0,0,1,0
614,15767,9847,bus,88,0,0,0,0,0,0,1
652,15768,9847,bus,88,0,0,0,0,0,0,1
1125,15769,9847,bus,88,0,0,0,0,0,0,1
1165,15770,9847,bus,88,0,0,0,0,0,0,1
540,15771,10244,bus,88,1,1,1,1,1,0,0
569,15772,10244,bus,88,1,1,1,1,1,0,0
594,15773,10244,bus,88,1,1,1,1,1,0,0
1138,15774,10244,bus,88,1,1,1,1,1,0,0
1162,15775,10244,bus,88,1,1,1,1,1,0,0
1195,15776,10244,bus,88,1,1,1,1,1,0,0
567,15777,9846,bus,88,0,0,0,0,0,1,0
612,15778,9846,bus,88,0,0,0,0,0,1,0
1172,15779,9846,bus,88,0,0,0,0,0,1,0
1201,15780,9846,bus,88,0,0,0,0,0,1,0
1455,16330,9969,nightbus,101N,0,0,0,0,1,1,0
1498,16331,9969,nightbus,101N,0,0,0,0,1,1,0
1546,16332,9969,nightbus,101N,0,0,0,0,1,1,0
1598,16333,9969,nightbus,101N,0,0,0,0,1,1,0
1449,16355,9971,nightbus,103N,0,0,0,0,1,1,0
1483,16356,9971,nightbus,103N,0,0,0,0,1,1,0
1531,16357,9971,nightbus,103N,0,0,0,0,1,1,0
1559,16358,9971,nightbus,103N,0,0,0,0,1,1,0
1587,16359,9971,nightbus,103N,0,0,0,0,1,1,0
1440,16371,9972,nightbus,104N,0,0,0,0,1,1,0
1490,16372,9972,nightbus,104N,0,0,0,0,1,1,0
1539,16373,9972,nightbus,104N,0,0,0,0,1,1,0
1590,16374,9972,nightbus,104N,0,0,0,0,1,1,0
341,16396,10645,trol,1,1,1,1,1,1,0,0
364,16397,10645,trol,1,1,1,1,1,1,0,0
380,16398,10645,trol,1,1,1,1,1,1,0,0
399,16399,10645,trol,1,1,1,1,1,1,0,0
419,16400,10645,trol,1,1,1,1,1,1,0,0
430,16401,10645,trol,1,1,1,1,1,1,0,0
443,16402,10645,trol,1,1,1,1,1,1,0,0
457,16403,10645,trol,1,1,1,1,1,1,0,0
473,16404,10645,trol,1,1,1,1,1,1,0,0
490,16405,10645,trol,1,1,1,1,1,1,0,0
500,16406,10645,trol,1,1,1,1,1,1,0,0
512,16407,10645,trol,1,1,1,1,1,1,0,0
528,16408,10645,trol,1,1,1,1,1,1,0,0
546,16409,10645,trol,1,1,1,1,1,1,0,0
563,16410,10645,trol,1,1,1,1,1,1,0,0
585,16411,10645,trol,1,1,1,1,1,1,0,0
599,16412,10645,trol,1,1,1,1,1,1,0,0
613,16413,10645,trol,1,1,1,1,1,1,0,0
628,16414,10645,trol,1,1,1,1,1,1,0,0
647,16415,10645,trol,1,1,1,1,1,1,0,0
664,16416,10645,trol,1,1,1,1,1,1,0,0
677,16417,10645,trol,1,1,1,1,1,1,0,0
691,16418,10645,trol,1,1,1,1,1,1,0,0
707,16419,10645,trol,1,1,1,1,1,1,0,0
724,16420,10645,trol,1,1,1,1,1,1,0,0
739,16421,10645,trol,1,1,1,1,1,1,0,0
753,16422,10645,trol,1,1,1,1,1,1,0,0
770,16423,10645,trol,1,1,1,1,1,1,0,0
781,16424,10645,trol,1,1,1,1,1,1,0,0
799,16425,10645,trol,1,1,1,1,1,1,0,0
816,16426,10645,trol,1,1,1,1,1,1,0,0
830,16427,10645,trol,1,1,1,1,1,1,0,0
846,16428,10645,trol,1,1,1,1,1,1,0,0
862,16429,10645,trol,1,1,1,1,1,1,0,0
880,16430,10645,trol,1,1,1,1,1,1,0,0
893,16431,10645,trol,1,1,1,1,1,1,0,0
906,16432,10645,trol,1,1,1,1,1,1,0,0
919,16433,10645,trol,1,1,1,1,1,1,0,0
929,16434,10645,trol,1,1,1,1,1,1,0,0
942,16435,10645,trol,1,1,1,1,1,1,0,0
956,16436,10645,trol,1,1,1,1,1,1,0,0
971,16437,10645,trol,1,1,1,1,1,1,0,0
982,16438,10645,trol,1,1,1,1,1,1,0,0
996,16439,10645,trol,1,1,1,1,1,1,0,0
1008,16440,10645,trol,1,1,1,1,1,1,0,0
1021,16441,10645,trol,1,1,1,1,1,1,0,0
1037,16442,10645,trol,1,1,1,1,1,1,0,0
1053,16443,10645,trol,1,1,1,1,1,1,0,0
1070,16444,10645,trol,1,1,1,1,1,1,0,0
1089,16445,10645,trol,1,1,1,1,1,1,0,0
1107,16446,10645,trol,1,1,1,1,1,1,0,0
1126,16447,10645,trol,1,1,1,1,1,1,0,0
1147,16448,10645,trol,1,1,1,1,1,1,0,0
1163,16449,10645,trol,1,1,1,1,1,1,0,0
1174,16450,10645,trol,1,1,1,1,1,1,0,0
1188,16451,10645,trol,1,1,1,1,1,1,0,0
1200,16452,10645,trol,1,1,1,1,1,1,0,0
1219,16453,10645,trol,1,1,1,1,1,1,0,0
1236,16454,10645,trol,1,1,1,1,1,1,0,0
1255,16455,10645,trol,1,1,1,1,1,1,0,0
1274,16456,10645,trol,1,1,1,1,1,1,0,0
1292,16457,10645,trol,1,1,1,1,1,1,0,0
1314,16458,10645,trol,1,1,1,1,1,1,0,0
1336,16459,10645,trol,1,1,1,1,1,1,0,0
1364,16460,10645,trol,1,1,1,1,1,1,0,0
1388,16461,10645,trol,1,1,1,1,1,1,0,0
346,16462,10646,trol,1,0,0,0,0,0,1,0
381,16463,10646,trol,1,0,0,0,0,0,1,0
416,16464,10646,trol,1,0,0,0,0,0,1,0
437,16465,10646,trol,1,0,0,0,0,0,1,0
457,16466,10646,trol,1,0,0,0,0,0,1,0
485,16467,10646,trol,1,0,0,0,0,0,1,0
510,16468,10646,trol,1,0,0,0,0,0,1,0
531,16469,10646,trol,1,0,0,0,0,0,1,0
551,16470,10646,trol,1,0,0,0,0,0,1,0
579,16471,10646,trol,1,0,0,0,0,0,1,0
593,16472,10646,trol,1,0,0,0,0,0,1,0
621,16473,10646,trol,1,0,0,0,0,0,1,0
636,16474,10646,trol,1,0,0,0,0,0,1,0
663,16475,10646,trol,1,0,0,0,0,0,1,0
680,16476,10646,trol,1,0,0,0,0,0,1,0
701,16477,10646,trol,1,0,0,0,0,0,1,0
714,16478,10646,trol,1,0,0,0,0,0,1,0
738,16479,10646,trol,1,0,0,0,0,0,1,0
762,16480,10646,trol,1,0,0,0,0,0,1,0
789,16481,10646,trol,1,0,0,0,0,0,1,0
804,16482,10646,trol,1,0,0,0,0,0,1,0
819,16483,10646,trol,1,0,0,0,0,0,1,0
837,16484,10646,trol,1,0,0,0,0,0,1,0
859,16485,10646,trol,1,0,0,0,0,0,1,0
878,16486,10646,trol,1,0,0,0,0,0,1,0
896,16487,10646,trol,1,0,0,0,0,0,1,0
912,16488,10646,trol,1,0,0,0,0,0,1,0
933,16489,10646,trol,1,0,0,0,0,0,1,0
951,16490,10646,trol,1,0,0,0,0,0,1,0
967,16491,10646,trol,1,0,0,0,0,0,1,0
992,16492,10646,trol,1,0,0,0,0,0,1,0
1013,16493,10646,trol,1,0,0,0,0,0,1,0
1037,16494,10646,trol,1,0,0,0,0,0,1,0
1064,16495,10646,trol,1,0,0,0,0,0,1,0
1089,16496,10646,trol,1,0,0,0,0,0,1,0
1130,16497,10646,trol,1,0,0,0,0,0,1,0
1158,16498,10646,trol,1,0,0,0,0,0,1,0
1184,16499,10646,trol,1,0,0,0,0,0,1,0
1205,16500,10646,trol,1,0,0,0,0,0,1,0
1228,16501,10646,trol,1,0,0,0,0,0,1,0
1255,16502,10646,trol,1,0,0,0,0,0,1,0
1280,16503,10646,trol,1,0,0,0,0,0,1,0
1302,16504,10646,trol,1,0,0,0,0,0,1,0
1325,16505,10646,trol,1,0,0,0,0,0,1,0
1353,16506,10646,trol,1,0,0,0,0,0,1,0
1378,16507,10646,trol,1,0,0,0,0,0,1,0
381,16508,10647,trol,1,0,0,0,0,0,0,1
416,16509,10647,trol,1,0,0,0,0,0,0,1
437,16510,10647,trol,1,0,0,0,0,0,0,1
457,16511,10647,trol,1,0,0,0,0,0,0,1
485,16512,10647,trol,1,0,0,0,0,0,0,1
510,16513,10647,trol,1,0,0,0,0,0,0,1
531,16514,10647,trol,1,0,0,0,0,0,0,1
551,16515,10647,trol,1,0,0,0,0,0,0,1
579,16516,10647,trol,1,0,0,0,0,0,0,1
593,16517,10647,trol,1,0,0,0,0,0,0,1
621,16518,10647,trol,1,0,0,0,0,0,0,1
636,16519,10647,trol,1,0,0,0,0,0,0,1
663,16520,10647,trol,1,0,0,0,0,0,0,1
680,16521,10647,trol,1,0,0,0,0,0,0,1
701,16522,10647,trol,1,0,0,0,0,0,0,1
714,16523,10647,trol,1,0,0,0,0,0,0,1
738,16524,10647,trol,1,0,0,0,0,0,0,1
762,16525,10647,trol,1,0,0,0,0,0,0,1
789,16526,10647,trol,1,0,0,0,0,0,0,1
804,16527,10647,trol,1,0,0,0,0,0,0,1
819,16528,10647,trol,1,0,0,0,0,0,0,1
837,16529,10647,trol,1,0,0,0,0,0,0,1
859,16530,10647,trol,1,0,0,0,0,0,0,1
878,16531,10647,trol,1,0,0,0,0,0,0,1
896,16532,10647,trol,1,0,0,0,0,0,0,1
912,16533,10647,trol,1,0,0,0,0,0,0,1
933,16534,10647,trol,1,0,0,0,0,0,0,1
951,16535,10647,trol,1,0,0,0,0,0,0,1
967,16536,10647,trol,1,0,0,0,0,0,0,1
992,16537,10647,trol,1,0,0,0,0,0,0,1
1013,16538,10647,trol,1,0,0,0,0,0,0,1
1037,16539,10647,trol,1,0,0,0,0,0,0,1
1064,16540,10647,trol,1,0,0,0,0,0,0,1
1089,16541,10647,trol,1,0,0,0,0,0,0,1
1130,16542,10647,trol,1,0,0,0,0,0,0,1
1158,16543,10647,trol,1,0,0,0,0,0,0,1
1184,16544,10647,trol,1,0,0,0,0,0,0,1
1205,16545,10647,trol,1,0,0,0,0,0,0,1
1228,16546,10647,trol,1,0,0,0,0,0,0,1
1255,16547,10647,trol,1,0,0,0,0,0,0,1
1280,16548,10647,trol,1,0,0,0,0,0,0,1
1302,16549,10647,trol,1,0,0,0,0,0,0,1
1325,16550,10647,trol,1,0,0,0,0,0,0,1
1353,16551,10647,trol,1,0,0,0,0,0,0,1
1378,16552,10647,trol,1,0,0,0,0,0,0,1
324,16738,10645,trol,1,1,1,1,1,1,0,0
375,16739,10439,trol,2,0,0,0,0,0,0,1
394,16740,10439,trol,2,0,0,0,0,0,0,1
407,16741,10439,trol,2,0,0,0,0,0,0,1
419,16742,10439,trol,2,0,0,0,0,0,0,1
435,16743,10439,trol,2,0,0,0,0,0,0,1
451,16744,10439,trol,2,0,0,0,0,0,0,1
467,16745,10439,trol,2,0,0,0,0,0,0,1
476,16746,10439,trol,2,0,0,0,0,0,0,1
485,16747,10439,trol,2,0,0,0,0,0,0,1
494,16748,10439,trol,2,0,0,0,0,0,0,1
503,16749,10439,trol,2,0,0,0,0,0,0,1
512,16750,10439,trol,2,0,0,0,0,0,0,1
521,16751,10439,trol,2,0,0,0,0,0,0,1
531,16752,10439,trol,2,0,0,0,0,0,0,1
540,16753,10439,trol,2,0,0,0,0,0,0,1
548,16754,10439,trol,2,0,0,0,0,0,0,1
558,16755,10439,trol,2,0,0,0,0,0,0,1
567,16756,10439,trol,2,0,0,0,0,0,0,1
577,16757,10439,trol,2,0,0,0,0,0,0,1
587,16758,10439,trol,2,0,0,0,0,0,0,1
597,16759,10439,trol,2,0,0,0,0,0,0,1
607,16760,10439,trol,2,0,0,0,0,0,0,1
616,16761,10439,trol,2,0,0,0,0,0,0,1
624,16762,10439,trol,2,0,0,0,0,0,0,1
633,16763,10439,trol,2,0,0,0,0,0,0,1
641,16764,10439,trol,2,0,0,0,0,0,0,1
648,16765,10439,trol,2,0,0,0,0,0,0,1
657,16766,10439,trol,2,0,0,0,0,0,0,1
666,16767,10439,trol,2,0,0,0,0,0,0,1
674,16768,10439,trol,2,0,0,0,0,0,0,1
683,16769,10439,trol,2,0,0,0,0,0,0,1
692,16770,10439,trol,2,0,0,0,0,0,0,1
702,16771,10439,trol,2,0,0,0,0,0,0,1
711,16772,10439,trol,2,0,0,0,0,0,0,1
720,16773,10439,trol,2,0,0,0,0,0,0,1
733,16774,10439,trol,2,0,0,0,0,0,0,1
743,16775,10439,trol,2,0,0,0,0,0,0,1
751,16776,10439,trol,2,0,0,0,0,0,0,1
759,16777,10439,trol,2,0,0,0,0,0,0,1
767,16778,10439,trol,2,0,0,0,0,0,0,1
775,16779,10439,trol,2,0,0,0,0,0,0,1
783,16780,10439,trol,2,0,0,0,0,0,0,1
793,16781,10439,trol,2,0,0,0,0,0,0,1
803,16782,10439,trol,2,0,0,0,0,0,0,1
813,16783,10439,trol,2,0,0,0,0,0,0,1
820,16784,10439,trol,2,0,0,0,0,0,0,1
828,16785,10439,trol,2,0,0,0,0,0,0,1
835,16786,10439,trol,2,0,0,0,0,0,0,1
840,16787,10439,trol,2,0,0,0,0,0,0,1
849,16788,10439,trol,2,0,0,0,0,0,0,1
858,16789,10439,trol,2,0,0,0,0,0,0,1
867,16790,10439,trol,2,0,0,0,0,0,0,1
876,16791,10439,trol,2,0,0,0,0,0,0,1
883,16792,10439,trol,2,0,0,0,0,0,0,1
891,16793,10439,trol,2,0,0,0,0,0,0,1
899,16794,10439,trol,2,0,0,0,0,0,0,1
907,16795,10439,trol,2,0,0,0,0,0,0,1
915,16796,10439,trol,2,0,0,0,0,0,0,1
922,16797,10439,trol,2,0,0,0,0,0,0,1
930,16798,10439,trol,2,0,0,0,0,0,0,1
938,16799,10439,trol,2,0,0,0,0,0,0,1
946,16800,10439,trol,2,0,0,0,0,0,0,1
956,16801,10439,trol,2,0,0,0,0,0,0,1
963,16802,10439,trol,2,0,0,0,0,0,0,1
971,16803,10439,trol,2,0,0,0,0,0,0,1
979,16804,10439,trol,2,0,0,0,0,0,0,1
987,16805,10439,trol,2,0,0,0,0,0,0,1
995,16806,10439,trol,2,0,0,0,0,0,0,1
1003,16807,10439,trol,2,0,0,0,0,0,0,1
1010,16808,10439,trol,2,0,0,0,0,0,0,1
1018,16809,10439,trol,2,0,0,0,0,0,0,1
1026,16810,10439,trol,2,0,0,0,0,0,0,1
1035,16811,10439,trol,2,0,0,0,0,0,0,1
1045,16812,10439,trol,2,0,0,0,0,0,0,1
1055,16813,10439,trol,2,0,0,0,0,0,0,1
1064,16814,10439,trol,2,0,0,0,0,0,0,1
1073,16815,10439,trol,2,0,0,0,0,0,0,1
1083,16816,10439,trol,2,0,0,0,0,0,0,1
1092,16817,10439,trol,2,0,0,0,0,0,0,1
1104,16818,10439,trol,2,0,0,0,0,0,0,1
1112,16819,10439,trol,2,0,0,0,0,0,0,1
1122,16820,10439,trol,2,0,0,0,0,0,0,1
1131,16821,10439,trol,2,0,0,0,0,0,0,1
1140,16822,10439,trol,2,0,0,0,0,0,0,1
1148,16823,10439,trol,2,0,0,0,0,0,0,1
1158,16824,10439,trol,2,0,0,0,0,0,0,1
1167,16825,10439,trol,2,0,0,0,0,0,0,1
1178,16826,10439,trol,2,0,0,0,0,0,0,1
1188,16827,10439,trol,2,0,0,0,0,0,0,1
1198,16828,10439,trol,2,0,0,0,0,0,0,1
1208,16829,10439,trol,2,0,0,0,0,0,0,1
1217,16830,10439,trol,2,0,0,0,0,0,0,1
1226,16831,10439,trol,2,0,0,0,0,0,0,1
1235,16832,10439,trol,2,0,0,0,0,0,0,1
1244,16833,10439,trol,2,0,0,0,0,0,0,1
1253,16834,10439,trol,2,0,0,0,0,0,0,1
1262,16835,10439,trol,2,0,0,0,0,0,0,1
1271,16836,10439,trol,2,0,0,0,0,0,0,1
1280,16837,10439,trol,2,0,0,0,0,0,0,1
1290,16838,10439,trol,2,0,0,0,0,0,0,1
1299,16839,10439,trol,2,0,0,0,0,0,0,1
1308,16840,10439,trol,2,0,0,0,0,0,0,1
1317,16841,10439,trol,2,0,0,0,0,0,0,1
1326,16842,10439,trol,2,0,0,0,0,0,0,1
1336,16843,10439,trol,2,0,0,0,0,0,0,1
1346,16844,10439,trol,2,0,0,0,0,0,0,1
1359,16845,10439,trol,2,0,0,0,0,0,0,1
1373,16846,10439,trol,2,0,0,0,0,0,0,1
1385,16847,10439,trol,2,0,0,0,0,0,0,1
1399,16848,10439,trol,2,0,0,0,0,0,0,1
1417,16849,10439,trol,2,0,0,0,0,0,0,1
347,16850,10437,trol,2,1,1,1,1,1,0,0
356,16851,10437,trol,2,1,1,1,1,1,0,0
365,16852,10437,trol,2,1,1,1,1,1,0,0
373,16853,10437,trol,2,1,1,1,1,1,0,0
379,16854,10437,trol,2,1,1,1,1,1,0,0
387,16855,10437,trol,2,1,1,1,1,1,0,0
392,16856,10437,trol,2,1,1,1,1,1,0,0
397,16857,10437,trol,2,1,1,1,1,1,0,0
404,16858,10437,trol,2,1,1,1,1,1,0,0
413,16859,10437,trol,2,1,1,1,1,1,0,0
418,16860,10437,trol,2,1,1,1,1,1,0,0
423,16861,10437,trol,2,1,1,1,1,1,0,0
428,16862,10437,trol,2,1,1,1,1,1,0,0
436,16863,10437,trol,2,1,1,1,1,1,0,0
442,16864,10437,trol,2,1,1,1,1,1,0,0
447,16865,10437,trol,2,1,1,1,1,1,0,0
453,16866,10437,trol,2,1,1,1,1,1,0,0
458,16867,10437,trol,2,1,1,1,1,1,0,0
462,16868,10437,trol,2,1,1,1,1,1,0,0
468,16869,10437,trol,2,1,1,1,1,1,0,0
475,16870,10437,trol,2,1,1,1,1,1,0,0
481,16871,10437,trol,2,1,1,1,1,1,0,0
488,16872,10437,trol,2,1,1,1,1,1,0,0
494,16873,10437,trol,2,1,1,1,1,1,0,0
500,16874,10437,trol,2,1,1,1,1,1,0,0
506,16875,10437,trol,2,1,1,1,1,1,0,0
510,16876,10437,trol,2,1,1,1,1,1,0,0
516,16877,10437,trol,2,1,1,1,1,1,0,0
523,16878,10437,trol,2,1,1,1,1,1,0,0
528,16879,10437,trol,2,1,1,1,1,1,0,0
534,16880,10437,trol,2,1,1,1,1,1,0,0
539,16881,10437,trol,2,1,1,1,1,1,0,0
546,16882,10437,trol,2,1,1,1,1,1,0,0
550,16883,10437,trol,2,1,1,1,1,1,0,0
555,16884,10437,trol,2,1,1,1,1,1,0,0
561,16885,10437,trol,2,1,1,1,1,1,0,0
568,16886,10437,trol,2,1,1,1,1,1,0,0
576,16887,10437,trol,2,1,1,1,1,1,0,0
583,16888,10437,trol,2,1,1,1,1,1,0,0
590,16889,10437,trol,2,1,1,1,1,1,0,0
596,16890,10437,trol,2,1,1,1,1,1,0,0
602,16891,10437,trol,2,1,1,1,1,1,0,0
612,16892,10437,trol,2,1,1,1,1,1,0,0
619,16893,10437,trol,2,1,1,1,1,1,0,0
626,16894,10437,trol,2,1,1,1,1,1,0,0
634,16895,10437,trol,2,1,1,1,1,1,0,0
645,16896,10437,trol,2,1,1,1,1,1,0,0
655,16897,10437,trol,2,1,1,1,1,1,0,0
663,16898,10437,trol,2,1,1,1,1,1,0,0
671,16899,10437,trol,2,1,1,1,1,1,0,0
678,16900,10437,trol,2,1,1,1,1,1,0,0
685,16901,10437,trol,2,1,1,1,1,1,0,0
691,16902,10437,trol,2,1,1,1,1,1,0,0
698,16903,10437,trol,2,1,1,1,1,1,0,0
703,16904,10437,trol,2,1,1,1,1,1,0,0
711,16905,10437,trol,2,1,1,1,1,1,0,0
717,16906,10437,trol,2,1,1,1,1,1,0,0
722,16907,10437,trol,2,1,1,1,1,1,0,0
731,16908,10437,trol,2,1,1,1,1,1,0,0
735,16909,10437,trol,2,1,1,1,1,1,0,0
741,16910,10437,trol,2,1,1,1,1,1,0,0
747,16911,10437,trol,2,1,1,1,1,1,0,0
755,16912,10437,trol,2,1,1,1,1,1,0,0
761,16913,10437,trol,2,1,1,1,1,1,0,0
768,16914,10437,trol,2,1,1,1,1,1,0,0
773,16915,10437,trol,2,1,1,1,1,1,0,0
779,16916,10437,trol,2,1,1,1,1,1,0,0
784,16917,10437,trol,2,1,1,1,1,1,0,0
790,16918,10437,trol,2,1,1,1,1,1,0,0
797,16919,10437,trol,2,1,1,1,1,1,0,0
803,16920,10437,trol,2,1,1,1,1,1,0,0
810,16921,10437,trol,2,1,1,1,1,1,0,0
818,16922,10437,trol,2,1,1,1,1,1,0,0
822,16923,10437,trol,2,1,1,1,1,1,0,0
828,16924,10437,trol,2,1,1,1,1,1,0,0
833,16925,10437,trol,2,1,1,1,1,1,0,0
841,16926,10437,trol,2,1,1,1,1,1,0,0
848,16927,10437,trol,2,1,1,1,1,1,0,0
854,16928,10437,trol,2,1,1,1,1,1,0,0
861,16929,10437,trol,2,1,1,1,1,1,0,0
868,16930,10437,trol,2,1,1,1,1,1,0,0
873,16931,10437,trol,2,1,1,1,1,1,0,0
880,16932,10437,trol,2,1,1,1,1,1,0,0
886,16933,10437,trol,2,1,1,1,1,1,0,0
891,16934,10437,trol,2,1,1,1,1,1,0,0
897,16935,10437,trol,2,1,1,1,1,1,0,0
904,16936,10437,trol,2,1,1,1,1,1,0,0
909,16937,10437,trol,2,1,1,1,1,1,0,0
914,16938,10437,trol,2,1,1,1,1,1,0,0
920,16939,10437,trol,2,1,1,1,1,1,0,0
927,16940,10437,trol,2,1,1,1,1,1,0,0
933,16941,10437,trol,2,1,1,1,1,1,0,0
938,16942,10437,trol,2,1,1,1,1,1,0,0
943,16943,10437,trol,2,1,1,1,1,1,0,0
948,16944,10437,trol,2,1,1,1,1,1,0,0
953,16945,10437,trol,2,1,1,1,1,1,0,0
959,16946,10437,trol,2,1,1,1,1,1,0,0
967,16947,10437,trol,2,1,1,1,1,1,0,0
972,16948,10437,trol,2,1,1,1,1,1,0,0
978,16949,10437,trol,2,1,1,1,1,1,0,0
983,16950,10437,trol,2,1,1,1,1,1,0,0
988,16951,10437,trol,2,1,1,1,1,1,0,0
994,16952,10437,trol,2,1,1,1,1,1,0,0
999,16953,10437,trol,2,1,1,1,1,1,0,0
1004,16954,10437,trol,2,1,1,1,1,1,0,0
1009,16955,10437,trol,2,1,1,1,1,1,0,0
1016,16956,10437,trol,2,1,1,1,1,1,0,0
1021,16957,10437,trol,2,1,1,1,1,1,0,0
1027,16958,10437,trol,2,1,1,1,1,1,0,0
1033,16959,10437,trol,2,1,1,1,1,1,0,0
1039,16960,10437,trol,2,1,1,1,1,1,0,0
1044,16961,10437,trol,2,1,1,1,1,1,0,0
1050,16962,10437,trol,2,1,1,1,1,1,0,0
1056,16963,10437,trol,2,1,1,1,1,1,0,0
1063,16964,10437,trol,2,1,1,1,1,1,0,0
1068,16965,10437,trol,2,1,1,1,1,1,0,0
1075,16966,10437,trol,2,1,1,1,1,1,0,0
1082,16967,10437,trol,2,1,1,1,1,1,0,0
1091,16968,10437,trol,2,1,1,1,1,1,0,0
1098,16969,10437,trol,2,1,1,1,1,1,0,0
1107,16970,10437,trol,2,1,1,1,1,1,0,0
1113,16971,10437,trol,2,1,1,1,1,1,0,0
1121,16972,10437,trol,2,1,1,1,1,1,0,0
1126,16973,10437,trol,2,1,1,1,1,1,0,0
1132,16974,10437,trol,2,1,1,1,1,1,0,0
1140,16975,10437,trol,2,1,1,1,1,1,0,0
1146,16976,10437,trol,2,1,1,1,1,1,0,0
1151,16977,10437,trol,2,1,1,1,1,1,0,0
1156,16978,10437,trol,2,1,1,1,1,1,0,0
1162,16979,10437,trol,2,1,1,1,1,1,0,0
1168,16980,10437,trol,2,1,1,1,1,1,0,0
1176,16981,10437,trol,2,1,1,1,1,1,0,0
1185,16982,10437,trol,2,1,1,1,1,1,0,0
1193,16983,10437,trol,2,1,1,1,1,1,0,0
1201,16984,10437,trol,2,1,1,1,1,1,0,0
1208,16985,10437,trol,2,1,1,1,1,1,0,0
1214,16986,10437,trol,2,1,1,1,1,1,0,0
1219,16987,10437,trol,2,1,1,1,1,1,0,0
1225,16988,10437,trol,2,1,1,1,1,1,0,0
1232,16989,10437,trol,2,1,1,1,1,1,0,0
1238,16990,10437,trol,2,1,1,1,1,1,0,0
1245,16991,10437,trol,2,1,1,1,1,1,0,0
1251,16992,10437,trol,2,1,1,1,1,1,0,0
1258,16993,10437,trol,2,1,1,1,1,1,0,0
1265,16994,10437,trol,2,1,1,1,1,1,0,0
1271,16995,10437,trol,2,1,1,1,1,1,0,0
1277,16996,10437,trol,2,1,1,1,1,1,0,0
1284,16997,10437,trol,2,1,1,1,1,1,0,0
1290,16998,10437,trol,2,1,1,1,1,1,0,0
1296,16999,10437,trol,2,1,1,1,1,1,0,0
1303,17000,10437,trol,2,1,1,1,1,1,0,0
1312,17001,10437,trol,2,1,1,1,1,1,0,0
1319,17002,10437,trol,2,1,1,1,1,1,0,0
1327,17003,10437,trol,2,1,1,1,1,1,0,0
1334,17004,10437,trol,2,1,1,1,1,1,0,0
1343,17005,10437,trol,2,1,1,1,1,1,0,0
1352,17006,10437,trol,2,1,1,1,1,1,0,0
1363,17007,10437,trol,2,1,1,1,1,1,0,0
1374,17008,10437,trol,2,1,1,1,1,1,0,0
1383,17009,10437,trol,2,1,1,1,1,1,0,0
1396,17010,10437,trol,2,1,1,1,1,1,0,0
1407,17011,10437,trol,2,1,1,1,1,1,0,0
1421,17012,10437,trol,2,1,1,1,1,1,0,0
345,17013,10438,trol,2,0,0,0,0,0,1,0
361,17014,10438,trol,2,0,0,0,0,0,1,0
375,17015,10438,trol,2,0,0,0,0,0,1,0
394,17016,10438,trol,2,0,0,0,0,0,1,0
407,17017,10438,trol,2,0,0,0,0,0,1,0
419,17018,10438,trol,2,0,0,0,0,0,1,0
435,17019,10438,trol,2,0,0,0,0,0,1,0
451,17020,10438,trol,2,0,0,0,0,0,1,0
467,17021,10438,trol,2,0,0,0,0,0,1,0
476,17022,10438,trol,2,0,0,0,0,0,1,0
485,17023,10438,trol,2,0,0,0,0,0,1,0
494,17024,10438,trol,2,0,0,0,0,0,1,0
503,17025,10438,trol,2,0,0,0,0,0,1,0
512,17026,10438,trol,2,0,0,0,0,0,1,0
521,17027,10438,trol,2,0,0,0,0,0,1,0
531,17028,10438,trol,2,0,0,0,0,0,1,0
540,17029,10438,trol,2,0,0,0,0,0,1,0
548,17030,10438,trol,2,0,0,0,0,0,1,0
558,17031,10438,trol,2,0,0,0,0,0,1,0
567,17032,10438,trol,2,0,0,0,0,0,1,0
577,17033,10438,trol,2,0,0,0,0,0,1,0
587,17034,10438,trol,2,0,0,0,0,0,1,0
597,17035,10438,trol,2,0,0,0,0,0,1,0
607,17036,10438,trol,2,0,0,0,0,0,1,0
616,17037,10438,trol,2,0,0,0,0,0,1,0
624,17038,10438,trol,2,0,0,0,0,0,1,0
633,17039,10438,trol,2,0,0,0,0,0,1,0
641,17040,10438,trol,2,0,0,0,0,0,1,0
648,17041,10438,trol,2,0,0,0,0,0,1,0
657,17042,10438,trol,2,0,0,0,0,0,1,0
666,17043,10438,trol,2,0,0,0,0,0,1,0
674,17044,10438,trol,2,0,0,0,0,0,1,0
683,17045,10438,trol,2,0,0,0,0,0,1,0
692,17046,10438,trol,2,0,0,0,0,0,1,0
702,17047,10438,trol,2,0,0,0,0,0,1,0
711,17048,10438,trol,2,0,0,0,0,0,1,0
720,17049,10438,trol,2,0,0,0,0,0,1,0
733,17050,10438,trol,2,0,0,0,0,0,1,0
743,17051,10438,trol,2,0,0,0,0,0,1,0
751,17052,10438,trol,2,0,0,0,0,0,1,0
759,17053,10438,trol,2,0,0,0,0,0,1,0
767,17054,10438,trol,2,0,0,0,0,0,1,0
775,17055,10438,trol,2,0,0,0,0,0,1,0
783,17056,10438,trol,2,0,0,0,0,0,1,0
793,17057,10438,trol,2,0,0,0,0,0,1,0
803,17058,10438,trol,2,0,0,0,0,0,1,0
813,17059,10438,trol,2,0,0,0,0,0,1,0
820,17060,10438,trol,2,0,0,0,0,0,1,0
828,17061,10438,trol,2,0,0,0,0,0,1,0
835,17062,10438,trol,2,0,0,0,0,0,1,0
840,17063,10438,trol,2,0,0,0,0,0,1,0
849,17064,10438,trol,2,0,0,0,0,0,1,0
858,17065,10438,trol,2,0,0,0,0,0,1,0
867,17066,10438,trol,2,0,0,0,0,0,1,0
876,17067,10438,trol,2,0,0,0,0,0,1,0
883,17068,10438,trol,2,0,0,0,0,0,1,0
891,17069,10438,trol,2,0,0,0,0,0,1,0
899,17070,10438,trol,2,0,0,0,0,0,1,0
907,17071,10438,trol,2,0,0,0,0,0,1,0
915,17072,10438,trol,2,0,0,0,0,0,1,0
922,17073,10438,trol,2,0,0,0,0,0,1,0
930,17074,10438,trol,2,0,0,0,0,0,1,0
938,17075,10438,trol,2,0,0,0,0,0,1,0
946,17076,10438,trol,2,0,0,0,0,0,1,0
956,17077,10438,trol,2,0,0,0,0,0,1,0
963,17078,10438,trol,2,0,0,0,0,0,1,0
971,17079,10438,trol,2,0,0,0,0,0,1,0
979,17080,10438,trol,2,0,0,0,0,0,1,0
987,17081,10438,trol,2,0,0,0,0,0,1,0
995,17082,10438,trol,2,0,0,0,0,0,1,0
1003,17083,10438,trol,2,0,0,0,0,0,1,0
1010,17084,10438,trol,2,0,0,0,0,0,1,0
1018,17085,10438,trol,2,0,0,0,0,0,1,0
1026,17086,10438,trol,2,0,0,0,0,0,1,0
1035,17087,10438,trol,2,0,0,0,0,0,1,0
1045,17088,10438,trol,2,0,0,0,0,0,1,0
1055,17089,10438,trol,2,0,0,0,0,0,1,0
1064,17090,10438,trol,2,0,0,0,0,0,1,0
1073,17091,10438,trol,2,0,0,0,0,0,1,0
1083,17092,10438,trol,2,0,0,0,0,0,1,0
1092,17093,10438,trol,2,0,0,0,0,0,1,0
1104,17094,10438,trol,2,0,0,0,0,0,1,0
1112,17095,10438,trol,2,0,0,0,0,0,1,0
1122,17096,10438,trol,2,0,0,0,0,0,1,0
1131,17097,10438,trol,2,0,0,0,0,0,1,0
1140,17098,10438,trol,2,0,0,0,0,0,1,0
1148,17099,10438,trol,2,0,0,0,0,0,1,0
1158,17100,10438,trol,2,0,0,0,0,0,1,0
1167,17101,10438,trol,2,0,0,0,0,0,1,0
1178,17102,10438,trol,2,0,0,0,0,0,1,0
1188,17103,10438,trol,2,0,0,0,0,0,1,0
1198,17104,10438,trol,2,0,0,0,0,0,1,0
1208,17105,10438,trol,2,0,0,0,0,0,1,0
1217,17106,10438,trol,2,0,0,0,0,0,1,0
1226,17107,10438,trol,2,0,0,0,0,0,1,0
1235,17108,10438,trol,2,0,0,0,0,0,1,0
1244,17109,10438,trol,2,0,0,0,0,0,1,0
1253,17110,10438,trol,2,0,0,0,0,0,1,0
1262,17111,10438,trol,2,0,0,0,0,0,1,0
1271,17112,10438,trol,2,0,0,0,0,0,1,0
1280,17113,10438,trol,2,0,0,0,0,0,1,0
1290,17114,10438,trol,2,0,0,0,0,0,1,0
1299,17115,10438,trol,2,0,0,0,0,0,1,0
1308,17116,10438,trol,2,0,0,0,0,0,1,0
1317,17117,10438,trol,2,0,0,0,0,0,1,0
1326,17118,10438,trol,2,0,0,0,0,0,1,0
1336,17119,10438,trol,2,0,0,0,0,0,1,0
1346,17120,10438,trol,2,0,0,0,0,0,1,0
1359,17121,10438,trol,2,0,0,0,0,0,1,0
1373,17122,10438,trol,2,0,0,0,0,0,1,0
1385,17123,10438,trol,2,0,0,0,0,0,1,0
1399,17124,10438,trol,2,0,0,0,0,0,1,0
1417,17125,10438,trol,2,0,0,0,0,0,1,0
361,17581,10439,trol,2,0,0,0,0,0,0,1
308,17582,10437,trol,2,1,1,1,1,1,0,0
328,17583,10437,trol,2,1,1,1,1,1,0,0
408,17584,10437,trol,2,1,1,1,1,1,0,0
321,17585,10438,trol,2,0,0,0,0,0,1,0
403,18467,10448,trol,6,0,0,0,0,0,0,1
427,18468,10448,trol,6,0,0,0,0,0,0,1
440,18469,10448,trol,6,0,0,0,0,0,0,1
458,18470,10448,trol,6,0,0,0,0,0,0,1
478,18471,10448,trol,6,0,0,0,0,0,0,1
494,18472,10448,trol,6,0,0,0,0,0,0,1
511,18473,10448,trol,6,0,0,0,0,0,0,1
531,18474,10448,trol,6,0,0,0,0,0,0,1
547,18475,10448,trol,6,0,0,0,0,0,0,1
564,18476,10448,trol,6,0,0,0,0,0,0,1
579,18477,10448,trol,6,0,0,0,0,0,0,1
594,18478,10448,trol,6,0,0,0,0,0,0,1
606,18479,10448,trol,6,0,0,0,0,0,0,1
620,18480,10448,trol,6,0,0,0,0,0,0,1
637,18481,10448,trol,6,0,0,0,0,0,0,1
650,18482,10448,trol,6,0,0,0,0,0,0,1
665,18483,10448,trol,6,0,0,0,0,0,0,1
675,18484,10448,trol,6,0,0,0,0,0,0,1
688,18485,10448,trol,6,0,0,0,0,0,0,1
702,18486,10448,trol,6,0,0,0,0,0,0,1
712,18487,10448,trol,6,0,0,0,0,0,0,1
726,18488,10448,trol,6,0,0,0,0,0,0,1
741,18489,10448,trol,6,0,0,0,0,0,0,1
752,18490,10448,trol,6,0,0,0,0,0,0,1
765,18491,10448,trol,6,0,0,0,0,0,0,1
780,18492,10448,trol,6,0,0,0,0,0,0,1
798,18493,10448,trol,6,0,0,0,0,0,0,1
811,18494,10448,trol,6,0,0,0,0,0,0,1
823,18495,10448,trol,6,0,0,0,0,0,0,1
834,18496,10448,trol,6,0,0,0,0,0,0,1
845,18497,10448,trol,6,0,0,0,0,0,0,1
859,18498,10448,trol,6,0,0,0,0,0,0,1
875,18499,10448,trol,6,0,0,0,0,0,0,1
887,18500,10448,trol,6,0,0,0,0,0,0,1
898,18501,10448,trol,6,0,0,0,0,0,0,1
910,18502,10448,trol,6,0,0,0,0,0,0,1
923,18503,10448,trol,6,0,0,0,0,0,0,1
936,18504,10448,trol,6,0,0,0,0,0,0,1
947,18505,10448,trol,6,0,0,0,0,0,0,1
959,18506,10448,trol,6,0,0,0,0,0,0,1
970,18507,10448,trol,6,0,0,0,0,0,0,1
982,18508,10448,trol,6,0,0,0,0,0,0,1
998,18509,10448,trol,6,0,0,0,0,0,0,1
1012,18510,10448,trol,6,0,0,0,0,0,0,1
1025,18511,10448,trol,6,0,0,0,0,0,0,1
1045,18512,10448,trol,6,0,0,0,0,0,0,1
1064,18513,10448,trol,6,0,0,0,0,0,0,1
1092,18514,10448,trol,6,0,0,0,0,0,0,1
1113,18515,10448,trol,6,0,0,0,0,0,0,1
1130,18516,10448,trol,6,0,0,0,0,0,0,1
1155,18517,10448,trol,6,0,0,0,0,0,0,1
1178,18518,10448,trol,6,0,0,0,0,0,0,1
1198,18519,10448,trol,6,0,0,0,0,0,0,1
1220,18520,10448,trol,6,0,0,0,0,0,0,1
1234,18521,10448,trol,6,0,0,0,0,0,0,1
1260,18522,10448,trol,6,0,0,0,0,0,0,1
1275,18523,10448,trol,6,0,0,0,0,0,0,1
1294,18524,10448,trol,6,0,0,0,0,0,0,1
1316,18525,10448,trol,6,0,0,0,0,0,0,1
1341,18526,10448,trol,6,0,0,0,0,0,0,1
1363,18527,10448,trol,6,0,0,0,0,0,0,1
1377,18528,10448,trol,6,0,0,0,0,0,0,1
327,18529,10446,trol,6,1,1,1,1,1,0,0
336,18530,10446,trol,6,1,1,1,1,1,0,0
351,18531,10446,trol,6,1,1,1,1,1,0,0
363,18532,10446,trol,6,1,1,1,1,1,0,0
376,18533,10446,trol,6,1,1,1,1,1,0,0
384,18534,10446,trol,6,1,1,1,1,1,0,0
392,18535,10446,trol,6,1,1,1,1,1,0,0
401,18536,10446,trol,6,1,1,1,1,1,0,0
411,18537,10446,trol,6,1,1,1,1,1,0,0
419,18538,10446,trol,6,1,1,1,1,1,0,0
432,18539,10446,trol,6,1,1,1,1,1,0,0
441,18540,10446,trol,6,1,1,1,1,1,0,0
449,18541,10446,trol,6,1,1,1,1,1,0,0
456,18542,10446,trol,6,1,1,1,1,1,0,0
463,18543,10446,trol,6,1,1,1,1,1,0,0
473,18544,10446,trol,6,1,1,1,1,1,0,0
482,18545,10446,trol,6,1,1,1,1,1,0,0
488,18546,10446,trol,6,1,1,1,1,1,0,0
497,18547,10446,trol,6,1,1,1,1,1,0,0
506,18548,10446,trol,6,1,1,1,1,1,0,0
513,18549,10446,trol,6,1,1,1,1,1,0,0
526,18550,10446,trol,6,1,1,1,1,1,0,0
539,18551,10446,trol,6,1,1,1,1,1,0,0
554,18552,10446,trol,6,1,1,1,1,1,0,0
571,18553,10446,trol,6,1,1,1,1,1,0,0
583,18554,10446,trol,6,1,1,1,1,1,0,0
599,18555,10446,trol,6,1,1,1,1,1,0,0
609,18556,10446,trol,6,1,1,1,1,1,0,0
624,18557,10446,trol,6,1,1,1,1,1,0,0
639,18558,10446,trol,6,1,1,1,1,1,0,0
653,18559,10446,trol,6,1,1,1,1,1,0,0
666,18560,10446,trol,6,1,1,1,1,1,0,0
676,18561,10446,trol,6,1,1,1,1,1,0,0
685,18562,10446,trol,6,1,1,1,1,1,0,0
699,18563,10446,trol,6,1,1,1,1,1,0,0
711,18564,10446,trol,6,1,1,1,1,1,0,0
726,18565,10446,trol,6,1,1,1,1,1,0,0
739,18566,10446,trol,6,1,1,1,1,1,0,0
752,18567,10446,trol,6,1,1,1,1,1,0,0
766,18568,10446,trol,6,1,1,1,1,1,0,0
781,18569,10446,trol,6,1,1,1,1,1,0,0
792,18570,10446,trol,6,1,1,1,1,1,0,0
803,18571,10446,trol,6,1,1,1,1,1,0,0
817,18572,10446,trol,6,1,1,1,1,1,0,0
830,18573,10446,trol,6,1,1,1,1,1,0,0
843,18574,10446,trol,6,1,1,1,1,1,0,0
859,18575,10446,trol,6,1,1,1,1,1,0,0
874,18576,10446,trol,6,1,1,1,1,1,0,0
888,18577,10446,trol,6,1,1,1,1,1,0,0
902,18578,10446,trol,6,1,1,1,1,1,0,0
913,18579,10446,trol,6,1,1,1,1,1,0,0
924,18580,10446,trol,6,1,1,1,1,1,0,0
933,18581,10446,trol,6,1,1,1,1,1,0,0
940,18582,10446,trol,6,1,1,1,1,1,0,0
948,18583,10446,trol,6,1,1,1,1,1,0,0
955,18584,10446,trol,6,1,1,1,1,1,0,0
964,18585,10446,trol,6,1,1,1,1,1,0,0
972,18586,10446,trol,6,1,1,1,1,1,0,0
980,18587,10446,trol,6,1,1,1,1,1,0,0
989,18588,10446,trol,6,1,1,1,1,1,0,0
999,18589,10446,trol,6,1,1,1,1,1,0,0
1008,18590,10446,trol,6,1,1,1,1,1,0,0
1019,18591,10446,trol,6,1,1,1,1,1,0,0
1029,18592,10446,trol,6,1,1,1,1,1,0,0
1038,18593,10446,trol,6,1,1,1,1,1,0,0
1047,18594,10446,trol,6,1,1,1,1,1,0,0
1057,18595,10446,trol,6,1,1,1,1,1,0,0
1067,18596,10446,trol,6,1,1,1,1,1,0,0
1076,18597,10446,trol,6,1,1,1,1,1,0,0
1087,18598,10446,trol,6,1,1,1,1,1,0,0
1098,18599,10446,trol,6,1,1,1,1,1,0,0
1109,18600,10446,trol,6,1,1,1,1,1,0,0
1121,18601,10446,trol,6,1,1,1,1,1,0,0
1133,18602,10446,trol,6,1,1,1,1,1,0,0
1142,18603,10446,trol,6,1,1,1,1,1,0,0
1156,18604,10446,trol,6,1,1,1,1,1,0,0
1170,18605,10446,trol,6,1,1,1,1,1,0,0
1180,18606,10446,trol,6,1,1,1,1,1,0,0
1193,18607,10446,trol,6,1,1,1,1,1,0,0
1201,18608,10446,trol,6,1,1,1,1,1,0,0
1219,18609,10446,trol,6,1,1,1,1,1,0,0
1233,18610,10446,trol,6,1,1,1,1,1,0,0
1244,18611,10446,trol,6,1,1,1,1,1,0,0
1254,18612,10446,trol,6,1,1,1,1,1,0,0
1267,18613,10446,trol,6,1,1,1,1,1,0,0
1279,18614,10446,trol,6,1,1,1,1,1,0,0
1291,18615,10446,trol,6,1,1,1,1,1,0,0
1301,18616,10446,trol,6,1,1,1,1,1,0,0
1312,18617,10446,trol,6,1,1,1,1,1,0,0
1325,18618,10446,trol,6,1,1,1,1,1,0,0
1337,18619,10446,trol,6,1,1,1,1,1,0,0
1351,18620,10446,trol,6,1,1,1,1,1,0,0
1365,18621,10446,trol,6,1,1,1,1,1,0,0
349,18622,10447,trol,6,0,0,0,0,0,1,0
376,18623,10447,trol,6,0,0,0,0,0,1,0
403,18624,10447,trol,6,0,0,0,0,0,1,0
427,18625,10447,trol,6,0,0,0,0,0,1,0
440,18626,10447,trol,6,0,0,0,0,0,1,0
458,18627,10447,trol,6,0,0,0,0,0,1,0
478,18628,10447,trol,6,0,0,0,0,0,1,0
494,18629,10447,trol,6,0,0,0,0,0,1,0
511,18630,10447,trol,6,0,0,0,0,0,1,0
531,18631,10447,trol,6,0,0,0,0,0,1,0
547,18632,10447,trol,6,0,0,0,0,0,1,0
564,18633,10447,trol,6,0,0,0,0,0,1,0
579,18634,10447,trol,6,0,0,0,0,0,1,0
594,18635,10447,trol,6,0,0,0,0,0,1,0
606,18636,10447,trol,6,0,0,0,0,0,1,0
620,18637,10447,trol,6,0,0,0,0,0,1,0
637,18638,10447,trol,6,0,0,0,0,0,1,0
650,18639,10447,trol,6,0,0,0,0,0,1,0
665,18640,10447,trol,6,0,0,0,0,0,1,0
675,18641,10447,trol,6,0,0,0,0,0,1,0
688,18642,10447,trol,6,0,0,0,0,0,1,0
702,18643,10447,trol,6,0,0,0,0,0,1,0
712,18644,10447,trol,6,0,0,0,0,0,1,0
726,18645,10447,trol,6,0,0,0,0,0,1,0
741,18646,10447,trol,6,0,0,0,0,0,1,0
752,18647,10447,trol,6,0,0,0,0,0,1,0
765,18648,10447,trol,6,0,0,0,0,0,1,0
780,18649,10447,trol,6,0,0,0,0,0,1,0
798,18650,10447,trol,6,0,0,0,0,0,1,0
811,18651,10447,trol,6,0,0,0,0,0,1,0
823,18652,10447,trol,6,0,0,0,0,0,1,0
834,18653,10447,trol,6,0,0,0,0,0,1,0
845,18654,10447,trol,6,0,0,0,0,0,1,0
859,18655,10447,trol,6,0,0,0,0,0,1,0
875,18656,10447,trol,6,0,0,0,0,0,1,0
887,18657,10447,trol,6,0,0,0,0,0,1,0
898,18658,10447,trol,6,0,0,0,0,0,1,0
910,18659,10447,trol,6,0,0,0,0,0,1,0
923,18660,10447,trol,6,0,0,0,0,0,1,0
936,18661,10447,trol,6,0,0,0,0,0,1,0
947,18662,10447,trol,6,0,0,0,0,0,1,0
959,18663,10447,trol,6,0,0,0,0,0,1,0
970,18664,10447,trol,6,0,0,0,0,0,1,0
982,18665,10447,trol,6,0,0,0,0,0,1,0
998,18666,10447,trol,6,0,0,0,0,0,1,0
1012,18667,10447,trol,6,0,0,0,0,0,1,0
1025,18668,10447,trol,6,0,0,0,0,0,1,0
1045,18669,10447,trol,6,0,0,0,0,0,1,0
1064,18670,10447,trol,6,0,0,0,0,0,1,0
1092,18671,10447,trol,6,0,0,0,0,0,1,0
1113,18672,10447,trol,6,0,0,0,0,0,1,0
1130,18673,10447,trol,6,0,0,0,0,0,1,0
1155,18674,10447,trol,6,0,0,0,0,0,1,0
1178,18675,10447,trol,6,0,0,0,0,0,1,0
1198,18676,10447,trol,6,0,0,0,0,0,1,0
1220,18677,10447,trol,6,0,0,0,0,0,1,0
1234,18678,10447,trol,6,0,0,0,0,0,1,0
1260,18679,10447,trol,6,0,0,0,0,0,1,0
1275,18680,10447,trol,6,0,0,0,0,0,1,0
1294,18681,10447,trol,6,0,0,0,0,0,1,0
1316,18682,10447,trol,6,0,0,0,0,0,1,0
1341,18683,10447,trol,6,0,0,0,0,0,1,0
1363,18684,10447,trol,6,0,0,0,0,0,1,0
1377,18685,10447,trol,6,0,0,0,0,0,1,0
561,18686,10446,trol,6,1,1,1,1,1,0,0
591,18687,10446,trol,6,1,1,1,1,1,0,0
350,18970,10448,trol,6,0,0,0,0,0,0,1
377,18971,10448,trol,6,0,0,0,0,0,0,1
370,18972,10446,trol,6,1,1,1,1,1,0,0
328,18973,10447,trol,6,0,0,0,0,0,1,0
303,18974,10446,trol,6,1,1,1,1,1,0,0
303,18975,10447,trol,6,0,0,0,0,0,1,0
335,18976,10654,trol,7,1,1,1,1,1,0,0
347,18977,10654,trol,7,1,1,1,1,1,0,0
358,18978,10654,trol,7,1,1,1,1,1,0,0
366,18979,10654,trol,7,1,1,1,1,1,0,0
374,18980,10654,trol,7,1,1,1,1,1,0,0
379,18981,10654,trol,7,1,1,1,1,1,0,0
385,18982,10654,trol,7,1,1,1,1,1,0,0
390,18983,10654,trol,7,1,1,1,1,1,0,0
395,18984,10654,trol,7,1,1,1,1,1,0,0
400,18985,10654,trol,7,1,1,1,1,1,0,0
404,18986,10654,trol,7,1,1,1,1,1,0,0
408,18987,10654,trol,7,1,1,1,1,1,0,0
412,18988,10654,trol,7,1,1,1,1,1,0,0
417,18989,10654,trol,7,1,1,1,1,1,0,0
421,18990,10654,trol,7,1,1,1,1,1,0,0
425,18991,10654,trol,7,1,1,1,1,1,0,0
429,18992,10654,trol,7,1,1,1,1,1,0,0
433,18993,10654,trol,7,1,1,1,1,1,0,0
438,18994,10654,trol,7,1,1,1,1,1,0,0
443,18995,10654,trol,7,1,1,1,1,1,0,0
448,18996,10654,trol,7,1,1,1,1,1,0,0
452,18997,10654,trol,7,1,1,1,1,1,0,0
456,18998,10654,trol,7,1,1,1,1,1,0,0
459,18999,10654,trol,7,1,1,1,1,1,0,0
463,19000,10654,trol,7,1,1,1,1,1,0,0
467,19001,10654,trol,7,1,1,1,1,1,0,0
471,19002,10654,trol,7,1,1,1,1,1,0,0
475,19003,10654,trol,7,1,1,1,1,1,0,0
479,19004,10654,trol,7,1,1,1,1,1,0,0
483,19005,10654,trol,7,1,1,1,1,1,0,0
489,19006,10654,trol,7,1,1,1,1,1,0,0
493,19007,10654,trol,7,1,1,1,1,1,0,0
496,19008,10654,trol,7,1,1,1,1,1,0,0
499,19009,10654,trol,7,1,1,1,1,1,0,0
504,19010,10654,trol,7,1,1,1,1,1,0,0
508,19011,10654,trol,7,1,1,1,1,1,0,0
512,19012,10654,trol,7,1,1,1,1,1,0,0
516,19013,10654,trol,7,1,1,1,1,1,0,0
520,19014,10654,trol,7,1,1,1,1,1,0,0
524,19015,10654,trol,7,1,1,1,1,1,0,0
528,19016,10654,trol,7,1,1,1,1,1,0,0
532,19017,10654,trol,7,1,1,1,1,1,0,0
536,19018,10654,trol,7,1,1,1,1,1,0,0
539,19019,10654,trol,7,1,1,1,1,1,0,0
542,19020,10654,trol,7,1,1,1,1,1,0,0
545,19021,10654,trol,7,1,1,1,1,1,0,0
549,19022,10654,trol,7,1,1,1,1,1,0,0
554,19023,10654,trol,7,1,1,1,1,1,0,0
558,19024,10654,trol,7,1,1,1,1,1,0,0
562,19025,10654,trol,7,1,1,1,1,1,0,0
568,19026,10654,trol,7,1,1,1,1,1,0,0
575,19027,10654,trol,7,1,1,1,1,1,0,0
582,19028,10654,trol,7,1,1,1,1,1,0,0
592,19029,10654,trol,7,1,1,1,1,1,0,0
602,19030,10654,trol,7,1,1,1,1,1,0,0
611,19031,10654,trol,7,1,1,1,1,1,0,0
622,19032,10654,trol,7,1,1,1,1,1,0,0
633,19033,10654,trol,7,1,1,1,1,1,0,0
644,19034,10654,trol,7,1,1,1,1,1,0,0
655,19035,10654,trol,7,1,1,1,1,1,0,0
661,19036,10654,trol,7,1,1,1,1,1,0,0
670,19037,10654,trol,7,1,1,1,1,1,0,0
679,19038,10654,trol,7,1,1,1,1,1,0,0
686,19039,10654,trol,7,1,1,1,1,1,0,0
694,19040,10654,trol,7,1,1,1,1,1,0,0
702,19041,10654,trol,7,1,1,1,1,1,0,0
710,19042,10654,trol,7,1,1,1,1,1,0,0
718,19043,10654,trol,7,1,1,1,1,1,0,0
726,19044,10654,trol,7,1,1,1,1,1,0,0
734,19045,10654,trol,7,1,1,1,1,1,0,0
742,19046,10654,trol,7,1,1,1,1,1,0,0
750,19047,10654,trol,7,1,1,1,1,1,0,0
758,19048,10654,trol,7,1,1,1,1,1,0,0
766,19049,10654,trol,7,1,1,1,1,1,0,0
775,19050,10654,trol,7,1,1,1,1,1,0,0
783,19051,10654,trol,7,1,1,1,1,1,0,0
792,19052,10654,trol,7,1,1,1,1,1,0,0
800,19053,10654,trol,7,1,1,1,1,1,0,0
808,19054,10654,trol,7,1,1,1,1,1,0,0
814,19055,10654,trol,7,1,1,1,1,1,0,0
824,19056,10654,trol,7,1,1,1,1,1,0,0
832,19057,10654,trol,7,1,1,1,1,1,0,0
838,19058,10654,trol,7,1,1,1,1,1,0,0
847,19059,10654,trol,7,1,1,1,1,1,0,0
854,19060,10654,trol,7,1,1,1,1,1,0,0
863,19061,10654,trol,7,1,1,1,1,1,0,0
871,19062,10654,trol,7,1,1,1,1,1,0,0
880,19063,10654,trol,7,1,1,1,1,1,0,0
888,19064,10654,trol,7,1,1,1,1,1,0,0
896,19065,10654,trol,7,1,1,1,1,1,0,0
902,19066,10654,trol,7,1,1,1,1,1,0,0
908,19067,10654,trol,7,1,1,1,1,1,0,0
914,19068,10654,trol,7,1,1,1,1,1,0,0
917,19069,10654,trol,7,1,1,1,1,1,0,0
920,19070,10654,trol,7,1,1,1,1,1,0,0
926,19071,10654,trol,7,1,1,1,1,1,0,0
929,19072,10654,trol,7,1,1,1,1,1,0,0
935,19073,10654,trol,7,1,1,1,1,1,0,0
940,19074,10654,trol,7,1,1,1,1,1,0,0
944,19075,10654,trol,7,1,1,1,1,1,0,0
949,19076,10654,trol,7,1,1,1,1,1,0,0
953,19077,10654,trol,7,1,1,1,1,1,0,0
957,19078,10654,trol,7,1,1,1,1,1,0,0
961,19079,10654,trol,7,1,1,1,1,1,0,0
965,19080,10654,trol,7,1,1,1,1,1,0,0
969,19081,10654,trol,7,1,1,1,1,1,0,0
973,19082,10654,trol,7,1,1,1,1,1,0,0
977,19083,10654,trol,7,1,1,1,1,1,0,0
981,19084,10654,trol,7,1,1,1,1,1,0,0
985,19085,10654,trol,7,1,1,1,1,1,0,0
989,19086,10654,trol,7,1,1,1,1,1,0,0
993,19087,10654,trol,7,1,1,1,1,1,0,0
997,19088,10654,trol,7,1,1,1,1,1,0,0
1000,19089,10654,trol,7,1,1,1,1,1,0,0
1003,19090,10654,trol,7,1,1,1,1,1,0,0
1007,19091,10654,trol,7,1,1,1,1,1,0,0
1011,19092,10654,trol,7,1,1,1,1,1,0,0
1015,19093,10654,trol,7,1,1,1,1,1,0,0
1018,19094,10654,trol,7,1,1,1,1,1,0,0
1022,19095,10654,trol,7,1,1,1,1,1,0,0
1025,19096,10654,trol,7,1,1,1,1,1,0,0
1028,19097,10654,trol,7,1,1,1,1,1,0,0
1031,19098,10654,trol,7,1,1,1,1,1,0,0
1035,19099,10654,trol,7,1,1,1,1,1,0,0
1039,19100,10654,trol,7,1,1,1,1,1,0,0
1043,19101,10654,trol,7,1,1,1,1,1,0,0
1046,19102,10654,trol,7,1,1,1,1,1,0,0
1050,19103,10654,trol,7,1,1,1,1,1,0,0
1054,19104,10654,trol,7,1,1,1,1,1,0,0
1058,19105,10654,trol,7,1,1,1,1,1,0,0
1062,19106,10654,trol,7,1,1,1,1,1,0,0
1066,19107,10654,trol,7,1,1,1,1,1,0,0
1070,19108,10654,trol,7,1,1,1,1,1,0,0
1075,19109,10654,trol,7,1,1,1,1,1,0,0
1080,19110,10654,trol,7,1,1,1,1,1,0,0
1084,19111,10654,trol,7,1,1,1,1,1,0,0
1089,19112,10654,trol,7,1,1,1,1,1,0,0
1094,19113,10654,trol,7,1,1,1,1,1,0,0
1098,19114,10654,trol,7,1,1,1,1,1,0,0
1102,19115,10654,trol,7,1,1,1,1,1,0,0
1106,19116,10654,trol,7,1,1,1,1,1,0,0
1111,19117,10654,trol,7,1,1,1,1,1,0,0
1115,19118,10654,trol,7,1,1,1,1,1,0,0
1119,19119,10654,trol,7,1,1,1,1,1,0,0
1124,19120,10654,trol,7,1,1,1,1,1,0,0
1129,19121,10654,trol,7,1,1,1,1,1,0,0
1133,19122,10654,trol,7,1,1,1,1,1,0,0
1137,19123,10654,trol,7,1,1,1,1,1,0,0
1141,19124,10654,trol,7,1,1,1,1,1,0,0
1148,19125,10654,trol,7,1,1,1,1,1,0,0
1156,19126,10654,trol,7,1,1,1,1,1,0,0
1166,19127,10654,trol,7,1,1,1,1,1,0,0
1176,19128,10654,trol,7,1,1,1,1,1,0,0
1183,19129,10654,trol,7,1,1,1,1,1,0,0
1192,19130,10654,trol,7,1,1,1,1,1,0,0
1198,19131,10654,trol,7,1,1,1,1,1,0,0
1206,19132,10654,trol,7,1,1,1,1,1,0,0
1217,19133,10654,trol,7,1,1,1,1,1,0,0
1225,19134,10654,trol,7,1,1,1,1,1,0,0
1233,19135,10654,trol,7,1,1,1,1,1,0,0
1241,19136,10654,trol,7,1,1,1,1,1,0,0
1250,19137,10654,trol,7,1,1,1,1,1,0,0
1258,19138,10654,trol,7,1,1,1,1,1,0,0
1264,19139,10654,trol,7,1,1,1,1,1,0,0
1271,19140,10654,trol,7,1,1,1,1,1,0,0
1278,19141,10654,trol,7,1,1,1,1,1,0,0
1289,19142,10654,trol,7,1,1,1,1,1,0,0
1301,19143,10654,trol,7,1,1,1,1,1,0,0
1309,19144,10654,trol,7,1,1,1,1,1,0,0
1319,19145,10654,trol,7,1,1,1,1,1,0,0
1333,19146,10654,trol,7,1,1,1,1,1,0,0
1349,19147,10654,trol,7,1,1,1,1,1,0,0
1361,19148,10654,trol,7,1,1,1,1,1,0,0
1375,19149,10654,trol,7,1,1,1,1,1,0,0
1395,19150,10654,trol,7,1,1,1,1,1,0,0
1418,19151,10654,trol,7,1,1,1,1,1,0,0
339,19152,10651,trol,7,0,0,0,0,0,1,0
361,19153,10651,trol,7,0,0,0,0,0,1,0
375,19154,10651,trol,7,0,0,0,0,0,1,0
397,19155,10651,trol,7,0,0,0,0,0,1,0
410,19156,10651,trol,7,0,0,0,0,0,1,0
420,19157,10651,trol,7,0,0,0,0,0,1,0
432,19158,10651,trol,7,0,0,0,0,0,1,0
445,19159,10651,trol,7,0,0,0,0,0,1,0
455,19160,10651,trol,7,0,0,0,0,0,1,0
469,19161,10651,trol,7,0,0,0,0,0,1,0
480,19162,10651,trol,7,0,0,0,0,0,1,0
492,19163,10651,trol,7,0,0,0,0,0,1,0
500,19164,10651,trol,7,0,0,0,0,0,1,0
506,19165,10651,trol,7,0,0,0,0,0,1,0
517,19166,10651,trol,7,0,0,0,0,0,1,0
526,19167,10651,trol,7,0,0,0,0,0,1,0
534,19168,10651,trol,7,0,0,0,0,0,1,0
542,19169,10651,trol,7,0,0,0,0,0,1,0
551,19170,10651,trol,7,0,0,0,0,0,1,0
559,19171,10651,trol,7,0,0,0,0,0,1,0
567,19172,10651,trol,7,0,0,0,0,0,1,0
574,19173,10651,trol,7,0,0,0,0,0,1,0
584,19174,10651,trol,7,0,0,0,0,0,1,0
591,19175,10651,trol,7,0,0,0,0,0,1,0
600,19176,10651,trol,7,0,0,0,0,0,1,0
608,19177,10651,trol,7,0,0,0,0,0,1,0
616,19178,10651,trol,7,0,0,0,0,0,1,0
622,19179,10651,trol,7,0,0,0,0,0,1,0
628,19180,10651,trol,7,0,0,0,0,0,1,0
634,19181,10651,trol,7,0,0,0,0,0,1,0
640,19182,10651,trol,7,0,0,0,0,0,1,0
646,19183,10651,trol,7,0,0,0,0,0,1,0
652,19184,10651,trol,7,0,0,0,0,0,1,0
658,19185,10651,trol,7,0,0,0,0,0,1,0
665,19186,10651,trol,7,0,0,0,0,0,1,0
672,19187,10651,trol,7,0,0,0,0,0,1,0
678,19188,10651,trol,7,0,0,0,0,0,1,0
685,19189,10651,trol,7,0,0,0,0,0,1,0
692,19190,10651,trol,7,0,0,0,0,0,1,0
699,19191,10651,trol,7,0,0,0,0,0,1,0
706,19192,10651,trol,7,0,0,0,0,0,1,0
715,19193,10651,trol,7,0,0,0,0,0,1,0
721,19194,10651,trol,7,0,0,0,0,0,1,0
729,19195,10651,trol,7,0,0,0,0,0,1,0
737,19196,10651,trol,7,0,0,0,0,0,1,0
743,19197,10651,trol,7,0,0,0,0,0,1,0
751,19198,10651,trol,7,0,0,0,0,0,1,0
759,19199,10651,trol,7,0,0,0,0,0,1,0
765,19200,10651,trol,7,0,0,0,0,0,1,0
771,19201,10651,trol,7,0,0,0,0,0,1,0
776,19202,10651,trol,7,0,0,0,0,0,1,0
782,19203,10651,trol,7,0,0,0,0,0,1,0
787,19204,10651,trol,7,0,0,0,0,0,1,0
792,19205,10651,trol,7,0,0,0,0,0,1,0
798,19206,10651,trol,7,0,0,0,0,0,1,0
805,19207,10651,trol,7,0,0,0,0,0,1,0
812,19208,10651,trol,7,0,0,0,0,0,1,0
817,19209,10651,trol,7,0,0,0,0,0,1,0
823,19210,10651,trol,7,0,0,0,0,0,1,0
829,19211,10651,trol,7,0,0,0,0,0,1,0
835,19212,10651,trol,7,0,0,0,0,0,1,0
843,19213,10651,trol,7,0,0,0,0,0,1,0
849,19214,10651,trol,7,0,0,0,0,0,1,0
857,19215,10651,trol,7,0,0,0,0,0,1,0
863,19216,10651,trol,7,0,0,0,0,0,1,0
869,19217,10651,trol,7,0,0,0,0,0,1,0
875,19218,10651,trol,7,0,0,0,0,0,1,0
881,19219,10651,trol,7,0,0,0,0,0,1,0
888,19220,10651,trol,7,0,0,0,0,0,1,0
898,19221,10651,trol,7,0,0,0,0,0,1,0
903,19222,10651,trol,7,0,0,0,0,0,1,0
909,19223,10651,trol,7,0,0,0,0,0,1,0
915,19224,10651,trol,7,0,0,0,0,0,1,0
921,19225,10651,trol,7,0,0,0,0,0,1,0
926,19226,10651,trol,7,0,0,0,0,0,1,0
932,19227,10651,trol,7,0,0,0,0,0,1,0
939,19228,10651,trol,7,0,0,0,0,0,1,0
945,19229,10651,trol,7,0,0,0,0,0,1,0
952,19230,10651,trol,7,0,0,0,0,0,1,0
958,19231,10651,trol,7,0,0,0,0,0,1,0
964,19232,10651,trol,7,0,0,0,0,0,1,0
974,19233,10651,trol,7,0,0,0,0,0,1,0
981,19234,10651,trol,7,0,0,0,0,0,1,0
988,19235,10651,trol,7,0,0,0,0,0,1,0
995,19236,10651,trol,7,0,0,0,0,0,1,0
1001,19237,10651,trol,7,0,0,0,0,0,1,0
1008,19238,10651,trol,7,0,0,0,0,0,1,0
1017,19239,10651,trol,7,0,0,0,0,0,1,0
1027,19240,10651,trol,7,0,0,0,0,0,1,0
1040,19241,10651,trol,7,0,0,0,0,0,1,0
1048,19242,10651,trol,7,0,0,0,0,0,1,0
1056,19243,10651,trol,7,0,0,0,0,0,1,0
1066,19244,10651,trol,7,0,0,0,0,0,1,0
1075,19245,10651,trol,7,0,0,0,0,0,1,0
1085,19246,10651,trol,7,0,0,0,0,0,1,0
1100,19247,10651,trol,7,0,0,0,0,0,1,0
1114,19248,10651,trol,7,0,0,0,0,0,1,0
1126,19249,10651,trol,7,0,0,0,0,0,1,0
1139,19250,10651,trol,7,0,0,0,0,0,1,0
1149,19251,10651,trol,7,0,0,0,0,0,1,0
1160,19252,10651,trol,7,0,0,0,0,0,1,0
1168,19253,10651,trol,7,0,0,0,0,0,1,0
1181,19254,10651,trol,7,0,0,0,0,0,1,0
1191,19255,10651,trol,7,0,0,0,0,0,1,0
1201,19256,10651,trol,7,0,0,0,0,0,1,0
1212,19257,10651,trol,7,0,0,0,0,0,1,0
1221,19258,10651,trol,7,0,0,0,0,0,1,0
1232,19259,10651,trol,7,0,0,0,0,0,1,0
1241,19260,10651,trol,7,0,0,0,0,0,1,0
1252,19261,10651,trol,7,0,0,0,0,0,1,0
1261,19262,10651,trol,7,0,0,0,0,0,1,0
1271,19263,10651,trol,7,0,0,0,0,0,1,0
1283,19264,10651,trol,7,0,0,0,0,0,1,0
1297,19265,10651,trol,7,0,0,0,0,0,1,0
1313,19266,10651,trol,7,0,0,0,0,0,1,0
1329,19267,10651,trol,7,0,0,0,0,0,1,0
1340,19268,10651,trol,7,0,0,0,0,0,1,0
1350,19269,10651,trol,7,0,0,0,0,0,1,0
1369,19270,10651,trol,7,0,0,0,0,0,1,0
1386,19271,10651,trol,7,0,0,0,0,0,1,0
1405,19272,10651,trol,7,0,0,0,0,0,1,0
397,19273,10653,trol,7,0,0,0,0,0,0,1
410,19274,10653,trol,7,0,0,0,0,0,0,1
420,19275,10653,trol,7,0,0,0,0,0,0,1
432,19276,10653,trol,7,0,0,0,0,0,0,1
445,19277,10653,trol,7,0,0,0,0,0,0,1
455,19278,10653,trol,7,0,0,0,0,0,0,1
469,19279,10653,trol,7,0,0,0,0,0,0,1
480,19280,10653,trol,7,0,0,0,0,0,0,1
492,19281,10653,trol,7,0,0,0,0,0,0,1
500,19282,10653,trol,7,0,0,0,0,0,0,1
506,19283,10653,trol,7,0,0,0,0,0,0,1
517,19284,10653,trol,7,0,0,0,0,0,0,1
526,19285,10653,trol,7,0,0,0,0,0,0,1
534,19286,10653,trol,7,0,0,0,0,0,0,1
542,19287,10653,trol,7,0,0,0,0,0,0,1
551,19288,10653,trol,7,0,0,0,0,0,0,1
559,19289,10653,trol,7,0,0,0,0,0,0,1
567,19290,10653,trol,7,0,0,0,0,0,0,1
574,19291,10653,trol,7,0,0,0,0,0,0,1
584,19292,10653,trol,7,0,0,0,0,0,0,1
591,19293,10653,trol,7,0,0,0,0,0,0,1
600,19294,10653,trol,7,0,0,0,0,0,0,1
608,19295,10653,trol,7,0,0,0,0,0,0,1
616,19296,10653,trol,7,0,0,0,0,0,0,1
622,19297,10653,trol,7,0,0,0,0,0,0,1
628,19298,10653,trol,7,0,0,0,0,0,0,1
634,19299,10653,trol,7,0,0,0,0,0,0,1
640,19300,10653,trol,7,0,0,0,0,0,0,1
646,19301,10653,trol,7,0,0,0,0,0,0,1
652,19302,10653,trol,7,0,0,0,0,0,0,1
658,19303,10653,trol,7,0,0,0,0,0,0,1
665,19304,10653,trol,7,0,0,0,0,0,0,1
672,19305,10653,trol,7,0,0,0,0,0,0,1
678,19306,10653,trol,7,0,0,0,0,0,0,1
685,19307,10653,trol,7,0,0,0,0,0,0,1
692,19308,10653,trol,7,0,0,0,0,0,0,1
699,19309,10653,trol,7,0,0,0,0,0,0,1
706,19310,10653,trol,7,0,0,0,0,0,0,1
715,19311,10653,trol,7,0,0,0,0,0,0,1
721,19312,10653,trol,7,0,0,0,0,0,0,1
729,19313,10653,trol,7,0,0,0,0,0,0,1
737,19314,10653,trol,7,0,0,0,0,0,0,1
743,19315,10653,trol,7,0,0,0,0,0,0,1
751,19316,10653,trol,7,0,0,0,0,0,0,1
759,19317,10653,trol,7,0,0,0,0,0,0,1
765,19318,10653,trol,7,0,0,0,0,0,0,1
771,19319,10653,trol,7,0,0,0,0,0,0,1
776,19320,10653,trol,7,0,0,0,0,0,0,1
782,19321,10653,trol,7,0,0,0,0,0,0,1
787,19322,10653,trol,7,0,0,0,0,0,0,1
792,19323,10653,trol,7,0,0,0,0,0,0,1
798,19324,10653,trol,7,0,0,0,0,0,0,1
805,19325,10653,trol,7,0,0,0,0,0,0,1
812,19326,10653,trol,7,0,0,0,0,0,0,1
817,19327,10653,trol,7,0,0,0,0,0,0,1
823,19328,10653,trol,7,0,0,0,0,0,0,1
829,19329,10653,trol,7,0,0,0,0,0,0,1
835,19330,10653,trol,7,0,0,0,0,0,0,1
843,19331,10653,trol,7,0,0,0,0,0,0,1
849,19332,10653,trol,7,0,0,0,0,0,0,1
857,19333,10653,trol,7,0,0,0,0,0,0,1
863,19334,10653,trol,7,0,0,0,0,0,0,1
869,19335,10653,trol,7,0,0,0,0,0,0,1
875,19336,10653,trol,7,0,0,0,0,0,0,1
881,19337,10653,trol,7,0,0,0,0,0,0,1
888,19338,10653,trol,7,0,0,0,0,0,0,1
898,19339,10653,trol,7,0,0,0,0,0,0,1
903,19340,10653,trol,7,0,0,0,0,0,0,1
909,19341,10653,trol,7,0,0,0,0,0,0,1
915,19342,10653,trol,7,0,0,0,0,0,0,1
921,19343,10653,trol,7,0,0,0,0,0,0,1
926,19344,10653,trol,7,0,0,0,0,0,0,1
932,19345,10653,trol,7,0,0,0,0,0,0,1
939,19346,10653,trol,7,0,0,0,0,0,0,1
945,19347,10653,trol,7,0,0,0,0,0,0,1
952,19348,10653,trol,7,0,0,0,0,0,0,1
958,19349,10653,trol,7,0,0,0,0,0,0,1
964,19350,10653,trol,7,0,0,0,0,0,0,1
974,19351,10653,trol,7,0,0,0,0,0,0,1
981,19352,10653,trol,7,0,0,0,0,0,0,1
988,19353,10653,trol,7,0,0,0,0,0,0,1
995,19354,10653,trol,7,0,0,0,0,0,0,1
1001,19355,10653,trol,7,0,0,0,0,0,0,1
1008,19356,10653,trol,7,0,0,0,0,0,0,1
1017,19357,10653,trol,7,0,0,0,0,0,0,1
1027,19358,10653,trol,7,0,0,0,0,0,0,1
1040,19359,10653,trol,7,0,0,0,0,0,0,1
1048,19360,10653,trol,7,0,0,0,0,0,0,1
1056,19361,10653,trol,7,0,0,0,0,0,0,1
1066,19362,10653,trol,7,0,0,0,0,0,0,1
1075,19363,10653,trol,7,0,0,0,0,0,0,1
1085,19364,10653,trol,7,0,0,0,0,0,0,1
1100,19365,10653,trol,7,0,0,0,0,0,0,1
1114,19366,10653,trol,7,0,0,0,0,0,0,1
1126,19367,10653,trol,7,0,0,0,0,0,0,1
1139,19368,10653,trol,7,0,0,0,0,0,0,1
1149,19369,10653,trol,7,0,0,0,0,0,0,1
1160,19370,10653,trol,7,0,0,0,0,0,0,1
1168,19371,10653,trol,7,0,0,0,0,0,0,1
1181,19372,10653,trol,7,0,0,0,0,0,0,1
1191,19373,10653,trol,7,0,0,0,0,0,0,1
1201,19374,10653,trol,7,0,0,0,0,0,0,1
1212,19375,10653,trol,7,0,0,0,0,0,0,1
1221,19376,10653,trol,7,0,0,0,0,0,0,1
1232,19377,10653,trol,7,0,0,0,0,0,0,1
1241,19378,10653,trol,7,0,0,0,0,0,0,1
1252,19379,10653,trol,7,0,0,0,0,0,0,1
1261,19380,10653,trol,7,0,0,0,0,0,0,1
1271,19381,10653,trol,7,0,0,0,0,0,0,1
1283,19382,10653,trol,7,0,0,0,0,0,0,1
1297,19383,10653,trol,7,0,0,0,0,0,0,1
1313,19384,10653,trol,7,0,0,0,0,0,0,1
1329,19385,10653,trol,7,0,0,0,0,0,0,1
1340,19386,10653,trol,7,0,0,0,0,0,0,1
1350,19387,10653,trol,7,0,0,0,0,0,0,1
1369,19388,10653,trol,7,0,0,0,0,0,0,1
1386,19389,10653,trol,7,0,0,0,0,0,0,1
1405,19390,10653,trol,7,0,0,0,0,0,0,1
302,19924,10654,trol,7,1,1,1,1,1,0,0
315,19925,10654,trol,7,1,1,1,1,1,0,0
867,19926,10654,trol,7,1,1,1,1,1,0,0
876,19927,10654,trol,7,1,1,1,1,1,0,0
884,19928,10654,trol,7,1,1,1,1,1,0,0
892,19929,10654,trol,7,1,1,1,1,1,0,0
899,19930,10654,trol,7,1,1,1,1,1,0,0
905,19931,10654,trol,7,1,1,1,1,1,0,0
911,19932,10654,trol,7,1,1,1,1,1,0,0
923,19933,10654,trol,7,1,1,1,1,1,0,0
932,19934,10654,trol,7,1,1,1,1,1,0,0
317,19935,10651,trol,7,0,0,0,0,0,1,0
361,19936,10653,trol,7,0,0,0,0,0,0,1
375,19937,10653,trol,7,0,0,0,0,0,0,1
412,20818,10460,trol,12,0,0,0,0,0,0,1
432,20819,10460,trol,12,0,0,0,0,0,0,1
448,20820,10460,trol,12,0,0,0,0,0,0,1
469,20821,10460,trol,12,0,0,0,0,0,0,1
491,20822,10460,trol,12,0,0,0,0,0,0,1
519,20823,10460,trol,12,0,0,0,0,0,0,1
541,20824,10460,trol,12,0,0,0,0,0,0,1
559,20825,10460,trol,12,0,0,0,0,0,0,1
582,20826,10460,trol,12,0,0,0,0,0,0,1
609,20827,10460,trol,12,0,0,0,0,0,0,1
629,20828,10460,trol,12,0,0,0,0,0,0,1
655,20829,10460,trol,12,0,0,0,0,0,0,1
680,20830,10460,trol,12,0,0,0,0,0,0,1
694,20831,10460,trol,12,0,0,0,0,0,0,1
716,20832,10460,trol,12,0,0,0,0,0,0,1
731,20833,10460,trol,12,0,0,0,0,0,0,1
748,20834,10460,trol,12,0,0,0,0,0,0,1
773,20835,10460,trol,12,0,0,0,0,0,0,1
790,20836,10460,trol,12,0,0,0,0,0,0,1
817,20837,10460,trol,12,0,0,0,0,0,0,1
839,20838,10460,trol,12,0,0,0,0,0,0,1
850,20839,10460,trol,12,0,0,0,0,0,0,1
866,20840,10460,trol,12,0,0,0,0,0,0,1
891,20841,10460,trol,12,0,0,0,0,0,0,1
904,20842,10460,trol,12,0,0,0,0,0,0,1
930,20843,10460,trol,12,0,0,0,0,0,0,1
950,20844,10460,trol,12,0,0,0,0,0,0,1
973,20845,10460,trol,12,0,0,0,0,0,0,1
988,20846,10460,trol,12,0,0,0,0,0,0,1
1005,20847,10460,trol,12,0,0,0,0,0,0,1
1029,20848,10460,trol,12,0,0,0,0,0,0,1
1053,20849,10460,trol,12,0,0,0,0,0,0,1
1076,20850,10460,trol,12,0,0,0,0,0,0,1
1101,20851,10460,trol,12,0,0,0,0,0,0,1
1138,20852,10460,trol,12,0,0,0,0,0,0,1
1164,20853,10460,trol,12,0,0,0,0,0,0,1
1188,20854,10460,trol,12,0,0,0,0,0,0,1
1213,20855,10460,trol,12,0,0,0,0,0,0,1
1240,20856,10460,trol,12,0,0,0,0,0,0,1
1255,20857,10460,trol,12,0,0,0,0,0,0,1
1283,20858,10460,trol,12,0,0,0,0,0,0,1
1300,20859,10460,trol,12,0,0,0,0,0,0,1
1328,20860,10460,trol,12,0,0,0,0,0,0,1
1354,20861,10460,trol,12,0,0,0,0,0,0,1
1387,20862,10460,trol,12,0,0,0,0,0,0,1
324,20863,10458,trol,12,1,1,1,1,1,0,0
340,20864,10458,trol,12,1,1,1,1,1,0,0
355,20865,10458,trol,12,1,1,1,1,1,0,0
367,20866,10458,trol,12,1,1,1,1,1,0,0
380,20867,10458,trol,12,1,1,1,1,1,0,0
395,20868,10458,trol,12,1,1,1,1,1,0,0
408,20869,10458,trol,12,1,1,1,1,1,0,0
423,20870,10458,trol,12,1,1,1,1,1,0,0
434,20871,10458,trol,12,1,1,1,1,1,0,0
445,20872,10458,trol,12,1,1,1,1,1,0,0
453,20873,10458,trol,12,1,1,1,1,1,0,0
465,20874,10458,trol,12,1,1,1,1,1,0,0
476,20875,10458,trol,12,1,1,1,1,1,0,0
491,20876,10458,trol,12,1,1,1,1,1,0,0
503,20877,10458,trol,12,1,1,1,1,1,0,0
517,20878,10458,trol,12,1,1,1,1,1,0,0
533,20879,10458,trol,12,1,1,1,1,1,0,0
549,20880,10458,trol,12,1,1,1,1,1,0,0
566,20881,10458,trol,12,1,1,1,1,1,0,0
581,20882,10458,trol,12,1,1,1,1,1,0,0
595,20883,10458,trol,12,1,1,1,1,1,0,0
613,20884,10458,trol,12,1,1,1,1,1,0,0
629,20885,10458,trol,12,1,1,1,1,1,0,0
645,20886,10458,trol,12,1,1,1,1,1,0,0
662,20887,10458,trol,12,1,1,1,1,1,0,0
679,20888,10458,trol,12,1,1,1,1,1,0,0
694,20889,10458,trol,12,1,1,1,1,1,0,0
705,20890,10458,trol,12,1,1,1,1,1,0,0
719,20891,10458,trol,12,1,1,1,1,1,0,0
734,20892,10458,trol,12,1,1,1,1,1,0,0
748,20893,10458,trol,12,1,1,1,1,1,0,0
762,20894,10458,trol,12,1,1,1,1,1,0,0
777,20895,10458,trol,12,1,1,1,1,1,0,0
795,20896,10458,trol,12,1,1,1,1,1,0,0
812,20897,10458,trol,12,1,1,1,1,1,0,0
826,20898,10458,trol,12,1,1,1,1,1,0,0
840,20899,10458,trol,12,1,1,1,1,1,0,0
854,20900,10458,trol,12,1,1,1,1,1,0,0
870,20901,10458,trol,12,1,1,1,1,1,0,0
884,20902,10458,trol,12,1,1,1,1,1,0,0
898,20903,10458,trol,12,1,1,1,1,1,0,0
915,20904,10458,trol,12,1,1,1,1,1,0,0
926,20905,10458,trol,12,1,1,1,1,1,0,0
936,20906,10458,trol,12,1,1,1,1,1,0,0
950,20907,10458,trol,12,1,1,1,1,1,0,0
961,20908,10458,trol,12,1,1,1,1,1,0,0
974,20909,10458,trol,12,1,1,1,1,1,0,0
984,20910,10458,trol,12,1,1,1,1,1,0,0
995,20911,10458,trol,12,1,1,1,1,1,0,0
1011,20912,10458,trol,12,1,1,1,1,1,0,0
1026,20913,10458,trol,12,1,1,1,1,1,0,0
1043,20914,10458,trol,12,1,1,1,1,1,0,0
1061,20915,10458,trol,12,1,1,1,1,1,0,0
1074,20916,10458,trol,12,1,1,1,1,1,0,0
1090,20917,10458,trol,12,1,1,1,1,1,0,0
1103,20918,10458,trol,12,1,1,1,1,1,0,0
1117,20919,10458,trol,12,1,1,1,1,1,0,0
1136,20920,10458,trol,12,1,1,1,1,1,0,0
1151,20921,10458,trol,12,1,1,1,1,1,0,0
1167,20922,10458,trol,12,1,1,1,1,1,0,0
1185,20923,10458,trol,12,1,1,1,1,1,0,0
1205,20924,10458,trol,12,1,1,1,1,1,0,0
1215,20925,10458,trol,12,1,1,1,1,1,0,0
1227,20926,10458,trol,12,1,1,1,1,1,0,0
1240,20927,10458,trol,12,1,1,1,1,1,0,0
1257,20928,10458,trol,12,1,1,1,1,1,0,0
1271,20929,10458,trol,12,1,1,1,1,1,0,0
1287,20930,10458,trol,12,1,1,1,1,1,0,0
1305,20931,10458,trol,12,1,1,1,1,1,0,0
1320,20932,10458,trol,12,1,1,1,1,1,0,0
1343,20933,10458,trol,12,1,1,1,1,1,0,0
1356,20934,10458,trol,12,1,1,1,1,1,0,0
363,20935,10459,trol,12,0,0,0,0,0,1,0
387,20936,10459,trol,12,0,0,0,0,0,1,0
412,20937,10459,trol,12,0,0,0,0,0,1,0
432,20938,10459,trol,12,0,0,0,0,0,1,0
448,20939,10459,trol,12,0,0,0,0,0,1,0
469,20940,10459,trol,12,0,0,0,0,0,1,0
491,20941,10459,trol,12,0,0,0,0,0,1,0
519,20942,10459,trol,12,0,0,0,0,0,1,0
541,20943,10459,trol,12,0,0,0,0,0,1,0
559,20944,10459,trol,12,0,0,0,0,0,1,0
582,20945,10459,trol,12,0,0,0,0,0,1,0
609,20946,10459,trol,12,0,0,0,0,0,1,0
629,20947,10459,trol,12,0,0,0,0,0,1,0
655,20948,10459,trol,12,0,0,0,0,0,1,0
680,20949,10459,trol,12,0,0,0,0,0,1,0
694,20950,10459,trol,12,0,0,0,0,0,1,0
716,20951,10459,trol,12,0,0,0,0,0,1,0
731,20952,10459,trol,12,0,0,0,0,0,1,0
748,20953,10459,trol,12,0,0,0,0,0,1,0
773,20954,10459,trol,12,0,0,0,0,0,1,0
790,20955,10459,trol,12,0,0,0,0,0,1,0
817,20956,10459,trol,12,0,0,0,0,0,1,0
839,20957,10459,trol,12,0,0,0,0,0,1,0
850,20958,10459,trol,12,0,0,0,0,0,1,0
866,20959,10459,trol,12,0,0,0,0,0,1,0
891,20960,10459,trol,12,0,0,0,0,0,1,0
904,20961,10459,trol,12,0,0,0,0,0,1,0
930,20962,10459,trol,12,0,0,0,0,0,1,0
950,20963,10459,trol,12,0,0,0,0,0,1,0
973,20964,10459,trol,12,0,0,0,0,0,1,0
988,20965,10459,trol,12,0,0,0,0,0,1,0
1005,20966,10459,trol,12,0,0,0,0,0,1,0
1029,20967,10459,trol,12,0,0,0,0,0,1,0
1053,20968,10459,trol,12,0,0,0,0,0,1,0
1076,20969,10459,trol,12,0,0,0,0,0,1,0
1101,20970,10459,trol,12,0,0,0,0,0,1,0
1138,20971,10459,trol,12,0,0,0,0,0,1,0
1164,20972,10459,trol,12,0,0,0,0,0,1,0
1188,20973,10459,trol,12,0,0,0,0,0,1,0
1213,20974,10459,trol,12,0,0,0,0,0,1,0
1240,20975,10459,trol,12,0,0,0,0,0,1,0
1255,20976,10459,trol,12,0,0,0,0,0,1,0
1283,20977,10459,trol,12,0,0,0,0,0,1,0
1300,20978,10459,trol,12,0,0,0,0,0,1,0
1328,20979,10459,trol,12,0,0,0,0,0,1,0
1354,20980,10459,trol,12,0,0,0,0,0,1,0
1387,20981,10459,trol,12,0,0,0,0,0,1,0
364,21188,10460,trol,12,0,0,0,0,0,0,1
388,21189,10460,trol,12,0,0,0,0,0,0,1
394,21254,10464,trol,14,0,0,0,0,0,0,1
423,21255,10464,trol,14,0,0,0,0,0,0,1
456,21256,10464,trol,14,0,0,0,0,0,0,1
489,21257,10464,trol,14,0,0,0,0,0,0,1
527,21258,10464,trol,14,0,0,0,0,0,0,1
557,21259,10464,trol,14,0,0,0,0,0,0,1
611,21260,10464,trol,14,0,0,0,0,0,0,1
647,21261,10464,trol,14,0,0,0,0,0,0,1
678,21262,10464,trol,14,0,0,0,0,0,0,1
710,21263,10464,trol,14,0,0,0,0,0,0,1
745,21264,10464,trol,14,0,0,0,0,0,0,1
777,21265,10464,trol,14,0,0,0,0,0,0,1
813,21266,10464,trol,14,0,0,0,0,0,0,1
843,21267,10464,trol,14,0,0,0,0,0,0,1
878,21268,10464,trol,14,0,0,0,0,0,0,1
913,21269,10464,trol,14,0,0,0,0,0,0,1
944,21270,10464,trol,14,0,0,0,0,0,0,1
978,21271,10464,trol,14,0,0,0,0,0,0,1
1015,21272,10464,trol,14,0,0,0,0,0,0,1
1042,21273,10464,trol,14,0,0,0,0,0,0,1
1074,21274,10464,trol,14,0,0,0,0,0,0,1
1111,21275,10464,trol,14,0,0,0,0,0,0,1
1144,21276,10464,trol,14,0,0,0,0,0,0,1
1194,21277,10464,trol,14,0,0,0,0,0,0,1
1231,21278,10464,trol,14,0,0,0,0,0,0,1
1265,21279,10464,trol,14,0,0,0,0,0,0,1
1291,21280,10464,trol,14,0,0,0,0,0,0,1
1325,21281,10464,trol,14,0,0,0,0,0,0,1
1360,21282,10464,trol,14,0,0,0,0,0,0,1
359,21283,10462,trol,14,1,1,1,1,1,0,0
382,21284,10462,trol,14,1,1,1,1,1,0,0
404,21285,10462,trol,14,1,1,1,1,1,0,0
426,21286,10462,trol,14,1,1,1,1,1,0,0
446,21287,10462,trol,14,1,1,1,1,1,0,0
467,21288,10462,trol,14,1,1,1,1,1,0,0
489,21289,10462,trol,14,1,1,1,1,1,0,0
515,21290,10462,trol,14,1,1,1,1,1,0,0
537,21291,10462,trol,14,1,1,1,1,1,0,0
559,21292,10462,trol,14,1,1,1,1,1,0,0
598,21293,10462,trol,14,1,1,1,1,1,0,0
626,21294,10462,trol,14,1,1,1,1,1,0,0
668,21295,10462,trol,14,1,1,1,1,1,0,0
701,21296,10462,trol,14,1,1,1,1,1,0,0
732,21297,10462,trol,14,1,1,1,1,1,0,0
771,21298,10462,trol,14,1,1,1,1,1,0,0
805,21299,10462,trol,14,1,1,1,1,1,0,0
838,21300,10462,trol,14,1,1,1,1,1,0,0
877,21301,10462,trol,14,1,1,1,1,1,0,0
909,21302,10462,trol,14,1,1,1,1,1,0,0
928,21303,10462,trol,14,1,1,1,1,1,0,0
945,21304,10462,trol,14,1,1,1,1,1,0,0
964,21305,10462,trol,14,1,1,1,1,1,0,0
987,21306,10462,trol,14,1,1,1,1,1,0,0
1014,21307,10462,trol,14,1,1,1,1,1,0,0
1036,21308,10462,trol,14,1,1,1,1,1,0,0
1055,21309,10462,trol,14,1,1,1,1,1,0,0
1079,21310,10462,trol,14,1,1,1,1,1,0,0
1101,21311,10462,trol,14,1,1,1,1,1,0,0
1125,21312,10462,trol,14,1,1,1,1,1,0,0
1146,21313,10462,trol,14,1,1,1,1,1,0,0
1163,21314,10462,trol,14,1,1,1,1,1,0,0
1187,21315,10462,trol,14,1,1,1,1,1,0,0
1230,21316,10462,trol,14,1,1,1,1,1,0,0
1260,21317,10462,trol,14,1,1,1,1,1,0,0
1294,21318,10462,trol,14,1,1,1,1,1,0,0
1329,21319,10462,trol,14,1,1,1,1,1,0,0
1360,21320,10462,trol,14,1,1,1,1,1,0,0
1392,21321,10462,trol,14,1,1,1,1,1,0,0
360,21322,10463,trol,14,0,0,0,0,0,1,0
394,21323,10463,trol,14,0,0,0,0,0,1,0
423,21324,10463,trol,14,0,0,0,0,0,1,0
456,21325,10463,trol,14,0,0,0,0,0,1,0
489,21326,10463,trol,14,0,0,0,0,0,1,0
527,21327,10463,trol,14,0,0,0,0,0,1,0
557,21328,10463,trol,14,0,0,0,0,0,1,0
611,21329,10463,trol,14,0,0,0,0,0,1,0
647,21330,10463,trol,14,0,0,0,0,0,1,0
678,21331,10463,trol,14,0,0,0,0,0,1,0
710,21332,10463,trol,14,0,0,0,0,0,1,0
745,21333,10463,trol,14,0,0,0,0,0,1,0
777,21334,10463,trol,14,0,0,0,0,0,1,0
813,21335,10463,trol,14,0,0,0,0,0,1,0
843,21336,10463,trol,14,0,0,0,0,0,1,0
878,21337,10463,trol,14,0,0,0,0,0,1,0
913,21338,10463,trol,14,0,0,0,0,0,1,0
944,21339,10463,trol,14,0,0,0,0,0,1,0
978,21340,10463,trol,14,0,0,0,0,0,1,0
1015,21341,10463,trol,14,0,0,0,0,0,1,0
1042,21342,10463,trol,14,0,0,0,0,0,1,0
1074,21343,10463,trol,14,0,0,0,0,0,1,0
1111,21344,10463,trol,14,0,0,0,0,0,1,0
1144,21345,10463,trol,14,0,0,0,0,0,1,0
1194,21346,10463,trol,14,0,0,0,0,0,1,0
1231,21347,10463,trol,14,0,0,0,0,0,1,0
1265,21348,10463,trol,14,0,0,0,0,0,1,0
1291,21349,10463,trol,14,0,0,0,0,0,1,0
1325,21350,10463,trol,14,0,0,0,0,0,1,0
1360,21351,10463,trol,14,0,0,0,0,0,1,0
320,21467,10462,trol,14,1,1,1,1,1,0,0
298,21510,10465,trol,15,1,1,1,1,1,0,0
319,21511,10465,trol,15,1,1,1,1,1,0,0
341,21512,10465,trol,15,1,1,1,1,1,0,0
382,23600,10569,trol,20,0,0,0,0,0,0,1
403,23601,10569,trol,20,0,0,0,0,0,0,1
432,23602,10569,trol,20,0,0,0,0,0,0,1
456,23603,10569,trol,20,0,0,0,0,0,0,1
475,23604,10569,trol,20,0,0,0,0,0,0,1
493,23605,10569,trol,20,0,0,0,0,0,0,1
516,23606,10569,trol,20,0,0,0,0,0,0,1
532,23607,10569,trol,20,0,0,0,0,0,0,1
553,23608,10569,trol,20,0,0,0,0,0,0,1
576,23609,10569,trol,20,0,0,0,0,0,0,1
595,23610,10569,trol,20,0,0,0,0,0,0,1
632,23611,10569,trol,20,0,0,0,0,0,0,1
650,23612,10569,trol,20,0,0,0,0,0,0,1
664,23613,10569,trol,20,0,0,0,0,0,0,1
696,23614,10569,trol,20,0,0,0,0,0,0,1
715,23615,10569,trol,20,0,0,0,0,0,0,1
737,23616,10569,trol,20,0,0,0,0,0,0,1
759,23617,10569,trol,20,0,0,0,0,0,0,1
774,23618,10569,trol,20,0,0,0,0,0,0,1
793,23619,10569,trol,20,0,0,0,0,0,0,1
813,23620,10569,trol,20,0,0,0,0,0,0,1
834,23621,10569,trol,20,0,0,0,0,0,0,1
852,23622,10569,trol,20,0,0,0,0,0,0,1
869,23623,10569,trol,20,0,0,0,0,0,0,1
890,23624,10569,trol,20,0,0,0,0,0,0,1
913,23625,10569,trol,20,0,0,0,0,0,0,1
933,23626,10569,trol,20,0,0,0,0,0,0,1
953,23627,10569,trol,20,0,0,0,0,0,0,1
971,23628,10569,trol,20,0,0,0,0,0,0,1
991,23629,10569,trol,20,0,0,0,0,0,0,1
1011,23630,10569,trol,20,0,0,0,0,0,0,1
1025,23631,10569,trol,20,0,0,0,0,0,0,1
1049,23632,10569,trol,20,0,0,0,0,0,0,1
1073,23633,10569,trol,20,0,0,0,0,0,0,1
1099,23634,10569,trol,20,0,0,0,0,0,0,1
1128,23635,10569,trol,20,0,0,0,0,0,0,1
1153,23636,10569,trol,20,0,0,0,0,0,0,1
1176,23637,10569,trol,20,0,0,0,0,0,0,1
1197,23638,10569,trol,20,0,0,0,0,0,0,1
1208,23639,10569,trol,20,0,0,0,0,0,0,1
1233,23640,10569,trol,20,0,0,0,0,0,0,1
1253,23641,10569,trol,20,0,0,0,0,0,0,1
1266,23642,10569,trol,20,0,0,0,0,0,0,1
1282,23643,10569,trol,20,0,0,0,0,0,0,1
1309,23644,10569,trol,20,0,0,0,0,0,0,1
1333,23645,10569,trol,20,0,0,0,0,0,0,1
1357,23646,10569,trol,20,0,0,0,0,0,0,1
336,23647,10478,trol,20,1,1,1,1,1,0,0
367,23648,10478,trol,20,1,1,1,1,1,0,0
388,23649,10478,trol,20,1,1,1,1,1,0,0
409,23650,10478,trol,20,1,1,1,1,1,0,0
425,23651,10478,trol,20,1,1,1,1,1,0,0
442,23652,10478,trol,20,1,1,1,1,1,0,0
459,23653,10478,trol,20,1,1,1,1,1,0,0
471,23654,10478,trol,20,1,1,1,1,1,0,0
488,23655,10478,trol,20,1,1,1,1,1,0,0
502,23656,10478,trol,20,1,1,1,1,1,0,0
514,23657,10478,trol,20,1,1,1,1,1,0,0
530,23658,10478,trol,20,1,1,1,1,1,0,0
546,23659,10478,trol,20,1,1,1,1,1,0,0
559,23660,10478,trol,20,1,1,1,1,1,0,0
579,23661,10478,trol,20,1,1,1,1,1,0,0
601,23662,10478,trol,20,1,1,1,1,1,0,0
621,23663,10478,trol,20,1,1,1,1,1,0,0
641,23664,10478,trol,20,1,1,1,1,1,0,0
659,23665,10478,trol,20,1,1,1,1,1,0,0
675,23666,10478,trol,20,1,1,1,1,1,0,0
698,23667,10478,trol,20,1,1,1,1,1,0,0
713,23668,10478,trol,20,1,1,1,1,1,0,0
727,23669,10478,trol,20,1,1,1,1,1,0,0
745,23670,10478,trol,20,1,1,1,1,1,0,0
762,23671,10478,trol,20,1,1,1,1,1,0,0
784,23672,10478,trol,20,1,1,1,1,1,0,0
798,23673,10478,trol,20,1,1,1,1,1,0,0
813,23674,10478,trol,20,1,1,1,1,1,0,0
828,23675,10478,trol,20,1,1,1,1,1,0,0
843,23676,10478,trol,20,1,1,1,1,1,0,0
865,23677,10478,trol,20,1,1,1,1,1,0,0
880,23678,10478,trol,20,1,1,1,1,1,0,0
896,23679,10478,trol,20,1,1,1,1,1,0,0
916,23680,10478,trol,20,1,1,1,1,1,0,0
927,23681,10478,trol,20,1,1,1,1,1,0,0
946,23682,10478,trol,20,1,1,1,1,1,0,0
963,23683,10478,trol,20,1,1,1,1,1,0,0
975,23684,10478,trol,20,1,1,1,1,1,0,0
988,23685,10478,trol,20,1,1,1,1,1,0,0
1003,23686,10478,trol,20,1,1,1,1,1,0,0
1018,23687,10478,trol,20,1,1,1,1,1,0,0
1035,23688,10478,trol,20,1,1,1,1,1,0,0
1047,23689,10478,trol,20,1,1,1,1,1,0,0
1063,23690,10478,trol,20,1,1,1,1,1,0,0
1079,23691,10478,trol,20,1,1,1,1,1,0,0
1097,23692,10478,trol,20,1,1,1,1,1,0,0
1114,23693,10478,trol,20,1,1,1,1,1,0,0
1134,23694,10478,trol,20,1,1,1,1,1,0,0
1148,23695,10478,trol,20,1,1,1,1,1,0,0
1163,23696,10478,trol,20,1,1,1,1,1,0,0
1183,23697,10478,trol,20,1,1,1,1,1,0,0
1209,23698,10478,trol,20,1,1,1,1,1,0,0
1224,23699,10478,trol,20,1,1,1,1,1,0,0
1236,23700,10478,trol,20,1,1,1,1,1,0,0
1248,23701,10478,trol,20,1,1,1,1,1,0,0
1265,23702,10478,trol,20,1,1,1,1,1,0,0
1287,23703,10478,trol,20,1,1,1,1,1,0,0
1301,23704,10478,trol,20,1,1,1,1,1,0,0
1321,23705,10478,trol,20,1,1,1,1,1,0,0
1334,23706,10478,trol,20,1,1,1,1,1,0,0
1349,23707,10478,trol,20,1,1,1,1,1,0,0
1363,23708,10478,trol,20,1,1,1,1,1,0,0
1386,23709,10478,trol,20,1,1,1,1,1,0,0
382,23710,10479,trol,20,0,0,0,0,0,1,0
403,23711,10479,trol,20,0,0,0,0,0,1,0
432,23712,10479,trol,20,0,0,0,0,0,1,0
456,23713,10479,trol,20,0,0,0,0,0,1,0
475,23714,10479,trol,20,0,0,0,0,0,1,0
493,23715,10479,trol,20,0,0,0,0,0,1,0
516,23716,10479,trol,20,0,0,0,0,0,1,0
532,23717,10479,trol,20,0,0,0,0,0,1,0
553,23718,10479,trol,20,0,0,0,0,0,1,0
576,23719,10479,trol,20,0,0,0,0,0,1,0
595,23720,10479,trol,20,0,0,0,0,0,1,0
632,23721,10479,trol,20,0,0,0,0,0,1,0
650,23722,10479,trol,20,0,0,0,0,0,1,0
664,23723,10479,trol,20,0,0,0,0,0,1,0
696,23724,10479,trol,20,0,0,0,0,0,1,0
715,23725,10479,trol,20,0,0,0,0,0,1,0
737,23726,10479,trol,20,0,0,0,0,0,1,0
759,23727,10479,trol,20,0,0,0,0,0,1,0
774,23728,10479,trol,20,0,0,0,0,0,1,0
793,23729,10479,trol,20,0,0,0,0,0,1,0
813,23730,10479,trol,20,0,0,0,0,0,1,0
834,23731,10479,trol,20,0,0,0,0,0,1,0
852,23732,10479,trol,20,0,0,0,0,0,1,0
869,23733,10479,trol,20,0,0,0,0,0,1,0
890,23734,10479,trol,20,0,0,0,0,0,1,0
913,23735,10479,trol,20,0,0,0,0,0,1,0
933,23736,10479,trol,20,0,0,0,0,0,1,0
953,23737,10479,trol,20,0,0,0,0,0,1,0
971,23738,10479,trol,20,0,0,0,0,0,1,0
991,23739,10479,trol,20,0,0,0,0,0,1,0
1011,23740,10479,trol,20,0,0,0,0,0,1,0
1025,23741,10479,trol,20,0,0,0,0,0,1,0
1049,23742,10479,trol,20,0,0,0,0,0,1,0
1073,23743,10479,trol,20,0,0,0,0,0,1,0
1099,23744,10479,trol,20,0,0,0,0,0,1,0
1128,23745,10479,trol,20,0,0,0,0,0,1,0
1153,23746,10479,trol,20,0,0,0,0,0,1,0
1176,23747,10479,trol,20,0,0,0,0,0,1,0
1197,23748,10479,trol,20,0,0,0,0,0,1,0
1208,23749,10479,trol,20,0,0,0,0,0,1,0
1233,23750,10479,trol,20,0,0,0,0,0,1,0
1253,23751,10479,trol,20,0,0,0,0,0,1,0
1266,23752,10479,trol,20,0,0,0,0,0,1,0
1282,23753,10479,trol,20,0,0,0,0,0,1,0
1309,23754,10479,trol,20,0,0,0,0,0,1,0
1333,23755,10479,trol,20,0,0,0,0,0,1,0
1357,23756,10479,trol,20,0,0,0,0,0,1,0
