timeInMin,trip_id,service_id,tipas,numeris,pirmadienis,antradienis,treciadienis,ketvirtadienis,penktadienis,sestadienis,sekmadienis 
314,5662,10341,bus,14,1,1,1,1,1,0,0
334,7743,10604,bus,27,1,1,1,1,1,0,0
374,7744,10604,bus,27,1,1,1,1,1,0,0
393,7745,10604,bus,27,1,1,1,1,1,0,0
410,7746,10604,bus,27,1,1,1,1,1,0,0
451,7747,10604,bus,27,1,1,1,1,1,0,0
470,7748,10604,bus,27,1,1,1,1,1,0,0
490,7749,10604,bus,27,1,1,1,1,1,0,0
528,7750,10604,bus,27,1,1,1,1,1,0,0
546,7751,10604,bus,27,1,1,1,1,1,0,0
572,7752,10604,bus,27,1,1,1,1,1,0,0
624,7753,10604,bus,27,1,1,1,1,1,0,0
658,7754,10604,bus,27,1,1,1,1,1,0,0
700,7755,10604,bus,27,1,1,1,1,1,0,0
735,7756,10604,bus,27,1,1,1,1,1,0,0
776,7757,10604,bus,27,1,1,1,1,1,0,0
812,7758,10604,bus,27,1,1,1,1,1,0,0
852,7759,10604,bus,27,1,1,1,1,1,0,0
889,7760,10604,bus,27,1,1,1,1,1,0,0
929,7761,10604,bus,27,1,1,1,1,1,0,0
966,7762,10604,bus,27,1,1,1,1,1,0,0
994,7763,10604,bus,27,1,1,1,1,1,0,0
1025,7764,10604,bus,27,1,1,1,1,1,0,0
1050,7765,10604,bus,27,1,1,1,1,1,0,0
1077,7766,10604,bus,27,1,1,1,1,1,0,0
1108,7767,10604,bus,27,1,1,1,1,1,0,0
1130,7768,10604,bus,27,1,1,1,1,1,0,0
1208,7769,10604,bus,27,1,1,1,1,1,0,0
1232,7770,10604,bus,27,1,1,1,1,1,0,0
1282,7771,10604,bus,27,1,1,1,1,1,0,0
1312,7772,10604,bus,27,1,1,1,1,1,0,0
1356,7773,10604,bus,27,1,1,1,1,1,0,0
1388,7774,10604,bus,27,1,1,1,1,1,0,0
393,7775,10605,bus,27,0,0,0,0,0,1,0
490,7776,10605,bus,27,0,0,0,0,0,1,0
566,7777,10605,bus,27,0,0,0,0,0,1,0
662,7778,10605,bus,27,0,0,0,0,0,1,0
738,7779,10605,bus,27,0,0,0,0,0,1,0
814,7780,10605,bus,27,0,0,0,0,0,1,0
890,7781,10605,bus,27,0,0,0,0,0,1,0
966,7782,10605,bus,27,0,0,0,0,0,1,0
1040,7783,10605,bus,27,0,0,0,0,0,1,0
1114,7784,10605,bus,27,0,0,0,0,0,1,0
1209,7785,10605,bus,27,0,0,0,0,0,1,0
1303,7786,10605,bus,27,0,0,0,0,0,1,0
1379,7787,10605,bus,27,0,0,0,0,0,1,0
393,7788,10606,bus,27,0,0,0,0,0,0,1
490,7789,10606,bus,27,0,0,0,0,0,0,1
566,7790,10606,bus,27,0,0,0,0,0,0,1
662,7791,10606,bus,27,0,0,0,0,0,0,1
738,7792,10606,bus,27,0,0,0,0,0,0,1
814,7793,10606,bus,27,0,0,0,0,0,0,1
890,7794,10606,bus,27,0,0,0,0,0,0,1
966,7795,10606,bus,27,0,0,0,0,0,0,1
1040,7796,10606,bus,27,0,0,0,0,0,0,1
1114,7797,10606,bus,27,0,0,0,0,0,0,1
1209,7798,10606,bus,27,0,0,0,0,0,0,1
1303,7799,10606,bus,27,0,0,0,0,0,0,1
1379,7800,10606,bus,27,0,0,0,0,0,0,1
311,7869,10604,bus,27,1,1,1,1,1,0,0
325,7870,10605,bus,27,0,0,0,0,0,1,0
