timeInMin,trip_id,service_id,tipas,numeris,pirmadienis,antradienis,treciadienis,ketvirtadienis,penktadienis,sestadienis,sekmadienis 
1255,5660,10341,bus,14,1,1,1,1,1,0,0
331,7801,10604,bus,27,1,1,1,1,1,0,0
367,7802,10604,bus,27,1,1,1,1,1,0,0
407,7803,10604,bus,27,1,1,1,1,1,0,0
426,7804,10604,bus,27,1,1,1,1,1,0,0
446,7805,10604,bus,27,1,1,1,1,1,0,0
484,7806,10604,bus,27,1,1,1,1,1,0,0
503,7807,10604,bus,27,1,1,1,1,1,0,0
529,7808,10604,bus,27,1,1,1,1,1,0,0
581,7809,10604,bus,27,1,1,1,1,1,0,0
614,7810,10604,bus,27,1,1,1,1,1,0,0
657,7811,10604,bus,27,1,1,1,1,1,0,0
691,7812,10604,bus,27,1,1,1,1,1,0,0
733,7813,10604,bus,27,1,1,1,1,1,0,0
768,7814,10604,bus,27,1,1,1,1,1,0,0
809,7815,10604,bus,27,1,1,1,1,1,0,0
845,7816,10604,bus,27,1,1,1,1,1,0,0
885,7817,10604,bus,27,1,1,1,1,1,0,0
922,7818,10604,bus,27,1,1,1,1,1,0,0
951,7819,10604,bus,27,1,1,1,1,1,0,0
981,7820,10604,bus,27,1,1,1,1,1,0,0
1006,7821,10604,bus,27,1,1,1,1,1,0,0
1033,7822,10604,bus,27,1,1,1,1,1,0,0
1064,7823,10604,bus,27,1,1,1,1,1,0,0
1086,7824,10604,bus,27,1,1,1,1,1,0,0
1166,7825,10604,bus,27,1,1,1,1,1,0,0
1191,7826,10604,bus,27,1,1,1,1,1,0,0
1241,7827,10604,bus,27,1,1,1,1,1,0,0
1271,7828,10604,bus,27,1,1,1,1,1,0,0
1315,7829,10604,bus,27,1,1,1,1,1,0,0
1347,7830,10604,bus,27,1,1,1,1,1,0,0
350,7831,10605,bus,27,0,0,0,0,0,1,0
446,7832,10605,bus,27,0,0,0,0,0,1,0
523,7833,10605,bus,27,0,0,0,0,0,1,0
619,7834,10605,bus,27,0,0,0,0,0,1,0
695,7835,10605,bus,27,0,0,0,0,0,1,0
771,7836,10605,bus,27,0,0,0,0,0,1,0
847,7837,10605,bus,27,0,0,0,0,0,1,0
923,7838,10605,bus,27,0,0,0,0,0,1,0
997,7839,10605,bus,27,0,0,0,0,0,1,0
1071,7840,10605,bus,27,0,0,0,0,0,1,0
1167,7841,10605,bus,27,0,0,0,0,0,1,0
1262,7842,10605,bus,27,0,0,0,0,0,1,0
1338,7843,10605,bus,27,0,0,0,0,0,1,0
446,7844,10606,bus,27,0,0,0,0,0,0,1
523,7845,10606,bus,27,0,0,0,0,0,0,1
619,7846,10606,bus,27,0,0,0,0,0,0,1
695,7847,10606,bus,27,0,0,0,0,0,0,1
771,7848,10606,bus,27,0,0,0,0,0,0,1
847,7849,10606,bus,27,0,0,0,0,0,0,1
923,7850,10606,bus,27,0,0,0,0,0,0,1
997,7851,10606,bus,27,0,0,0,0,0,0,1
1071,7852,10606,bus,27,0,0,0,0,0,0,1
1167,7853,10606,bus,27,0,0,0,0,0,0,1
1262,7854,10606,bus,27,0,0,0,0,0,0,1
1338,7855,10606,bus,27,0,0,0,0,0,0,1
1123,7856,10604,bus,27,1,1,1,1,1,0,0
1389,7857,10604,bus,27,1,1,1,1,1,0,0
1419,7858,10604,bus,27,1,1,1,1,1,0,0
1412,7859,10605,bus,27,0,0,0,0,0,1,0
1412,7860,10606,bus,27,0,0,0,0,0,0,1
