timeInMin,trip_id,service_id,tipas,numeris,pirmadienis,antradienis,treciadienis,ketvirtadienis,penktadienis,sestadienis,sekmadienis 
328,3065,9930,bus,5,1,1,1,1,1,0,0
351,3066,9930,bus,5,1,1,1,1,1,0,0
374,3067,9930,bus,5,1,1,1,1,1,0,0
402,3068,9930,bus,5,1,1,1,1,1,0,0
426,3069,9930,bus,5,1,1,1,1,1,0,0
454,3070,9930,bus,5,1,1,1,1,1,0,0
481,3071,9930,bus,5,1,1,1,1,1,0,0
505,3072,9930,bus,5,1,1,1,1,1,0,0
534,3073,9930,bus,5,1,1,1,1,1,0,0
559,3074,9930,bus,5,1,1,1,1,1,0,0
583,3075,9930,bus,5,1,1,1,1,1,0,0
613,3076,9930,bus,5,1,1,1,1,1,0,0
660,3077,9930,bus,5,1,1,1,1,1,0,0
686,3078,9930,bus,5,1,1,1,1,1,0,0
715,3079,9930,bus,5,1,1,1,1,1,0,0
738,3080,9930,bus,5,1,1,1,1,1,0,0
762,3081,9930,bus,5,1,1,1,1,1,0,0
791,3082,9930,bus,5,1,1,1,1,1,0,0
814,3083,9930,bus,5,1,1,1,1,1,0,0
838,3084,9930,bus,5,1,1,1,1,1,0,0
867,3085,9930,bus,5,1,1,1,1,1,0,0
895,3086,9930,bus,5,1,1,1,1,1,0,0
919,3087,9930,bus,5,1,1,1,1,1,0,0
948,3088,9930,bus,5,1,1,1,1,1,0,0
971,3089,9930,bus,5,1,1,1,1,1,0,0
995,3090,9930,bus,5,1,1,1,1,1,0,0
1025,3091,9930,bus,5,1,1,1,1,1,0,0
1051,3092,9930,bus,5,1,1,1,1,1,0,0
1076,3093,9930,bus,5,1,1,1,1,1,0,0
1106,3094,9930,bus,5,1,1,1,1,1,0,0
1132,3095,9930,bus,5,1,1,1,1,1,0,0
1158,3096,9930,bus,5,1,1,1,1,1,0,0
1208,3097,9930,bus,5,1,1,1,1,1,0,0
1231,3098,9930,bus,5,1,1,1,1,1,0,0
1256,3099,9930,bus,5,1,1,1,1,1,0,0
1280,3100,9930,bus,5,1,1,1,1,1,0,0
1301,3101,9930,bus,5,1,1,1,1,1,0,0
1326,3102,9930,bus,5,1,1,1,1,1,0,0
1351,3103,9930,bus,5,1,1,1,1,1,0,0
1369,3104,9930,bus,5,1,1,1,1,1,0,0
1390,3105,9930,bus,5,1,1,1,1,1,0,0
326,3106,9600,bus,5,0,0,0,0,0,1,0
393,3107,9600,bus,5,0,0,0,0,0,1,0
462,3108,9600,bus,5,0,0,0,0,0,1,0
530,3109,9600,bus,5,0,0,0,0,0,1,0
593,3110,9600,bus,5,0,0,0,0,0,1,0
626,3111,9600,bus,5,0,0,0,0,0,1,0
664,3112,9600,bus,5,0,0,0,0,0,1,0
721,3113,9600,bus,5,0,0,0,0,0,1,0
759,3114,9600,bus,5,0,0,0,0,0,1,0
794,3115,9600,bus,5,0,0,0,0,0,1,0
829,3116,9600,bus,5,0,0,0,0,0,1,0
874,3117,9600,bus,5,0,0,0,0,0,1,0
924,3118,9600,bus,5,0,0,0,0,0,1,0
953,3119,9600,bus,5,0,0,0,0,0,1,0
996,3120,9600,bus,5,0,0,0,0,0,1,0
1026,3121,9600,bus,5,0,0,0,0,0,1,0
1066,3122,9600,bus,5,0,0,0,0,0,1,0
1120,3123,9600,bus,5,0,0,0,0,0,1,0
1187,3124,9600,bus,5,0,0,0,0,0,1,0
1255,3125,9600,bus,5,0,0,0,0,0,1,0
1321,3126,9600,bus,5,0,0,0,0,0,1,0
1387,3127,9600,bus,5,0,0,0,0,0,1,0
393,3128,9601,bus,5,0,0,0,0,0,0,1
462,3129,9601,bus,5,0,0,0,0,0,0,1
530,3130,9601,bus,5,0,0,0,0,0,0,1
593,3131,9601,bus,5,0,0,0,0,0,0,1
626,3132,9601,bus,5,0,0,0,0,0,0,1
664,3133,9601,bus,5,0,0,0,0,0,0,1
721,3134,9601,bus,5,0,0,0,0,0,0,1
759,3135,9601,bus,5,0,0,0,0,0,0,1
794,3136,9601,bus,5,0,0,0,0,0,0,1
829,3137,9601,bus,5,0,0,0,0,0,0,1
874,3138,9601,bus,5,0,0,0,0,0,0,1
924,3139,9601,bus,5,0,0,0,0,0,0,1
953,3140,9601,bus,5,0,0,0,0,0,0,1
996,3141,9601,bus,5,0,0,0,0,0,0,1
1026,3142,9601,bus,5,0,0,0,0,0,0,1
1066,3143,9601,bus,5,0,0,0,0,0,0,1
1120,3144,9601,bus,5,0,0,0,0,0,0,1
1187,3145,9601,bus,5,0,0,0,0,0,0,1
1255,3146,9601,bus,5,0,0,0,0,0,0,1
1321,3147,9601,bus,5,0,0,0,0,0,0,1
1387,3148,9601,bus,5,0,0,0,0,0,0,1
419,12159,10294,bus,52,0,0,0,0,0,0,1
496,12160,10294,bus,52,0,0,0,0,0,0,1
575,12161,10294,bus,52,0,0,0,0,0,0,1
654,12162,10294,bus,52,0,0,0,0,0,0,1
758,12163,10294,bus,52,0,0,0,0,0,0,1
837,12164,10294,bus,52,0,0,0,0,0,0,1
921,12165,10294,bus,52,0,0,0,0,0,0,1
1000,12166,10294,bus,52,0,0,0,0,0,0,1
1079,12167,10294,bus,52,0,0,0,0,0,0,1
1183,12168,10294,bus,52,0,0,0,0,0,0,1
1258,12169,10294,bus,52,0,0,0,0,0,0,1
1332,12170,10294,bus,52,0,0,0,0,0,0,1
344,12171,9642,bus,52,1,1,1,1,1,0,0
369,12172,9642,bus,52,1,1,1,1,1,0,0
397,12173,9642,bus,52,1,1,1,1,1,0,0
423,12174,9642,bus,52,1,1,1,1,1,0,0
446,12175,9642,bus,52,1,1,1,1,1,0,0
477,12176,9642,bus,52,1,1,1,1,1,0,0
510,12177,9642,bus,52,1,1,1,1,1,0,0
535,12178,9642,bus,52,1,1,1,1,1,0,0
567,12179,9642,bus,52,1,1,1,1,1,0,0
594,12180,9642,bus,52,1,1,1,1,1,0,0
640,12181,9642,bus,52,1,1,1,1,1,0,0
673,12182,9642,bus,52,1,1,1,1,1,0,0
700,12183,9642,bus,52,1,1,1,1,1,0,0
728,12184,9642,bus,52,1,1,1,1,1,0,0
763,12185,9642,bus,52,1,1,1,1,1,0,0
781,12186,9642,bus,52,1,1,1,1,1,0,0
809,12187,9642,bus,52,1,1,1,1,1,0,0
844,12188,9642,bus,52,1,1,1,1,1,0,0
862,12189,9642,bus,52,1,1,1,1,1,0,0
898,12190,9642,bus,52,1,1,1,1,1,0,0
933,12191,9642,bus,52,1,1,1,1,1,0,0
947,12192,9642,bus,52,1,1,1,1,1,0,0
980,12193,9642,bus,52,1,1,1,1,1,0,0
1018,12194,9642,bus,52,1,1,1,1,1,0,0
1036,12195,9642,bus,52,1,1,1,1,1,0,0
1068,12196,9642,bus,52,1,1,1,1,1,0,0
1113,12197,9642,bus,52,1,1,1,1,1,0,0
1149,12198,9642,bus,52,1,1,1,1,1,0,0
1178,12199,9642,bus,52,1,1,1,1,1,0,0
1225,12200,9642,bus,52,1,1,1,1,1,0,0
1254,12201,9642,bus,52,1,1,1,1,1,0,0
1277,12202,9642,bus,52,1,1,1,1,1,0,0
1313,12203,9642,bus,52,1,1,1,1,1,0,0
1333,12204,9642,bus,52,1,1,1,1,1,0,0
1351,12205,9642,bus,52,1,1,1,1,1,0,0
1396,12206,9642,bus,52,1,1,1,1,1,0,0
419,12207,9643,bus,52,0,0,0,0,0,1,0
496,12208,9643,bus,52,0,0,0,0,0,1,0
575,12209,9643,bus,52,0,0,0,0,0,1,0
654,12210,9643,bus,52,0,0,0,0,0,1,0
758,12211,9643,bus,52,0,0,0,0,0,1,0
837,12212,9643,bus,52,0,0,0,0,0,1,0
921,12213,9643,bus,52,0,0,0,0,0,1,0
1000,12214,9643,bus,52,0,0,0,0,0,1,0
1079,12215,9643,bus,52,0,0,0,0,0,1,0
1183,12216,9643,bus,52,0,0,0,0,0,1,0
1258,12217,9643,bus,52,0,0,0,0,0,1,0
1332,12218,9643,bus,52,0,0,0,0,0,1,0
345,15588,10409,bus,87,1,1,1,1,1,0,0
377,15589,10409,bus,87,1,1,1,1,1,0,0
416,15590,10409,bus,87,1,1,1,1,1,0,0
449,15591,10409,bus,87,1,1,1,1,1,0,0
482,15592,10409,bus,87,1,1,1,1,1,0,0
517,15593,10409,bus,87,1,1,1,1,1,0,0
549,15594,10409,bus,87,1,1,1,1,1,0,0
586,15595,10409,bus,87,1,1,1,1,1,0,0
641,15596,10409,bus,87,1,1,1,1,1,0,0
670,15597,10409,bus,87,1,1,1,1,1,0,0
700,15598,10409,bus,87,1,1,1,1,1,0,0
737,15599,10409,bus,87,1,1,1,1,1,0,0
772,15600,10409,bus,87,1,1,1,1,1,0,0
805,15601,10409,bus,87,1,1,1,1,1,0,0
836,15602,10409,bus,87,1,1,1,1,1,0,0
863,15603,10409,bus,87,1,1,1,1,1,0,0
917,15604,10409,bus,87,1,1,1,1,1,0,0
952,15605,10409,bus,87,1,1,1,1,1,0,0
983,15606,10409,bus,87,1,1,1,1,1,0,0
1016,15607,10409,bus,87,1,1,1,1,1,0,0
1050,15608,10409,bus,87,1,1,1,1,1,0,0
1090,15609,10409,bus,87,1,1,1,1,1,0,0
1139,15610,10409,bus,87,1,1,1,1,1,0,0
1172,15611,10409,bus,87,1,1,1,1,1,0,0
1208,15612,10409,bus,87,1,1,1,1,1,0,0
1244,15613,10409,bus,87,1,1,1,1,1,0,0
1292,15614,10409,bus,87,1,1,1,1,1,0,0
1331,15615,10409,bus,87,1,1,1,1,1,0,0
1365,15616,10409,bus,87,1,1,1,1,1,0,0
1395,15617,10409,bus,87,1,1,1,1,1,0,0
1418,15618,10409,bus,87,1,1,1,1,1,0,0
400,15619,10410,bus,87,0,0,0,0,0,1,1
461,15620,10410,bus,87,0,0,0,0,0,1,1
526,15621,10410,bus,87,0,0,0,0,0,1,1
591,15622,10410,bus,87,0,0,0,0,0,1,1
678,15623,10410,bus,87,0,0,0,0,0,1,1
744,15624,10410,bus,87,0,0,0,0,0,1,1
804,15625,10410,bus,87,0,0,0,0,0,1,1
870,15626,10410,bus,87,0,0,0,0,0,1,1
935,15627,10410,bus,87,0,0,0,0,0,1,1
1001,15628,10410,bus,87,0,0,0,0,0,1,1
1061,15629,10410,bus,87,0,0,0,0,0,1,1
1127,15630,10410,bus,87,0,0,0,0,0,1,1
1212,15631,10410,bus,87,0,0,0,0,0,1,1
1278,15632,10410,bus,87,0,0,0,0,0,1,1
1339,15633,10410,bus,87,0,0,0,0,0,1,1
1417,15634,10410,bus,87,0,0,0,0,0,1,1
