timeInMin,trip_id,service_id,tipas,numeris,pirmadienis,antradienis,treciadienis,ketvirtadienis,penktadienis,sestadienis,sekmadienis 
358,425,10323,expressbus,1G,0,0,0,0,0,0,1
373,426,10323,expressbus,1G,0,0,0,0,0,0,1
388,427,10323,expressbus,1G,0,0,0,0,0,0,1
402,428,10323,expressbus,1G,0,0,0,0,0,0,1
415,429,10323,expressbus,1G,0,0,0,0,0,0,1
425,430,10323,expressbus,1G,0,0,0,0,0,0,1
435,431,10323,expressbus,1G,0,0,0,0,0,0,1
444,432,10323,expressbus,1G,0,0,0,0,0,0,1
453,433,10323,expressbus,1G,0,0,0,0,0,0,1
461,434,10323,expressbus,1G,0,0,0,0,0,0,1
470,435,10323,expressbus,1G,0,0,0,0,0,0,1
479,436,10323,expressbus,1G,0,0,0,0,0,0,1
490,437,10323,expressbus,1G,0,0,0,0,0,0,1
501,438,10323,expressbus,1G,0,0,0,0,0,0,1
513,439,10323,expressbus,1G,0,0,0,0,0,0,1
521,440,10323,expressbus,1G,0,0,0,0,0,0,1
530,441,10323,expressbus,1G,0,0,0,0,0,0,1
538,442,10323,expressbus,1G,0,0,0,0,0,0,1
547,443,10323,expressbus,1G,0,0,0,0,0,0,1
555,444,10323,expressbus,1G,0,0,0,0,0,0,1
562,445,10323,expressbus,1G,0,0,0,0,0,0,1
571,446,10323,expressbus,1G,0,0,0,0,0,0,1
579,447,10323,expressbus,1G,0,0,0,0,0,0,1
588,448,10323,expressbus,1G,0,0,0,0,0,0,1
597,449,10323,expressbus,1G,0,0,0,0,0,0,1
604,450,10323,expressbus,1G,0,0,0,0,0,0,1
622,451,10323,expressbus,1G,0,0,0,0,0,0,1
636,452,10323,expressbus,1G,0,0,0,0,0,0,1
648,453,10323,expressbus,1G,0,0,0,0,0,0,1
662,454,10323,expressbus,1G,0,0,0,0,0,0,1
673,455,10323,expressbus,1G,0,0,0,0,0,0,1
682,456,10323,expressbus,1G,0,0,0,0,0,0,1
692,457,10323,expressbus,1G,0,0,0,0,0,0,1
703,458,10323,expressbus,1G,0,0,0,0,0,0,1
714,459,10323,expressbus,1G,0,0,0,0,0,0,1
727,460,10323,expressbus,1G,0,0,0,0,0,0,1
741,461,10323,expressbus,1G,0,0,0,0,0,0,1
754,462,10323,expressbus,1G,0,0,0,0,0,0,1
763,463,10323,expressbus,1G,0,0,0,0,0,0,1
772,464,10323,expressbus,1G,0,0,0,0,0,0,1
784,465,10323,expressbus,1G,0,0,0,0,0,0,1
796,466,10323,expressbus,1G,0,0,0,0,0,0,1
808,467,10323,expressbus,1G,0,0,0,0,0,0,1
820,468,10323,expressbus,1G,0,0,0,0,0,0,1
833,469,10323,expressbus,1G,0,0,0,0,0,0,1
845,470,10323,expressbus,1G,0,0,0,0,0,0,1
855,471,10323,expressbus,1G,0,0,0,0,0,0,1
862,472,10323,expressbus,1G,0,0,0,0,0,0,1
869,473,10323,expressbus,1G,0,0,0,0,0,0,1
876,474,10323,expressbus,1G,0,0,0,0,0,0,1
884,475,10323,expressbus,1G,0,0,0,0,0,0,1
891,476,10323,expressbus,1G,0,0,0,0,0,0,1
899,477,10323,expressbus,1G,0,0,0,0,0,0,1
909,478,10323,expressbus,1G,0,0,0,0,0,0,1
919,479,10323,expressbus,1G,0,0,0,0,0,0,1
930,480,10323,expressbus,1G,0,0,0,0,0,0,1
939,481,10323,expressbus,1G,0,0,0,0,0,0,1
950,482,10323,expressbus,1G,0,0,0,0,0,0,1
959,483,10323,expressbus,1G,0,0,0,0,0,0,1
968,484,10323,expressbus,1G,0,0,0,0,0,0,1
976,485,10323,expressbus,1G,0,0,0,0,0,0,1
984,486,10323,expressbus,1G,0,0,0,0,0,0,1
994,487,10323,expressbus,1G,0,0,0,0,0,0,1
1001,488,10323,expressbus,1G,0,0,0,0,0,0,1
1009,489,10323,expressbus,1G,0,0,0,0,0,0,1
1016,490,10323,expressbus,1G,0,0,0,0,0,0,1
1024,491,10323,expressbus,1G,0,0,0,0,0,0,1
1033,492,10323,expressbus,1G,0,0,0,0,0,0,1
1042,493,10323,expressbus,1G,0,0,0,0,0,0,1
1051,494,10323,expressbus,1G,0,0,0,0,0,0,1
1065,495,10323,expressbus,1G,0,0,0,0,0,0,1
1078,496,10323,expressbus,1G,0,0,0,0,0,0,1
1094,497,10323,expressbus,1G,0,0,0,0,0,0,1
1106,498,10323,expressbus,1G,0,0,0,0,0,0,1
1122,499,10323,expressbus,1G,0,0,0,0,0,0,1
1138,500,10323,expressbus,1G,0,0,0,0,0,0,1
1150,501,10323,expressbus,1G,0,0,0,0,0,0,1
1166,502,10323,expressbus,1G,0,0,0,0,0,0,1
1177,503,10323,expressbus,1G,0,0,0,0,0,0,1
1188,504,10323,expressbus,1G,0,0,0,0,0,0,1
1202,505,10323,expressbus,1G,0,0,0,0,0,0,1
1211,506,10323,expressbus,1G,0,0,0,0,0,0,1
1221,507,10323,expressbus,1G,0,0,0,0,0,0,1
1234,508,10323,expressbus,1G,0,0,0,0,0,0,1
1248,509,10323,expressbus,1G,0,0,0,0,0,0,1
1258,510,10323,expressbus,1G,0,0,0,0,0,0,1
1268,511,10323,expressbus,1G,0,0,0,0,0,0,1
1281,512,10323,expressbus,1G,0,0,0,0,0,0,1
1293,513,10323,expressbus,1G,0,0,0,0,0,0,1
1305,514,10323,expressbus,1G,0,0,0,0,0,0,1
1317,515,10323,expressbus,1G,0,0,0,0,0,0,1
1327,516,10323,expressbus,1G,0,0,0,0,0,0,1
1339,517,10323,expressbus,1G,0,0,0,0,0,0,1
1350,518,10323,expressbus,1G,0,0,0,0,0,0,1
1361,519,10323,expressbus,1G,0,0,0,0,0,0,1
1370,520,10323,expressbus,1G,0,0,0,0,0,0,1
1383,521,10323,expressbus,1G,0,0,0,0,0,0,1
1399,522,10323,expressbus,1G,0,0,0,0,0,0,1
1416,523,10323,expressbus,1G,0,0,0,0,0,0,1
327,524,10321,expressbus,1G,1,1,1,1,1,0,0
336,525,10321,expressbus,1G,1,1,1,1,1,0,0
348,526,10321,expressbus,1G,1,1,1,1,1,0,0
360,527,10321,expressbus,1G,1,1,1,1,1,0,0
368,528,10321,expressbus,1G,1,1,1,1,1,0,0
374,529,10321,expressbus,1G,1,1,1,1,1,0,0
380,530,10321,expressbus,1G,1,1,1,1,1,0,0
388,531,10321,expressbus,1G,1,1,1,1,1,0,0
396,532,10321,expressbus,1G,1,1,1,1,1,0,0
405,533,10321,expressbus,1G,1,1,1,1,1,0,0
413,534,10321,expressbus,1G,1,1,1,1,1,0,0
421,535,10321,expressbus,1G,1,1,1,1,1,0,0
428,536,10321,expressbus,1G,1,1,1,1,1,0,0
434,537,10321,expressbus,1G,1,1,1,1,1,0,0
442,538,10321,expressbus,1G,1,1,1,1,1,0,0
447,539,10321,expressbus,1G,1,1,1,1,1,0,0
453,540,10321,expressbus,1G,1,1,1,1,1,0,0
458,541,10321,expressbus,1G,1,1,1,1,1,0,0
463,542,10321,expressbus,1G,1,1,1,1,1,0,0
468,543,10321,expressbus,1G,1,1,1,1,1,0,0
474,544,10321,expressbus,1G,1,1,1,1,1,0,0
479,545,10321,expressbus,1G,1,1,1,1,1,0,0
484,546,10321,expressbus,1G,1,1,1,1,1,0,0
489,547,10321,expressbus,1G,1,1,1,1,1,0,0
495,548,10321,expressbus,1G,1,1,1,1,1,0,0
501,549,10321,expressbus,1G,1,1,1,1,1,0,0
508,550,10321,expressbus,1G,1,1,1,1,1,0,0
515,551,10321,expressbus,1G,1,1,1,1,1,0,0
521,552,10321,expressbus,1G,1,1,1,1,1,0,0
526,553,10321,expressbus,1G,1,1,1,1,1,0,0
532,554,10321,expressbus,1G,1,1,1,1,1,0,0
537,555,10321,expressbus,1G,1,1,1,1,1,0,0
541,556,10321,expressbus,1G,1,1,1,1,1,0,0
545,557,10321,expressbus,1G,1,1,1,1,1,0,0
550,558,10321,expressbus,1G,1,1,1,1,1,0,0
555,559,10321,expressbus,1G,1,1,1,1,1,0,0
560,560,10321,expressbus,1G,1,1,1,1,1,0,0
565,561,10321,expressbus,1G,1,1,1,1,1,0,0
570,562,10321,expressbus,1G,1,1,1,1,1,0,0
575,563,10321,expressbus,1G,1,1,1,1,1,0,0
580,564,10321,expressbus,1G,1,1,1,1,1,0,0
585,565,10321,expressbus,1G,1,1,1,1,1,0,0
590,566,10321,expressbus,1G,1,1,1,1,1,0,0
595,567,10321,expressbus,1G,1,1,1,1,1,0,0
600,568,10321,expressbus,1G,1,1,1,1,1,0,0
605,569,10321,expressbus,1G,1,1,1,1,1,0,0
611,570,10321,expressbus,1G,1,1,1,1,1,0,0
616,571,10321,expressbus,1G,1,1,1,1,1,0,0
622,572,10321,expressbus,1G,1,1,1,1,1,0,0
628,573,10321,expressbus,1G,1,1,1,1,1,0,0
634,574,10321,expressbus,1G,1,1,1,1,1,0,0
639,575,10321,expressbus,1G,1,1,1,1,1,0,0
648,576,10321,expressbus,1G,1,1,1,1,1,0,0
656,577,10321,expressbus,1G,1,1,1,1,1,0,0
663,578,10321,expressbus,1G,1,1,1,1,1,0,0
671,579,10321,expressbus,1G,1,1,1,1,1,0,0
679,580,10321,expressbus,1G,1,1,1,1,1,0,0
687,581,10321,expressbus,1G,1,1,1,1,1,0,0
696,582,10321,expressbus,1G,1,1,1,1,1,0,0
707,583,10321,expressbus,1G,1,1,1,1,1,0,0
719,584,10321,expressbus,1G,1,1,1,1,1,0,0
729,585,10321,expressbus,1G,1,1,1,1,1,0,0
738,586,10321,expressbus,1G,1,1,1,1,1,0,0
746,587,10321,expressbus,1G,1,1,1,1,1,0,0
754,588,10321,expressbus,1G,1,1,1,1,1,0,0
762,589,10321,expressbus,1G,1,1,1,1,1,0,0
771,590,10321,expressbus,1G,1,1,1,1,1,0,0
779,591,10321,expressbus,1G,1,1,1,1,1,0,0
787,592,10321,expressbus,1G,1,1,1,1,1,0,0
795,593,10321,expressbus,1G,1,1,1,1,1,0,0
803,594,10321,expressbus,1G,1,1,1,1,1,0,0
814,595,10321,expressbus,1G,1,1,1,1,1,0,0
822,596,10321,expressbus,1G,1,1,1,1,1,0,0
830,597,10321,expressbus,1G,1,1,1,1,1,0,0
839,598,10321,expressbus,1G,1,1,1,1,1,0,0
846,599,10321,expressbus,1G,1,1,1,1,1,0,0
856,600,10321,expressbus,1G,1,1,1,1,1,0,0
862,601,10321,expressbus,1G,1,1,1,1,1,0,0
870,602,10321,expressbus,1G,1,1,1,1,1,0,0
882,603,10321,expressbus,1G,1,1,1,1,1,0,0
889,604,10321,expressbus,1G,1,1,1,1,1,0,0
900,605,10321,expressbus,1G,1,1,1,1,1,0,0
907,606,10321,expressbus,1G,1,1,1,1,1,0,0
916,607,10321,expressbus,1G,1,1,1,1,1,0,0
926,608,10321,expressbus,1G,1,1,1,1,1,0,0
935,609,10321,expressbus,1G,1,1,1,1,1,0,0
944,610,10321,expressbus,1G,1,1,1,1,1,0,0
951,611,10321,expressbus,1G,1,1,1,1,1,0,0
959,612,10321,expressbus,1G,1,1,1,1,1,0,0
966,613,10321,expressbus,1G,1,1,1,1,1,0,0
972,614,10321,expressbus,1G,1,1,1,1,1,0,0
978,615,10321,expressbus,1G,1,1,1,1,1,0,0
984,616,10321,expressbus,1G,1,1,1,1,1,0,0
989,617,10321,expressbus,1G,1,1,1,1,1,0,0
996,618,10321,expressbus,1G,1,1,1,1,1,0,0
1003,619,10321,expressbus,1G,1,1,1,1,1,0,0
1008,620,10321,expressbus,1G,1,1,1,1,1,0,0
1014,621,10321,expressbus,1G,1,1,1,1,1,0,0
1020,622,10321,expressbus,1G,1,1,1,1,1,0,0
1028,623,10321,expressbus,1G,1,1,1,1,1,0,0
1035,624,10321,expressbus,1G,1,1,1,1,1,0,0
1041,625,10321,expressbus,1G,1,1,1,1,1,0,0
1047,626,10321,expressbus,1G,1,1,1,1,1,0,0
1053,627,10321,expressbus,1G,1,1,1,1,1,0,0
1058,628,10321,expressbus,1G,1,1,1,1,1,0,0
1065,629,10321,expressbus,1G,1,1,1,1,1,0,0
1071,630,10321,expressbus,1G,1,1,1,1,1,0,0
1076,631,10321,expressbus,1G,1,1,1,1,1,0,0
1082,632,10321,expressbus,1G,1,1,1,1,1,0,0
1086,633,10321,expressbus,1G,1,1,1,1,1,0,0
1091,634,10321,expressbus,1G,1,1,1,1,1,0,0
1096,635,10321,expressbus,1G,1,1,1,1,1,0,0
1100,636,10321,expressbus,1G,1,1,1,1,1,0,0
1105,637,10321,expressbus,1G,1,1,1,1,1,0,0
1110,638,10321,expressbus,1G,1,1,1,1,1,0,0
1115,639,10321,expressbus,1G,1,1,1,1,1,0,0
1123,640,10321,expressbus,1G,1,1,1,1,1,0,0
1130,641,10321,expressbus,1G,1,1,1,1,1,0,0
1137,642,10321,expressbus,1G,1,1,1,1,1,0,0
1143,643,10321,expressbus,1G,1,1,1,1,1,0,0
1150,644,10321,expressbus,1G,1,1,1,1,1,0,0
1158,645,10321,expressbus,1G,1,1,1,1,1,0,0
1166,646,10321,expressbus,1G,1,1,1,1,1,0,0
1173,647,10321,expressbus,1G,1,1,1,1,1,0,0
1179,648,10321,expressbus,1G,1,1,1,1,1,0,0
1184,649,10321,expressbus,1G,1,1,1,1,1,0,0
1189,650,10321,expressbus,1G,1,1,1,1,1,0,0
1195,651,10321,expressbus,1G,1,1,1,1,1,0,0
1202,652,10321,expressbus,1G,1,1,1,1,1,0,0
1209,653,10321,expressbus,1G,1,1,1,1,1,0,0
1217,654,10321,expressbus,1G,1,1,1,1,1,0,0
1227,655,10321,expressbus,1G,1,1,1,1,1,0,0
1237,656,10321,expressbus,1G,1,1,1,1,1,0,0
1246,657,10321,expressbus,1G,1,1,1,1,1,0,0
1254,658,10321,expressbus,1G,1,1,1,1,1,0,0
1263,659,10321,expressbus,1G,1,1,1,1,1,0,0
1272,660,10321,expressbus,1G,1,1,1,1,1,0,0
1281,661,10321,expressbus,1G,1,1,1,1,1,0,0
1291,662,10321,expressbus,1G,1,1,1,1,1,0,0
1300,663,10321,expressbus,1G,1,1,1,1,1,0,0
1310,664,10321,expressbus,1G,1,1,1,1,1,0,0
1321,665,10321,expressbus,1G,1,1,1,1,1,0,0
1328,666,10321,expressbus,1G,1,1,1,1,1,0,0
1338,667,10321,expressbus,1G,1,1,1,1,1,0,0
1350,668,10321,expressbus,1G,1,1,1,1,1,0,0
1364,669,10321,expressbus,1G,1,1,1,1,1,0,0
1379,670,10321,expressbus,1G,1,1,1,1,1,0,0
1393,671,10321,expressbus,1G,1,1,1,1,1,0,0
1407,672,10321,expressbus,1G,1,1,1,1,1,0,0
338,673,10322,expressbus,1G,0,0,0,0,0,1,0
358,674,10322,expressbus,1G,0,0,0,0,0,1,0
373,675,10322,expressbus,1G,0,0,0,0,0,1,0
388,676,10322,expressbus,1G,0,0,0,0,0,1,0
402,677,10322,expressbus,1G,0,0,0,0,0,1,0
415,678,10322,expressbus,1G,0,0,0,0,0,1,0
425,679,10322,expressbus,1G,0,0,0,0,0,1,0
435,680,10322,expressbus,1G,0,0,0,0,0,1,0
444,681,10322,expressbus,1G,0,0,0,0,0,1,0
453,682,10322,expressbus,1G,0,0,0,0,0,1,0
461,683,10322,expressbus,1G,0,0,0,0,0,1,0
470,684,10322,expressbus,1G,0,0,0,0,0,1,0
479,685,10322,expressbus,1G,0,0,0,0,0,1,0
490,686,10322,expressbus,1G,0,0,0,0,0,1,0
501,687,10322,expressbus,1G,0,0,0,0,0,1,0
513,688,10322,expressbus,1G,0,0,0,0,0,1,0
521,689,10322,expressbus,1G,0,0,0,0,0,1,0
530,690,10322,expressbus,1G,0,0,0,0,0,1,0
538,691,10322,expressbus,1G,0,0,0,0,0,1,0
547,692,10322,expressbus,1G,0,0,0,0,0,1,0
555,693,10322,expressbus,1G,0,0,0,0,0,1,0
562,694,10322,expressbus,1G,0,0,0,0,0,1,0
571,695,10322,expressbus,1G,0,0,0,0,0,1,0
579,696,10322,expressbus,1G,0,0,0,0,0,1,0
588,697,10322,expressbus,1G,0,0,0,0,0,1,0
597,698,10322,expressbus,1G,0,0,0,0,0,1,0
604,699,10322,expressbus,1G,0,0,0,0,0,1,0
622,700,10322,expressbus,1G,0,0,0,0,0,1,0
636,701,10322,expressbus,1G,0,0,0,0,0,1,0
648,702,10322,expressbus,1G,0,0,0,0,0,1,0
662,703,10322,expressbus,1G,0,0,0,0,0,1,0
673,704,10322,expressbus,1G,0,0,0,0,0,1,0
682,705,10322,expressbus,1G,0,0,0,0,0,1,0
692,706,10322,expressbus,1G,0,0,0,0,0,1,0
703,707,10322,expressbus,1G,0,0,0,0,0,1,0
714,708,10322,expressbus,1G,0,0,0,0,0,1,0
727,709,10322,expressbus,1G,0,0,0,0,0,1,0
741,710,10322,expressbus,1G,0,0,0,0,0,1,0
754,711,10322,expressbus,1G,0,0,0,0,0,1,0
763,712,10322,expressbus,1G,0,0,0,0,0,1,0
772,713,10322,expressbus,1G,0,0,0,0,0,1,0
784,714,10322,expressbus,1G,0,0,0,0,0,1,0
796,715,10322,expressbus,1G,0,0,0,0,0,1,0
808,716,10322,expressbus,1G,0,0,0,0,0,1,0
820,717,10322,expressbus,1G,0,0,0,0,0,1,0
833,718,10322,expressbus,1G,0,0,0,0,0,1,0
845,719,10322,expressbus,1G,0,0,0,0,0,1,0
855,720,10322,expressbus,1G,0,0,0,0,0,1,0
862,721,10322,expressbus,1G,0,0,0,0,0,1,0
869,722,10322,expressbus,1G,0,0,0,0,0,1,0
876,723,10322,expressbus,1G,0,0,0,0,0,1,0
884,724,10322,expressbus,1G,0,0,0,0,0,1,0
891,725,10322,expressbus,1G,0,0,0,0,0,1,0
899,726,10322,expressbus,1G,0,0,0,0,0,1,0
909,727,10322,expressbus,1G,0,0,0,0,0,1,0
919,728,10322,expressbus,1G,0,0,0,0,0,1,0
930,729,10322,expressbus,1G,0,0,0,0,0,1,0
939,730,10322,expressbus,1G,0,0,0,0,0,1,0
950,731,10322,expressbus,1G,0,0,0,0,0,1,0
959,732,10322,expressbus,1G,0,0,0,0,0,1,0
968,733,10322,expressbus,1G,0,0,0,0,0,1,0
976,734,10322,expressbus,1G,0,0,0,0,0,1,0
984,735,10322,expressbus,1G,0,0,0,0,0,1,0
994,736,10322,expressbus,1G,0,0,0,0,0,1,0
1001,737,10322,expressbus,1G,0,0,0,0,0,1,0
1009,738,10322,expressbus,1G,0,0,0,0,0,1,0
1016,739,10322,expressbus,1G,0,0,0,0,0,1,0
1024,740,10322,expressbus,1G,0,0,0,0,0,1,0
1033,741,10322,expressbus,1G,0,0,0,0,0,1,0
1042,742,10322,expressbus,1G,0,0,0,0,0,1,0
1051,743,10322,expressbus,1G,0,0,0,0,0,1,0
1065,744,10322,expressbus,1G,0,0,0,0,0,1,0
1078,745,10322,expressbus,1G,0,0,0,0,0,1,0
1094,746,10322,expressbus,1G,0,0,0,0,0,1,0
1106,747,10322,expressbus,1G,0,0,0,0,0,1,0
1122,748,10322,expressbus,1G,0,0,0,0,0,1,0
1138,749,10322,expressbus,1G,0,0,0,0,0,1,0
1150,750,10322,expressbus,1G,0,0,0,0,0,1,0
1166,751,10322,expressbus,1G,0,0,0,0,0,1,0
1177,752,10322,expressbus,1G,0,0,0,0,0,1,0
1188,753,10322,expressbus,1G,0,0,0,0,0,1,0
1202,754,10322,expressbus,1G,0,0,0,0,0,1,0
1211,755,10322,expressbus,1G,0,0,0,0,0,1,0
1221,756,10322,expressbus,1G,0,0,0,0,0,1,0
1234,757,10322,expressbus,1G,0,0,0,0,0,1,0
1248,758,10322,expressbus,1G,0,0,0,0,0,1,0
1258,759,10322,expressbus,1G,0,0,0,0,0,1,0
1268,760,10322,expressbus,1G,0,0,0,0,0,1,0
1281,761,10322,expressbus,1G,0,0,0,0,0,1,0
1293,762,10322,expressbus,1G,0,0,0,0,0,1,0
1305,763,10322,expressbus,1G,0,0,0,0,0,1,0
1317,764,10322,expressbus,1G,0,0,0,0,0,1,0
1327,765,10322,expressbus,1G,0,0,0,0,0,1,0
1339,766,10322,expressbus,1G,0,0,0,0,0,1,0
1350,767,10322,expressbus,1G,0,0,0,0,0,1,0
1361,768,10322,expressbus,1G,0,0,0,0,0,1,0
1370,769,10322,expressbus,1G,0,0,0,0,0,1,0
1383,770,10322,expressbus,1G,0,0,0,0,0,1,0
1399,771,10322,expressbus,1G,0,0,0,0,0,1,0
1416,772,10322,expressbus,1G,0,0,0,0,0,1,0
342,813,10323,expressbus,1G,0,0,0,0,0,0,1
350,814,10323,expressbus,1G,0,0,0,0,0,0,1
368,815,10323,expressbus,1G,0,0,0,0,0,0,1
383,816,10323,expressbus,1G,0,0,0,0,0,0,1
479,817,10323,expressbus,1G,0,0,0,0,0,0,1
509,818,10323,expressbus,1G,0,0,0,0,0,0,1
296,819,10321,expressbus,1G,1,1,1,1,1,0,0
307,820,10321,expressbus,1G,1,1,1,1,1,0,0
317,821,10321,expressbus,1G,1,1,1,1,1,0,0
343,822,10321,expressbus,1G,1,1,1,1,1,0,0
355,823,10321,expressbus,1G,1,1,1,1,1,0,0
364,824,10321,expressbus,1G,1,1,1,1,1,0,0
384,825,10321,expressbus,1G,1,1,1,1,1,0,0
392,826,10321,expressbus,1G,1,1,1,1,1,0,0
399,827,10321,expressbus,1G,1,1,1,1,1,0,0
402,828,10321,expressbus,1G,1,1,1,1,1,0,0
409,829,10321,expressbus,1G,1,1,1,1,1,0,0
417,830,10321,expressbus,1G,1,1,1,1,1,0,0
300,831,10322,expressbus,1G,0,0,0,0,0,1,0
316,832,10322,expressbus,1G,0,0,0,0,0,1,0
331,833,10322,expressbus,1G,0,0,0,0,0,1,0
350,834,10322,expressbus,1G,0,0,0,0,0,1,0
368,835,10322,expressbus,1G,0,0,0,0,0,1,0
383,836,10322,expressbus,1G,0,0,0,0,0,1,0
479,837,10322,expressbus,1G,0,0,0,0,0,1,0
509,838,10322,expressbus,1G,0,0,0,0,0,1,0
289,1575,10324,expressbus,2G,1,1,1,1,1,0,0
304,1576,10324,expressbus,2G,1,1,1,1,1,0,0
317,1577,10324,expressbus,2G,1,1,1,1,1,0,0
331,1578,10324,expressbus,2G,1,1,1,1,1,0,0
344,1579,10324,expressbus,2G,1,1,1,1,1,0,0
302,1580,10325,expressbus,2G,0,0,0,0,0,1,0
318,1581,10325,expressbus,2G,0,0,0,0,0,1,0
338,1582,10325,expressbus,2G,0,0,0,0,0,1,0
338,1583,10326,expressbus,2G,0,0,0,0,0,0,1
354,1584,10326,expressbus,2G,0,0,0,0,0,0,1
360,2403,10329,expressbus,3G,0,0,0,0,0,0,1
289,2404,10327,expressbus,3G,1,1,1,1,1,0,0
298,2405,10327,expressbus,3G,1,1,1,1,1,0,0
307,2406,10327,expressbus,3G,1,1,1,1,1,0,0
318,2407,10327,expressbus,3G,1,1,1,1,1,0,0
334,2408,10327,expressbus,3G,1,1,1,1,1,0,0
323,2409,10328,expressbus,3G,0,0,0,0,0,1,0
376,4710,10340,bus,10,0,0,0,0,0,0,1
399,4711,10340,bus,10,0,0,0,0,0,0,1
420,4712,10340,bus,10,0,0,0,0,0,0,1
442,4713,10340,bus,10,0,0,0,0,0,0,1
469,4714,10340,bus,10,0,0,0,0,0,0,1
492,4715,10340,bus,10,0,0,0,0,0,0,1
514,4716,10340,bus,10,0,0,0,0,0,0,1
534,4717,10340,bus,10,0,0,0,0,0,0,1
553,4718,10340,bus,10,0,0,0,0,0,0,1
569,4719,10340,bus,10,0,0,0,0,0,0,1
580,4720,10340,bus,10,0,0,0,0,0,0,1
593,4721,10340,bus,10,0,0,0,0,0,0,1
616,4722,10340,bus,10,0,0,0,0,0,0,1
626,4723,10340,bus,10,0,0,0,0,0,0,1
639,4724,10340,bus,10,0,0,0,0,0,0,1
653,4725,10340,bus,10,0,0,0,0,0,0,1
669,4726,10340,bus,10,0,0,0,0,0,0,1
678,4727,10340,bus,10,0,0,0,0,0,0,1
688,4728,10340,bus,10,0,0,0,0,0,0,1
710,4729,10340,bus,10,0,0,0,0,0,0,1
729,4730,10340,bus,10,0,0,0,0,0,0,1
744,4731,10340,bus,10,0,0,0,0,0,0,1
760,4732,10340,bus,10,0,0,0,0,0,0,1
773,4733,10340,bus,10,0,0,0,0,0,0,1
785,4734,10340,bus,10,0,0,0,0,0,0,1
797,4735,10340,bus,10,0,0,0,0,0,0,1
807,4736,10340,bus,10,0,0,0,0,0,0,1
827,4737,10340,bus,10,0,0,0,0,0,0,1
850,4738,10340,bus,10,0,0,0,0,0,0,1
864,4739,10340,bus,10,0,0,0,0,0,0,1
879,4740,10340,bus,10,0,0,0,0,0,0,1
893,4741,10340,bus,10,0,0,0,0,0,0,1
906,4742,10340,bus,10,0,0,0,0,0,0,1
917,4743,10340,bus,10,0,0,0,0,0,0,1
927,4744,10340,bus,10,0,0,0,0,0,0,1
946,4745,10340,bus,10,0,0,0,0,0,0,1
955,4746,10340,bus,10,0,0,0,0,0,0,1
971,4747,10340,bus,10,0,0,0,0,0,0,1
984,4748,10340,bus,10,0,0,0,0,0,0,1
999,4749,10340,bus,10,0,0,0,0,0,0,1
1010,4750,10340,bus,10,0,0,0,0,0,0,1
1021,4751,10340,bus,10,0,0,0,0,0,0,1
1047,4752,10340,bus,10,0,0,0,0,0,0,1
1069,4753,10340,bus,10,0,0,0,0,0,0,1
1099,4754,10340,bus,10,0,0,0,0,0,0,1
1136,4755,10340,bus,10,0,0,0,0,0,0,1
1166,4756,10340,bus,10,0,0,0,0,0,0,1
1191,4757,10340,bus,10,0,0,0,0,0,0,1
1218,4758,10340,bus,10,0,0,0,0,0,0,1
1250,4759,10340,bus,10,0,0,0,0,0,0,1
1278,4760,10340,bus,10,0,0,0,0,0,0,1
1302,4761,10340,bus,10,0,0,0,0,0,0,1
1315,4762,10340,bus,10,0,0,0,0,0,0,1
1341,4763,10340,bus,10,0,0,0,0,0,0,1
1365,4764,10340,bus,10,0,0,0,0,0,0,1
1389,4765,10340,bus,10,0,0,0,0,0,0,1
1414,4766,10340,bus,10,0,0,0,0,0,0,1
344,4767,10338,bus,10,1,1,1,1,1,0,0
360,4768,10338,bus,10,1,1,1,1,1,0,0
378,4769,10338,bus,10,1,1,1,1,1,0,0
395,4770,10338,bus,10,1,1,1,1,1,0,0
407,4771,10338,bus,10,1,1,1,1,1,0,0
419,4772,10338,bus,10,1,1,1,1,1,0,0
432,4773,10338,bus,10,1,1,1,1,1,0,0
442,4774,10338,bus,10,1,1,1,1,1,0,0
450,4775,10338,bus,10,1,1,1,1,1,0,0
460,4776,10338,bus,10,1,1,1,1,1,0,0
475,4777,10338,bus,10,1,1,1,1,1,0,0
485,4778,10338,bus,10,1,1,1,1,1,0,0
495,4779,10338,bus,10,1,1,1,1,1,0,0
507,4780,10338,bus,10,1,1,1,1,1,0,0
517,4781,10338,bus,10,1,1,1,1,1,0,0
530,4782,10338,bus,10,1,1,1,1,1,0,0
541,4783,10338,bus,10,1,1,1,1,1,0,0
553,4784,10338,bus,10,1,1,1,1,1,0,0
567,4785,10338,bus,10,1,1,1,1,1,0,0
581,4786,10338,bus,10,1,1,1,1,1,0,0
596,4787,10338,bus,10,1,1,1,1,1,0,0
610,4788,10338,bus,10,1,1,1,1,1,0,0
624,4789,10338,bus,10,1,1,1,1,1,0,0
640,4790,10338,bus,10,1,1,1,1,1,0,0
654,4791,10338,bus,10,1,1,1,1,1,0,0
669,4792,10338,bus,10,1,1,1,1,1,0,0
687,4793,10338,bus,10,1,1,1,1,1,0,0
707,4794,10338,bus,10,1,1,1,1,1,0,0
727,4795,10338,bus,10,1,1,1,1,1,0,0
745,4796,10338,bus,10,1,1,1,1,1,0,0
761,4797,10338,bus,10,1,1,1,1,1,0,0
778,4798,10338,bus,10,1,1,1,1,1,0,0
795,4799,10338,bus,10,1,1,1,1,1,0,0
813,4800,10338,bus,10,1,1,1,1,1,0,0
831,4801,10338,bus,10,1,1,1,1,1,0,0
847,4802,10338,bus,10,1,1,1,1,1,0,0
865,4803,10338,bus,10,1,1,1,1,1,0,0
885,4804,10338,bus,10,1,1,1,1,1,0,0
904,4805,10338,bus,10,1,1,1,1,1,0,0
922,4806,10338,bus,10,1,1,1,1,1,0,0
932,4807,10338,bus,10,1,1,1,1,1,0,0
941,4808,10338,bus,10,1,1,1,1,1,0,0
950,4809,10338,bus,10,1,1,1,1,1,0,0
960,4810,10338,bus,10,1,1,1,1,1,0,0
970,4811,10338,bus,10,1,1,1,1,1,0,0
981,4812,10338,bus,10,1,1,1,1,1,0,0
994,4813,10338,bus,10,1,1,1,1,1,0,0
1007,4814,10338,bus,10,1,1,1,1,1,0,0
1020,4815,10338,bus,10,1,1,1,1,1,0,0
1033,4816,10338,bus,10,1,1,1,1,1,0,0
1044,4817,10338,bus,10,1,1,1,1,1,0,0
1054,4818,10338,bus,10,1,1,1,1,1,0,0
1063,4819,10338,bus,10,1,1,1,1,1,0,0
1072,4820,10338,bus,10,1,1,1,1,1,0,0
1083,4821,10338,bus,10,1,1,1,1,1,0,0
1096,4822,10338,bus,10,1,1,1,1,1,0,0
1107,4823,10338,bus,10,1,1,1,1,1,0,0
1127,4824,10338,bus,10,1,1,1,1,1,0,0
1153,4825,10338,bus,10,1,1,1,1,1,0,0
1172,4826,10338,bus,10,1,1,1,1,1,0,0
1188,4827,10338,bus,10,1,1,1,1,1,0,0
1206,4828,10338,bus,10,1,1,1,1,1,0,0
1223,4829,10338,bus,10,1,1,1,1,1,0,0
1239,4830,10338,bus,10,1,1,1,1,1,0,0
1254,4831,10338,bus,10,1,1,1,1,1,0,0
1269,4832,10338,bus,10,1,1,1,1,1,0,0
1285,4833,10338,bus,10,1,1,1,1,1,0,0
1302,4834,10338,bus,10,1,1,1,1,1,0,0
1319,4835,10338,bus,10,1,1,1,1,1,0,0
1334,4836,10338,bus,10,1,1,1,1,1,0,0
1351,4837,10338,bus,10,1,1,1,1,1,0,0
1367,4838,10338,bus,10,1,1,1,1,1,0,0
1389,4839,10338,bus,10,1,1,1,1,1,0,0
1410,4840,10338,bus,10,1,1,1,1,1,0,0
330,4841,10339,bus,10,0,0,0,0,0,1,0
351,4842,10339,bus,10,0,0,0,0,0,1,0
376,4843,10339,bus,10,0,0,0,0,0,1,0
399,4844,10339,bus,10,0,0,0,0,0,1,0
420,4845,10339,bus,10,0,0,0,0,0,1,0
442,4846,10339,bus,10,0,0,0,0,0,1,0
469,4847,10339,bus,10,0,0,0,0,0,1,0
492,4848,10339,bus,10,0,0,0,0,0,1,0
514,4849,10339,bus,10,0,0,0,0,0,1,0
534,4850,10339,bus,10,0,0,0,0,0,1,0
553,4851,10339,bus,10,0,0,0,0,0,1,0
569,4852,10339,bus,10,0,0,0,0,0,1,0
580,4853,10339,bus,10,0,0,0,0,0,1,0
593,4854,10339,bus,10,0,0,0,0,0,1,0
616,4855,10339,bus,10,0,0,0,0,0,1,0
626,4856,10339,bus,10,0,0,0,0,0,1,0
639,4857,10339,bus,10,0,0,0,0,0,1,0
653,4858,10339,bus,10,0,0,0,0,0,1,0
669,4859,10339,bus,10,0,0,0,0,0,1,0
678,4860,10339,bus,10,0,0,0,0,0,1,0
688,4861,10339,bus,10,0,0,0,0,0,1,0
710,4862,10339,bus,10,0,0,0,0,0,1,0
729,4863,10339,bus,10,0,0,0,0,0,1,0
744,4864,10339,bus,10,0,0,0,0,0,1,0
760,4865,10339,bus,10,0,0,0,0,0,1,0
773,4866,10339,bus,10,0,0,0,0,0,1,0
785,4867,10339,bus,10,0,0,0,0,0,1,0
797,4868,10339,bus,10,0,0,0,0,0,1,0
807,4869,10339,bus,10,0,0,0,0,0,1,0
827,4870,10339,bus,10,0,0,0,0,0,1,0
850,4871,10339,bus,10,0,0,0,0,0,1,0
864,4872,10339,bus,10,0,0,0,0,0,1,0
879,4873,10339,bus,10,0,0,0,0,0,1,0
893,4874,10339,bus,10,0,0,0,0,0,1,0
906,4875,10339,bus,10,0,0,0,0,0,1,0
917,4876,10339,bus,10,0,0,0,0,0,1,0
927,4877,10339,bus,10,0,0,0,0,0,1,0
946,4878,10339,bus,10,0,0,0,0,0,1,0
955,4879,10339,bus,10,0,0,0,0,0,1,0
971,4880,10339,bus,10,0,0,0,0,0,1,0
984,4881,10339,bus,10,0,0,0,0,0,1,0
999,4882,10339,bus,10,0,0,0,0,0,1,0
1010,4883,10339,bus,10,0,0,0,0,0,1,0
1021,4884,10339,bus,10,0,0,0,0,0,1,0
1047,4885,10339,bus,10,0,0,0,0,0,1,0
1069,4886,10339,bus,10,0,0,0,0,0,1,0
1099,4887,10339,bus,10,0,0,0,0,0,1,0
1136,4888,10339,bus,10,0,0,0,0,0,1,0
1166,4889,10339,bus,10,0,0,0,0,0,1,0
1191,4890,10339,bus,10,0,0,0,0,0,1,0
1218,4891,10339,bus,10,0,0,0,0,0,1,0
1250,4892,10339,bus,10,0,0,0,0,0,1,0
1278,4893,10339,bus,10,0,0,0,0,0,1,0
1302,4894,10339,bus,10,0,0,0,0,0,1,0
1315,4895,10339,bus,10,0,0,0,0,0,1,0
1341,4896,10339,bus,10,0,0,0,0,0,1,0
1365,4897,10339,bus,10,0,0,0,0,0,1,0
1389,4898,10339,bus,10,0,0,0,0,0,1,0
1414,4899,10339,bus,10,0,0,0,0,0,1,0
335,5129,10340,bus,10,0,0,0,0,0,0,1
356,5130,10340,bus,10,0,0,0,0,0,0,1
309,5131,10338,bus,10,1,1,1,1,1,0,0
328,5132,10338,bus,10,1,1,1,1,1,0,0
358,5133,10338,bus,10,1,1,1,1,1,0,0
379,5134,10338,bus,10,1,1,1,1,1,0,0
396,5135,10338,bus,10,1,1,1,1,1,0,0
313,5136,10339,bus,10,0,0,0,0,0,1,0
346,5290,10293,bus,11,0,0,0,0,0,0,1
508,5291,10293,bus,11,0,0,0,0,0,0,1
318,5292,9750,bus,11,1,1,1,1,1,0,0
346,5293,9413,bus,11,0,0,0,0,0,1,0
508,5294,9413,bus,11,0,0,0,0,0,1,0
308,5295,9750,bus,11,1,1,1,1,1,0,0
318,7103,10355,bus,22,1,1,1,1,1,0,0
387,7104,10355,bus,22,1,1,1,1,1,0,0
355,7105,9979,bus,22,0,0,0,0,0,0,1
347,7620,9328,bus,25,1,1,1,1,1,0,0
309,8463,10485,bus,30,1,1,1,1,1,0,0
327,8464,10485,bus,30,1,1,1,1,1,0,0
351,8465,10485,bus,30,1,1,1,1,1,0,0
370,8466,10485,bus,30,1,1,1,1,1,0,0
388,8467,10485,bus,30,1,1,1,1,1,0,0
401,8468,10485,bus,30,1,1,1,1,1,0,0
420,8469,10485,bus,30,1,1,1,1,1,0,0
435,8470,10485,bus,30,1,1,1,1,1,0,0
455,8471,10485,bus,30,1,1,1,1,1,0,0
475,8472,10485,bus,30,1,1,1,1,1,0,0
490,8473,10485,bus,30,1,1,1,1,1,0,0
509,8474,10485,bus,30,1,1,1,1,1,0,0
525,8475,10485,bus,30,1,1,1,1,1,0,0
547,8476,10485,bus,30,1,1,1,1,1,0,0
573,8477,10485,bus,30,1,1,1,1,1,0,0
594,8478,10485,bus,30,1,1,1,1,1,0,0
622,8479,10485,bus,30,1,1,1,1,1,0,0
645,8480,10485,bus,30,1,1,1,1,1,0,0
674,8481,10485,bus,30,1,1,1,1,1,0,0
702,8482,10485,bus,30,1,1,1,1,1,0,0
728,8483,10485,bus,30,1,1,1,1,1,0,0
754,8484,10485,bus,30,1,1,1,1,1,0,0
784,8485,10485,bus,30,1,1,1,1,1,0,0
809,8486,10485,bus,30,1,1,1,1,1,0,0
839,8487,10485,bus,30,1,1,1,1,1,0,0
873,8488,10485,bus,30,1,1,1,1,1,0,0
894,8489,10485,bus,30,1,1,1,1,1,0,0
906,8490,10485,bus,30,1,1,1,1,1,0,0
921,8491,10485,bus,30,1,1,1,1,1,0,0
934,8492,10485,bus,30,1,1,1,1,1,0,0
954,8493,10485,bus,30,1,1,1,1,1,0,0
975,8494,10485,bus,30,1,1,1,1,1,0,0
991,8495,10485,bus,30,1,1,1,1,1,0,0
1008,8496,10485,bus,30,1,1,1,1,1,0,0
1022,8497,10485,bus,30,1,1,1,1,1,0,0
1045,8498,10485,bus,30,1,1,1,1,1,0,0
1067,8499,10485,bus,30,1,1,1,1,1,0,0
1087,8500,10485,bus,30,1,1,1,1,1,0,0
1112,8501,10485,bus,30,1,1,1,1,1,0,0
1133,8502,10485,bus,30,1,1,1,1,1,0,0
1158,8503,10485,bus,30,1,1,1,1,1,0,0
1189,8504,10485,bus,30,1,1,1,1,1,0,0
1214,8505,10485,bus,30,1,1,1,1,1,0,0
1245,8506,10485,bus,30,1,1,1,1,1,0,0
1270,8507,10485,bus,30,1,1,1,1,1,0,0
1300,8508,10485,bus,30,1,1,1,1,1,0,0
1325,8509,10485,bus,30,1,1,1,1,1,0,0
1355,8510,10485,bus,30,1,1,1,1,1,0,0
306,8511,10486,bus,30,0,0,0,0,0,1,0
346,8512,10486,bus,30,0,0,0,0,0,1,0
385,8513,10486,bus,30,0,0,0,0,0,1,0
423,8514,10486,bus,30,0,0,0,0,0,1,0
461,8515,10486,bus,30,0,0,0,0,0,1,0
498,8516,10486,bus,30,0,0,0,0,0,1,0
530,8517,10486,bus,30,0,0,0,0,0,1,0
570,8518,10486,bus,30,0,0,0,0,0,1,0
604,8519,10486,bus,30,0,0,0,0,0,1,0
627,8520,10486,bus,30,0,0,0,0,0,1,0
652,8521,10486,bus,30,0,0,0,0,0,1,0
684,8522,10486,bus,30,0,0,0,0,0,1,0
714,8523,10486,bus,30,0,0,0,0,0,1,0
731,8524,10486,bus,30,0,0,0,0,0,1,0
769,8525,10486,bus,30,0,0,0,0,0,1,0
808,8526,10486,bus,30,0,0,0,0,0,1,0
829,8527,10486,bus,30,0,0,0,0,0,1,0
857,8528,10486,bus,30,0,0,0,0,0,1,0
888,8529,10486,bus,30,0,0,0,0,0,1,0
916,8530,10486,bus,30,0,0,0,0,0,1,0
942,8531,10486,bus,30,0,0,0,0,0,1,0
968,8532,10486,bus,30,0,0,0,0,0,1,0
997,8533,10486,bus,30,0,0,0,0,0,1,0
1019,8534,10486,bus,30,0,0,0,0,0,1,0
1051,8535,10486,bus,30,0,0,0,0,0,1,0
1098,8536,10486,bus,30,0,0,0,0,0,1,0
1151,8537,10486,bus,30,0,0,0,0,0,1,0
1203,8538,10486,bus,30,0,0,0,0,0,1,0
1231,8539,10486,bus,30,0,0,0,0,0,1,0
1279,8540,10486,bus,30,0,0,0,0,0,1,0
1312,8541,10486,bus,30,0,0,0,0,0,1,0
1356,8542,10486,bus,30,0,0,0,0,0,1,0
346,8543,10487,bus,30,0,0,0,0,0,0,1
385,8544,10487,bus,30,0,0,0,0,0,0,1
423,8545,10487,bus,30,0,0,0,0,0,0,1
461,8546,10487,bus,30,0,0,0,0,0,0,1
498,8547,10487,bus,30,0,0,0,0,0,0,1
530,8548,10487,bus,30,0,0,0,0,0,0,1
570,8549,10487,bus,30,0,0,0,0,0,0,1
604,8550,10487,bus,30,0,0,0,0,0,0,1
627,8551,10487,bus,30,0,0,0,0,0,0,1
652,8552,10487,bus,30,0,0,0,0,0,0,1
684,8553,10487,bus,30,0,0,0,0,0,0,1
714,8554,10487,bus,30,0,0,0,0,0,0,1
731,8555,10487,bus,30,0,0,0,0,0,0,1
769,8556,10487,bus,30,0,0,0,0,0,0,1
808,8557,10487,bus,30,0,0,0,0,0,0,1
829,8558,10487,bus,30,0,0,0,0,0,0,1
857,8559,10487,bus,30,0,0,0,0,0,0,1
888,8560,10487,bus,30,0,0,0,0,0,0,1
916,8561,10487,bus,30,0,0,0,0,0,0,1
942,8562,10487,bus,30,0,0,0,0,0,0,1
968,8563,10487,bus,30,0,0,0,0,0,0,1
997,8564,10487,bus,30,0,0,0,0,0,0,1
1019,8565,10487,bus,30,0,0,0,0,0,0,1
1051,8566,10487,bus,30,0,0,0,0,0,0,1
1098,8567,10487,bus,30,0,0,0,0,0,0,1
1151,8568,10487,bus,30,0,0,0,0,0,0,1
1203,8569,10487,bus,30,0,0,0,0,0,0,1
1231,8570,10487,bus,30,0,0,0,0,0,0,1
1279,8571,10487,bus,30,0,0,0,0,0,0,1
1312,8572,10487,bus,30,0,0,0,0,0,0,1
1356,8573,10487,bus,30,0,0,0,0,0,0,1
297,12100,9773,bus,51,1,1,1,1,1,0,0
312,12224,9642,bus,52,1,1,1,1,1,0,0
339,12225,9642,bus,52,1,1,1,1,1,0,0
387,12229,10394,bus,53,0,0,0,0,0,0,1
402,12230,10394,bus,53,0,0,0,0,0,0,1
417,12231,10394,bus,53,0,0,0,0,0,0,1
434,12232,10394,bus,53,0,0,0,0,0,0,1
449,12233,10394,bus,53,0,0,0,0,0,0,1
464,12234,10394,bus,53,0,0,0,0,0,0,1
479,12235,10394,bus,53,0,0,0,0,0,0,1
494,12236,10394,bus,53,0,0,0,0,0,0,1
509,12237,10394,bus,53,0,0,0,0,0,0,1
525,12238,10394,bus,53,0,0,0,0,0,0,1
540,12239,10394,bus,53,0,0,0,0,0,0,1
551,12240,10394,bus,53,0,0,0,0,0,0,1
562,12241,10394,bus,53,0,0,0,0,0,0,1
572,12242,10394,bus,53,0,0,0,0,0,0,1
581,12243,10394,bus,53,0,0,0,0,0,0,1
591,12244,10394,bus,53,0,0,0,0,0,0,1
601,12245,10394,bus,53,0,0,0,0,0,0,1
613,12246,10394,bus,53,0,0,0,0,0,0,1
626,12247,10394,bus,53,0,0,0,0,0,0,1
636,12248,10394,bus,53,0,0,0,0,0,0,1
645,12249,10394,bus,53,0,0,0,0,0,0,1
654,12250,10394,bus,53,0,0,0,0,0,0,1
665,12251,10394,bus,53,0,0,0,0,0,0,1
677,12252,10394,bus,53,0,0,0,0,0,0,1
688,12253,10394,bus,53,0,0,0,0,0,0,1
698,12254,10394,bus,53,0,0,0,0,0,0,1
708,12255,10394,bus,53,0,0,0,0,0,0,1
720,12256,10394,bus,53,0,0,0,0,0,0,1
733,12257,10394,bus,53,0,0,0,0,0,0,1
750,12258,10394,bus,53,0,0,0,0,0,0,1
759,12259,10394,bus,53,0,0,0,0,0,0,1
770,12260,10394,bus,53,0,0,0,0,0,0,1
779,12261,10394,bus,53,0,0,0,0,0,0,1
785,12262,10394,bus,53,0,0,0,0,0,0,1
796,12263,10394,bus,53,0,0,0,0,0,0,1
804,12264,10394,bus,53,0,0,0,0,0,0,1
813,12265,10394,bus,53,0,0,0,0,0,0,1
821,12266,10394,bus,53,0,0,0,0,0,0,1
831,12267,10394,bus,53,0,0,0,0,0,0,1
845,12268,10394,bus,53,0,0,0,0,0,0,1
855,12269,10394,bus,53,0,0,0,0,0,0,1
868,12270,10394,bus,53,0,0,0,0,0,0,1
878,12271,10394,bus,53,0,0,0,0,0,0,1
887,12272,10394,bus,53,0,0,0,0,0,0,1
896,12273,10394,bus,53,0,0,0,0,0,0,1
905,12274,10394,bus,53,0,0,0,0,0,0,1
915,12275,10394,bus,53,0,0,0,0,0,0,1
924,12276,10394,bus,53,0,0,0,0,0,0,1
934,12277,10394,bus,53,0,0,0,0,0,0,1
947,12278,10394,bus,53,0,0,0,0,0,0,1
961,12279,10394,bus,53,0,0,0,0,0,0,1
974,12280,10394,bus,53,0,0,0,0,0,0,1
984,12281,10394,bus,53,0,0,0,0,0,0,1
993,12282,10394,bus,53,0,0,0,0,0,0,1
1003,12283,10394,bus,53,0,0,0,0,0,0,1
1014,12284,10394,bus,53,0,0,0,0,0,0,1
1025,12285,10394,bus,53,0,0,0,0,0,0,1
1040,12286,10394,bus,53,0,0,0,0,0,0,1
1056,12287,10394,bus,53,0,0,0,0,0,0,1
1072,12288,10394,bus,53,0,0,0,0,0,0,1
1093,12289,10394,bus,53,0,0,0,0,0,0,1
1114,12290,10394,bus,53,0,0,0,0,0,0,1
1129,12291,10394,bus,53,0,0,0,0,0,0,1
1154,12292,10394,bus,53,0,0,0,0,0,0,1
1178,12293,10394,bus,53,0,0,0,0,0,0,1
1193,12294,10394,bus,53,0,0,0,0,0,0,1
1210,12295,10394,bus,53,0,0,0,0,0,0,1
1230,12296,10394,bus,53,0,0,0,0,0,0,1
1242,12297,10394,bus,53,0,0,0,0,0,0,1
1254,12298,10394,bus,53,0,0,0,0,0,0,1
1269,12299,10394,bus,53,0,0,0,0,0,0,1
1283,12300,10394,bus,53,0,0,0,0,0,0,1
1299,12301,10394,bus,53,0,0,0,0,0,0,1
1314,12302,10394,bus,53,0,0,0,0,0,0,1
1328,12303,10394,bus,53,0,0,0,0,0,0,1
1342,12304,10394,bus,53,0,0,0,0,0,0,1
1355,12305,10394,bus,53,0,0,0,0,0,0,1
1371,12306,10394,bus,53,0,0,0,0,0,0,1
1389,12307,10394,bus,53,0,0,0,0,0,0,1
336,12308,10392,bus,53,1,1,1,1,1,0,0
347,12309,10392,bus,53,1,1,1,1,1,0,0
358,12310,10392,bus,53,1,1,1,1,1,0,0
373,12311,10392,bus,53,1,1,1,1,1,0,0
385,12312,10392,bus,53,1,1,1,1,1,0,0
392,12313,10392,bus,53,1,1,1,1,1,0,0
398,12314,10392,bus,53,1,1,1,1,1,0,0
404,12315,10392,bus,53,1,1,1,1,1,0,0
410,12316,10392,bus,53,1,1,1,1,1,0,0
416,12317,10392,bus,53,1,1,1,1,1,0,0
424,12318,10392,bus,53,1,1,1,1,1,0,0
432,12319,10392,bus,53,1,1,1,1,1,0,0
438,12320,10392,bus,53,1,1,1,1,1,0,0
449,12321,10392,bus,53,1,1,1,1,1,0,0
456,12322,10392,bus,53,1,1,1,1,1,0,0
462,12323,10392,bus,53,1,1,1,1,1,0,0
469,12324,10392,bus,53,1,1,1,1,1,0,0
476,12325,10392,bus,53,1,1,1,1,1,0,0
484,12326,10392,bus,53,1,1,1,1,1,0,0
492,12327,10392,bus,53,1,1,1,1,1,0,0
499,12328,10392,bus,53,1,1,1,1,1,0,0
508,12329,10392,bus,53,1,1,1,1,1,0,0
516,12330,10392,bus,53,1,1,1,1,1,0,0
525,12331,10392,bus,53,1,1,1,1,1,0,0
533,12332,10392,bus,53,1,1,1,1,1,0,0
541,12333,10392,bus,53,1,1,1,1,1,0,0
549,12334,10392,bus,53,1,1,1,1,1,0,0
557,12335,10392,bus,53,1,1,1,1,1,0,0
566,12336,10392,bus,53,1,1,1,1,1,0,0
573,12337,10392,bus,53,1,1,1,1,1,0,0
581,12338,10392,bus,53,1,1,1,1,1,0,0
592,12339,10392,bus,53,1,1,1,1,1,0,0
602,12340,10392,bus,53,1,1,1,1,1,0,0
614,12341,10392,bus,53,1,1,1,1,1,0,0
624,12342,10392,bus,53,1,1,1,1,1,0,0
634,12343,10392,bus,53,1,1,1,1,1,0,0
643,12344,10392,bus,53,1,1,1,1,1,0,0
653,12345,10392,bus,53,1,1,1,1,1,0,0
664,12346,10392,bus,53,1,1,1,1,1,0,0
677,12347,10392,bus,53,1,1,1,1,1,0,0
689,12348,10392,bus,53,1,1,1,1,1,0,0
700,12349,10392,bus,53,1,1,1,1,1,0,0
708,12350,10392,bus,53,1,1,1,1,1,0,0
716,12351,10392,bus,53,1,1,1,1,1,0,0
724,12352,10392,bus,53,1,1,1,1,1,0,0
734,12353,10392,bus,53,1,1,1,1,1,0,0
744,12354,10392,bus,53,1,1,1,1,1,0,0
754,12355,10392,bus,53,1,1,1,1,1,0,0
764,12356,10392,bus,53,1,1,1,1,1,0,0
775,12357,10392,bus,53,1,1,1,1,1,0,0
786,12358,10392,bus,53,1,1,1,1,1,0,0
798,12359,10392,bus,53,1,1,1,1,1,0,0
808,12360,10392,bus,53,1,1,1,1,1,0,0
817,12361,10392,bus,53,1,1,1,1,1,0,0
827,12362,10392,bus,53,1,1,1,1,1,0,0
836,12363,10392,bus,53,1,1,1,1,1,0,0
844,12364,10392,bus,53,1,1,1,1,1,0,0
854,12365,10392,bus,53,1,1,1,1,1,0,0
863,12366,10392,bus,53,1,1,1,1,1,0,0
873,12367,10392,bus,53,1,1,1,1,1,0,0
884,12368,10392,bus,53,1,1,1,1,1,0,0
896,12369,10392,bus,53,1,1,1,1,1,0,0
905,12370,10392,bus,53,1,1,1,1,1,0,0
914,12371,10392,bus,53,1,1,1,1,1,0,0
920,12372,10392,bus,53,1,1,1,1,1,0,0
927,12373,10392,bus,53,1,1,1,1,1,0,0
935,12374,10392,bus,53,1,1,1,1,1,0,0
943,12375,10392,bus,53,1,1,1,1,1,0,0
950,12376,10392,bus,53,1,1,1,1,1,0,0
957,12377,10392,bus,53,1,1,1,1,1,0,0
966,12378,10392,bus,53,1,1,1,1,1,0,0
975,12379,10392,bus,53,1,1,1,1,1,0,0
981,12380,10392,bus,53,1,1,1,1,1,0,0
987,12381,10392,bus,53,1,1,1,1,1,0,0
994,12382,10392,bus,53,1,1,1,1,1,0,0
1001,12383,10392,bus,53,1,1,1,1,1,0,0
1010,12384,10392,bus,53,1,1,1,1,1,0,0
1018,12385,10392,bus,53,1,1,1,1,1,0,0
1026,12386,10392,bus,53,1,1,1,1,1,0,0
1035,12387,10392,bus,53,1,1,1,1,1,0,0
1044,12388,10392,bus,53,1,1,1,1,1,0,0
1054,12389,10392,bus,53,1,1,1,1,1,0,0
1064,12390,10392,bus,53,1,1,1,1,1,0,0
1075,12391,10392,bus,53,1,1,1,1,1,0,0
1087,12392,10392,bus,53,1,1,1,1,1,0,0
1101,12393,10392,bus,53,1,1,1,1,1,0,0
1114,12394,10392,bus,53,1,1,1,1,1,0,0
1121,12395,10392,bus,53,1,1,1,1,1,0,0
1129,12396,10392,bus,53,1,1,1,1,1,0,0
1137,12397,10392,bus,53,1,1,1,1,1,0,0
1146,12398,10392,bus,53,1,1,1,1,1,0,0
1158,12399,10392,bus,53,1,1,1,1,1,0,0
1171,12400,10392,bus,53,1,1,1,1,1,0,0
1182,12401,10392,bus,53,1,1,1,1,1,0,0
1193,12402,10392,bus,53,1,1,1,1,1,0,0
1203,12403,10392,bus,53,1,1,1,1,1,0,0
1213,12404,10392,bus,53,1,1,1,1,1,0,0
1220,12405,10392,bus,53,1,1,1,1,1,0,0
1228,12406,10392,bus,53,1,1,1,1,1,0,0
1237,12407,10392,bus,53,1,1,1,1,1,0,0
1245,12408,10392,bus,53,1,1,1,1,1,0,0
1254,12409,10392,bus,53,1,1,1,1,1,0,0
1263,12410,10392,bus,53,1,1,1,1,1,0,0
1276,12411,10392,bus,53,1,1,1,1,1,0,0
1287,12412,10392,bus,53,1,1,1,1,1,0,0
1297,12413,10392,bus,53,1,1,1,1,1,0,0
1306,12414,10392,bus,53,1,1,1,1,1,0,0
1314,12415,10392,bus,53,1,1,1,1,1,0,0
1322,12416,10392,bus,53,1,1,1,1,1,0,0
1332,12417,10392,bus,53,1,1,1,1,1,0,0
1341,12418,10392,bus,53,1,1,1,1,1,0,0
1350,12419,10392,bus,53,1,1,1,1,1,0,0
1358,12420,10392,bus,53,1,1,1,1,1,0,0
1367,12421,10392,bus,53,1,1,1,1,1,0,0
1378,12422,10392,bus,53,1,1,1,1,1,0,0
1387,12423,10392,bus,53,1,1,1,1,1,0,0
1396,12424,10392,bus,53,1,1,1,1,1,0,0
331,12425,10393,bus,53,0,0,0,0,0,1,0
357,12426,10393,bus,53,0,0,0,0,0,1,0
372,12427,10393,bus,53,0,0,0,0,0,1,0
387,12428,10393,bus,53,0,0,0,0,0,1,0
402,12429,10393,bus,53,0,0,0,0,0,1,0
417,12430,10393,bus,53,0,0,0,0,0,1,0
434,12431,10393,bus,53,0,0,0,0,0,1,0
449,12432,10393,bus,53,0,0,0,0,0,1,0
464,12433,10393,bus,53,0,0,0,0,0,1,0
479,12434,10393,bus,53,0,0,0,0,0,1,0
494,12435,10393,bus,53,0,0,0,0,0,1,0
509,12436,10393,bus,53,0,0,0,0,0,1,0
525,12437,10393,bus,53,0,0,0,0,0,1,0
540,12438,10393,bus,53,0,0,0,0,0,1,0
551,12439,10393,bus,53,0,0,0,0,0,1,0
562,12440,10393,bus,53,0,0,0,0,0,1,0
572,12441,10393,bus,53,0,0,0,0,0,1,0
581,12442,10393,bus,53,0,0,0,0,0,1,0
591,12443,10393,bus,53,0,0,0,0,0,1,0
601,12444,10393,bus,53,0,0,0,0,0,1,0
613,12445,10393,bus,53,0,0,0,0,0,1,0
626,12446,10393,bus,53,0,0,0,0,0,1,0
636,12447,10393,bus,53,0,0,0,0,0,1,0
645,12448,10393,bus,53,0,0,0,0,0,1,0
654,12449,10393,bus,53,0,0,0,0,0,1,0
665,12450,10393,bus,53,0,0,0,0,0,1,0
677,12451,10393,bus,53,0,0,0,0,0,1,0
688,12452,10393,bus,53,0,0,0,0,0,1,0
698,12453,10393,bus,53,0,0,0,0,0,1,0
708,12454,10393,bus,53,0,0,0,0,0,1,0
720,12455,10393,bus,53,0,0,0,0,0,1,0
733,12456,10393,bus,53,0,0,0,0,0,1,0
750,12457,10393,bus,53,0,0,0,0,0,1,0
759,12458,10393,bus,53,0,0,0,0,0,1,0
770,12459,10393,bus,53,0,0,0,0,0,1,0
779,12460,10393,bus,53,0,0,0,0,0,1,0
785,12461,10393,bus,53,0,0,0,0,0,1,0
796,12462,10393,bus,53,0,0,0,0,0,1,0
804,12463,10393,bus,53,0,0,0,0,0,1,0
813,12464,10393,bus,53,0,0,0,0,0,1,0
821,12465,10393,bus,53,0,0,0,0,0,1,0
831,12466,10393,bus,53,0,0,0,0,0,1,0
845,12467,10393,bus,53,0,0,0,0,0,1,0
855,12468,10393,bus,53,0,0,0,0,0,1,0
868,12469,10393,bus,53,0,0,0,0,0,1,0
878,12470,10393,bus,53,0,0,0,0,0,1,0
887,12471,10393,bus,53,0,0,0,0,0,1,0
896,12472,10393,bus,53,0,0,0,0,0,1,0
905,12473,10393,bus,53,0,0,0,0,0,1,0
915,12474,10393,bus,53,0,0,0,0,0,1,0
924,12475,10393,bus,53,0,0,0,0,0,1,0
934,12476,10393,bus,53,0,0,0,0,0,1,0
947,12477,10393,bus,53,0,0,0,0,0,1,0
961,12478,10393,bus,53,0,0,0,0,0,1,0
974,12479,10393,bus,53,0,0,0,0,0,1,0
984,12480,10393,bus,53,0,0,0,0,0,1,0
993,12481,10393,bus,53,0,0,0,0,0,1,0
1003,12482,10393,bus,53,0,0,0,0,0,1,0
1014,12483,10393,bus,53,0,0,0,0,0,1,0
1025,12484,10393,bus,53,0,0,0,0,0,1,0
1040,12485,10393,bus,53,0,0,0,0,0,1,0
1056,12486,10393,bus,53,0,0,0,0,0,1,0
1072,12487,10393,bus,53,0,0,0,0,0,1,0
1093,12488,10393,bus,53,0,0,0,0,0,1,0
1114,12489,10393,bus,53,0,0,0,0,0,1,0
1129,12490,10393,bus,53,0,0,0,0,0,1,0
1154,12491,10393,bus,53,0,0,0,0,0,1,0
1178,12492,10393,bus,53,0,0,0,0,0,1,0
1193,12493,10393,bus,53,0,0,0,0,0,1,0
1210,12494,10393,bus,53,0,0,0,0,0,1,0
1230,12495,10393,bus,53,0,0,0,0,0,1,0
1242,12496,10393,bus,53,0,0,0,0,0,1,0
1254,12497,10393,bus,53,0,0,0,0,0,1,0
1269,12498,10393,bus,53,0,0,0,0,0,1,0
1283,12499,10393,bus,53,0,0,0,0,0,1,0
1299,12500,10393,bus,53,0,0,0,0,0,1,0
1314,12501,10393,bus,53,0,0,0,0,0,1,0
1328,12502,10393,bus,53,0,0,0,0,0,1,0
1342,12503,10393,bus,53,0,0,0,0,0,1,0
1355,12504,10393,bus,53,0,0,0,0,0,1,0
1371,12505,10393,bus,53,0,0,0,0,0,1,0
1389,12506,10393,bus,53,0,0,0,0,0,1,0
308,12845,10392,bus,53,1,1,1,1,1,0,0
326,12846,10392,bus,53,1,1,1,1,1,0,0
368,12847,10392,bus,53,1,1,1,1,1,0,0
346,12848,10394,bus,53,0,0,0,0,0,0,1
361,12849,10394,bus,53,0,0,0,0,0,0,1
375,12850,10394,bus,53,0,0,0,0,0,0,1
314,12851,10393,bus,53,0,0,0,0,0,1,0
346,12852,10393,bus,53,0,0,0,0,0,1,0
326,13937,10397,bus,63,1,1,1,1,1,0,0
439,13938,10398,bus,63,0,0,0,0,0,1,1
338,15888,9847,bus,88,0,0,0,0,0,0,1
289,15889,10244,bus,88,1,1,1,1,1,0,0
289,15890,9846,bus,88,0,0,0,0,0,1,0
360,15891,9847,bus,88,0,0,0,0,0,0,1
683,15892,9847,bus,88,0,0,0,0,0,0,1
723,15893,9847,bus,88,0,0,0,0,0,0,1
1192,15894,9847,bus,88,0,0,0,0,0,0,1
1232,15895,9847,bus,88,0,0,0,0,0,0,1
302,15896,10244,bus,88,1,1,1,1,1,0,0
329,15897,10244,bus,88,1,1,1,1,1,0,0
609,15898,10244,bus,88,1,1,1,1,1,0,0
638,15899,10244,bus,88,1,1,1,1,1,0,0
668,15900,10244,bus,88,1,1,1,1,1,0,0
1206,15901,10244,bus,88,1,1,1,1,1,0,0
1230,15902,10244,bus,88,1,1,1,1,1,0,0
1261,15903,10244,bus,88,1,1,1,1,1,0,0
317,15904,9846,bus,88,0,0,0,0,0,1,0
636,15905,9846,bus,88,0,0,0,0,0,1,0
683,15906,9846,bus,88,0,0,0,0,0,1,0
1239,15907,9846,bus,88,0,0,0,0,0,1,0
1267,15908,9846,bus,88,0,0,0,0,0,1,0
1440,16355,9971,nightbus,103N,0,0,0,0,1,1,0
1474,16356,9971,nightbus,103N,0,0,0,0,1,1,0
1522,16357,9971,nightbus,103N,0,0,0,0,1,1,0
1550,16358,9971,nightbus,103N,0,0,0,0,1,1,0
1578,16359,9971,nightbus,103N,0,0,0,0,1,1,0
394,18467,10448,trol,6,0,0,0,0,0,0,1
418,18468,10448,trol,6,0,0,0,0,0,0,1
431,18469,10448,trol,6,0,0,0,0,0,0,1
449,18470,10448,trol,6,0,0,0,0,0,0,1
469,18471,10448,trol,6,0,0,0,0,0,0,1
485,18472,10448,trol,6,0,0,0,0,0,0,1
502,18473,10448,trol,6,0,0,0,0,0,0,1
522,18474,10448,trol,6,0,0,0,0,0,0,1
538,18475,10448,trol,6,0,0,0,0,0,0,1
553,18476,10448,trol,6,0,0,0,0,0,0,1
568,18477,10448,trol,6,0,0,0,0,0,0,1
583,18478,10448,trol,6,0,0,0,0,0,0,1
595,18479,10448,trol,6,0,0,0,0,0,0,1
609,18480,10448,trol,6,0,0,0,0,0,0,1
626,18481,10448,trol,6,0,0,0,0,0,0,1
639,18482,10448,trol,6,0,0,0,0,0,0,1
654,18483,10448,trol,6,0,0,0,0,0,0,1
664,18484,10448,trol,6,0,0,0,0,0,0,1
677,18485,10448,trol,6,0,0,0,0,0,0,1
691,18486,10448,trol,6,0,0,0,0,0,0,1
701,18487,10448,trol,6,0,0,0,0,0,0,1
715,18488,10448,trol,6,0,0,0,0,0,0,1
730,18489,10448,trol,6,0,0,0,0,0,0,1
741,18490,10448,trol,6,0,0,0,0,0,0,1
754,18491,10448,trol,6,0,0,0,0,0,0,1
769,18492,10448,trol,6,0,0,0,0,0,0,1
787,18493,10448,trol,6,0,0,0,0,0,0,1
800,18494,10448,trol,6,0,0,0,0,0,0,1
812,18495,10448,trol,6,0,0,0,0,0,0,1
823,18496,10448,trol,6,0,0,0,0,0,0,1
834,18497,10448,trol,6,0,0,0,0,0,0,1
848,18498,10448,trol,6,0,0,0,0,0,0,1
864,18499,10448,trol,6,0,0,0,0,0,0,1
876,18500,10448,trol,6,0,0,0,0,0,0,1
887,18501,10448,trol,6,0,0,0,0,0,0,1
899,18502,10448,trol,6,0,0,0,0,0,0,1
912,18503,10448,trol,6,0,0,0,0,0,0,1
925,18504,10448,trol,6,0,0,0,0,0,0,1
936,18505,10448,trol,6,0,0,0,0,0,0,1
948,18506,10448,trol,6,0,0,0,0,0,0,1
959,18507,10448,trol,6,0,0,0,0,0,0,1
971,18508,10448,trol,6,0,0,0,0,0,0,1
987,18509,10448,trol,6,0,0,0,0,0,0,1
1001,18510,10448,trol,6,0,0,0,0,0,0,1
1014,18511,10448,trol,6,0,0,0,0,0,0,1
1034,18512,10448,trol,6,0,0,0,0,0,0,1
1055,18513,10448,trol,6,0,0,0,0,0,0,1
1083,18514,10448,trol,6,0,0,0,0,0,0,1
1104,18515,10448,trol,6,0,0,0,0,0,0,1
1121,18516,10448,trol,6,0,0,0,0,0,0,1
1146,18517,10448,trol,6,0,0,0,0,0,0,1
1169,18518,10448,trol,6,0,0,0,0,0,0,1
1189,18519,10448,trol,6,0,0,0,0,0,0,1
1211,18520,10448,trol,6,0,0,0,0,0,0,1
1225,18521,10448,trol,6,0,0,0,0,0,0,1
1251,18522,10448,trol,6,0,0,0,0,0,0,1
1266,18523,10448,trol,6,0,0,0,0,0,0,1
1285,18524,10448,trol,6,0,0,0,0,0,0,1
1307,18525,10448,trol,6,0,0,0,0,0,0,1
1332,18526,10448,trol,6,0,0,0,0,0,0,1
1354,18527,10448,trol,6,0,0,0,0,0,0,1
1368,18528,10448,trol,6,0,0,0,0,0,0,1
317,18529,10446,trol,6,1,1,1,1,1,0,0
326,18530,10446,trol,6,1,1,1,1,1,0,0
341,18531,10446,trol,6,1,1,1,1,1,0,0
353,18532,10446,trol,6,1,1,1,1,1,0,0
366,18533,10446,trol,6,1,1,1,1,1,0,0
374,18534,10446,trol,6,1,1,1,1,1,0,0
382,18535,10446,trol,6,1,1,1,1,1,0,0
391,18536,10446,trol,6,1,1,1,1,1,0,0
401,18537,10446,trol,6,1,1,1,1,1,0,0
409,18538,10446,trol,6,1,1,1,1,1,0,0
419,18539,10446,trol,6,1,1,1,1,1,0,0
429,18540,10446,trol,6,1,1,1,1,1,0,0
436,18541,10446,trol,6,1,1,1,1,1,0,0
443,18542,10446,trol,6,1,1,1,1,1,0,0
450,18543,10446,trol,6,1,1,1,1,1,0,0
460,18544,10446,trol,6,1,1,1,1,1,0,0
469,18545,10446,trol,6,1,1,1,1,1,0,0
475,18546,10446,trol,6,1,1,1,1,1,0,0
484,18547,10446,trol,6,1,1,1,1,1,0,0
493,18548,10446,trol,6,1,1,1,1,1,0,0
500,18549,10446,trol,6,1,1,1,1,1,0,0
514,18550,10446,trol,6,1,1,1,1,1,0,0
527,18551,10446,trol,6,1,1,1,1,1,0,0
542,18552,10446,trol,6,1,1,1,1,1,0,0
559,18553,10446,trol,6,1,1,1,1,1,0,0
571,18554,10446,trol,6,1,1,1,1,1,0,0
587,18555,10446,trol,6,1,1,1,1,1,0,0
597,18556,10446,trol,6,1,1,1,1,1,0,0
612,18557,10446,trol,6,1,1,1,1,1,0,0
627,18558,10446,trol,6,1,1,1,1,1,0,0
641,18559,10446,trol,6,1,1,1,1,1,0,0
654,18560,10446,trol,6,1,1,1,1,1,0,0
664,18561,10446,trol,6,1,1,1,1,1,0,0
673,18562,10446,trol,6,1,1,1,1,1,0,0
687,18563,10446,trol,6,1,1,1,1,1,0,0
699,18564,10446,trol,6,1,1,1,1,1,0,0
714,18565,10446,trol,6,1,1,1,1,1,0,0
727,18566,10446,trol,6,1,1,1,1,1,0,0
740,18567,10446,trol,6,1,1,1,1,1,0,0
754,18568,10446,trol,6,1,1,1,1,1,0,0
769,18569,10446,trol,6,1,1,1,1,1,0,0
780,18570,10446,trol,6,1,1,1,1,1,0,0
791,18571,10446,trol,6,1,1,1,1,1,0,0
805,18572,10446,trol,6,1,1,1,1,1,0,0
818,18573,10446,trol,6,1,1,1,1,1,0,0
831,18574,10446,trol,6,1,1,1,1,1,0,0
847,18575,10446,trol,6,1,1,1,1,1,0,0
862,18576,10446,trol,6,1,1,1,1,1,0,0
876,18577,10446,trol,6,1,1,1,1,1,0,0
890,18578,10446,trol,6,1,1,1,1,1,0,0
900,18579,10446,trol,6,1,1,1,1,1,0,0
911,18580,10446,trol,6,1,1,1,1,1,0,0
920,18581,10446,trol,6,1,1,1,1,1,0,0
927,18582,10446,trol,6,1,1,1,1,1,0,0
935,18583,10446,trol,6,1,1,1,1,1,0,0
942,18584,10446,trol,6,1,1,1,1,1,0,0
951,18585,10446,trol,6,1,1,1,1,1,0,0
959,18586,10446,trol,6,1,1,1,1,1,0,0
967,18587,10446,trol,6,1,1,1,1,1,0,0
977,18588,10446,trol,6,1,1,1,1,1,0,0
987,18589,10446,trol,6,1,1,1,1,1,0,0
996,18590,10446,trol,6,1,1,1,1,1,0,0
1007,18591,10446,trol,6,1,1,1,1,1,0,0
1017,18592,10446,trol,6,1,1,1,1,1,0,0
1026,18593,10446,trol,6,1,1,1,1,1,0,0
1035,18594,10446,trol,6,1,1,1,1,1,0,0
1046,18595,10446,trol,6,1,1,1,1,1,0,0
1056,18596,10446,trol,6,1,1,1,1,1,0,0
1065,18597,10446,trol,6,1,1,1,1,1,0,0
1076,18598,10446,trol,6,1,1,1,1,1,0,0
1087,18599,10446,trol,6,1,1,1,1,1,0,0
1098,18600,10446,trol,6,1,1,1,1,1,0,0
1110,18601,10446,trol,6,1,1,1,1,1,0,0
1122,18602,10446,trol,6,1,1,1,1,1,0,0
1130,18603,10446,trol,6,1,1,1,1,1,0,0
1146,18604,10446,trol,6,1,1,1,1,1,0,0
1160,18605,10446,trol,6,1,1,1,1,1,0,0
1170,18606,10446,trol,6,1,1,1,1,1,0,0
1183,18607,10446,trol,6,1,1,1,1,1,0,0
1191,18608,10446,trol,6,1,1,1,1,1,0,0
1209,18609,10446,trol,6,1,1,1,1,1,0,0
1223,18610,10446,trol,6,1,1,1,1,1,0,0
1234,18611,10446,trol,6,1,1,1,1,1,0,0
1244,18612,10446,trol,6,1,1,1,1,1,0,0
1257,18613,10446,trol,6,1,1,1,1,1,0,0
1269,18614,10446,trol,6,1,1,1,1,1,0,0
1281,18615,10446,trol,6,1,1,1,1,1,0,0
1291,18616,10446,trol,6,1,1,1,1,1,0,0
1302,18617,10446,trol,6,1,1,1,1,1,0,0
1315,18618,10446,trol,6,1,1,1,1,1,0,0
1327,18619,10446,trol,6,1,1,1,1,1,0,0
1341,18620,10446,trol,6,1,1,1,1,1,0,0
1355,18621,10446,trol,6,1,1,1,1,1,0,0
340,18622,10447,trol,6,0,0,0,0,0,1,0
367,18623,10447,trol,6,0,0,0,0,0,1,0
394,18624,10447,trol,6,0,0,0,0,0,1,0
418,18625,10447,trol,6,0,0,0,0,0,1,0
431,18626,10447,trol,6,0,0,0,0,0,1,0
449,18627,10447,trol,6,0,0,0,0,0,1,0
469,18628,10447,trol,6,0,0,0,0,0,1,0
485,18629,10447,trol,6,0,0,0,0,0,1,0
502,18630,10447,trol,6,0,0,0,0,0,1,0
522,18631,10447,trol,6,0,0,0,0,0,1,0
538,18632,10447,trol,6,0,0,0,0,0,1,0
553,18633,10447,trol,6,0,0,0,0,0,1,0
568,18634,10447,trol,6,0,0,0,0,0,1,0
583,18635,10447,trol,6,0,0,0,0,0,1,0
595,18636,10447,trol,6,0,0,0,0,0,1,0
609,18637,10447,trol,6,0,0,0,0,0,1,0
626,18638,10447,trol,6,0,0,0,0,0,1,0
639,18639,10447,trol,6,0,0,0,0,0,1,0
654,18640,10447,trol,6,0,0,0,0,0,1,0
664,18641,10447,trol,6,0,0,0,0,0,1,0
677,18642,10447,trol,6,0,0,0,0,0,1,0
691,18643,10447,trol,6,0,0,0,0,0,1,0
701,18644,10447,trol,6,0,0,0,0,0,1,0
715,18645,10447,trol,6,0,0,0,0,0,1,0
730,18646,10447,trol,6,0,0,0,0,0,1,0
741,18647,10447,trol,6,0,0,0,0,0,1,0
754,18648,10447,trol,6,0,0,0,0,0,1,0
769,18649,10447,trol,6,0,0,0,0,0,1,0
787,18650,10447,trol,6,0,0,0,0,0,1,0
800,18651,10447,trol,6,0,0,0,0,0,1,0
812,18652,10447,trol,6,0,0,0,0,0,1,0
823,18653,10447,trol,6,0,0,0,0,0,1,0
834,18654,10447,trol,6,0,0,0,0,0,1,0
848,18655,10447,trol,6,0,0,0,0,0,1,0
864,18656,10447,trol,6,0,0,0,0,0,1,0
876,18657,10447,trol,6,0,0,0,0,0,1,0
887,18658,10447,trol,6,0,0,0,0,0,1,0
899,18659,10447,trol,6,0,0,0,0,0,1,0
912,18660,10447,trol,6,0,0,0,0,0,1,0
925,18661,10447,trol,6,0,0,0,0,0,1,0
936,18662,10447,trol,6,0,0,0,0,0,1,0
948,18663,10447,trol,6,0,0,0,0,0,1,0
959,18664,10447,trol,6,0,0,0,0,0,1,0
971,18665,10447,trol,6,0,0,0,0,0,1,0
987,18666,10447,trol,6,0,0,0,0,0,1,0
1001,18667,10447,trol,6,0,0,0,0,0,1,0
1014,18668,10447,trol,6,0,0,0,0,0,1,0
1034,18669,10447,trol,6,0,0,0,0,0,1,0
1055,18670,10447,trol,6,0,0,0,0,0,1,0
1083,18671,10447,trol,6,0,0,0,0,0,1,0
1104,18672,10447,trol,6,0,0,0,0,0,1,0
1121,18673,10447,trol,6,0,0,0,0,0,1,0
1146,18674,10447,trol,6,0,0,0,0,0,1,0
1169,18675,10447,trol,6,0,0,0,0,0,1,0
1189,18676,10447,trol,6,0,0,0,0,0,1,0
1211,18677,10447,trol,6,0,0,0,0,0,1,0
1225,18678,10447,trol,6,0,0,0,0,0,1,0
1251,18679,10447,trol,6,0,0,0,0,0,1,0
1266,18680,10447,trol,6,0,0,0,0,0,1,0
1285,18681,10447,trol,6,0,0,0,0,0,1,0
1307,18682,10447,trol,6,0,0,0,0,0,1,0
1332,18683,10447,trol,6,0,0,0,0,0,1,0
1354,18684,10447,trol,6,0,0,0,0,0,1,0
1368,18685,10447,trol,6,0,0,0,0,0,1,0
549,18686,10446,trol,6,1,1,1,1,1,0,0
579,18687,10446,trol,6,1,1,1,1,1,0,0
383,20406,10457,trol,10,0,0,0,0,0,0,1
413,20407,10457,trol,10,0,0,0,0,0,0,1
434,20408,10457,trol,10,0,0,0,0,0,0,1
453,20409,10457,trol,10,0,0,0,0,0,0,1
479,20410,10457,trol,10,0,0,0,0,0,0,1
508,20411,10457,trol,10,0,0,0,0,0,0,1
531,20412,10457,trol,10,0,0,0,0,0,0,1
548,20413,10457,trol,10,0,0,0,0,0,0,1
564,20414,10457,trol,10,0,0,0,0,0,0,1
587,20415,10457,trol,10,0,0,0,0,0,0,1
605,20416,10457,trol,10,0,0,0,0,0,0,1
622,20417,10457,trol,10,0,0,0,0,0,0,1
636,20418,10457,trol,10,0,0,0,0,0,0,1
656,20419,10457,trol,10,0,0,0,0,0,0,1
668,20420,10457,trol,10,0,0,0,0,0,0,1
681,20421,10457,trol,10,0,0,0,0,0,0,1
697,20422,10457,trol,10,0,0,0,0,0,0,1
711,20423,10457,trol,10,0,0,0,0,0,0,1
727,20424,10457,trol,10,0,0,0,0,0,0,1
747,20425,10457,trol,10,0,0,0,0,0,0,1
762,20426,10457,trol,10,0,0,0,0,0,0,1
778,20427,10457,trol,10,0,0,0,0,0,0,1
796,20428,10457,trol,10,0,0,0,0,0,0,1
815,20429,10457,trol,10,0,0,0,0,0,0,1
831,20430,10457,trol,10,0,0,0,0,0,0,1
845,20431,10457,trol,10,0,0,0,0,0,0,1
858,20432,10457,trol,10,0,0,0,0,0,0,1
871,20433,10457,trol,10,0,0,0,0,0,0,1
884,20434,10457,trol,10,0,0,0,0,0,0,1
902,20435,10457,trol,10,0,0,0,0,0,0,1
918,20436,10457,trol,10,0,0,0,0,0,0,1
932,20437,10457,trol,10,0,0,0,0,0,0,1
950,20438,10457,trol,10,0,0,0,0,0,0,1
963,20439,10457,trol,10,0,0,0,0,0,0,1
979,20440,10457,trol,10,0,0,0,0,0,0,1
991,20441,10457,trol,10,0,0,0,0,0,0,1
1003,20442,10457,trol,10,0,0,0,0,0,0,1
1017,20443,10457,trol,10,0,0,0,0,0,0,1
1032,20444,10457,trol,10,0,0,0,0,0,0,1
1047,20445,10457,trol,10,0,0,0,0,0,0,1
1061,20446,10457,trol,10,0,0,0,0,0,0,1
1079,20447,10457,trol,10,0,0,0,0,0,0,1
1115,20448,10457,trol,10,0,0,0,0,0,0,1
1142,20449,10457,trol,10,0,0,0,0,0,0,1
1174,20450,10457,trol,10,0,0,0,0,0,0,1
1201,20451,10457,trol,10,0,0,0,0,0,0,1
1221,20452,10457,trol,10,0,0,0,0,0,0,1
1245,20453,10457,trol,10,0,0,0,0,0,0,1
1272,20454,10457,trol,10,0,0,0,0,0,0,1
1298,20455,10457,trol,10,0,0,0,0,0,0,1
1324,20456,10457,trol,10,0,0,0,0,0,0,1
1350,20457,10457,trol,10,0,0,0,0,0,0,1
1392,20458,10457,trol,10,0,0,0,0,0,0,1
344,20459,10455,trol,10,1,1,1,1,1,0,0
360,20460,10455,trol,10,1,1,1,1,1,0,0
379,20461,10455,trol,10,1,1,1,1,1,0,0
395,20462,10455,trol,10,1,1,1,1,1,0,0
405,20463,10455,trol,10,1,1,1,1,1,0,0
414,20464,10455,trol,10,1,1,1,1,1,0,0
423,20465,10455,trol,10,1,1,1,1,1,0,0
433,20466,10455,trol,10,1,1,1,1,1,0,0
446,20467,10455,trol,10,1,1,1,1,1,0,0
455,20468,10455,trol,10,1,1,1,1,1,0,0
465,20469,10455,trol,10,1,1,1,1,1,0,0
479,20470,10455,trol,10,1,1,1,1,1,0,0
490,20471,10455,trol,10,1,1,1,1,1,0,0
505,20472,10455,trol,10,1,1,1,1,1,0,0
520,20473,10455,trol,10,1,1,1,1,1,0,0
534,20474,10455,trol,10,1,1,1,1,1,0,0
551,20475,10455,trol,10,1,1,1,1,1,0,0
564,20476,10455,trol,10,1,1,1,1,1,0,0
575,20477,10455,trol,10,1,1,1,1,1,0,0
584,20478,10455,trol,10,1,1,1,1,1,0,0
594,20479,10455,trol,10,1,1,1,1,1,0,0
607,20480,10455,trol,10,1,1,1,1,1,0,0
623,20481,10455,trol,10,1,1,1,1,1,0,0
645,20482,10455,trol,10,1,1,1,1,1,0,0
657,20483,10455,trol,10,1,1,1,1,1,0,0
669,20484,10455,trol,10,1,1,1,1,1,0,0
684,20485,10455,trol,10,1,1,1,1,1,0,0
704,20486,10455,trol,10,1,1,1,1,1,0,0
720,20487,10455,trol,10,1,1,1,1,1,0,0
735,20488,10455,trol,10,1,1,1,1,1,0,0
751,20489,10455,trol,10,1,1,1,1,1,0,0
765,20490,10455,trol,10,1,1,1,1,1,0,0
784,20491,10455,trol,10,1,1,1,1,1,0,0
799,20492,10455,trol,10,1,1,1,1,1,0,0
814,20493,10455,trol,10,1,1,1,1,1,0,0
828,20494,10455,trol,10,1,1,1,1,1,0,0
843,20495,10455,trol,10,1,1,1,1,1,0,0
859,20496,10455,trol,10,1,1,1,1,1,0,0
882,20497,10455,trol,10,1,1,1,1,1,0,0
898,20498,10455,trol,10,1,1,1,1,1,0,0
915,20499,10455,trol,10,1,1,1,1,1,0,0
929,20500,10455,trol,10,1,1,1,1,1,0,0
940,20501,10455,trol,10,1,1,1,1,1,0,0
954,20502,10455,trol,10,1,1,1,1,1,0,0
965,20503,10455,trol,10,1,1,1,1,1,0,0
974,20504,10455,trol,10,1,1,1,1,1,0,0
984,20505,10455,trol,10,1,1,1,1,1,0,0
999,20506,10455,trol,10,1,1,1,1,1,0,0
1009,20507,10455,trol,10,1,1,1,1,1,0,0
1020,20508,10455,trol,10,1,1,1,1,1,0,0
1032,20509,10455,trol,10,1,1,1,1,1,0,0
1049,20510,10455,trol,10,1,1,1,1,1,0,0
1062,20511,10455,trol,10,1,1,1,1,1,0,0
1072,20512,10455,trol,10,1,1,1,1,1,0,0
1084,20513,10455,trol,10,1,1,1,1,1,0,0
1103,20514,10455,trol,10,1,1,1,1,1,0,0
1118,20515,10455,trol,10,1,1,1,1,1,0,0
1134,20516,10455,trol,10,1,1,1,1,1,0,0
1150,20517,10455,trol,10,1,1,1,1,1,0,0
1164,20518,10455,trol,10,1,1,1,1,1,0,0
1178,20519,10455,trol,10,1,1,1,1,1,0,0
1198,20520,10455,trol,10,1,1,1,1,1,0,0
1214,20521,10455,trol,10,1,1,1,1,1,0,0
1228,20522,10455,trol,10,1,1,1,1,1,0,0
1239,20523,10455,trol,10,1,1,1,1,1,0,0
1252,20524,10455,trol,10,1,1,1,1,1,0,0
1265,20525,10455,trol,10,1,1,1,1,1,0,0
1286,20526,10455,trol,10,1,1,1,1,1,0,0
1298,20527,10455,trol,10,1,1,1,1,1,0,0
1319,20528,10455,trol,10,1,1,1,1,1,0,0
1335,20529,10455,trol,10,1,1,1,1,1,0,0
1348,20530,10455,trol,10,1,1,1,1,1,0,0
1372,20531,10455,trol,10,1,1,1,1,1,0,0
357,20532,10456,trol,10,0,0,0,0,0,1,0
383,20533,10456,trol,10,0,0,0,0,0,1,0
413,20534,10456,trol,10,0,0,0,0,0,1,0
434,20535,10456,trol,10,0,0,0,0,0,1,0
453,20536,10456,trol,10,0,0,0,0,0,1,0
479,20537,10456,trol,10,0,0,0,0,0,1,0
508,20538,10456,trol,10,0,0,0,0,0,1,0
531,20539,10456,trol,10,0,0,0,0,0,1,0
548,20540,10456,trol,10,0,0,0,0,0,1,0
564,20541,10456,trol,10,0,0,0,0,0,1,0
587,20542,10456,trol,10,0,0,0,0,0,1,0
605,20543,10456,trol,10,0,0,0,0,0,1,0
622,20544,10456,trol,10,0,0,0,0,0,1,0
636,20545,10456,trol,10,0,0,0,0,0,1,0
656,20546,10456,trol,10,0,0,0,0,0,1,0
668,20547,10456,trol,10,0,0,0,0,0,1,0
681,20548,10456,trol,10,0,0,0,0,0,1,0
697,20549,10456,trol,10,0,0,0,0,0,1,0
711,20550,10456,trol,10,0,0,0,0,0,1,0
727,20551,10456,trol,10,0,0,0,0,0,1,0
747,20552,10456,trol,10,0,0,0,0,0,1,0
762,20553,10456,trol,10,0,0,0,0,0,1,0
778,20554,10456,trol,10,0,0,0,0,0,1,0
796,20555,10456,trol,10,0,0,0,0,0,1,0
815,20556,10456,trol,10,0,0,0,0,0,1,0
831,20557,10456,trol,10,0,0,0,0,0,1,0
845,20558,10456,trol,10,0,0,0,0,0,1,0
858,20559,10456,trol,10,0,0,0,0,0,1,0
871,20560,10456,trol,10,0,0,0,0,0,1,0
884,20561,10456,trol,10,0,0,0,0,0,1,0
902,20562,10456,trol,10,0,0,0,0,0,1,0
918,20563,10456,trol,10,0,0,0,0,0,1,0
932,20564,10456,trol,10,0,0,0,0,0,1,0
950,20565,10456,trol,10,0,0,0,0,0,1,0
963,20566,10456,trol,10,0,0,0,0,0,1,0
979,20567,10456,trol,10,0,0,0,0,0,1,0
991,20568,10456,trol,10,0,0,0,0,0,1,0
1003,20569,10456,trol,10,0,0,0,0,0,1,0
1017,20570,10456,trol,10,0,0,0,0,0,1,0
1032,20571,10456,trol,10,0,0,0,0,0,1,0
1047,20572,10456,trol,10,0,0,0,0,0,1,0
1061,20573,10456,trol,10,0,0,0,0,0,1,0
1079,20574,10456,trol,10,0,0,0,0,0,1,0
1115,20575,10456,trol,10,0,0,0,0,0,1,0
1142,20576,10456,trol,10,0,0,0,0,0,1,0
1174,20577,10456,trol,10,0,0,0,0,0,1,0
1201,20578,10456,trol,10,0,0,0,0,0,1,0
1221,20579,10456,trol,10,0,0,0,0,0,1,0
1245,20580,10456,trol,10,0,0,0,0,0,1,0
1272,20581,10456,trol,10,0,0,0,0,0,1,0
1298,20582,10456,trol,10,0,0,0,0,0,1,0
1324,20583,10456,trol,10,0,0,0,0,0,1,0
1350,20584,10456,trol,10,0,0,0,0,0,1,0
1392,20585,10456,trol,10,0,0,0,0,0,1,0
