timeInMin,trip_id,service_id,tipas,numeris,pirmadienis,antradienis,treciadienis,ketvirtadienis,penktadienis,sestadienis,sekmadienis 
373,4900,10340,bus,10,0,0,0,0,0,0,1
395,4901,10340,bus,10,0,0,0,0,0,0,1
421,4902,10340,bus,10,0,0,0,0,0,0,1
444,4903,10340,bus,10,0,0,0,0,0,0,1
465,4904,10340,bus,10,0,0,0,0,0,0,1
488,4905,10340,bus,10,0,0,0,0,0,0,1
519,4906,10340,bus,10,0,0,0,0,0,0,1
539,4907,10340,bus,10,0,0,0,0,0,0,1
561,4908,10340,bus,10,0,0,0,0,0,0,1
581,4909,10340,bus,10,0,0,0,0,0,0,1
600,4910,10340,bus,10,0,0,0,0,0,0,1
616,4911,10340,bus,10,0,0,0,0,0,0,1
627,4912,10340,bus,10,0,0,0,0,0,0,1
640,4913,10340,bus,10,0,0,0,0,0,0,1
663,4914,10340,bus,10,0,0,0,0,0,0,1
673,4915,10340,bus,10,0,0,0,0,0,0,1
686,4916,10340,bus,10,0,0,0,0,0,0,1
700,4917,10340,bus,10,0,0,0,0,0,0,1
716,4918,10340,bus,10,0,0,0,0,0,0,1
725,4919,10340,bus,10,0,0,0,0,0,0,1
735,4920,10340,bus,10,0,0,0,0,0,0,1
757,4921,10340,bus,10,0,0,0,0,0,0,1
776,4922,10340,bus,10,0,0,0,0,0,0,1
791,4923,10340,bus,10,0,0,0,0,0,0,1
807,4924,10340,bus,10,0,0,0,0,0,0,1
820,4925,10340,bus,10,0,0,0,0,0,0,1
832,4926,10340,bus,10,0,0,0,0,0,0,1
844,4927,10340,bus,10,0,0,0,0,0,0,1
854,4928,10340,bus,10,0,0,0,0,0,0,1
878,4929,10340,bus,10,0,0,0,0,0,0,1
902,4930,10340,bus,10,0,0,0,0,0,0,1
911,4931,10340,bus,10,0,0,0,0,0,0,1
926,4932,10340,bus,10,0,0,0,0,0,0,1
940,4933,10340,bus,10,0,0,0,0,0,0,1
955,4934,10340,bus,10,0,0,0,0,0,0,1
964,4935,10340,bus,10,0,0,0,0,0,0,1
976,4936,10340,bus,10,0,0,0,0,0,0,1
993,4937,10340,bus,10,0,0,0,0,0,0,1
1002,4938,10340,bus,10,0,0,0,0,0,0,1
1018,4939,10340,bus,10,0,0,0,0,0,0,1
1031,4940,10340,bus,10,0,0,0,0,0,0,1
1046,4941,10340,bus,10,0,0,0,0,0,0,1
1057,4942,10340,bus,10,0,0,0,0,0,0,1
1068,4943,10340,bus,10,0,0,0,0,0,0,1
1094,4944,10340,bus,10,0,0,0,0,0,0,1
1116,4945,10340,bus,10,0,0,0,0,0,0,1
1146,4946,10340,bus,10,0,0,0,0,0,0,1
1183,4947,10340,bus,10,0,0,0,0,0,0,1
1212,4948,10340,bus,10,0,0,0,0,0,0,1
1235,4949,10340,bus,10,0,0,0,0,0,0,1
1262,4950,10340,bus,10,0,0,0,0,0,0,1
1294,4951,10340,bus,10,0,0,0,0,0,0,1
1322,4952,10340,bus,10,0,0,0,0,0,0,1
1346,4953,10340,bus,10,0,0,0,0,0,0,1
1361,4954,10340,bus,10,0,0,0,0,0,0,1
1410,4955,10340,bus,10,0,0,0,0,0,0,1
350,4956,10338,bus,10,1,1,1,1,1,0,0
369,4957,10338,bus,10,1,1,1,1,1,0,0
389,4958,10338,bus,10,1,1,1,1,1,0,0
398,4959,10338,bus,10,1,1,1,1,1,0,0
408,4960,10338,bus,10,1,1,1,1,1,0,0
419,4961,10338,bus,10,1,1,1,1,1,0,0
431,4962,10338,bus,10,1,1,1,1,1,0,0
441,4963,10338,bus,10,1,1,1,1,1,0,0
452,4964,10338,bus,10,1,1,1,1,1,0,0
463,4965,10338,bus,10,1,1,1,1,1,0,0
476,4966,10338,bus,10,1,1,1,1,1,0,0
488,4967,10338,bus,10,1,1,1,1,1,0,0
500,4968,10338,bus,10,1,1,1,1,1,0,0
510,4969,10338,bus,10,1,1,1,1,1,0,0
520,4970,10338,bus,10,1,1,1,1,1,0,0
532,4971,10338,bus,10,1,1,1,1,1,0,0
542,4972,10338,bus,10,1,1,1,1,1,0,0
552,4973,10338,bus,10,1,1,1,1,1,0,0
562,4974,10338,bus,10,1,1,1,1,1,0,0
572,4975,10338,bus,10,1,1,1,1,1,0,0
585,4976,10338,bus,10,1,1,1,1,1,0,0
597,4977,10338,bus,10,1,1,1,1,1,0,0
607,4978,10338,bus,10,1,1,1,1,1,0,0
620,4979,10338,bus,10,1,1,1,1,1,0,0
633,4980,10338,bus,10,1,1,1,1,1,0,0
649,4981,10338,bus,10,1,1,1,1,1,0,0
664,4982,10338,bus,10,1,1,1,1,1,0,0
676,4983,10338,bus,10,1,1,1,1,1,0,0
692,4984,10338,bus,10,1,1,1,1,1,0,0
706,4985,10338,bus,10,1,1,1,1,1,0,0
721,4986,10338,bus,10,1,1,1,1,1,0,0
740,4987,10338,bus,10,1,1,1,1,1,0,0
759,4988,10338,bus,10,1,1,1,1,1,0,0
779,4989,10338,bus,10,1,1,1,1,1,0,0
797,4990,10338,bus,10,1,1,1,1,1,0,0
813,4991,10338,bus,10,1,1,1,1,1,0,0
831,4992,10338,bus,10,1,1,1,1,1,0,0
851,4993,10338,bus,10,1,1,1,1,1,0,0
869,4994,10338,bus,10,1,1,1,1,1,0,0
885,4995,10338,bus,10,1,1,1,1,1,0,0
904,4996,10338,bus,10,1,1,1,1,1,0,0
922,4997,10338,bus,10,1,1,1,1,1,0,0
941,4998,10338,bus,10,1,1,1,1,1,0,0
960,4999,10338,bus,10,1,1,1,1,1,0,0
980,5000,10338,bus,10,1,1,1,1,1,0,0
990,5001,10338,bus,10,1,1,1,1,1,0,0
999,5002,10338,bus,10,1,1,1,1,1,0,0
1008,5003,10338,bus,10,1,1,1,1,1,0,0
1018,5004,10338,bus,10,1,1,1,1,1,0,0
1028,5005,10338,bus,10,1,1,1,1,1,0,0
1040,5006,10338,bus,10,1,1,1,1,1,0,0
1052,5007,10338,bus,10,1,1,1,1,1,0,0
1065,5008,10338,bus,10,1,1,1,1,1,0,0
1078,5009,10338,bus,10,1,1,1,1,1,0,0
1089,5010,10338,bus,10,1,1,1,1,1,0,0
1099,5011,10338,bus,10,1,1,1,1,1,0,0
1111,5012,10338,bus,10,1,1,1,1,1,0,0
1120,5013,10338,bus,10,1,1,1,1,1,0,0
1129,5014,10338,bus,10,1,1,1,1,1,0,0
1140,5015,10338,bus,10,1,1,1,1,1,0,0
1151,5016,10338,bus,10,1,1,1,1,1,0,0
1164,5017,10338,bus,10,1,1,1,1,1,0,0
1182,5018,10338,bus,10,1,1,1,1,1,0,0
1204,5019,10338,bus,10,1,1,1,1,1,0,0
1219,5020,10338,bus,10,1,1,1,1,1,0,0
1236,5021,10338,bus,10,1,1,1,1,1,0,0
1255,5022,10338,bus,10,1,1,1,1,1,0,0
1271,5023,10338,bus,10,1,1,1,1,1,0,0
1286,5024,10338,bus,10,1,1,1,1,1,0,0
1303,5025,10338,bus,10,1,1,1,1,1,0,0
1319,5026,10338,bus,10,1,1,1,1,1,0,0
1336,5027,10338,bus,10,1,1,1,1,1,0,0
1354,5028,10338,bus,10,1,1,1,1,1,0,0
1370,5029,10338,bus,10,1,1,1,1,1,0,0
1385,5030,10338,bus,10,1,1,1,1,1,0,0
1404,5031,10338,bus,10,1,1,1,1,1,0,0
351,5032,10339,bus,10,0,0,0,0,0,1,0
373,5033,10339,bus,10,0,0,0,0,0,1,0
395,5034,10339,bus,10,0,0,0,0,0,1,0
421,5035,10339,bus,10,0,0,0,0,0,1,0
444,5036,10339,bus,10,0,0,0,0,0,1,0
465,5037,10339,bus,10,0,0,0,0,0,1,0
488,5038,10339,bus,10,0,0,0,0,0,1,0
519,5039,10339,bus,10,0,0,0,0,0,1,0
539,5040,10339,bus,10,0,0,0,0,0,1,0
561,5041,10339,bus,10,0,0,0,0,0,1,0
581,5042,10339,bus,10,0,0,0,0,0,1,0
600,5043,10339,bus,10,0,0,0,0,0,1,0
616,5044,10339,bus,10,0,0,0,0,0,1,0
627,5045,10339,bus,10,0,0,0,0,0,1,0
640,5046,10339,bus,10,0,0,0,0,0,1,0
663,5047,10339,bus,10,0,0,0,0,0,1,0
673,5048,10339,bus,10,0,0,0,0,0,1,0
686,5049,10339,bus,10,0,0,0,0,0,1,0
700,5050,10339,bus,10,0,0,0,0,0,1,0
716,5051,10339,bus,10,0,0,0,0,0,1,0
725,5052,10339,bus,10,0,0,0,0,0,1,0
735,5053,10339,bus,10,0,0,0,0,0,1,0
757,5054,10339,bus,10,0,0,0,0,0,1,0
776,5055,10339,bus,10,0,0,0,0,0,1,0
791,5056,10339,bus,10,0,0,0,0,0,1,0
807,5057,10339,bus,10,0,0,0,0,0,1,0
820,5058,10339,bus,10,0,0,0,0,0,1,0
832,5059,10339,bus,10,0,0,0,0,0,1,0
844,5060,10339,bus,10,0,0,0,0,0,1,0
854,5061,10339,bus,10,0,0,0,0,0,1,0
878,5062,10339,bus,10,0,0,0,0,0,1,0
902,5063,10339,bus,10,0,0,0,0,0,1,0
911,5064,10339,bus,10,0,0,0,0,0,1,0
926,5065,10339,bus,10,0,0,0,0,0,1,0
940,5066,10339,bus,10,0,0,0,0,0,1,0
955,5067,10339,bus,10,0,0,0,0,0,1,0
964,5068,10339,bus,10,0,0,0,0,0,1,0
976,5069,10339,bus,10,0,0,0,0,0,1,0
993,5070,10339,bus,10,0,0,0,0,0,1,0
1002,5071,10339,bus,10,0,0,0,0,0,1,0
1018,5072,10339,bus,10,0,0,0,0,0,1,0
1031,5073,10339,bus,10,0,0,0,0,0,1,0
1046,5074,10339,bus,10,0,0,0,0,0,1,0
1057,5075,10339,bus,10,0,0,0,0,0,1,0
1068,5076,10339,bus,10,0,0,0,0,0,1,0
1094,5077,10339,bus,10,0,0,0,0,0,1,0
1116,5078,10339,bus,10,0,0,0,0,0,1,0
1146,5079,10339,bus,10,0,0,0,0,0,1,0
1183,5080,10339,bus,10,0,0,0,0,0,1,0
1212,5081,10339,bus,10,0,0,0,0,0,1,0
1235,5082,10339,bus,10,0,0,0,0,0,1,0
1262,5083,10339,bus,10,0,0,0,0,0,1,0
1294,5084,10339,bus,10,0,0,0,0,0,1,0
1322,5085,10339,bus,10,0,0,0,0,0,1,0
1346,5086,10339,bus,10,0,0,0,0,0,1,0
1361,5087,10339,bus,10,0,0,0,0,0,1,0
1410,5088,10339,bus,10,0,0,0,0,0,1,0
1382,5104,10340,bus,10,0,0,0,0,0,0,1
1430,5105,10340,bus,10,0,0,0,0,0,0,1
1455,5106,10340,bus,10,0,0,0,0,0,0,1
1407,5107,10338,bus,10,1,1,1,1,1,0,0
1431,5108,10338,bus,10,1,1,1,1,1,0,0
1450,5109,10338,bus,10,1,1,1,1,1,0,0
1382,5110,10339,bus,10,0,0,0,0,0,1,0
1430,5111,10339,bus,10,0,0,0,0,0,1,0
1455,5112,10339,bus,10,0,0,0,0,0,1,0
1028,5284,10293,bus,11,0,0,0,0,0,0,1
1389,5285,10293,bus,11,0,0,0,0,0,0,1
1317,5286,9750,bus,11,1,1,1,1,1,0,0
1405,5287,9750,bus,11,1,1,1,1,1,0,0
1028,5288,9413,bus,11,0,0,0,0,0,1,0
1389,5289,9413,bus,11,0,0,0,0,0,1,0
1182,6810,10354,bus,21,1,1,1,1,1,0,0
1407,6811,10354,bus,21,1,1,1,1,1,0,0
1446,6812,10354,bus,21,1,1,1,1,1,0,0
1432,6813,9374,bus,21,0,0,0,0,0,1,0
1417,6814,9375,bus,21,0,0,0,0,0,0,1
1044,7087,9979,bus,22,0,0,0,0,0,0,1
1422,7088,9979,bus,22,0,0,0,0,0,0,1
1449,7089,9979,bus,22,0,0,0,0,0,0,1
1133,7090,10355,bus,22,1,1,1,1,1,0,0
1162,7091,10355,bus,22,1,1,1,1,1,0,0
1425,7092,10355,bus,22,1,1,1,1,1,0,0
1044,7093,9978,bus,22,0,0,0,0,0,1,0
1422,7094,9978,bus,22,0,0,0,0,0,1,0
1449,7095,9978,bus,22,0,0,0,0,0,1,0
1146,7861,10604,bus,27,1,1,1,1,1,0,0
1411,7862,10604,bus,27,1,1,1,1,1,0,0
1441,7863,10604,bus,27,1,1,1,1,1,0,0
1434,7864,10605,bus,27,0,0,0,0,0,1,0
1434,7865,10606,bus,27,0,0,0,0,0,0,1
383,9148,10372,bus,34,0,0,0,0,0,0,1
418,9149,10372,bus,34,0,0,0,0,0,0,1
449,9150,10372,bus,34,0,0,0,0,0,0,1
479,9151,10372,bus,34,0,0,0,0,0,0,1
514,9152,10372,bus,34,0,0,0,0,0,0,1
538,9153,10372,bus,34,0,0,0,0,0,0,1
572,9154,10372,bus,34,0,0,0,0,0,0,1
607,9155,10372,bus,34,0,0,0,0,0,0,1
636,9156,10372,bus,34,0,0,0,0,0,0,1
652,9157,10372,bus,34,0,0,0,0,0,0,1
696,9158,10372,bus,34,0,0,0,0,0,0,1
734,9159,10372,bus,34,0,0,0,0,0,0,1
760,9160,10372,bus,34,0,0,0,0,0,0,1
783,9161,10372,bus,34,0,0,0,0,0,0,1
806,9162,10372,bus,34,0,0,0,0,0,0,1
832,9163,10372,bus,34,0,0,0,0,0,0,1
881,9164,10372,bus,34,0,0,0,0,0,0,1
900,9165,10372,bus,34,0,0,0,0,0,0,1
919,9166,10372,bus,34,0,0,0,0,0,0,1
941,9167,10372,bus,34,0,0,0,0,0,0,1
984,9168,10372,bus,34,0,0,0,0,0,0,1
1001,9169,10372,bus,34,0,0,0,0,0,0,1
1024,9170,10372,bus,34,0,0,0,0,0,0,1
1067,9171,10372,bus,34,0,0,0,0,0,0,1
1109,9172,10372,bus,34,0,0,0,0,0,0,1
1151,9173,10372,bus,34,0,0,0,0,0,0,1
1193,9174,10372,bus,34,0,0,0,0,0,0,1
1234,9175,10372,bus,34,0,0,0,0,0,0,1
1258,9176,10372,bus,34,0,0,0,0,0,0,1
1294,9177,10372,bus,34,0,0,0,0,0,0,1
1330,9178,10372,bus,34,0,0,0,0,0,0,1
1354,9179,10372,bus,34,0,0,0,0,0,0,1
1391,9180,10372,bus,34,0,0,0,0,0,0,1
333,9181,10370,bus,34,1,1,1,1,1,0,0
377,9182,10370,bus,34,1,1,1,1,1,0,0
405,9183,10370,bus,34,1,1,1,1,1,0,0
425,9184,10370,bus,34,1,1,1,1,1,0,0
448,9185,10370,bus,34,1,1,1,1,1,0,0
471,9186,10370,bus,34,1,1,1,1,1,0,0
499,9187,10370,bus,34,1,1,1,1,1,0,0
524,9188,10370,bus,34,1,1,1,1,1,0,0
546,9189,10370,bus,34,1,1,1,1,1,0,0
565,9190,10370,bus,34,1,1,1,1,1,0,0
587,9191,10370,bus,34,1,1,1,1,1,0,0
637,9192,10370,bus,34,1,1,1,1,1,0,0
673,9193,10370,bus,34,1,1,1,1,1,0,0
708,9194,10370,bus,34,1,1,1,1,1,0,0
746,9195,10370,bus,34,1,1,1,1,1,0,0
782,9196,10370,bus,34,1,1,1,1,1,0,0
821,9197,10370,bus,34,1,1,1,1,1,0,0
861,9198,10370,bus,34,1,1,1,1,1,0,0
895,9199,10370,bus,34,1,1,1,1,1,0,0
918,9200,10370,bus,34,1,1,1,1,1,0,0
939,9201,10370,bus,34,1,1,1,1,1,0,0
963,9202,10370,bus,34,1,1,1,1,1,0,0
986,9203,10370,bus,34,1,1,1,1,1,0,0
1011,9204,10370,bus,34,1,1,1,1,1,0,0
1035,9205,10370,bus,34,1,1,1,1,1,0,0
1060,9206,10370,bus,34,1,1,1,1,1,0,0
1084,9207,10370,bus,34,1,1,1,1,1,0,0
1128,9208,10370,bus,34,1,1,1,1,1,0,0
1158,9209,10370,bus,34,1,1,1,1,1,0,0
1204,9210,10370,bus,34,1,1,1,1,1,0,0
1241,9211,10370,bus,34,1,1,1,1,1,0,0
1271,9212,10370,bus,34,1,1,1,1,1,0,0
1311,9213,10370,bus,34,1,1,1,1,1,0,0
1348,9214,10370,bus,34,1,1,1,1,1,0,0
1390,9215,10370,bus,34,1,1,1,1,1,0,0
350,9216,10371,bus,34,0,0,0,0,0,1,0
383,9217,10371,bus,34,0,0,0,0,0,1,0
418,9218,10371,bus,34,0,0,0,0,0,1,0
449,9219,10371,bus,34,0,0,0,0,0,1,0
479,9220,10371,bus,34,0,0,0,0,0,1,0
514,9221,10371,bus,34,0,0,0,0,0,1,0
538,9222,10371,bus,34,0,0,0,0,0,1,0
572,9223,10371,bus,34,0,0,0,0,0,1,0
607,9224,10371,bus,34,0,0,0,0,0,1,0
636,9225,10371,bus,34,0,0,0,0,0,1,0
652,9226,10371,bus,34,0,0,0,0,0,1,0
696,9227,10371,bus,34,0,0,0,0,0,1,0
734,9228,10371,bus,34,0,0,0,0,0,1,0
760,9229,10371,bus,34,0,0,0,0,0,1,0
783,9230,10371,bus,34,0,0,0,0,0,1,0
806,9231,10371,bus,34,0,0,0,0,0,1,0
832,9232,10371,bus,34,0,0,0,0,0,1,0
881,9233,10371,bus,34,0,0,0,0,0,1,0
900,9234,10371,bus,34,0,0,0,0,0,1,0
919,9235,10371,bus,34,0,0,0,0,0,1,0
941,9236,10371,bus,34,0,0,0,0,0,1,0
984,9237,10371,bus,34,0,0,0,0,0,1,0
1001,9238,10371,bus,34,0,0,0,0,0,1,0
1024,9239,10371,bus,34,0,0,0,0,0,1,0
1067,9240,10371,bus,34,0,0,0,0,0,1,0
1109,9241,10371,bus,34,0,0,0,0,0,1,0
1151,9242,10371,bus,34,0,0,0,0,0,1,0
1193,9243,10371,bus,34,0,0,0,0,0,1,0
1234,9244,10371,bus,34,0,0,0,0,0,1,0
1258,9245,10371,bus,34,0,0,0,0,0,1,0
1294,9246,10371,bus,34,0,0,0,0,0,1,0
1330,9247,10371,bus,34,0,0,0,0,0,1,0
1354,9248,10371,bus,34,0,0,0,0,0,1,0
1391,9249,10371,bus,34,0,0,0,0,0,1,0
1138,9352,10370,bus,34,1,1,1,1,1,0,0
1186,9353,10370,bus,34,1,1,1,1,1,0,0
1410,9354,10370,bus,34,1,1,1,1,1,0,0
1094,9355,10372,bus,34,0,0,0,0,0,0,1
1433,9356,10372,bus,34,0,0,0,0,0,0,1
1094,9357,10371,bus,34,0,0,0,0,0,1,0
1433,9358,10371,bus,34,0,0,0,0,0,1,0
732,9378,10609,bus,35,1,1,1,1,1,0,0
767,9379,10609,bus,35,1,1,1,1,1,0,0
823,9380,10609,bus,35,1,1,1,1,1,0,0
855,9381,10609,bus,35,1,1,1,1,1,0,0
878,9382,10609,bus,35,1,1,1,1,1,0,0
915,9383,10609,bus,35,1,1,1,1,1,0,0
945,9384,10609,bus,35,1,1,1,1,1,0,0
974,9385,10609,bus,35,1,1,1,1,1,0,0
1004,9386,10609,bus,35,1,1,1,1,1,0,0
1038,9387,10609,bus,35,1,1,1,1,1,0,0
1063,9388,10609,bus,35,1,1,1,1,1,0,0
1098,9389,10609,bus,35,1,1,1,1,1,0,0
1163,9390,10609,bus,35,1,1,1,1,1,0,0
1219,9391,10609,bus,35,1,1,1,1,1,0,0
1249,9392,10609,bus,35,1,1,1,1,1,0,0
1297,9393,10609,bus,35,1,1,1,1,1,0,0
1337,9394,10609,bus,35,1,1,1,1,1,0,0
1075,9395,10610,bus,35,0,0,0,0,0,0,1
1121,9396,10610,bus,35,0,0,0,0,0,0,1
1174,9397,10610,bus,35,0,0,0,0,0,0,1
1219,9398,10610,bus,35,0,0,0,0,0,0,1
1278,9399,10610,bus,35,0,0,0,0,0,0,1
1341,9400,10610,bus,35,0,0,0,0,0,0,1
1075,9401,10588,bus,35,0,0,0,0,0,1,0
1121,9402,10588,bus,35,0,0,0,0,0,1,0
1174,9403,10588,bus,35,0,0,0,0,0,1,0
1219,9404,10588,bus,35,0,0,0,0,0,1,0
1278,9405,10588,bus,35,0,0,0,0,0,1,0
1341,9406,10588,bus,35,0,0,0,0,0,1,0
327,9407,10609,bus,35,1,1,1,1,1,0,0
366,9408,10609,bus,35,1,1,1,1,1,0,0
388,9409,10609,bus,35,1,1,1,1,1,0,0
422,9410,10609,bus,35,1,1,1,1,1,0,0
464,9411,10609,bus,35,1,1,1,1,1,0,0
501,9412,10609,bus,35,1,1,1,1,1,0,0
540,9413,10609,bus,35,1,1,1,1,1,0,0
592,9414,10609,bus,35,1,1,1,1,1,0,0
640,9415,10609,bus,35,1,1,1,1,1,0,0
681,9416,10609,bus,35,1,1,1,1,1,0,0
379,9417,10610,bus,35,0,0,0,0,0,0,1
428,9418,10610,bus,35,0,0,0,0,0,0,1
461,9419,10610,bus,35,0,0,0,0,0,0,1
511,9420,10610,bus,35,0,0,0,0,0,0,1
583,9421,10610,bus,35,0,0,0,0,0,0,1
635,9422,10610,bus,35,0,0,0,0,0,0,1
685,9423,10610,bus,35,0,0,0,0,0,0,1
738,9424,10610,bus,35,0,0,0,0,0,0,1
776,9425,10610,bus,35,0,0,0,0,0,0,1
826,9426,10610,bus,35,0,0,0,0,0,0,1
870,9427,10610,bus,35,0,0,0,0,0,0,1
913,9428,10610,bus,35,0,0,0,0,0,0,1
961,9429,10610,bus,35,0,0,0,0,0,0,1
997,9430,10610,bus,35,0,0,0,0,0,0,1
379,9431,10588,bus,35,0,0,0,0,0,1,0
408,9432,10588,bus,35,0,0,0,0,0,1,0
472,9433,10588,bus,35,0,0,0,0,0,1,0
511,9434,10588,bus,35,0,0,0,0,0,1,0
586,9435,10588,bus,35,0,0,0,0,0,1,0
635,9436,10588,bus,35,0,0,0,0,0,1,0
685,9437,10588,bus,35,0,0,0,0,0,1,0
738,9438,10588,bus,35,0,0,0,0,0,1,0
776,9439,10588,bus,35,0,0,0,0,0,1,0
826,9440,10588,bus,35,0,0,0,0,0,1,0
870,9441,10588,bus,35,0,0,0,0,0,1,0
913,9442,10588,bus,35,0,0,0,0,0,1,0
961,9443,10588,bus,35,0,0,0,0,0,1,0
997,9444,10588,bus,35,0,0,0,0,0,1,0
587,9515,10609,bus,35,1,1,1,1,1,0,0
1149,9516,10609,bus,35,1,1,1,1,1,0,0
1367,9517,10609,bus,35,1,1,1,1,1,0,0
1414,9518,10609,bus,35,1,1,1,1,1,0,0
1364,9519,10610,bus,35,0,0,0,0,0,0,1
1421,9520,10610,bus,35,0,0,0,0,0,0,1
1364,9521,10588,bus,35,0,0,0,0,0,1,0
1421,9522,10588,bus,35,0,0,0,0,0,1,0
338,9530,10611,bus,36,1,1,1,1,1,0,0
374,9531,10611,bus,36,1,1,1,1,1,0,0
400,9532,10611,bus,36,1,1,1,1,1,0,0
441,9533,10611,bus,36,1,1,1,1,1,0,0
481,9534,10611,bus,36,1,1,1,1,1,0,0
527,9535,10611,bus,36,1,1,1,1,1,0,0
571,9536,10611,bus,36,1,1,1,1,1,0,0
624,9537,10611,bus,36,1,1,1,1,1,0,0
676,9538,10611,bus,36,1,1,1,1,1,0,0
726,9539,10611,bus,36,1,1,1,1,1,0,0
780,9540,10611,bus,36,1,1,1,1,1,0,0
828,9541,10611,bus,36,1,1,1,1,1,0,0
884,9542,10611,bus,36,1,1,1,1,1,0,0
908,9543,10611,bus,36,1,1,1,1,1,0,0
933,9544,10611,bus,36,1,1,1,1,1,0,0
982,9545,10611,bus,36,1,1,1,1,1,0,0
1012,9546,10611,bus,36,1,1,1,1,1,0,0
1032,9547,10611,bus,36,1,1,1,1,1,0,0
1086,9548,10611,bus,36,1,1,1,1,1,0,0
1111,9549,10611,bus,36,1,1,1,1,1,0,0
1156,9550,10611,bus,36,1,1,1,1,1,0,0
1210,9551,10611,bus,36,1,1,1,1,1,0,0
1256,9552,10611,bus,36,1,1,1,1,1,0,0
1306,9553,10611,bus,36,1,1,1,1,1,0,0
1352,9554,10611,bus,36,1,1,1,1,1,0,0
320,9555,10181,bus,36,0,0,0,0,0,1,0
359,9556,10181,bus,36,0,0,0,0,0,1,0
428,9557,10181,bus,36,0,0,0,0,0,1,0
461,9558,10181,bus,36,0,0,0,0,0,1,0
529,9559,10181,bus,36,0,0,0,0,0,1,0
566,9560,10181,bus,36,0,0,0,0,0,1,0
656,9561,10181,bus,36,0,0,0,0,0,1,0
699,9562,10181,bus,36,0,0,0,0,0,1,0
758,9563,10181,bus,36,0,0,0,0,0,1,0
801,9564,10181,bus,36,0,0,0,0,0,1,0
862,9565,10181,bus,36,0,0,0,0,0,1,0
904,9566,10181,bus,36,0,0,0,0,0,1,0
972,9567,10181,bus,36,0,0,0,0,0,1,0
1008,9568,10181,bus,36,0,0,0,0,0,1,0
1097,9569,10181,bus,36,0,0,0,0,0,1,0
1132,9570,10181,bus,36,0,0,0,0,0,1,0
1199,9571,10181,bus,36,0,0,0,0,0,1,0
1234,9572,10181,bus,36,0,0,0,0,0,1,0
1297,9573,10181,bus,36,0,0,0,0,0,1,0
1358,9574,10181,bus,36,0,0,0,0,0,1,0
359,9575,10182,bus,36,0,0,0,0,0,0,1
428,9576,10182,bus,36,0,0,0,0,0,0,1
461,9577,10182,bus,36,0,0,0,0,0,0,1
529,9578,10182,bus,36,0,0,0,0,0,0,1
566,9579,10182,bus,36,0,0,0,0,0,0,1
656,9580,10182,bus,36,0,0,0,0,0,0,1
699,9581,10182,bus,36,0,0,0,0,0,0,1
758,9582,10182,bus,36,0,0,0,0,0,0,1
801,9583,10182,bus,36,0,0,0,0,0,0,1
862,9584,10182,bus,36,0,0,0,0,0,0,1
904,9585,10182,bus,36,0,0,0,0,0,0,1
972,9586,10182,bus,36,0,0,0,0,0,0,1
1008,9587,10182,bus,36,0,0,0,0,0,0,1
1097,9588,10182,bus,36,0,0,0,0,0,0,1
1132,9589,10182,bus,36,0,0,0,0,0,0,1
1199,9590,10182,bus,36,0,0,0,0,0,0,1
1234,9591,10182,bus,36,0,0,0,0,0,0,1
1297,9592,10182,bus,36,0,0,0,0,0,0,1
1358,9593,10182,bus,36,0,0,0,0,0,0,1
576,9661,10611,bus,36,1,1,1,1,1,0,0
1204,9662,10611,bus,36,1,1,1,1,1,0,0
1399,9663,10611,bus,36,1,1,1,1,1,0,0
1436,9664,10611,bus,36,1,1,1,1,1,0,0
1393,9665,10181,bus,36,0,0,0,0,0,1,0
1453,9666,10181,bus,36,0,0,0,0,0,1,0
1393,9667,10182,bus,36,0,0,0,0,0,0,1
1453,9668,10182,bus,36,0,0,0,0,0,0,1
1363,9778,8005,bus,37,1,1,1,1,1,0,0
1363,9779,10005,bus,37,0,0,0,0,0,1,0
1363,9780,10006,bus,37,0,0,0,0,0,0,1
367,11704,10387,bus,49,1,1,1,1,1,0,0
385,11705,10387,bus,49,1,1,1,1,1,0,0
403,11706,10387,bus,49,1,1,1,1,1,0,0
423,11707,10387,bus,49,1,1,1,1,1,0,0
443,11708,10387,bus,49,1,1,1,1,1,0,0
463,11709,10387,bus,49,1,1,1,1,1,0,0
484,11710,10387,bus,49,1,1,1,1,1,0,0
502,11711,10387,bus,49,1,1,1,1,1,0,0
525,11712,10387,bus,49,1,1,1,1,1,0,0
545,11713,10387,bus,49,1,1,1,1,1,0,0
566,11714,10387,bus,49,1,1,1,1,1,0,0
590,11715,10387,bus,49,1,1,1,1,1,0,0
623,11716,10387,bus,49,1,1,1,1,1,0,0
646,11717,10387,bus,49,1,1,1,1,1,0,0
679,11718,10387,bus,49,1,1,1,1,1,0,0
729,11719,10387,bus,49,1,1,1,1,1,0,0
761,11720,10387,bus,49,1,1,1,1,1,0,0
790,11721,10387,bus,49,1,1,1,1,1,0,0
820,11722,10387,bus,49,1,1,1,1,1,0,0
846,11723,10387,bus,49,1,1,1,1,1,0,0
883,11724,10387,bus,49,1,1,1,1,1,0,0
914,11725,10387,bus,49,1,1,1,1,1,0,0
941,11726,10387,bus,49,1,1,1,1,1,0,0
964,11727,10387,bus,49,1,1,1,1,1,0,0
988,11728,10387,bus,49,1,1,1,1,1,0,0
1009,11729,10387,bus,49,1,1,1,1,1,0,0
1032,11730,10387,bus,49,1,1,1,1,1,0,0
1056,11731,10387,bus,49,1,1,1,1,1,0,0
1072,11732,10387,bus,49,1,1,1,1,1,0,0
1098,11733,10387,bus,49,1,1,1,1,1,0,0
1127,11734,10387,bus,49,1,1,1,1,1,0,0
1156,11735,10387,bus,49,1,1,1,1,1,0,0
1178,11736,10387,bus,49,1,1,1,1,1,0,0
1195,11737,10387,bus,49,1,1,1,1,1,0,0
1216,11738,10387,bus,49,1,1,1,1,1,0,0
1239,11739,10387,bus,49,1,1,1,1,1,0,0
1271,11740,10387,bus,49,1,1,1,1,1,0,0
1306,11741,10387,bus,49,1,1,1,1,1,0,0
1326,11742,10387,bus,49,1,1,1,1,1,0,0
1354,11743,10387,bus,49,1,1,1,1,1,0,0
1379,11744,10387,bus,49,1,1,1,1,1,0,0
1414,11745,10387,bus,49,1,1,1,1,1,0,0
372,11746,9637,bus,49,0,0,0,0,0,1,0
424,11747,9637,bus,49,0,0,0,0,0,1,0
483,11748,9637,bus,49,0,0,0,0,0,1,0
534,11749,9637,bus,49,0,0,0,0,0,1,0
597,11750,9637,bus,49,0,0,0,0,0,1,0
633,11751,9637,bus,49,0,0,0,0,0,1,0
674,11752,9637,bus,49,0,0,0,0,0,1,0
730,11753,9637,bus,49,0,0,0,0,0,1,0
754,11754,9637,bus,49,0,0,0,0,0,1,0
793,11755,9637,bus,49,0,0,0,0,0,1,0
838,11756,9637,bus,49,0,0,0,0,0,1,0
887,11757,9637,bus,49,0,0,0,0,0,1,0
915,11758,9637,bus,49,0,0,0,0,0,1,0
960,11759,9637,bus,49,0,0,0,0,0,1,0
997,11760,9637,bus,49,0,0,0,0,0,1,0
1029,11761,9637,bus,49,0,0,0,0,0,1,0
1071,11762,9637,bus,49,0,0,0,0,0,1,0
1141,11763,9637,bus,49,0,0,0,0,0,1,0
1208,11764,9637,bus,49,0,0,0,0,0,1,0
1270,11765,9637,bus,49,0,0,0,0,0,1,0
1312,11766,9637,bus,49,0,0,0,0,0,1,0
1372,11767,9637,bus,49,0,0,0,0,0,1,0
413,11768,9638,bus,49,0,0,0,0,0,0,1
483,11769,9638,bus,49,0,0,0,0,0,0,1
534,11770,9638,bus,49,0,0,0,0,0,0,1
597,11771,9638,bus,49,0,0,0,0,0,0,1
633,11772,9638,bus,49,0,0,0,0,0,0,1
674,11773,9638,bus,49,0,0,0,0,0,0,1
730,11774,9638,bus,49,0,0,0,0,0,0,1
754,11775,9638,bus,49,0,0,0,0,0,0,1
793,11776,9638,bus,49,0,0,0,0,0,0,1
838,11777,9638,bus,49,0,0,0,0,0,0,1
887,11778,9638,bus,49,0,0,0,0,0,0,1
915,11779,9638,bus,49,0,0,0,0,0,0,1
960,11780,9638,bus,49,0,0,0,0,0,0,1
997,11781,9638,bus,49,0,0,0,0,0,0,1
1029,11782,9638,bus,49,0,0,0,0,0,0,1
1071,11783,9638,bus,49,0,0,0,0,0,0,1
1141,11784,9638,bus,49,0,0,0,0,0,0,1
1208,11785,9638,bus,49,0,0,0,0,0,0,1
1270,11786,9638,bus,49,0,0,0,0,0,0,1
1312,11787,9638,bus,49,0,0,0,0,0,0,1
1372,11788,9638,bus,49,0,0,0,0,0,0,1
1435,11798,10387,bus,49,1,1,1,1,1,0,0
1409,11799,9637,bus,49,0,0,0,0,0,1,0
1409,11800,9638,bus,49,0,0,0,0,0,0,1
374,11815,10612,bus,50,1,1,1,1,1,0,0
389,11816,10612,bus,50,1,1,1,1,1,0,0
406,11817,10612,bus,50,1,1,1,1,1,0,0
422,11818,10612,bus,50,1,1,1,1,1,0,0
440,11819,10612,bus,50,1,1,1,1,1,0,0
457,11820,10612,bus,50,1,1,1,1,1,0,0
472,11821,10612,bus,50,1,1,1,1,1,0,0
487,11822,10612,bus,50,1,1,1,1,1,0,0
504,11823,10612,bus,50,1,1,1,1,1,0,0
522,11824,10612,bus,50,1,1,1,1,1,0,0
540,11825,10612,bus,50,1,1,1,1,1,0,0
563,11826,10612,bus,50,1,1,1,1,1,0,0
593,11827,10612,bus,50,1,1,1,1,1,0,0
627,11828,10612,bus,50,1,1,1,1,1,0,0
658,11829,10612,bus,50,1,1,1,1,1,0,0
687,11830,10612,bus,50,1,1,1,1,1,0,0
716,11831,10612,bus,50,1,1,1,1,1,0,0
746,11832,10612,bus,50,1,1,1,1,1,0,0
778,11833,10612,bus,50,1,1,1,1,1,0,0
803,11834,10612,bus,50,1,1,1,1,1,0,0
835,11835,10612,bus,50,1,1,1,1,1,0,0
867,11836,10612,bus,50,1,1,1,1,1,0,0
891,11837,10612,bus,50,1,1,1,1,1,0,0
911,11838,10612,bus,50,1,1,1,1,1,0,0
929,11839,10612,bus,50,1,1,1,1,1,0,0
942,11840,10612,bus,50,1,1,1,1,1,0,0
958,11841,10612,bus,50,1,1,1,1,1,0,0
977,11842,10612,bus,50,1,1,1,1,1,0,0
989,11843,10612,bus,50,1,1,1,1,1,0,0
1008,11844,10612,bus,50,1,1,1,1,1,0,0
1024,11845,10612,bus,50,1,1,1,1,1,0,0
1040,11846,10612,bus,50,1,1,1,1,1,0,0
1056,11847,10612,bus,50,1,1,1,1,1,0,0
1073,11848,10612,bus,50,1,1,1,1,1,0,0
1092,11849,10612,bus,50,1,1,1,1,1,0,0
1107,11850,10612,bus,50,1,1,1,1,1,0,0
1132,11851,10612,bus,50,1,1,1,1,1,0,0
1151,11852,10612,bus,50,1,1,1,1,1,0,0
1182,11853,10612,bus,50,1,1,1,1,1,0,0
1210,11854,10612,bus,50,1,1,1,1,1,0,0
1233,11855,10612,bus,50,1,1,1,1,1,0,0
1270,11856,10612,bus,50,1,1,1,1,1,0,0
1296,11857,10612,bus,50,1,1,1,1,1,0,0
1325,11858,10612,bus,50,1,1,1,1,1,0,0
1348,11859,10612,bus,50,1,1,1,1,1,0,0
1377,11860,10612,bus,50,1,1,1,1,1,0,0
1406,11861,10612,bus,50,1,1,1,1,1,0,0
379,11862,10389,bus,50,0,0,0,0,0,1,0
458,11863,10389,bus,50,0,0,0,0,0,1,0
496,11864,10389,bus,50,0,0,0,0,0,1,0
541,11865,10389,bus,50,0,0,0,0,0,1,0
579,11866,10389,bus,50,0,0,0,0,0,1,0
622,11867,10389,bus,50,0,0,0,0,0,1,0
657,11868,10389,bus,50,0,0,0,0,0,1,0
690,11869,10389,bus,50,0,0,0,0,0,1,0
713,11870,10389,bus,50,0,0,0,0,0,1,0
772,11871,10389,bus,50,0,0,0,0,0,1,0
804,11872,10389,bus,50,0,0,0,0,0,1,0
829,11873,10389,bus,50,0,0,0,0,0,1,0
861,11874,10389,bus,50,0,0,0,0,0,1,0
891,11875,10389,bus,50,0,0,0,0,0,1,0
917,11876,10389,bus,50,0,0,0,0,0,1,0
947,11877,10389,bus,50,0,0,0,0,0,1,0
970,11878,10389,bus,50,0,0,0,0,0,1,0
1000,11879,10389,bus,50,0,0,0,0,0,1,0
1029,11880,10389,bus,50,0,0,0,0,0,1,0
1081,11881,10389,bus,50,0,0,0,0,0,1,0
1145,11882,10389,bus,50,0,0,0,0,0,1,0
1224,11883,10389,bus,50,0,0,0,0,0,1,0
1299,11884,10389,bus,50,0,0,0,0,0,1,0
1370,11885,10389,bus,50,0,0,0,0,0,1,0
379,11886,10390,bus,50,0,0,0,0,0,0,1
458,11887,10390,bus,50,0,0,0,0,0,0,1
496,11888,10390,bus,50,0,0,0,0,0,0,1
541,11889,10390,bus,50,0,0,0,0,0,0,1
579,11890,10390,bus,50,0,0,0,0,0,0,1
622,11891,10390,bus,50,0,0,0,0,0,0,1
657,11892,10390,bus,50,0,0,0,0,0,0,1
690,11893,10390,bus,50,0,0,0,0,0,0,1
713,11894,10390,bus,50,0,0,0,0,0,0,1
772,11895,10390,bus,50,0,0,0,0,0,0,1
804,11896,10390,bus,50,0,0,0,0,0,0,1
829,11897,10390,bus,50,0,0,0,0,0,0,1
861,11898,10390,bus,50,0,0,0,0,0,0,1
891,11899,10390,bus,50,0,0,0,0,0,0,1
917,11900,10390,bus,50,0,0,0,0,0,0,1
947,11901,10390,bus,50,0,0,0,0,0,0,1
970,11902,10390,bus,50,0,0,0,0,0,0,1
1000,11903,10390,bus,50,0,0,0,0,0,0,1
1029,11904,10390,bus,50,0,0,0,0,0,0,1
1081,11905,10390,bus,50,0,0,0,0,0,0,1
1145,11906,10390,bus,50,0,0,0,0,0,0,1
1224,11907,10390,bus,50,0,0,0,0,0,0,1
1299,11908,10390,bus,50,0,0,0,0,0,0,1
1370,11909,10390,bus,50,0,0,0,0,0,0,1
1365,12219,10294,bus,52,0,0,0,0,0,0,1
1366,12220,9642,bus,52,1,1,1,1,1,0,0
1386,12221,9642,bus,52,1,1,1,1,1,0,0
1431,12222,9642,bus,52,1,1,1,1,1,0,0
1365,12223,9643,bus,52,0,0,0,0,0,1,0
386,12507,10394,bus,53,0,0,0,0,0,0,1
402,12508,10394,bus,53,0,0,0,0,0,0,1
416,12509,10394,bus,53,0,0,0,0,0,0,1
431,12510,10394,bus,53,0,0,0,0,0,0,1
446,12511,10394,bus,53,0,0,0,0,0,0,1
461,12512,10394,bus,53,0,0,0,0,0,0,1
477,12513,10394,bus,53,0,0,0,0,0,0,1
493,12514,10394,bus,53,0,0,0,0,0,0,1
508,12515,10394,bus,53,0,0,0,0,0,0,1
524,12516,10394,bus,53,0,0,0,0,0,0,1
539,12517,10394,bus,53,0,0,0,0,0,0,1
553,12518,10394,bus,53,0,0,0,0,0,0,1
569,12519,10394,bus,53,0,0,0,0,0,0,1
586,12520,10394,bus,53,0,0,0,0,0,0,1
597,12521,10394,bus,53,0,0,0,0,0,0,1
610,12522,10394,bus,53,0,0,0,0,0,0,1
621,12523,10394,bus,53,0,0,0,0,0,0,1
628,12524,10394,bus,53,0,0,0,0,0,0,1
637,12525,10394,bus,53,0,0,0,0,0,0,1
649,12526,10394,bus,53,0,0,0,0,0,0,1
659,12527,10394,bus,53,0,0,0,0,0,0,1
671,12528,10394,bus,53,0,0,0,0,0,0,1
683,12529,10394,bus,53,0,0,0,0,0,0,1
692,12530,10394,bus,53,0,0,0,0,0,0,1
701,12531,10394,bus,53,0,0,0,0,0,0,1
711,12532,10394,bus,53,0,0,0,0,0,0,1
721,12533,10394,bus,53,0,0,0,0,0,0,1
732,12534,10394,bus,53,0,0,0,0,0,0,1
744,12535,10394,bus,53,0,0,0,0,0,0,1
754,12536,10394,bus,53,0,0,0,0,0,0,1
766,12537,10394,bus,53,0,0,0,0,0,0,1
779,12538,10394,bus,53,0,0,0,0,0,0,1
794,12539,10394,bus,53,0,0,0,0,0,0,1
804,12540,10394,bus,53,0,0,0,0,0,0,1
814,12541,10394,bus,53,0,0,0,0,0,0,1
823,12542,10394,bus,53,0,0,0,0,0,0,1
831,12543,10394,bus,53,0,0,0,0,0,0,1
842,12544,10394,bus,53,0,0,0,0,0,0,1
851,12545,10394,bus,53,0,0,0,0,0,0,1
859,12546,10394,bus,53,0,0,0,0,0,0,1
870,12547,10394,bus,53,0,0,0,0,0,0,1
880,12548,10394,bus,53,0,0,0,0,0,0,1
894,12549,10394,bus,53,0,0,0,0,0,0,1
904,12550,10394,bus,53,0,0,0,0,0,0,1
912,12551,10394,bus,53,0,0,0,0,0,0,1
923,12552,10394,bus,53,0,0,0,0,0,0,1
933,12553,10394,bus,53,0,0,0,0,0,0,1
943,12554,10394,bus,53,0,0,0,0,0,0,1
953,12555,10394,bus,53,0,0,0,0,0,0,1
961,12556,10394,bus,53,0,0,0,0,0,0,1
971,12557,10394,bus,53,0,0,0,0,0,0,1
982,12558,10394,bus,53,0,0,0,0,0,0,1
993,12559,10394,bus,53,0,0,0,0,0,0,1
1007,12560,10394,bus,53,0,0,0,0,0,0,1
1019,12561,10394,bus,53,0,0,0,0,0,0,1
1029,12562,10394,bus,53,0,0,0,0,0,0,1
1039,12563,10394,bus,53,0,0,0,0,0,0,1
1049,12564,10394,bus,53,0,0,0,0,0,0,1
1062,12565,10394,bus,53,0,0,0,0,0,0,1
1073,12566,10394,bus,53,0,0,0,0,0,0,1
1087,12567,10394,bus,53,0,0,0,0,0,0,1
1103,12568,10394,bus,53,0,0,0,0,0,0,1
1120,12569,10394,bus,53,0,0,0,0,0,0,1
1137,12570,10394,bus,53,0,0,0,0,0,0,1
1157,12571,10394,bus,53,0,0,0,0,0,0,1
1172,12572,10394,bus,53,0,0,0,0,0,0,1
1196,12573,10394,bus,53,0,0,0,0,0,0,1
1218,12574,10394,bus,53,0,0,0,0,0,0,1
1234,12575,10394,bus,53,0,0,0,0,0,0,1
1254,12576,10394,bus,53,0,0,0,0,0,0,1
1270,12577,10394,bus,53,0,0,0,0,0,0,1
1285,12578,10394,bus,53,0,0,0,0,0,0,1
1298,12579,10394,bus,53,0,0,0,0,0,0,1
1312,12580,10394,bus,53,0,0,0,0,0,0,1
1328,12581,10394,bus,53,0,0,0,0,0,0,1
1346,12582,10394,bus,53,0,0,0,0,0,0,1
1364,12583,10394,bus,53,0,0,0,0,0,0,1
1384,12584,10394,bus,53,0,0,0,0,0,0,1
1405,12585,10394,bus,53,0,0,0,0,0,0,1
346,12586,10392,bus,53,1,1,1,1,1,0,0
364,12587,10392,bus,53,1,1,1,1,1,0,0
378,12588,10392,bus,53,1,1,1,1,1,0,0
388,12589,10392,bus,53,1,1,1,1,1,0,0
399,12590,10392,bus,53,1,1,1,1,1,0,0
407,12591,10392,bus,53,1,1,1,1,1,0,0
415,12592,10392,bus,53,1,1,1,1,1,0,0
428,12593,10392,bus,53,1,1,1,1,1,0,0
435,12594,10392,bus,53,1,1,1,1,1,0,0
444,12595,10392,bus,53,1,1,1,1,1,0,0
453,12596,10392,bus,53,1,1,1,1,1,0,0
545,12597,10392,bus,53,1,1,1,1,1,0,0
551,12598,10392,bus,53,1,1,1,1,1,0,0
557,12599,10392,bus,53,1,1,1,1,1,0,0
564,12600,10392,bus,53,1,1,1,1,1,0,0
571,12601,10392,bus,53,1,1,1,1,1,0,0
577,12602,10392,bus,53,1,1,1,1,1,0,0
585,12603,10392,bus,53,1,1,1,1,1,0,0
593,12604,10392,bus,53,1,1,1,1,1,0,0
601,12605,10392,bus,53,1,1,1,1,1,0,0
609,12606,10392,bus,53,1,1,1,1,1,0,0
615,12607,10392,bus,53,1,1,1,1,1,0,0
623,12608,10392,bus,53,1,1,1,1,1,0,0
634,12609,10392,bus,53,1,1,1,1,1,0,0
644,12610,10392,bus,53,1,1,1,1,1,0,0
656,12611,10392,bus,53,1,1,1,1,1,0,0
666,12612,10392,bus,53,1,1,1,1,1,0,0
676,12613,10392,bus,53,1,1,1,1,1,0,0
685,12614,10392,bus,53,1,1,1,1,1,0,0
695,12615,10392,bus,53,1,1,1,1,1,0,0
706,12616,10392,bus,53,1,1,1,1,1,0,0
719,12617,10392,bus,53,1,1,1,1,1,0,0
731,12618,10392,bus,53,1,1,1,1,1,0,0
742,12619,10392,bus,53,1,1,1,1,1,0,0
750,12620,10392,bus,53,1,1,1,1,1,0,0
758,12621,10392,bus,53,1,1,1,1,1,0,0
766,12622,10392,bus,53,1,1,1,1,1,0,0
776,12623,10392,bus,53,1,1,1,1,1,0,0
786,12624,10392,bus,53,1,1,1,1,1,0,0
796,12625,10392,bus,53,1,1,1,1,1,0,0
806,12626,10392,bus,53,1,1,1,1,1,0,0
817,12627,10392,bus,53,1,1,1,1,1,0,0
828,12628,10392,bus,53,1,1,1,1,1,0,0
840,12629,10392,bus,53,1,1,1,1,1,0,0
850,12630,10392,bus,53,1,1,1,1,1,0,0
859,12631,10392,bus,53,1,1,1,1,1,0,0
869,12632,10392,bus,53,1,1,1,1,1,0,0
878,12633,10392,bus,53,1,1,1,1,1,0,0
891,12634,10392,bus,53,1,1,1,1,1,0,0
901,12635,10392,bus,53,1,1,1,1,1,0,0
910,12636,10392,bus,53,1,1,1,1,1,0,0
917,12637,10392,bus,53,1,1,1,1,1,0,0
926,12638,10392,bus,53,1,1,1,1,1,0,0
938,12639,10392,bus,53,1,1,1,1,1,0,0
948,12640,10392,bus,53,1,1,1,1,1,0,0
957,12641,10392,bus,53,1,1,1,1,1,0,0
966,12642,10392,bus,53,1,1,1,1,1,0,0
974,12643,10392,bus,53,1,1,1,1,1,0,0
985,12644,10392,bus,53,1,1,1,1,1,0,0
995,12645,10392,bus,53,1,1,1,1,1,0,0
1131,12646,10392,bus,53,1,1,1,1,1,0,0
1139,12647,10392,bus,53,1,1,1,1,1,0,0
1147,12648,10392,bus,53,1,1,1,1,1,0,0
1158,12649,10392,bus,53,1,1,1,1,1,0,0
1165,12650,10392,bus,53,1,1,1,1,1,0,0
1172,12651,10392,bus,53,1,1,1,1,1,0,0
1180,12652,10392,bus,53,1,1,1,1,1,0,0
1189,12653,10392,bus,53,1,1,1,1,1,0,0
1199,12654,10392,bus,53,1,1,1,1,1,0,0
1212,12655,10392,bus,53,1,1,1,1,1,0,0
1224,12656,10392,bus,53,1,1,1,1,1,0,0
1234,12657,10392,bus,53,1,1,1,1,1,0,0
1245,12658,10392,bus,53,1,1,1,1,1,0,0
1254,12659,10392,bus,53,1,1,1,1,1,0,0
1263,12660,10392,bus,53,1,1,1,1,1,0,0
1271,12661,10392,bus,53,1,1,1,1,1,0,0
1278,12662,10392,bus,53,1,1,1,1,1,0,0
1286,12663,10392,bus,53,1,1,1,1,1,0,0
1295,12664,10392,bus,53,1,1,1,1,1,0,0
1306,12665,10392,bus,53,1,1,1,1,1,0,0
1317,12666,10392,bus,53,1,1,1,1,1,0,0
1328,12667,10392,bus,53,1,1,1,1,1,0,0
1338,12668,10392,bus,53,1,1,1,1,1,0,0
1347,12669,10392,bus,53,1,1,1,1,1,0,0
1363,12670,10392,bus,53,1,1,1,1,1,0,0
1372,12671,10392,bus,53,1,1,1,1,1,0,0
1382,12672,10392,bus,53,1,1,1,1,1,0,0
1395,12673,10392,bus,53,1,1,1,1,1,0,0
1408,12674,10392,bus,53,1,1,1,1,1,0,0
1419,12675,10392,bus,53,1,1,1,1,1,0,0
351,12676,10393,bus,53,0,0,0,0,0,1,0
372,12677,10393,bus,53,0,0,0,0,0,1,0
386,12678,10393,bus,53,0,0,0,0,0,1,0
402,12679,10393,bus,53,0,0,0,0,0,1,0
416,12680,10393,bus,53,0,0,0,0,0,1,0
431,12681,10393,bus,53,0,0,0,0,0,1,0
446,12682,10393,bus,53,0,0,0,0,0,1,0
461,12683,10393,bus,53,0,0,0,0,0,1,0
477,12684,10393,bus,53,0,0,0,0,0,1,0
493,12685,10393,bus,53,0,0,0,0,0,1,0
508,12686,10393,bus,53,0,0,0,0,0,1,0
524,12687,10393,bus,53,0,0,0,0,0,1,0
539,12688,10393,bus,53,0,0,0,0,0,1,0
553,12689,10393,bus,53,0,0,0,0,0,1,0
569,12690,10393,bus,53,0,0,0,0,0,1,0
586,12691,10393,bus,53,0,0,0,0,0,1,0
597,12692,10393,bus,53,0,0,0,0,0,1,0
610,12693,10393,bus,53,0,0,0,0,0,1,0
621,12694,10393,bus,53,0,0,0,0,0,1,0
628,12695,10393,bus,53,0,0,0,0,0,1,0
637,12696,10393,bus,53,0,0,0,0,0,1,0
649,12697,10393,bus,53,0,0,0,0,0,1,0
659,12698,10393,bus,53,0,0,0,0,0,1,0
671,12699,10393,bus,53,0,0,0,0,0,1,0
683,12700,10393,bus,53,0,0,0,0,0,1,0
692,12701,10393,bus,53,0,0,0,0,0,1,0
701,12702,10393,bus,53,0,0,0,0,0,1,0
711,12703,10393,bus,53,0,0,0,0,0,1,0
721,12704,10393,bus,53,0,0,0,0,0,1,0
732,12705,10393,bus,53,0,0,0,0,0,1,0
744,12706,10393,bus,53,0,0,0,0,0,1,0
754,12707,10393,bus,53,0,0,0,0,0,1,0
766,12708,10393,bus,53,0,0,0,0,0,1,0
779,12709,10393,bus,53,0,0,0,0,0,1,0
794,12710,10393,bus,53,0,0,0,0,0,1,0
804,12711,10393,bus,53,0,0,0,0,0,1,0
814,12712,10393,bus,53,0,0,0,0,0,1,0
823,12713,10393,bus,53,0,0,0,0,0,1,0
831,12714,10393,bus,53,0,0,0,0,0,1,0
842,12715,10393,bus,53,0,0,0,0,0,1,0
851,12716,10393,bus,53,0,0,0,0,0,1,0
859,12717,10393,bus,53,0,0,0,0,0,1,0
870,12718,10393,bus,53,0,0,0,0,0,1,0
880,12719,10393,bus,53,0,0,0,0,0,1,0
894,12720,10393,bus,53,0,0,0,0,0,1,0
904,12721,10393,bus,53,0,0,0,0,0,1,0
912,12722,10393,bus,53,0,0,0,0,0,1,0
923,12723,10393,bus,53,0,0,0,0,0,1,0
933,12724,10393,bus,53,0,0,0,0,0,1,0
943,12725,10393,bus,53,0,0,0,0,0,1,0
953,12726,10393,bus,53,0,0,0,0,0,1,0
961,12727,10393,bus,53,0,0,0,0,0,1,0
971,12728,10393,bus,53,0,0,0,0,0,1,0
982,12729,10393,bus,53,0,0,0,0,0,1,0
993,12730,10393,bus,53,0,0,0,0,0,1,0
1007,12731,10393,bus,53,0,0,0,0,0,1,0
1019,12732,10393,bus,53,0,0,0,0,0,1,0
1029,12733,10393,bus,53,0,0,0,0,0,1,0
1039,12734,10393,bus,53,0,0,0,0,0,1,0
1049,12735,10393,bus,53,0,0,0,0,0,1,0
1062,12736,10393,bus,53,0,0,0,0,0,1,0
1073,12737,10393,bus,53,0,0,0,0,0,1,0
1087,12738,10393,bus,53,0,0,0,0,0,1,0
1103,12739,10393,bus,53,0,0,0,0,0,1,0
1120,12740,10393,bus,53,0,0,0,0,0,1,0
1137,12741,10393,bus,53,0,0,0,0,0,1,0
1157,12742,10393,bus,53,0,0,0,0,0,1,0
1172,12743,10393,bus,53,0,0,0,0,0,1,0
1196,12744,10393,bus,53,0,0,0,0,0,1,0
1218,12745,10393,bus,53,0,0,0,0,0,1,0
1234,12746,10393,bus,53,0,0,0,0,0,1,0
1254,12747,10393,bus,53,0,0,0,0,0,1,0
1270,12748,10393,bus,53,0,0,0,0,0,1,0
1285,12749,10393,bus,53,0,0,0,0,0,1,0
1298,12750,10393,bus,53,0,0,0,0,0,1,0
1312,12751,10393,bus,53,0,0,0,0,0,1,0
1328,12752,10393,bus,53,0,0,0,0,0,1,0
1346,12753,10393,bus,53,0,0,0,0,0,1,0
1364,12754,10393,bus,53,0,0,0,0,0,1,0
1384,12755,10393,bus,53,0,0,0,0,0,1,0
1405,12756,10393,bus,53,0,0,0,0,0,1,0
460,12757,10392,bus,53,1,1,1,1,1,0,0
469,12758,10392,bus,53,1,1,1,1,1,0,0
477,12759,10392,bus,53,1,1,1,1,1,0,0
487,12760,10392,bus,53,1,1,1,1,1,0,0
494,12761,10392,bus,53,1,1,1,1,1,0,0
504,12762,10392,bus,53,1,1,1,1,1,0,0
510,12763,10392,bus,53,1,1,1,1,1,0,0
517,12764,10392,bus,53,1,1,1,1,1,0,0
524,12765,10392,bus,53,1,1,1,1,1,0,0
531,12766,10392,bus,53,1,1,1,1,1,0,0
539,12767,10392,bus,53,1,1,1,1,1,0,0
1005,12768,10392,bus,53,1,1,1,1,1,0,0
1014,12769,10392,bus,53,1,1,1,1,1,0,0
1022,12770,10392,bus,53,1,1,1,1,1,0,0
1033,12771,10392,bus,53,1,1,1,1,1,0,0
1040,12772,10392,bus,53,1,1,1,1,1,0,0
1046,12773,10392,bus,53,1,1,1,1,1,0,0
1052,12774,10392,bus,53,1,1,1,1,1,0,0
1061,12775,10392,bus,53,1,1,1,1,1,0,0
1068,12776,10392,bus,53,1,1,1,1,1,0,0
1077,12777,10392,bus,53,1,1,1,1,1,0,0
1086,12778,10392,bus,53,1,1,1,1,1,0,0
1095,12779,10392,bus,53,1,1,1,1,1,0,0
1103,12780,10392,bus,53,1,1,1,1,1,0,0
1113,12781,10392,bus,53,1,1,1,1,1,0,0
1123,12782,10392,bus,53,1,1,1,1,1,0,0
1349,12808,10392,bus,53,1,1,1,1,1,0,0
1394,12809,10392,bus,53,1,1,1,1,1,0,0
1418,12810,10392,bus,53,1,1,1,1,1,0,0
1427,12811,10392,bus,53,1,1,1,1,1,0,0
1375,12812,10394,bus,53,0,0,0,0,0,0,1
1404,12813,10394,bus,53,0,0,0,0,0,0,1
1425,12814,10394,bus,53,0,0,0,0,0,0,1
1375,12815,10393,bus,53,0,0,0,0,0,1,0
1404,12816,10393,bus,53,0,0,0,0,0,1,0
1425,12817,10393,bus,53,0,0,0,0,0,1,0
1298,13935,10397,bus,63,1,1,1,1,1,0,0
1228,13936,10398,bus,63,0,0,0,0,0,1,1
350,13971,10615,bus,66,1,1,1,1,1,0,0
392,13972,10615,bus,66,1,1,1,1,1,0,0
416,13973,10615,bus,66,1,1,1,1,1,0,0
450,13974,10615,bus,66,1,1,1,1,1,0,0
491,13975,10615,bus,66,1,1,1,1,1,0,0
518,13976,10615,bus,66,1,1,1,1,1,0,0
550,13977,10615,bus,66,1,1,1,1,1,0,0
612,13978,10615,bus,66,1,1,1,1,1,0,0
654,13979,10615,bus,66,1,1,1,1,1,0,0
706,13980,10615,bus,66,1,1,1,1,1,0,0
759,13981,10615,bus,66,1,1,1,1,1,0,0
800,13982,10615,bus,66,1,1,1,1,1,0,0
857,13983,10615,bus,66,1,1,1,1,1,0,0
897,13984,10615,bus,66,1,1,1,1,1,0,0
951,13985,10615,bus,66,1,1,1,1,1,0,0
969,13986,10615,bus,66,1,1,1,1,1,0,0
1000,13987,10615,bus,66,1,1,1,1,1,0,0
1050,13988,10615,bus,66,1,1,1,1,1,0,0
1076,13989,10615,bus,66,1,1,1,1,1,0,0
1128,13990,10615,bus,66,1,1,1,1,1,0,0
1177,13991,10615,bus,66,1,1,1,1,1,0,0
1229,13992,10615,bus,66,1,1,1,1,1,0,0
1273,13993,10615,bus,66,1,1,1,1,1,0,0
1322,13994,10615,bus,66,1,1,1,1,1,0,0
395,13995,10401,bus,66,0,0,0,0,0,1,0
494,13996,10401,bus,66,0,0,0,0,0,1,0
554,13997,10401,bus,66,0,0,0,0,0,1,0
617,13998,10401,bus,66,0,0,0,0,0,1,0
649,13999,10401,bus,66,0,0,0,0,0,1,0
716,14000,10401,bus,66,0,0,0,0,0,1,0
770,14001,10401,bus,66,0,0,0,0,0,1,0
819,14002,10401,bus,66,0,0,0,0,0,1,0
879,14003,10401,bus,66,0,0,0,0,0,1,0
922,14004,10401,bus,66,0,0,0,0,0,1,0
982,14005,10401,bus,66,0,0,0,0,0,1,0
1043,14006,10401,bus,66,0,0,0,0,0,1,0
1166,14007,10401,bus,66,0,0,0,0,0,1,0
1260,14008,10401,bus,66,0,0,0,0,0,1,0
1354,14009,10401,bus,66,0,0,0,0,0,1,0
395,14010,10402,bus,66,0,0,0,0,0,0,1
494,14011,10402,bus,66,0,0,0,0,0,0,1
554,14012,10402,bus,66,0,0,0,0,0,0,1
617,14013,10402,bus,66,0,0,0,0,0,0,1
649,14014,10402,bus,66,0,0,0,0,0,0,1
716,14015,10402,bus,66,0,0,0,0,0,0,1
770,14016,10402,bus,66,0,0,0,0,0,0,1
819,14017,10402,bus,66,0,0,0,0,0,0,1
879,14018,10402,bus,66,0,0,0,0,0,0,1
922,14019,10402,bus,66,0,0,0,0,0,0,1
982,14020,10402,bus,66,0,0,0,0,0,0,1
1043,14021,10402,bus,66,0,0,0,0,0,0,1
1166,14022,10402,bus,66,0,0,0,0,0,0,1
1260,14023,10402,bus,66,0,0,0,0,0,0,1
1354,14024,10402,bus,66,0,0,0,0,0,0,1
640,14082,10615,bus,66,1,1,1,1,1,0,0
1171,14083,10615,bus,66,1,1,1,1,1,0,0
1361,14084,10615,bus,66,1,1,1,1,1,0,0
1410,14085,10615,bus,66,1,1,1,1,1,0,0
1078,14086,10401,bus,66,0,0,0,0,0,1,0
1444,14087,10401,bus,66,0,0,0,0,0,1,0
1078,14088,10402,bus,66,0,0,0,0,0,0,1
1444,14089,10402,bus,66,0,0,0,0,0,0,1
396,14395,10403,bus,69,1,1,1,1,1,0,0
432,14396,10403,bus,69,1,1,1,1,1,0,0
451,14397,10403,bus,69,1,1,1,1,1,0,0
473,14398,10403,bus,69,1,1,1,1,1,0,0
511,14399,10403,bus,69,1,1,1,1,1,0,0
554,14400,10403,bus,69,1,1,1,1,1,0,0
577,14401,10403,bus,69,1,1,1,1,1,0,0
605,14402,10403,bus,69,1,1,1,1,1,0,0
655,14403,10403,bus,69,1,1,1,1,1,0,0
695,14404,10403,bus,69,1,1,1,1,1,0,0
716,14405,10403,bus,69,1,1,1,1,1,0,0
772,14406,10403,bus,69,1,1,1,1,1,0,0
830,14407,10403,bus,69,1,1,1,1,1,0,0
858,14408,10403,bus,69,1,1,1,1,1,0,0
895,14409,10403,bus,69,1,1,1,1,1,0,0
952,14410,10403,bus,69,1,1,1,1,1,0,0
978,14411,10403,bus,69,1,1,1,1,1,0,0
1019,14412,10403,bus,69,1,1,1,1,1,0,0
1043,14413,10403,bus,69,1,1,1,1,1,0,0
1081,14414,10403,bus,69,1,1,1,1,1,0,0
1115,14415,10403,bus,69,1,1,1,1,1,0,0
1143,14416,10403,bus,69,1,1,1,1,1,0,0
1165,14417,10403,bus,69,1,1,1,1,1,0,0
1225,14418,10403,bus,69,1,1,1,1,1,0,0
1250,14419,10403,bus,69,1,1,1,1,1,0,0
1287,14420,10403,bus,69,1,1,1,1,1,0,0
1335,14421,10403,bus,69,1,1,1,1,1,0,0
1363,14422,10403,bus,69,1,1,1,1,1,0,0
1394,14423,10403,bus,69,1,1,1,1,1,0,0
406,14424,9660,bus,69,0,0,0,0,0,1,0
512,14425,9660,bus,69,0,0,0,0,0,1,0
642,14426,9660,bus,69,0,0,0,0,0,1,0
699,14427,9660,bus,69,0,0,0,0,0,1,0
771,14428,9660,bus,69,0,0,0,0,0,1,0
810,14429,9660,bus,69,0,0,0,0,0,1,0
874,14430,9660,bus,69,0,0,0,0,0,1,0
941,14431,9660,bus,69,0,0,0,0,0,1,0
985,14432,9660,bus,69,0,0,0,0,0,1,0
1047,14433,9660,bus,69,0,0,0,0,0,1,0
1091,14434,9660,bus,69,0,0,0,0,0,1,0
1178,14435,9660,bus,69,0,0,0,0,0,1,0
1224,14436,9660,bus,69,0,0,0,0,0,1,0
1326,14437,9660,bus,69,0,0,0,0,0,1,0
1428,14438,9660,bus,69,0,0,0,0,0,1,0
512,14439,9661,bus,69,0,0,0,0,0,0,1
642,14440,9661,bus,69,0,0,0,0,0,0,1
699,14441,9661,bus,69,0,0,0,0,0,0,1
771,14442,9661,bus,69,0,0,0,0,0,0,1
810,14443,9661,bus,69,0,0,0,0,0,0,1
874,14444,9661,bus,69,0,0,0,0,0,0,1
941,14445,9661,bus,69,0,0,0,0,0,0,1
985,14446,9661,bus,69,0,0,0,0,0,0,1
1047,14447,9661,bus,69,0,0,0,0,0,0,1
1091,14448,9661,bus,69,0,0,0,0,0,0,1
1178,14449,9661,bus,69,0,0,0,0,0,0,1
1224,14450,9661,bus,69,0,0,0,0,0,0,1
1326,14451,9661,bus,69,0,0,0,0,0,0,1
1428,14452,9661,bus,69,0,0,0,0,0,0,1
641,15874,9847,bus,88,0,0,0,0,0,0,1
679,15875,9847,bus,88,0,0,0,0,0,0,1
1152,15876,9847,bus,88,0,0,0,0,0,0,1
1192,15877,9847,bus,88,0,0,0,0,0,0,1
567,15878,10244,bus,88,1,1,1,1,1,0,0
596,15879,10244,bus,88,1,1,1,1,1,0,0
621,15880,10244,bus,88,1,1,1,1,1,0,0
1166,15881,10244,bus,88,1,1,1,1,1,0,0
1190,15882,10244,bus,88,1,1,1,1,1,0,0
1221,15883,10244,bus,88,1,1,1,1,1,0,0
594,15884,9846,bus,88,0,0,0,0,0,1,0
639,15885,9846,bus,88,0,0,0,0,0,1,0
1199,15886,9846,bus,88,0,0,0,0,0,1,0
1227,15887,9846,bus,88,0,0,0,0,0,1,0
1470,16360,9971,nightbus,103N,0,0,0,0,1,1,0
1499,16361,9971,nightbus,103N,0,0,0,0,1,1,0
1533,16362,9971,nightbus,103N,0,0,0,0,1,1,0
1580,16363,9971,nightbus,103N,0,0,0,0,1,1,0
1609,16364,9971,nightbus,103N,0,0,0,0,1,1,0
1639,16367,9971,nightbus,103N,0,0,0,0,1,1,0
416,18688,10448,trol,6,0,0,0,0,0,0,1
443,18689,10448,trol,6,0,0,0,0,0,0,1
469,18690,10448,trol,6,0,0,0,0,0,0,1
494,18691,10448,trol,6,0,0,0,0,0,0,1
508,18692,10448,trol,6,0,0,0,0,0,0,1
527,18693,10448,trol,6,0,0,0,0,0,0,1
546,18694,10448,trol,6,0,0,0,0,0,0,1
564,18695,10448,trol,6,0,0,0,0,0,0,1
581,18696,10448,trol,6,0,0,0,0,0,0,1
599,18697,10448,trol,6,0,0,0,0,0,0,1
617,18698,10448,trol,6,0,0,0,0,0,0,1
634,18699,10448,trol,6,0,0,0,0,0,0,1
648,18700,10448,trol,6,0,0,0,0,0,0,1
663,18701,10448,trol,6,0,0,0,0,0,0,1
674,18702,10448,trol,6,0,0,0,0,0,0,1
689,18703,10448,trol,6,0,0,0,0,0,0,1
705,18704,10448,trol,6,0,0,0,0,0,0,1
719,18705,10448,trol,6,0,0,0,0,0,0,1
732,18706,10448,trol,6,0,0,0,0,0,0,1
744,18707,10448,trol,6,0,0,0,0,0,0,1
757,18708,10448,trol,6,0,0,0,0,0,0,1
771,18709,10448,trol,6,0,0,0,0,0,0,1
781,18710,10448,trol,6,0,0,0,0,0,0,1
795,18711,10448,trol,6,0,0,0,0,0,0,1
809,18712,10448,trol,6,0,0,0,0,0,0,1
822,18713,10448,trol,6,0,0,0,0,0,0,1
838,18714,10448,trol,6,0,0,0,0,0,0,1
852,18715,10448,trol,6,0,0,0,0,0,0,1
867,18716,10448,trol,6,0,0,0,0,0,0,1
882,18717,10448,trol,6,0,0,0,0,0,0,1
896,18718,10448,trol,6,0,0,0,0,0,0,1
907,18719,10448,trol,6,0,0,0,0,0,0,1
918,18720,10448,trol,6,0,0,0,0,0,0,1
928,18721,10448,trol,6,0,0,0,0,0,0,1
943,18722,10448,trol,6,0,0,0,0,0,0,1
955,18723,10448,trol,6,0,0,0,0,0,0,1
969,18724,10448,trol,6,0,0,0,0,0,0,1
985,18725,10448,trol,6,0,0,0,0,0,0,1
995,18726,10448,trol,6,0,0,0,0,0,0,1
1007,18727,10448,trol,6,0,0,0,0,0,0,1
1018,18728,10448,trol,6,0,0,0,0,0,0,1
1032,18729,10448,trol,6,0,0,0,0,0,0,1
1040,18730,10448,trol,6,0,0,0,0,0,0,1
1051,18731,10448,trol,6,0,0,0,0,0,0,1
1067,18732,10448,trol,6,0,0,0,0,0,0,1
1080,18733,10448,trol,6,0,0,0,0,0,0,1
1094,18734,10448,trol,6,0,0,0,0,0,0,1
1113,18735,10448,trol,6,0,0,0,0,0,0,1
1136,18736,10448,trol,6,0,0,0,0,0,0,1
1160,18737,10448,trol,6,0,0,0,0,0,0,1
1182,18738,10448,trol,6,0,0,0,0,0,0,1
1201,18739,10448,trol,6,0,0,0,0,0,0,1
1224,18740,10448,trol,6,0,0,0,0,0,0,1
1247,18741,10448,trol,6,0,0,0,0,0,0,1
1270,18742,10448,trol,6,0,0,0,0,0,0,1
1291,18743,10448,trol,6,0,0,0,0,0,0,1
1304,18744,10448,trol,6,0,0,0,0,0,0,1
1327,18745,10448,trol,6,0,0,0,0,0,0,1
1341,18746,10448,trol,6,0,0,0,0,0,0,1
1362,18747,10448,trol,6,0,0,0,0,0,0,1
1383,18748,10448,trol,6,0,0,0,0,0,0,1
1409,18749,10448,trol,6,0,0,0,0,0,0,1
373,18750,10446,trol,6,1,1,1,1,1,0,0
393,18751,10446,trol,6,1,1,1,1,1,0,0
405,18752,10446,trol,6,1,1,1,1,1,0,0
419,18753,10446,trol,6,1,1,1,1,1,0,0
432,18754,10446,trol,6,1,1,1,1,1,0,0
440,18755,10446,trol,6,1,1,1,1,1,0,0
447,18756,10446,trol,6,1,1,1,1,1,0,0
457,18757,10446,trol,6,1,1,1,1,1,0,0
467,18758,10446,trol,6,1,1,1,1,1,0,0
475,18759,10446,trol,6,1,1,1,1,1,0,0
484,18760,10446,trol,6,1,1,1,1,1,0,0
491,18761,10446,trol,6,1,1,1,1,1,0,0
503,18762,10446,trol,6,1,1,1,1,1,0,0
512,18763,10446,trol,6,1,1,1,1,1,0,0
521,18764,10446,trol,6,1,1,1,1,1,0,0
528,18765,10446,trol,6,1,1,1,1,1,0,0
538,18766,10446,trol,6,1,1,1,1,1,0,0
547,18767,10446,trol,6,1,1,1,1,1,0,0
555,18768,10446,trol,6,1,1,1,1,1,0,0
562,18769,10446,trol,6,1,1,1,1,1,0,0
569,18770,10446,trol,6,1,1,1,1,1,0,0
579,18771,10446,trol,6,1,1,1,1,1,0,0
586,18772,10446,trol,6,1,1,1,1,1,0,0
597,18773,10446,trol,6,1,1,1,1,1,0,0
612,18774,10446,trol,6,1,1,1,1,1,0,0
627,18775,10446,trol,6,1,1,1,1,1,0,0
642,18776,10446,trol,6,1,1,1,1,1,0,0
657,18777,10446,trol,6,1,1,1,1,1,0,0
669,18778,10446,trol,6,1,1,1,1,1,0,0
681,18779,10446,trol,6,1,1,1,1,1,0,0
694,18780,10446,trol,6,1,1,1,1,1,0,0
709,18781,10446,trol,6,1,1,1,1,1,0,0
724,18782,10446,trol,6,1,1,1,1,1,0,0
738,18783,10446,trol,6,1,1,1,1,1,0,0
748,18784,10446,trol,6,1,1,1,1,1,0,0
758,18785,10446,trol,6,1,1,1,1,1,0,0
771,18786,10446,trol,6,1,1,1,1,1,0,0
784,18787,10446,trol,6,1,1,1,1,1,0,0
799,18788,10446,trol,6,1,1,1,1,1,0,0
812,18789,10446,trol,6,1,1,1,1,1,0,0
825,18790,10446,trol,6,1,1,1,1,1,0,0
840,18791,10446,trol,6,1,1,1,1,1,0,0
854,18792,10446,trol,6,1,1,1,1,1,0,0
868,18793,10446,trol,6,1,1,1,1,1,0,0
878,18794,10446,trol,6,1,1,1,1,1,0,0
893,18795,10446,trol,6,1,1,1,1,1,0,0
906,18796,10446,trol,6,1,1,1,1,1,0,0
920,18797,10446,trol,6,1,1,1,1,1,0,0
930,18798,10446,trol,6,1,1,1,1,1,0,0
937,18799,10446,trol,6,1,1,1,1,1,0,0
949,18800,10446,trol,6,1,1,1,1,1,0,0
957,18801,10446,trol,6,1,1,1,1,1,0,0
965,18802,10446,trol,6,1,1,1,1,1,0,0
977,18803,10446,trol,6,1,1,1,1,1,0,0
987,18804,10446,trol,6,1,1,1,1,1,0,0
1000,18805,10446,trol,6,1,1,1,1,1,0,0
1010,18806,10446,trol,6,1,1,1,1,1,0,0
1019,18807,10446,trol,6,1,1,1,1,1,0,0
1025,18808,10446,trol,6,1,1,1,1,1,0,0
1033,18809,10446,trol,6,1,1,1,1,1,0,0
1043,18810,10446,trol,6,1,1,1,1,1,0,0
1051,18811,10446,trol,6,1,1,1,1,1,0,0
1059,18812,10446,trol,6,1,1,1,1,1,0,0
1069,18813,10446,trol,6,1,1,1,1,1,0,0
1079,18814,10446,trol,6,1,1,1,1,1,0,0
1088,18815,10446,trol,6,1,1,1,1,1,0,0
1097,18816,10446,trol,6,1,1,1,1,1,0,0
1107,18817,10446,trol,6,1,1,1,1,1,0,0
1117,18818,10446,trol,6,1,1,1,1,1,0,0
1124,18819,10446,trol,6,1,1,1,1,1,0,0
1134,18820,10446,trol,6,1,1,1,1,1,0,0
1144,18821,10446,trol,6,1,1,1,1,1,0,0
1154,18822,10446,trol,6,1,1,1,1,1,0,0
1161,18823,10446,trol,6,1,1,1,1,1,0,0
1171,18824,10446,trol,6,1,1,1,1,1,0,0
1181,18825,10446,trol,6,1,1,1,1,1,0,0
1195,18826,10446,trol,6,1,1,1,1,1,0,0
1203,18827,10446,trol,6,1,1,1,1,1,0,0
1214,18828,10446,trol,6,1,1,1,1,1,0,0
1225,18829,10446,trol,6,1,1,1,1,1,0,0
1239,18830,10446,trol,6,1,1,1,1,1,0,0
1249,18831,10446,trol,6,1,1,1,1,1,0,0
1260,18832,10446,trol,6,1,1,1,1,1,0,0
1269,18833,10446,trol,6,1,1,1,1,1,0,0
1287,18834,10446,trol,6,1,1,1,1,1,0,0
1299,18835,10446,trol,6,1,1,1,1,1,0,0
1312,18836,10446,trol,6,1,1,1,1,1,0,0
1322,18837,10446,trol,6,1,1,1,1,1,0,0
1333,18838,10446,trol,6,1,1,1,1,1,0,0
1348,18839,10446,trol,6,1,1,1,1,1,0,0
1358,18840,10446,trol,6,1,1,1,1,1,0,0
1366,18841,10446,trol,6,1,1,1,1,1,0,0
1379,18842,10446,trol,6,1,1,1,1,1,0,0
1392,18843,10446,trol,6,1,1,1,1,1,0,0
1406,18844,10446,trol,6,1,1,1,1,1,0,0
1417,18845,10446,trol,6,1,1,1,1,1,0,0
367,18846,10447,trol,6,0,0,0,0,0,1,0
392,18847,10447,trol,6,0,0,0,0,0,1,0
416,18848,10447,trol,6,0,0,0,0,0,1,0
443,18849,10447,trol,6,0,0,0,0,0,1,0
469,18850,10447,trol,6,0,0,0,0,0,1,0
494,18851,10447,trol,6,0,0,0,0,0,1,0
508,18852,10447,trol,6,0,0,0,0,0,1,0
527,18853,10447,trol,6,0,0,0,0,0,1,0
546,18854,10447,trol,6,0,0,0,0,0,1,0
564,18855,10447,trol,6,0,0,0,0,0,1,0
581,18856,10447,trol,6,0,0,0,0,0,1,0
599,18857,10447,trol,6,0,0,0,0,0,1,0
617,18858,10447,trol,6,0,0,0,0,0,1,0
634,18859,10447,trol,6,0,0,0,0,0,1,0
648,18860,10447,trol,6,0,0,0,0,0,1,0
663,18861,10447,trol,6,0,0,0,0,0,1,0
674,18862,10447,trol,6,0,0,0,0,0,1,0
689,18863,10447,trol,6,0,0,0,0,0,1,0
705,18864,10447,trol,6,0,0,0,0,0,1,0
719,18865,10447,trol,6,0,0,0,0,0,1,0
732,18866,10447,trol,6,0,0,0,0,0,1,0
744,18867,10447,trol,6,0,0,0,0,0,1,0
757,18868,10447,trol,6,0,0,0,0,0,1,0
771,18869,10447,trol,6,0,0,0,0,0,1,0
781,18870,10447,trol,6,0,0,0,0,0,1,0
795,18871,10447,trol,6,0,0,0,0,0,1,0
809,18872,10447,trol,6,0,0,0,0,0,1,0
822,18873,10447,trol,6,0,0,0,0,0,1,0
838,18874,10447,trol,6,0,0,0,0,0,1,0
852,18875,10447,trol,6,0,0,0,0,0,1,0
867,18876,10447,trol,6,0,0,0,0,0,1,0
882,18877,10447,trol,6,0,0,0,0,0,1,0
896,18878,10447,trol,6,0,0,0,0,0,1,0
907,18879,10447,trol,6,0,0,0,0,0,1,0
918,18880,10447,trol,6,0,0,0,0,0,1,0
928,18881,10447,trol,6,0,0,0,0,0,1,0
943,18882,10447,trol,6,0,0,0,0,0,1,0
955,18883,10447,trol,6,0,0,0,0,0,1,0
969,18884,10447,trol,6,0,0,0,0,0,1,0
985,18885,10447,trol,6,0,0,0,0,0,1,0
995,18886,10447,trol,6,0,0,0,0,0,1,0
1007,18887,10447,trol,6,0,0,0,0,0,1,0
1018,18888,10447,trol,6,0,0,0,0,0,1,0
1032,18889,10447,trol,6,0,0,0,0,0,1,0
1040,18890,10447,trol,6,0,0,0,0,0,1,0
1051,18891,10447,trol,6,0,0,0,0,0,1,0
1067,18892,10447,trol,6,0,0,0,0,0,1,0
1080,18893,10447,trol,6,0,0,0,0,0,1,0
1094,18894,10447,trol,6,0,0,0,0,0,1,0
1113,18895,10447,trol,6,0,0,0,0,0,1,0
1136,18896,10447,trol,6,0,0,0,0,0,1,0
1160,18897,10447,trol,6,0,0,0,0,0,1,0
1182,18898,10447,trol,6,0,0,0,0,0,1,0
1201,18899,10447,trol,6,0,0,0,0,0,1,0
1224,18900,10447,trol,6,0,0,0,0,0,1,0
1247,18901,10447,trol,6,0,0,0,0,0,1,0
1270,18902,10447,trol,6,0,0,0,0,0,1,0
1291,18903,10447,trol,6,0,0,0,0,0,1,0
1304,18904,10447,trol,6,0,0,0,0,0,1,0
1327,18905,10447,trol,6,0,0,0,0,0,1,0
1341,18906,10447,trol,6,0,0,0,0,0,1,0
1362,18907,10447,trol,6,0,0,0,0,0,1,0
1383,18908,10447,trol,6,0,0,0,0,0,1,0
1409,18909,10447,trol,6,0,0,0,0,0,1,0
1427,18939,10448,trol,6,0,0,0,0,0,0,1
1441,18940,10448,trol,6,0,0,0,0,0,0,1
1430,18941,10446,trol,6,1,1,1,1,1,0,0
1427,18942,10447,trol,6,0,0,0,0,0,1,0
1441,18943,10447,trol,6,0,0,0,0,0,1,0
405,20586,10457,trol,10,0,0,0,0,0,0,1
432,20587,10457,trol,10,0,0,0,0,0,0,1
463,20588,10457,trol,10,0,0,0,0,0,0,1
485,20589,10457,trol,10,0,0,0,0,0,0,1
503,20590,10457,trol,10,0,0,0,0,0,0,1
531,20591,10457,trol,10,0,0,0,0,0,0,1
559,20592,10457,trol,10,0,0,0,0,0,0,1
583,20593,10457,trol,10,0,0,0,0,0,0,1
603,20594,10457,trol,10,0,0,0,0,0,0,1
620,20595,10457,trol,10,0,0,0,0,0,0,1
640,20596,10457,trol,10,0,0,0,0,0,0,1
658,20597,10457,trol,10,0,0,0,0,0,0,1
676,20598,10457,trol,10,0,0,0,0,0,0,1
693,20599,10457,trol,10,0,0,0,0,0,0,1
708,20600,10457,trol,10,0,0,0,0,0,0,1
721,20601,10457,trol,10,0,0,0,0,0,0,1
734,20602,10457,trol,10,0,0,0,0,0,0,1
750,20603,10457,trol,10,0,0,0,0,0,0,1
766,20604,10457,trol,10,0,0,0,0,0,0,1
782,20605,10457,trol,10,0,0,0,0,0,0,1
799,20606,10457,trol,10,0,0,0,0,0,0,1
815,20607,10457,trol,10,0,0,0,0,0,0,1
831,20608,10457,trol,10,0,0,0,0,0,0,1
848,20609,10457,trol,10,0,0,0,0,0,0,1
868,20610,10457,trol,10,0,0,0,0,0,0,1
886,20611,10457,trol,10,0,0,0,0,0,0,1
902,20612,10457,trol,10,0,0,0,0,0,0,1
913,20613,10457,trol,10,0,0,0,0,0,0,1
929,20614,10457,trol,10,0,0,0,0,0,0,1
939,20615,10457,trol,10,0,0,0,0,0,0,1
957,20616,10457,trol,10,0,0,0,0,0,0,1
971,20617,10457,trol,10,0,0,0,0,0,0,1
987,20618,10457,trol,10,0,0,0,0,0,0,1
1002,20619,10457,trol,10,0,0,0,0,0,0,1
1015,20620,10457,trol,10,0,0,0,0,0,0,1
1033,20621,10457,trol,10,0,0,0,0,0,0,1
1043,20622,10457,trol,10,0,0,0,0,0,0,1
1054,20623,10457,trol,10,0,0,0,0,0,0,1
1069,20624,10457,trol,10,0,0,0,0,0,0,1
1087,20625,10457,trol,10,0,0,0,0,0,0,1
1101,20626,10457,trol,10,0,0,0,0,0,0,1
1116,20627,10457,trol,10,0,0,0,0,0,0,1
1131,20628,10457,trol,10,0,0,0,0,0,0,1
1168,20629,10457,trol,10,0,0,0,0,0,0,1
1196,20630,10457,trol,10,0,0,0,0,0,0,1
1228,20631,10457,trol,10,0,0,0,0,0,0,1
1254,20632,10457,trol,10,0,0,0,0,0,0,1
1276,20633,10457,trol,10,0,0,0,0,0,0,1
1299,20634,10457,trol,10,0,0,0,0,0,0,1
1323,20635,10457,trol,10,0,0,0,0,0,0,1
1347,20636,10457,trol,10,0,0,0,0,0,0,1
1375,20637,10457,trol,10,0,0,0,0,0,0,1
1404,20638,10457,trol,10,0,0,0,0,0,0,1
365,20639,10455,trol,10,1,1,1,1,1,0,0
383,20640,10455,trol,10,1,1,1,1,1,0,0
400,20641,10455,trol,10,1,1,1,1,1,0,0
414,20642,10455,trol,10,1,1,1,1,1,0,0
435,20643,10455,trol,10,1,1,1,1,1,0,0
450,20644,10455,trol,10,1,1,1,1,1,0,0
461,20645,10455,trol,10,1,1,1,1,1,0,0
471,20646,10455,trol,10,1,1,1,1,1,0,0
481,20647,10455,trol,10,1,1,1,1,1,0,0
494,20648,10455,trol,10,1,1,1,1,1,0,0
506,20649,10455,trol,10,1,1,1,1,1,0,0
515,20650,10455,trol,10,1,1,1,1,1,0,0
526,20651,10455,trol,10,1,1,1,1,1,0,0
541,20652,10455,trol,10,1,1,1,1,1,0,0
549,20653,10455,trol,10,1,1,1,1,1,0,0
566,20654,10455,trol,10,1,1,1,1,1,0,0
582,20655,10455,trol,10,1,1,1,1,1,0,0
592,20656,10455,trol,10,1,1,1,1,1,0,0
609,20657,10455,trol,10,1,1,1,1,1,0,0
622,20658,10455,trol,10,1,1,1,1,1,0,0
635,20659,10455,trol,10,1,1,1,1,1,0,0
646,20660,10455,trol,10,1,1,1,1,1,0,0
654,20661,10455,trol,10,1,1,1,1,1,0,0
666,20662,10455,trol,10,1,1,1,1,1,0,0
683,20663,10455,trol,10,1,1,1,1,1,0,0
703,20664,10455,trol,10,1,1,1,1,1,0,0
716,20665,10455,trol,10,1,1,1,1,1,0,0
731,20666,10455,trol,10,1,1,1,1,1,0,0
745,20667,10455,trol,10,1,1,1,1,1,0,0
763,20668,10455,trol,10,1,1,1,1,1,0,0
779,20669,10455,trol,10,1,1,1,1,1,0,0
793,20670,10455,trol,10,1,1,1,1,1,0,0
809,20671,10455,trol,10,1,1,1,1,1,0,0
829,20672,10455,trol,10,1,1,1,1,1,0,0
845,20673,10455,trol,10,1,1,1,1,1,0,0
862,20674,10455,trol,10,1,1,1,1,1,0,0
881,20675,10455,trol,10,1,1,1,1,1,0,0
891,20676,10455,trol,10,1,1,1,1,1,0,0
912,20677,10455,trol,10,1,1,1,1,1,0,0
928,20678,10455,trol,10,1,1,1,1,1,0,0
944,20679,10455,trol,10,1,1,1,1,1,0,0
961,20680,10455,trol,10,1,1,1,1,1,0,0
975,20681,10455,trol,10,1,1,1,1,1,0,0
993,20682,10455,trol,10,1,1,1,1,1,0,0
1005,20683,10455,trol,10,1,1,1,1,1,0,0
1016,20684,10455,trol,10,1,1,1,1,1,0,0
1027,20685,10455,trol,10,1,1,1,1,1,0,0
1038,20686,10455,trol,10,1,1,1,1,1,0,0
1047,20687,10455,trol,10,1,1,1,1,1,0,0
1062,20688,10455,trol,10,1,1,1,1,1,0,0
1071,20689,10455,trol,10,1,1,1,1,1,0,0
1082,20690,10455,trol,10,1,1,1,1,1,0,0
1093,20691,10455,trol,10,1,1,1,1,1,0,0
1112,20692,10455,trol,10,1,1,1,1,1,0,0
1127,20693,10455,trol,10,1,1,1,1,1,0,0
1138,20694,10455,trol,10,1,1,1,1,1,0,0
1149,20695,10455,trol,10,1,1,1,1,1,0,0
1164,20696,10455,trol,10,1,1,1,1,1,0,0
1176,20697,10455,trol,10,1,1,1,1,1,0,0
1191,20698,10455,trol,10,1,1,1,1,1,0,0
1206,20699,10455,trol,10,1,1,1,1,1,0,0
1219,20700,10455,trol,10,1,1,1,1,1,0,0
1233,20701,10455,trol,10,1,1,1,1,1,0,0
1254,20702,10455,trol,10,1,1,1,1,1,0,0
1273,20703,10455,trol,10,1,1,1,1,1,0,0
1283,20704,10455,trol,10,1,1,1,1,1,0,0
1294,20705,10455,trol,10,1,1,1,1,1,0,0
1308,20706,10455,trol,10,1,1,1,1,1,0,0
1319,20707,10455,trol,10,1,1,1,1,1,0,0
1340,20708,10455,trol,10,1,1,1,1,1,0,0
1354,20709,10455,trol,10,1,1,1,1,1,0,0
1373,20710,10455,trol,10,1,1,1,1,1,0,0
1389,20711,10455,trol,10,1,1,1,1,1,0,0
1401,20712,10455,trol,10,1,1,1,1,1,0,0
362,20713,10456,trol,10,0,0,0,0,0,1,0
405,20714,10456,trol,10,0,0,0,0,0,1,0
432,20715,10456,trol,10,0,0,0,0,0,1,0
463,20716,10456,trol,10,0,0,0,0,0,1,0
485,20717,10456,trol,10,0,0,0,0,0,1,0
503,20718,10456,trol,10,0,0,0,0,0,1,0
531,20719,10456,trol,10,0,0,0,0,0,1,0
559,20720,10456,trol,10,0,0,0,0,0,1,0
583,20721,10456,trol,10,0,0,0,0,0,1,0
603,20722,10456,trol,10,0,0,0,0,0,1,0
620,20723,10456,trol,10,0,0,0,0,0,1,0
640,20724,10456,trol,10,0,0,0,0,0,1,0
658,20725,10456,trol,10,0,0,0,0,0,1,0
676,20726,10456,trol,10,0,0,0,0,0,1,0
693,20727,10456,trol,10,0,0,0,0,0,1,0
708,20728,10456,trol,10,0,0,0,0,0,1,0
721,20729,10456,trol,10,0,0,0,0,0,1,0
734,20730,10456,trol,10,0,0,0,0,0,1,0
750,20731,10456,trol,10,0,0,0,0,0,1,0
766,20732,10456,trol,10,0,0,0,0,0,1,0
782,20733,10456,trol,10,0,0,0,0,0,1,0
799,20734,10456,trol,10,0,0,0,0,0,1,0
815,20735,10456,trol,10,0,0,0,0,0,1,0
831,20736,10456,trol,10,0,0,0,0,0,1,0
848,20737,10456,trol,10,0,0,0,0,0,1,0
868,20738,10456,trol,10,0,0,0,0,0,1,0
886,20739,10456,trol,10,0,0,0,0,0,1,0
902,20740,10456,trol,10,0,0,0,0,0,1,0
913,20741,10456,trol,10,0,0,0,0,0,1,0
929,20742,10456,trol,10,0,0,0,0,0,1,0
939,20743,10456,trol,10,0,0,0,0,0,1,0
957,20744,10456,trol,10,0,0,0,0,0,1,0
971,20745,10456,trol,10,0,0,0,0,0,1,0
987,20746,10456,trol,10,0,0,0,0,0,1,0
1002,20747,10456,trol,10,0,0,0,0,0,1,0
1015,20748,10456,trol,10,0,0,0,0,0,1,0
1033,20749,10456,trol,10,0,0,0,0,0,1,0
1043,20750,10456,trol,10,0,0,0,0,0,1,0
1054,20751,10456,trol,10,0,0,0,0,0,1,0
1069,20752,10456,trol,10,0,0,0,0,0,1,0
1087,20753,10456,trol,10,0,0,0,0,0,1,0
1101,20754,10456,trol,10,0,0,0,0,0,1,0
1116,20755,10456,trol,10,0,0,0,0,0,1,0
1131,20756,10456,trol,10,0,0,0,0,0,1,0
1168,20757,10456,trol,10,0,0,0,0,0,1,0
1196,20758,10456,trol,10,0,0,0,0,0,1,0
1228,20759,10456,trol,10,0,0,0,0,0,1,0
1254,20760,10456,trol,10,0,0,0,0,0,1,0
1276,20761,10456,trol,10,0,0,0,0,0,1,0
1299,20762,10456,trol,10,0,0,0,0,0,1,0
1323,20763,10456,trol,10,0,0,0,0,0,1,0
1347,20764,10456,trol,10,0,0,0,0,0,1,0
1375,20765,10456,trol,10,0,0,0,0,0,1,0
1404,20766,10456,trol,10,0,0,0,0,0,1,0
