timeInMin,trip_id,service_id,tipas,numeris,pirmadienis,antradienis,treciadienis,ketvirtadienis,penktadienis,sestadienis,sekmadienis 
381,18467,10448,trol,6,0,0,0,0,0,0,1
405,18468,10448,trol,6,0,0,0,0,0,0,1
418,18469,10448,trol,6,0,0,0,0,0,0,1
436,18470,10448,trol,6,0,0,0,0,0,0,1
456,18471,10448,trol,6,0,0,0,0,0,0,1
472,18472,10448,trol,6,0,0,0,0,0,0,1
489,18473,10448,trol,6,0,0,0,0,0,0,1
509,18474,10448,trol,6,0,0,0,0,0,0,1
525,18475,10448,trol,6,0,0,0,0,0,0,1
540,18476,10448,trol,6,0,0,0,0,0,0,1
555,18477,10448,trol,6,0,0,0,0,0,0,1
570,18478,10448,trol,6,0,0,0,0,0,0,1
582,18479,10448,trol,6,0,0,0,0,0,0,1
596,18480,10448,trol,6,0,0,0,0,0,0,1
613,18481,10448,trol,6,0,0,0,0,0,0,1
626,18482,10448,trol,6,0,0,0,0,0,0,1
641,18483,10448,trol,6,0,0,0,0,0,0,1
651,18484,10448,trol,6,0,0,0,0,0,0,1
664,18485,10448,trol,6,0,0,0,0,0,0,1
678,18486,10448,trol,6,0,0,0,0,0,0,1
688,18487,10448,trol,6,0,0,0,0,0,0,1
702,18488,10448,trol,6,0,0,0,0,0,0,1
717,18489,10448,trol,6,0,0,0,0,0,0,1
728,18490,10448,trol,6,0,0,0,0,0,0,1
741,18491,10448,trol,6,0,0,0,0,0,0,1
756,18492,10448,trol,6,0,0,0,0,0,0,1
774,18493,10448,trol,6,0,0,0,0,0,0,1
787,18494,10448,trol,6,0,0,0,0,0,0,1
799,18495,10448,trol,6,0,0,0,0,0,0,1
810,18496,10448,trol,6,0,0,0,0,0,0,1
821,18497,10448,trol,6,0,0,0,0,0,0,1
835,18498,10448,trol,6,0,0,0,0,0,0,1
851,18499,10448,trol,6,0,0,0,0,0,0,1
863,18500,10448,trol,6,0,0,0,0,0,0,1
874,18501,10448,trol,6,0,0,0,0,0,0,1
886,18502,10448,trol,6,0,0,0,0,0,0,1
899,18503,10448,trol,6,0,0,0,0,0,0,1
912,18504,10448,trol,6,0,0,0,0,0,0,1
923,18505,10448,trol,6,0,0,0,0,0,0,1
935,18506,10448,trol,6,0,0,0,0,0,0,1
946,18507,10448,trol,6,0,0,0,0,0,0,1
958,18508,10448,trol,6,0,0,0,0,0,0,1
974,18509,10448,trol,6,0,0,0,0,0,0,1
988,18510,10448,trol,6,0,0,0,0,0,0,1
1001,18511,10448,trol,6,0,0,0,0,0,0,1
1021,18512,10448,trol,6,0,0,0,0,0,0,1
1042,18513,10448,trol,6,0,0,0,0,0,0,1
1070,18514,10448,trol,6,0,0,0,0,0,0,1
1091,18515,10448,trol,6,0,0,0,0,0,0,1
1108,18516,10448,trol,6,0,0,0,0,0,0,1
1133,18517,10448,trol,6,0,0,0,0,0,0,1
1156,18518,10448,trol,6,0,0,0,0,0,0,1
1176,18519,10448,trol,6,0,0,0,0,0,0,1
1198,18520,10448,trol,6,0,0,0,0,0,0,1
1212,18521,10448,trol,6,0,0,0,0,0,0,1
1238,18522,10448,trol,6,0,0,0,0,0,0,1
1253,18523,10448,trol,6,0,0,0,0,0,0,1
1272,18524,10448,trol,6,0,0,0,0,0,0,1
1294,18525,10448,trol,6,0,0,0,0,0,0,1
1319,18526,10448,trol,6,0,0,0,0,0,0,1
1341,18527,10448,trol,6,0,0,0,0,0,0,1
1355,18528,10448,trol,6,0,0,0,0,0,0,1
304,18529,10446,trol,6,1,1,1,1,1,0,0
313,18530,10446,trol,6,1,1,1,1,1,0,0
328,18531,10446,trol,6,1,1,1,1,1,0,0
340,18532,10446,trol,6,1,1,1,1,1,0,0
353,18533,10446,trol,6,1,1,1,1,1,0,0
361,18534,10446,trol,6,1,1,1,1,1,0,0
369,18535,10446,trol,6,1,1,1,1,1,0,0
378,18536,10446,trol,6,1,1,1,1,1,0,0
388,18537,10446,trol,6,1,1,1,1,1,0,0
396,18538,10446,trol,6,1,1,1,1,1,0,0
406,18539,10446,trol,6,1,1,1,1,1,0,0
414,18540,10446,trol,6,1,1,1,1,1,0,0
421,18541,10446,trol,6,1,1,1,1,1,0,0
428,18542,10446,trol,6,1,1,1,1,1,0,0
435,18543,10446,trol,6,1,1,1,1,1,0,0
445,18544,10446,trol,6,1,1,1,1,1,0,0
454,18545,10446,trol,6,1,1,1,1,1,0,0
460,18546,10446,trol,6,1,1,1,1,1,0,0
469,18547,10446,trol,6,1,1,1,1,1,0,0
478,18548,10446,trol,6,1,1,1,1,1,0,0
485,18549,10446,trol,6,1,1,1,1,1,0,0
499,18550,10446,trol,6,1,1,1,1,1,0,0
512,18551,10446,trol,6,1,1,1,1,1,0,0
527,18552,10446,trol,6,1,1,1,1,1,0,0
545,18553,10446,trol,6,1,1,1,1,1,0,0
557,18554,10446,trol,6,1,1,1,1,1,0,0
573,18555,10446,trol,6,1,1,1,1,1,0,0
583,18556,10446,trol,6,1,1,1,1,1,0,0
598,18557,10446,trol,6,1,1,1,1,1,0,0
613,18558,10446,trol,6,1,1,1,1,1,0,0
627,18559,10446,trol,6,1,1,1,1,1,0,0
640,18560,10446,trol,6,1,1,1,1,1,0,0
650,18561,10446,trol,6,1,1,1,1,1,0,0
659,18562,10446,trol,6,1,1,1,1,1,0,0
673,18563,10446,trol,6,1,1,1,1,1,0,0
685,18564,10446,trol,6,1,1,1,1,1,0,0
700,18565,10446,trol,6,1,1,1,1,1,0,0
713,18566,10446,trol,6,1,1,1,1,1,0,0
726,18567,10446,trol,6,1,1,1,1,1,0,0
740,18568,10446,trol,6,1,1,1,1,1,0,0
755,18569,10446,trol,6,1,1,1,1,1,0,0
766,18570,10446,trol,6,1,1,1,1,1,0,0
777,18571,10446,trol,6,1,1,1,1,1,0,0
791,18572,10446,trol,6,1,1,1,1,1,0,0
804,18573,10446,trol,6,1,1,1,1,1,0,0
817,18574,10446,trol,6,1,1,1,1,1,0,0
833,18575,10446,trol,6,1,1,1,1,1,0,0
848,18576,10446,trol,6,1,1,1,1,1,0,0
862,18577,10446,trol,6,1,1,1,1,1,0,0
876,18578,10446,trol,6,1,1,1,1,1,0,0
886,18579,10446,trol,6,1,1,1,1,1,0,0
897,18580,10446,trol,6,1,1,1,1,1,0,0
906,18581,10446,trol,6,1,1,1,1,1,0,0
913,18582,10446,trol,6,1,1,1,1,1,0,0
921,18583,10446,trol,6,1,1,1,1,1,0,0
928,18584,10446,trol,6,1,1,1,1,1,0,0
937,18585,10446,trol,6,1,1,1,1,1,0,0
945,18586,10446,trol,6,1,1,1,1,1,0,0
952,18587,10446,trol,6,1,1,1,1,1,0,0
960,18588,10446,trol,6,1,1,1,1,1,0,0
970,18589,10446,trol,6,1,1,1,1,1,0,0
979,18590,10446,trol,6,1,1,1,1,1,0,0
990,18591,10446,trol,6,1,1,1,1,1,0,0
1000,18592,10446,trol,6,1,1,1,1,1,0,0
1009,18593,10446,trol,6,1,1,1,1,1,0,0
1018,18594,10446,trol,6,1,1,1,1,1,0,0
1028,18595,10446,trol,6,1,1,1,1,1,0,0
1038,18596,10446,trol,6,1,1,1,1,1,0,0
1047,18597,10446,trol,6,1,1,1,1,1,0,0
1058,18598,10446,trol,6,1,1,1,1,1,0,0
1069,18599,10446,trol,6,1,1,1,1,1,0,0
1081,18600,10446,trol,6,1,1,1,1,1,0,0
1093,18601,10446,trol,6,1,1,1,1,1,0,0
1105,18602,10446,trol,6,1,1,1,1,1,0,0
1115,18603,10446,trol,6,1,1,1,1,1,0,0
1131,18604,10446,trol,6,1,1,1,1,1,0,0
1146,18605,10446,trol,6,1,1,1,1,1,0,0
1156,18606,10446,trol,6,1,1,1,1,1,0,0
1169,18607,10446,trol,6,1,1,1,1,1,0,0
1177,18608,10446,trol,6,1,1,1,1,1,0,0
1196,18609,10446,trol,6,1,1,1,1,1,0,0
1210,18610,10446,trol,6,1,1,1,1,1,0,0
1221,18611,10446,trol,6,1,1,1,1,1,0,0
1231,18612,10446,trol,6,1,1,1,1,1,0,0
1244,18613,10446,trol,6,1,1,1,1,1,0,0
1256,18614,10446,trol,6,1,1,1,1,1,0,0
1268,18615,10446,trol,6,1,1,1,1,1,0,0
1278,18616,10446,trol,6,1,1,1,1,1,0,0
1289,18617,10446,trol,6,1,1,1,1,1,0,0
1302,18618,10446,trol,6,1,1,1,1,1,0,0
1314,18619,10446,trol,6,1,1,1,1,1,0,0
1328,18620,10446,trol,6,1,1,1,1,1,0,0
1342,18621,10446,trol,6,1,1,1,1,1,0,0
327,18622,10447,trol,6,0,0,0,0,0,1,0
354,18623,10447,trol,6,0,0,0,0,0,1,0
381,18624,10447,trol,6,0,0,0,0,0,1,0
405,18625,10447,trol,6,0,0,0,0,0,1,0
418,18626,10447,trol,6,0,0,0,0,0,1,0
436,18627,10447,trol,6,0,0,0,0,0,1,0
456,18628,10447,trol,6,0,0,0,0,0,1,0
472,18629,10447,trol,6,0,0,0,0,0,1,0
489,18630,10447,trol,6,0,0,0,0,0,1,0
509,18631,10447,trol,6,0,0,0,0,0,1,0
525,18632,10447,trol,6,0,0,0,0,0,1,0
540,18633,10447,trol,6,0,0,0,0,0,1,0
555,18634,10447,trol,6,0,0,0,0,0,1,0
570,18635,10447,trol,6,0,0,0,0,0,1,0
582,18636,10447,trol,6,0,0,0,0,0,1,0
596,18637,10447,trol,6,0,0,0,0,0,1,0
613,18638,10447,trol,6,0,0,0,0,0,1,0
626,18639,10447,trol,6,0,0,0,0,0,1,0
641,18640,10447,trol,6,0,0,0,0,0,1,0
651,18641,10447,trol,6,0,0,0,0,0,1,0
664,18642,10447,trol,6,0,0,0,0,0,1,0
678,18643,10447,trol,6,0,0,0,0,0,1,0
688,18644,10447,trol,6,0,0,0,0,0,1,0
702,18645,10447,trol,6,0,0,0,0,0,1,0
717,18646,10447,trol,6,0,0,0,0,0,1,0
728,18647,10447,trol,6,0,0,0,0,0,1,0
741,18648,10447,trol,6,0,0,0,0,0,1,0
756,18649,10447,trol,6,0,0,0,0,0,1,0
774,18650,10447,trol,6,0,0,0,0,0,1,0
787,18651,10447,trol,6,0,0,0,0,0,1,0
799,18652,10447,trol,6,0,0,0,0,0,1,0
810,18653,10447,trol,6,0,0,0,0,0,1,0
821,18654,10447,trol,6,0,0,0,0,0,1,0
835,18655,10447,trol,6,0,0,0,0,0,1,0
851,18656,10447,trol,6,0,0,0,0,0,1,0
863,18657,10447,trol,6,0,0,0,0,0,1,0
874,18658,10447,trol,6,0,0,0,0,0,1,0
886,18659,10447,trol,6,0,0,0,0,0,1,0
899,18660,10447,trol,6,0,0,0,0,0,1,0
912,18661,10447,trol,6,0,0,0,0,0,1,0
923,18662,10447,trol,6,0,0,0,0,0,1,0
935,18663,10447,trol,6,0,0,0,0,0,1,0
946,18664,10447,trol,6,0,0,0,0,0,1,0
958,18665,10447,trol,6,0,0,0,0,0,1,0
974,18666,10447,trol,6,0,0,0,0,0,1,0
988,18667,10447,trol,6,0,0,0,0,0,1,0
1001,18668,10447,trol,6,0,0,0,0,0,1,0
1021,18669,10447,trol,6,0,0,0,0,0,1,0
1042,18670,10447,trol,6,0,0,0,0,0,1,0
1070,18671,10447,trol,6,0,0,0,0,0,1,0
1091,18672,10447,trol,6,0,0,0,0,0,1,0
1108,18673,10447,trol,6,0,0,0,0,0,1,0
1133,18674,10447,trol,6,0,0,0,0,0,1,0
1156,18675,10447,trol,6,0,0,0,0,0,1,0
1176,18676,10447,trol,6,0,0,0,0,0,1,0
1198,18677,10447,trol,6,0,0,0,0,0,1,0
1212,18678,10447,trol,6,0,0,0,0,0,1,0
1238,18679,10447,trol,6,0,0,0,0,0,1,0
1253,18680,10447,trol,6,0,0,0,0,0,1,0
1272,18681,10447,trol,6,0,0,0,0,0,1,0
1294,18682,10447,trol,6,0,0,0,0,0,1,0
1319,18683,10447,trol,6,0,0,0,0,0,1,0
1341,18684,10447,trol,6,0,0,0,0,0,1,0
1355,18685,10447,trol,6,0,0,0,0,0,1,0
535,18686,10446,trol,6,1,1,1,1,1,0,0
565,18687,10446,trol,6,1,1,1,1,1,0,0
1006,18912,10448,trol,6,0,0,0,0,0,0,1
1046,18913,10448,trol,6,0,0,0,0,0,0,1
1078,18914,10448,trol,6,0,0,0,0,0,0,1
1303,18915,10448,trol,6,0,0,0,0,0,0,1
1374,18916,10448,trol,6,0,0,0,0,0,0,1
1395,18917,10448,trol,6,0,0,0,0,0,0,1
1421,18918,10448,trol,6,0,0,0,0,0,0,1
1150,18919,10446,trol,6,1,1,1,1,1,0,0
1167,18920,10446,trol,6,1,1,1,1,1,0,0
1183,18921,10446,trol,6,1,1,1,1,1,0,0
1193,18922,10446,trol,6,1,1,1,1,1,0,0
1215,18923,10446,trol,6,1,1,1,1,1,0,0
1346,18924,10446,trol,6,1,1,1,1,1,0,0
1359,18925,10446,trol,6,1,1,1,1,1,0,0
1369,18926,10446,trol,6,1,1,1,1,1,0,0
1377,18927,10446,trol,6,1,1,1,1,1,0,0
1390,18928,10446,trol,6,1,1,1,1,1,0,0
1403,18929,10446,trol,6,1,1,1,1,1,0,0
1417,18930,10446,trol,6,1,1,1,1,1,0,0
1428,18931,10446,trol,6,1,1,1,1,1,0,0
1006,18932,10447,trol,6,0,0,0,0,0,1,0
1046,18933,10447,trol,6,0,0,0,0,0,1,0
1078,18934,10447,trol,6,0,0,0,0,0,1,0
1303,18935,10447,trol,6,0,0,0,0,0,1,0
1374,18936,10447,trol,6,0,0,0,0,0,1,0
1395,18937,10447,trol,6,0,0,0,0,0,1,0
1421,18938,10447,trol,6,0,0,0,0,0,1,0
389,20818,10460,trol,12,0,0,0,0,0,0,1
409,20819,10460,trol,12,0,0,0,0,0,0,1
425,20820,10460,trol,12,0,0,0,0,0,0,1
446,20821,10460,trol,12,0,0,0,0,0,0,1
468,20822,10460,trol,12,0,0,0,0,0,0,1
496,20823,10460,trol,12,0,0,0,0,0,0,1
518,20824,10460,trol,12,0,0,0,0,0,0,1
536,20825,10460,trol,12,0,0,0,0,0,0,1
559,20826,10460,trol,12,0,0,0,0,0,0,1
586,20827,10460,trol,12,0,0,0,0,0,0,1
606,20828,10460,trol,12,0,0,0,0,0,0,1
632,20829,10460,trol,12,0,0,0,0,0,0,1
657,20830,10460,trol,12,0,0,0,0,0,0,1
671,20831,10460,trol,12,0,0,0,0,0,0,1
693,20832,10460,trol,12,0,0,0,0,0,0,1
708,20833,10460,trol,12,0,0,0,0,0,0,1
725,20834,10460,trol,12,0,0,0,0,0,0,1
750,20835,10460,trol,12,0,0,0,0,0,0,1
767,20836,10460,trol,12,0,0,0,0,0,0,1
794,20837,10460,trol,12,0,0,0,0,0,0,1
816,20838,10460,trol,12,0,0,0,0,0,0,1
827,20839,10460,trol,12,0,0,0,0,0,0,1
843,20840,10460,trol,12,0,0,0,0,0,0,1
868,20841,10460,trol,12,0,0,0,0,0,0,1
881,20842,10460,trol,12,0,0,0,0,0,0,1
907,20843,10460,trol,12,0,0,0,0,0,0,1
927,20844,10460,trol,12,0,0,0,0,0,0,1
950,20845,10460,trol,12,0,0,0,0,0,0,1
965,20846,10460,trol,12,0,0,0,0,0,0,1
982,20847,10460,trol,12,0,0,0,0,0,0,1
1006,20848,10460,trol,12,0,0,0,0,0,0,1
1030,20849,10460,trol,12,0,0,0,0,0,0,1
1053,20850,10460,trol,12,0,0,0,0,0,0,1
1078,20851,10460,trol,12,0,0,0,0,0,0,1
1115,20852,10460,trol,12,0,0,0,0,0,0,1
1141,20853,10460,trol,12,0,0,0,0,0,0,1
1165,20854,10460,trol,12,0,0,0,0,0,0,1
1190,20855,10460,trol,12,0,0,0,0,0,0,1
1217,20856,10460,trol,12,0,0,0,0,0,0,1
1232,20857,10460,trol,12,0,0,0,0,0,0,1
1260,20858,10460,trol,12,0,0,0,0,0,0,1
1277,20859,10460,trol,12,0,0,0,0,0,0,1
1305,20860,10460,trol,12,0,0,0,0,0,0,1
1331,20861,10460,trol,12,0,0,0,0,0,0,1
1364,20862,10460,trol,12,0,0,0,0,0,0,1
299,20863,10458,trol,12,1,1,1,1,1,0,0
315,20864,10458,trol,12,1,1,1,1,1,0,0
330,20865,10458,trol,12,1,1,1,1,1,0,0
342,20866,10458,trol,12,1,1,1,1,1,0,0
355,20867,10458,trol,12,1,1,1,1,1,0,0
370,20868,10458,trol,12,1,1,1,1,1,0,0
383,20869,10458,trol,12,1,1,1,1,1,0,0
398,20870,10458,trol,12,1,1,1,1,1,0,0
408,20871,10458,trol,12,1,1,1,1,1,0,0
418,20872,10458,trol,12,1,1,1,1,1,0,0
426,20873,10458,trol,12,1,1,1,1,1,0,0
438,20874,10458,trol,12,1,1,1,1,1,0,0
449,20875,10458,trol,12,1,1,1,1,1,0,0
464,20876,10458,trol,12,1,1,1,1,1,0,0
476,20877,10458,trol,12,1,1,1,1,1,0,0
490,20878,10458,trol,12,1,1,1,1,1,0,0
506,20879,10458,trol,12,1,1,1,1,1,0,0
522,20880,10458,trol,12,1,1,1,1,1,0,0
539,20881,10458,trol,12,1,1,1,1,1,0,0
554,20882,10458,trol,12,1,1,1,1,1,0,0
568,20883,10458,trol,12,1,1,1,1,1,0,0
586,20884,10458,trol,12,1,1,1,1,1,0,0
602,20885,10458,trol,12,1,1,1,1,1,0,0
618,20886,10458,trol,12,1,1,1,1,1,0,0
635,20887,10458,trol,12,1,1,1,1,1,0,0
652,20888,10458,trol,12,1,1,1,1,1,0,0
667,20889,10458,trol,12,1,1,1,1,1,0,0
678,20890,10458,trol,12,1,1,1,1,1,0,0
692,20891,10458,trol,12,1,1,1,1,1,0,0
707,20892,10458,trol,12,1,1,1,1,1,0,0
721,20893,10458,trol,12,1,1,1,1,1,0,0
735,20894,10458,trol,12,1,1,1,1,1,0,0
750,20895,10458,trol,12,1,1,1,1,1,0,0
768,20896,10458,trol,12,1,1,1,1,1,0,0
785,20897,10458,trol,12,1,1,1,1,1,0,0
799,20898,10458,trol,12,1,1,1,1,1,0,0
813,20899,10458,trol,12,1,1,1,1,1,0,0
827,20900,10458,trol,12,1,1,1,1,1,0,0
843,20901,10458,trol,12,1,1,1,1,1,0,0
857,20902,10458,trol,12,1,1,1,1,1,0,0
871,20903,10458,trol,12,1,1,1,1,1,0,0
888,20904,10458,trol,12,1,1,1,1,1,0,0
899,20905,10458,trol,12,1,1,1,1,1,0,0
909,20906,10458,trol,12,1,1,1,1,1,0,0
923,20907,10458,trol,12,1,1,1,1,1,0,0
934,20908,10458,trol,12,1,1,1,1,1,0,0
947,20909,10458,trol,12,1,1,1,1,1,0,0
957,20910,10458,trol,12,1,1,1,1,1,0,0
968,20911,10458,trol,12,1,1,1,1,1,0,0
984,20912,10458,trol,12,1,1,1,1,1,0,0
999,20913,10458,trol,12,1,1,1,1,1,0,0
1016,20914,10458,trol,12,1,1,1,1,1,0,0
1033,20915,10458,trol,12,1,1,1,1,1,0,0
1046,20916,10458,trol,12,1,1,1,1,1,0,0
1062,20917,10458,trol,12,1,1,1,1,1,0,0
1075,20918,10458,trol,12,1,1,1,1,1,0,0
1090,20919,10458,trol,12,1,1,1,1,1,0,0
1109,20920,10458,trol,12,1,1,1,1,1,0,0
1125,20921,10458,trol,12,1,1,1,1,1,0,0
1142,20922,10458,trol,12,1,1,1,1,1,0,0
1160,20923,10458,trol,12,1,1,1,1,1,0,0
1180,20924,10458,trol,12,1,1,1,1,1,0,0
1190,20925,10458,trol,12,1,1,1,1,1,0,0
1202,20926,10458,trol,12,1,1,1,1,1,0,0
1215,20927,10458,trol,12,1,1,1,1,1,0,0
1232,20928,10458,trol,12,1,1,1,1,1,0,0
1246,20929,10458,trol,12,1,1,1,1,1,0,0
1262,20930,10458,trol,12,1,1,1,1,1,0,0
1280,20931,10458,trol,12,1,1,1,1,1,0,0
1295,20932,10458,trol,12,1,1,1,1,1,0,0
1318,20933,10458,trol,12,1,1,1,1,1,0,0
1331,20934,10458,trol,12,1,1,1,1,1,0,0
340,20935,10459,trol,12,0,0,0,0,0,1,0
364,20936,10459,trol,12,0,0,0,0,0,1,0
389,20937,10459,trol,12,0,0,0,0,0,1,0
409,20938,10459,trol,12,0,0,0,0,0,1,0
425,20939,10459,trol,12,0,0,0,0,0,1,0
446,20940,10459,trol,12,0,0,0,0,0,1,0
468,20941,10459,trol,12,0,0,0,0,0,1,0
496,20942,10459,trol,12,0,0,0,0,0,1,0
518,20943,10459,trol,12,0,0,0,0,0,1,0
536,20944,10459,trol,12,0,0,0,0,0,1,0
559,20945,10459,trol,12,0,0,0,0,0,1,0
586,20946,10459,trol,12,0,0,0,0,0,1,0
606,20947,10459,trol,12,0,0,0,0,0,1,0
632,20948,10459,trol,12,0,0,0,0,0,1,0
657,20949,10459,trol,12,0,0,0,0,0,1,0
671,20950,10459,trol,12,0,0,0,0,0,1,0
693,20951,10459,trol,12,0,0,0,0,0,1,0
708,20952,10459,trol,12,0,0,0,0,0,1,0
725,20953,10459,trol,12,0,0,0,0,0,1,0
750,20954,10459,trol,12,0,0,0,0,0,1,0
767,20955,10459,trol,12,0,0,0,0,0,1,0
794,20956,10459,trol,12,0,0,0,0,0,1,0
816,20957,10459,trol,12,0,0,0,0,0,1,0
827,20958,10459,trol,12,0,0,0,0,0,1,0
843,20959,10459,trol,12,0,0,0,0,0,1,0
868,20960,10459,trol,12,0,0,0,0,0,1,0
881,20961,10459,trol,12,0,0,0,0,0,1,0
907,20962,10459,trol,12,0,0,0,0,0,1,0
927,20963,10459,trol,12,0,0,0,0,0,1,0
950,20964,10459,trol,12,0,0,0,0,0,1,0
965,20965,10459,trol,12,0,0,0,0,0,1,0
982,20966,10459,trol,12,0,0,0,0,0,1,0
1006,20967,10459,trol,12,0,0,0,0,0,1,0
1030,20968,10459,trol,12,0,0,0,0,0,1,0
1053,20969,10459,trol,12,0,0,0,0,0,1,0
1078,20970,10459,trol,12,0,0,0,0,0,1,0
1115,20971,10459,trol,12,0,0,0,0,0,1,0
1141,20972,10459,trol,12,0,0,0,0,0,1,0
1165,20973,10459,trol,12,0,0,0,0,0,1,0
1190,20974,10459,trol,12,0,0,0,0,0,1,0
1217,20975,10459,trol,12,0,0,0,0,0,1,0
1232,20976,10459,trol,12,0,0,0,0,0,1,0
1260,20977,10459,trol,12,0,0,0,0,0,1,0
1277,20978,10459,trol,12,0,0,0,0,0,1,0
1305,20979,10459,trol,12,0,0,0,0,0,1,0
1331,20980,10459,trol,12,0,0,0,0,0,1,0
1364,20981,10459,trol,12,0,0,0,0,0,1,0
1056,21146,10460,trol,12,0,0,0,0,0,0,1
1342,21147,10460,trol,12,0,0,0,0,0,0,1
1385,21148,10460,trol,12,0,0,0,0,0,0,1
1413,21149,10460,trol,12,0,0,0,0,0,0,1
1434,21150,10460,trol,12,0,0,0,0,0,0,1
1156,21151,10458,trol,12,1,1,1,1,1,0,0
1201,21152,10458,trol,12,1,1,1,1,1,0,0
1301,21153,10458,trol,12,1,1,1,1,1,0,0
1339,21154,10458,trol,12,1,1,1,1,1,0,0
1354,21155,10458,trol,12,1,1,1,1,1,0,0
1367,21156,10458,trol,12,1,1,1,1,1,0,0
1387,21157,10458,trol,12,1,1,1,1,1,0,0
1401,21158,10458,trol,12,1,1,1,1,1,0,0
1424,21159,10458,trol,12,1,1,1,1,1,0,0
1436,21160,10458,trol,12,1,1,1,1,1,0,0
1056,21161,10459,trol,12,0,0,0,0,0,1,0
1342,21162,10459,trol,12,0,0,0,0,0,1,0
1385,21163,10459,trol,12,0,0,0,0,0,1,0
1413,21164,10459,trol,12,0,0,0,0,0,1,0
1434,21165,10459,trol,12,0,0,0,0,0,1,0
383,22188,10471,trol,17,0,0,0,0,0,0,1
402,22189,10471,trol,17,0,0,0,0,0,0,1
415,22190,10471,trol,17,0,0,0,0,0,0,1
433,22191,10471,trol,17,0,0,0,0,0,0,1
446,22192,10471,trol,17,0,0,0,0,0,0,1
460,22193,10471,trol,17,0,0,0,0,0,0,1
474,22194,10471,trol,17,0,0,0,0,0,0,1
487,22195,10471,trol,17,0,0,0,0,0,0,1
504,22196,10471,trol,17,0,0,0,0,0,0,1
519,22197,10471,trol,17,0,0,0,0,0,0,1
529,22198,10471,trol,17,0,0,0,0,0,0,1
544,22199,10471,trol,17,0,0,0,0,0,0,1
556,22200,10471,trol,17,0,0,0,0,0,0,1
567,22201,10471,trol,17,0,0,0,0,0,0,1
581,22202,10471,trol,17,0,0,0,0,0,0,1
593,22203,10471,trol,17,0,0,0,0,0,0,1
603,22204,10471,trol,17,0,0,0,0,0,0,1
615,22205,10471,trol,17,0,0,0,0,0,0,1
626,22206,10471,trol,17,0,0,0,0,0,0,1
635,22207,10471,trol,17,0,0,0,0,0,0,1
644,22208,10471,trol,17,0,0,0,0,0,0,1
655,22209,10471,trol,17,0,0,0,0,0,0,1
663,22210,10471,trol,17,0,0,0,0,0,0,1
678,22211,10471,trol,17,0,0,0,0,0,0,1
692,22212,10471,trol,17,0,0,0,0,0,0,1
705,22213,10471,trol,17,0,0,0,0,0,0,1
716,22214,10471,trol,17,0,0,0,0,0,0,1
728,22215,10471,trol,17,0,0,0,0,0,0,1
738,22216,10471,trol,17,0,0,0,0,0,0,1
750,22217,10471,trol,17,0,0,0,0,0,0,1
759,22218,10471,trol,17,0,0,0,0,0,0,1
769,22219,10471,trol,17,0,0,0,0,0,0,1
778,22220,10471,trol,17,0,0,0,0,0,0,1
790,22221,10471,trol,17,0,0,0,0,0,0,1
803,22222,10471,trol,17,0,0,0,0,0,0,1
812,22223,10471,trol,17,0,0,0,0,0,0,1
823,22224,10471,trol,17,0,0,0,0,0,0,1
834,22225,10471,trol,17,0,0,0,0,0,0,1
846,22226,10471,trol,17,0,0,0,0,0,0,1
859,22227,10471,trol,17,0,0,0,0,0,0,1
867,22228,10471,trol,17,0,0,0,0,0,0,1
878,22229,10471,trol,17,0,0,0,0,0,0,1
890,22230,10471,trol,17,0,0,0,0,0,0,1
900,22231,10471,trol,17,0,0,0,0,0,0,1
912,22232,10471,trol,17,0,0,0,0,0,0,1
923,22233,10471,trol,17,0,0,0,0,0,0,1
932,22234,10471,trol,17,0,0,0,0,0,0,1
942,22235,10471,trol,17,0,0,0,0,0,0,1
952,22236,10471,trol,17,0,0,0,0,0,0,1
961,22237,10471,trol,17,0,0,0,0,0,0,1
972,22238,10471,trol,17,0,0,0,0,0,0,1
983,22239,10471,trol,17,0,0,0,0,0,0,1
993,22240,10471,trol,17,0,0,0,0,0,0,1
1005,22241,10471,trol,17,0,0,0,0,0,0,1
1013,22242,10471,trol,17,0,0,0,0,0,0,1
1027,22243,10471,trol,17,0,0,0,0,0,0,1
1042,22244,10471,trol,17,0,0,0,0,0,0,1
1068,22245,10471,trol,17,0,0,0,0,0,0,1
1085,22246,10471,trol,17,0,0,0,0,0,0,1
1109,22247,10471,trol,17,0,0,0,0,0,0,1
1123,22248,10471,trol,17,0,0,0,0,0,0,1
1143,22249,10471,trol,17,0,0,0,0,0,0,1
1156,22250,10471,trol,17,0,0,0,0,0,0,1
1174,22251,10471,trol,17,0,0,0,0,0,0,1
1192,22252,10471,trol,17,0,0,0,0,0,0,1
1202,22253,10471,trol,17,0,0,0,0,0,0,1
1218,22254,10471,trol,17,0,0,0,0,0,0,1
1234,22255,10471,trol,17,0,0,0,0,0,0,1
1246,22256,10471,trol,17,0,0,0,0,0,0,1
1263,22257,10471,trol,17,0,0,0,0,0,0,1
1277,22258,10471,trol,17,0,0,0,0,0,0,1
1291,22259,10471,trol,17,0,0,0,0,0,0,1
1304,22260,10471,trol,17,0,0,0,0,0,0,1
1325,22261,10471,trol,17,0,0,0,0,0,0,1
1353,22262,10471,trol,17,0,0,0,0,0,0,1
338,22263,10469,trol,17,1,1,1,1,1,0,0
352,22264,10469,trol,17,1,1,1,1,1,0,0
366,22265,10469,trol,17,1,1,1,1,1,0,0
378,22266,10469,trol,17,1,1,1,1,1,0,0
387,22267,10469,trol,17,1,1,1,1,1,0,0
395,22268,10469,trol,17,1,1,1,1,1,0,0
405,22269,10469,trol,17,1,1,1,1,1,0,0
410,22270,10469,trol,17,1,1,1,1,1,0,0
415,22271,10469,trol,17,1,1,1,1,1,0,0
421,22272,10469,trol,17,1,1,1,1,1,0,0
427,22273,10469,trol,17,1,1,1,1,1,0,0
435,22274,10469,trol,17,1,1,1,1,1,0,0
443,22275,10469,trol,17,1,1,1,1,1,0,0
450,22276,10469,trol,17,1,1,1,1,1,0,0
456,22277,10469,trol,17,1,1,1,1,1,0,0
464,22278,10469,trol,17,1,1,1,1,1,0,0
470,22279,10469,trol,17,1,1,1,1,1,0,0
477,22280,10469,trol,17,1,1,1,1,1,0,0
483,22281,10469,trol,17,1,1,1,1,1,0,0
490,22282,10469,trol,17,1,1,1,1,1,0,0
498,22283,10469,trol,17,1,1,1,1,1,0,0
506,22284,10469,trol,17,1,1,1,1,1,0,0
512,22285,10469,trol,17,1,1,1,1,1,0,0
521,22286,10469,trol,17,1,1,1,1,1,0,0
526,22287,10469,trol,17,1,1,1,1,1,0,0
533,22288,10469,trol,17,1,1,1,1,1,0,0
540,22289,10469,trol,17,1,1,1,1,1,0,0
546,22290,10469,trol,17,1,1,1,1,1,0,0
556,22291,10469,trol,17,1,1,1,1,1,0,0
566,22292,10469,trol,17,1,1,1,1,1,0,0
576,22293,10469,trol,17,1,1,1,1,1,0,0
588,22294,10469,trol,17,1,1,1,1,1,0,0
601,22295,10469,trol,17,1,1,1,1,1,0,0
611,22296,10469,trol,17,1,1,1,1,1,0,0
619,22297,10469,trol,17,1,1,1,1,1,0,0
627,22298,10469,trol,17,1,1,1,1,1,0,0
645,22299,10469,trol,17,1,1,1,1,1,0,0
658,22300,10469,trol,17,1,1,1,1,1,0,0
667,22301,10469,trol,17,1,1,1,1,1,0,0
680,22302,10469,trol,17,1,1,1,1,1,0,0
692,22303,10469,trol,17,1,1,1,1,1,0,0
701,22304,10469,trol,17,1,1,1,1,1,0,0
713,22305,10469,trol,17,1,1,1,1,1,0,0
727,22306,10469,trol,17,1,1,1,1,1,0,0
739,22307,10469,trol,17,1,1,1,1,1,0,0
748,22308,10469,trol,17,1,1,1,1,1,0,0
760,22309,10469,trol,17,1,1,1,1,1,0,0
773,22310,10469,trol,17,1,1,1,1,1,0,0
782,22311,10469,trol,17,1,1,1,1,1,0,0
795,22312,10469,trol,17,1,1,1,1,1,0,0
807,22313,10469,trol,17,1,1,1,1,1,0,0
820,22314,10469,trol,17,1,1,1,1,1,0,0
833,22315,10469,trol,17,1,1,1,1,1,0,0
847,22316,10469,trol,17,1,1,1,1,1,0,0
857,22317,10469,trol,17,1,1,1,1,1,0,0
871,22318,10469,trol,17,1,1,1,1,1,0,0
885,22319,10469,trol,17,1,1,1,1,1,0,0
895,22320,10469,trol,17,1,1,1,1,1,0,0
906,22321,10469,trol,17,1,1,1,1,1,0,0
915,22322,10469,trol,17,1,1,1,1,1,0,0
921,22323,10469,trol,17,1,1,1,1,1,0,0
927,22324,10469,trol,17,1,1,1,1,1,0,0
933,22325,10469,trol,17,1,1,1,1,1,0,0
940,22326,10469,trol,17,1,1,1,1,1,0,0
946,22327,10469,trol,17,1,1,1,1,1,0,0
954,22328,10469,trol,17,1,1,1,1,1,0,0
962,22329,10469,trol,17,1,1,1,1,1,0,0
969,22330,10469,trol,17,1,1,1,1,1,0,0
975,22331,10469,trol,17,1,1,1,1,1,0,0
980,22332,10469,trol,17,1,1,1,1,1,0,0
987,22333,10469,trol,17,1,1,1,1,1,0,0
994,22334,10469,trol,17,1,1,1,1,1,0,0
1000,22335,10469,trol,17,1,1,1,1,1,0,0
1007,22336,10469,trol,17,1,1,1,1,1,0,0
1013,22337,10469,trol,17,1,1,1,1,1,0,0
1020,22338,10469,trol,17,1,1,1,1,1,0,0
1027,22339,10469,trol,17,1,1,1,1,1,0,0
1037,22340,10469,trol,17,1,1,1,1,1,0,0
1047,22341,10469,trol,17,1,1,1,1,1,0,0
1057,22342,10469,trol,17,1,1,1,1,1,0,0
1063,22343,10469,trol,17,1,1,1,1,1,0,0
1073,22344,10469,trol,17,1,1,1,1,1,0,0
1082,22345,10469,trol,17,1,1,1,1,1,0,0
1090,22346,10469,trol,17,1,1,1,1,1,0,0
1098,22347,10469,trol,17,1,1,1,1,1,0,0
1107,22348,10469,trol,17,1,1,1,1,1,0,0
1115,22349,10469,trol,17,1,1,1,1,1,0,0
1129,22350,10469,trol,17,1,1,1,1,1,0,0
1140,22351,10469,trol,17,1,1,1,1,1,0,0
1154,22352,10469,trol,17,1,1,1,1,1,0,0
1167,22353,10469,trol,17,1,1,1,1,1,0,0
1177,22354,10469,trol,17,1,1,1,1,1,0,0
1189,22355,10469,trol,17,1,1,1,1,1,0,0
1195,22356,10469,trol,17,1,1,1,1,1,0,0
1208,22357,10469,trol,17,1,1,1,1,1,0,0
1220,22358,10469,trol,17,1,1,1,1,1,0,0
1231,22359,10469,trol,17,1,1,1,1,1,0,0
1243,22360,10469,trol,17,1,1,1,1,1,0,0
1255,22361,10469,trol,17,1,1,1,1,1,0,0
1266,22362,10469,trol,17,1,1,1,1,1,0,0
1278,22363,10469,trol,17,1,1,1,1,1,0,0
1290,22364,10469,trol,17,1,1,1,1,1,0,0
1299,22365,10469,trol,17,1,1,1,1,1,0,0
1315,22366,10469,trol,17,1,1,1,1,1,0,0
1342,22367,10469,trol,17,1,1,1,1,1,0,0
1369,22368,10469,trol,17,1,1,1,1,1,0,0
332,22369,10470,trol,17,0,0,0,0,0,1,0
354,22370,10470,trol,17,0,0,0,0,0,1,0
383,22371,10470,trol,17,0,0,0,0,0,1,0
402,22372,10470,trol,17,0,0,0,0,0,1,0
415,22373,10470,trol,17,0,0,0,0,0,1,0
433,22374,10470,trol,17,0,0,0,0,0,1,0
446,22375,10470,trol,17,0,0,0,0,0,1,0
460,22376,10470,trol,17,0,0,0,0,0,1,0
474,22377,10470,trol,17,0,0,0,0,0,1,0
487,22378,10470,trol,17,0,0,0,0,0,1,0
504,22379,10470,trol,17,0,0,0,0,0,1,0
519,22380,10470,trol,17,0,0,0,0,0,1,0
529,22381,10470,trol,17,0,0,0,0,0,1,0
544,22382,10470,trol,17,0,0,0,0,0,1,0
556,22383,10470,trol,17,0,0,0,0,0,1,0
567,22384,10470,trol,17,0,0,0,0,0,1,0
581,22385,10470,trol,17,0,0,0,0,0,1,0
593,22386,10470,trol,17,0,0,0,0,0,1,0
603,22387,10470,trol,17,0,0,0,0,0,1,0
615,22388,10470,trol,17,0,0,0,0,0,1,0
626,22389,10470,trol,17,0,0,0,0,0,1,0
635,22390,10470,trol,17,0,0,0,0,0,1,0
644,22391,10470,trol,17,0,0,0,0,0,1,0
655,22392,10470,trol,17,0,0,0,0,0,1,0
663,22393,10470,trol,17,0,0,0,0,0,1,0
678,22394,10470,trol,17,0,0,0,0,0,1,0
692,22395,10470,trol,17,0,0,0,0,0,1,0
705,22396,10470,trol,17,0,0,0,0,0,1,0
716,22397,10470,trol,17,0,0,0,0,0,1,0
728,22398,10470,trol,17,0,0,0,0,0,1,0
738,22399,10470,trol,17,0,0,0,0,0,1,0
750,22400,10470,trol,17,0,0,0,0,0,1,0
759,22401,10470,trol,17,0,0,0,0,0,1,0
769,22402,10470,trol,17,0,0,0,0,0,1,0
778,22403,10470,trol,17,0,0,0,0,0,1,0
790,22404,10470,trol,17,0,0,0,0,0,1,0
803,22405,10470,trol,17,0,0,0,0,0,1,0
812,22406,10470,trol,17,0,0,0,0,0,1,0
823,22407,10470,trol,17,0,0,0,0,0,1,0
834,22408,10470,trol,17,0,0,0,0,0,1,0
846,22409,10470,trol,17,0,0,0,0,0,1,0
859,22410,10470,trol,17,0,0,0,0,0,1,0
867,22411,10470,trol,17,0,0,0,0,0,1,0
878,22412,10470,trol,17,0,0,0,0,0,1,0
890,22413,10470,trol,17,0,0,0,0,0,1,0
900,22414,10470,trol,17,0,0,0,0,0,1,0
912,22415,10470,trol,17,0,0,0,0,0,1,0
923,22416,10470,trol,17,0,0,0,0,0,1,0
932,22417,10470,trol,17,0,0,0,0,0,1,0
942,22418,10470,trol,17,0,0,0,0,0,1,0
952,22419,10470,trol,17,0,0,0,0,0,1,0
961,22420,10470,trol,17,0,0,0,0,0,1,0
972,22421,10470,trol,17,0,0,0,0,0,1,0
983,22422,10470,trol,17,0,0,0,0,0,1,0
993,22423,10470,trol,17,0,0,0,0,0,1,0
1005,22424,10470,trol,17,0,0,0,0,0,1,0
1013,22425,10470,trol,17,0,0,0,0,0,1,0
1027,22426,10470,trol,17,0,0,0,0,0,1,0
1042,22427,10470,trol,17,0,0,0,0,0,1,0
1068,22428,10470,trol,17,0,0,0,0,0,1,0
1085,22429,10470,trol,17,0,0,0,0,0,1,0
1109,22430,10470,trol,17,0,0,0,0,0,1,0
1123,22431,10470,trol,17,0,0,0,0,0,1,0
1143,22432,10470,trol,17,0,0,0,0,0,1,0
1156,22433,10470,trol,17,0,0,0,0,0,1,0
1174,22434,10470,trol,17,0,0,0,0,0,1,0
1192,22435,10470,trol,17,0,0,0,0,0,1,0
1202,22436,10470,trol,17,0,0,0,0,0,1,0
1218,22437,10470,trol,17,0,0,0,0,0,1,0
1234,22438,10470,trol,17,0,0,0,0,0,1,0
1246,22439,10470,trol,17,0,0,0,0,0,1,0
1263,22440,10470,trol,17,0,0,0,0,0,1,0
1277,22441,10470,trol,17,0,0,0,0,0,1,0
1291,22442,10470,trol,17,0,0,0,0,0,1,0
1304,22443,10470,trol,17,0,0,0,0,0,1,0
1325,22444,10470,trol,17,0,0,0,0,0,1,0
1353,22445,10470,trol,17,0,0,0,0,0,1,0
1045,22711,10471,trol,17,0,0,0,0,0,0,1
1059,22712,10471,trol,17,0,0,0,0,0,0,1
1096,22713,10471,trol,17,0,0,0,0,0,0,1
1328,22714,10471,trol,17,0,0,0,0,0,0,1
1356,22715,10471,trol,17,0,0,0,0,0,0,1
1370,22716,10471,trol,17,0,0,0,0,0,0,1
1381,22717,10471,trol,17,0,0,0,0,0,0,1
1402,22718,10471,trol,17,0,0,0,0,0,0,1
1430,22719,10471,trol,17,0,0,0,0,0,0,1
1111,22720,10469,trol,17,1,1,1,1,1,0,0
1124,22721,10469,trol,17,1,1,1,1,1,0,0
1145,22722,10469,trol,17,1,1,1,1,1,0,0
1159,22723,10469,trol,17,1,1,1,1,1,0,0
1171,22724,10469,trol,17,1,1,1,1,1,0,0
1181,22725,10469,trol,17,1,1,1,1,1,0,0
1199,22726,10469,trol,17,1,1,1,1,1,0,0
1304,22727,10469,trol,17,1,1,1,1,1,0,0
1338,22728,10469,trol,17,1,1,1,1,1,0,0
1348,22729,10469,trol,17,1,1,1,1,1,0,0
1373,22730,10469,trol,17,1,1,1,1,1,0,0
1382,22731,10469,trol,17,1,1,1,1,1,0,0
1397,22732,10469,trol,17,1,1,1,1,1,0,0
1424,22733,10469,trol,17,1,1,1,1,1,0,0
1045,22734,10470,trol,17,0,0,0,0,0,1,0
1059,22735,10470,trol,17,0,0,0,0,0,1,0
1096,22736,10470,trol,17,0,0,0,0,0,1,0
1328,22737,10470,trol,17,0,0,0,0,0,1,0
1356,22738,10470,trol,17,0,0,0,0,0,1,0
1370,22739,10470,trol,17,0,0,0,0,0,1,0
1381,22740,10470,trol,17,0,0,0,0,0,1,0
1402,22741,10470,trol,17,0,0,0,0,0,1,0
1430,22742,10470,trol,17,0,0,0,0,0,1,0
357,23600,10569,trol,20,0,0,0,0,0,0,1
378,23601,10569,trol,20,0,0,0,0,0,0,1
407,23602,10569,trol,20,0,0,0,0,0,0,1
431,23603,10569,trol,20,0,0,0,0,0,0,1
450,23604,10569,trol,20,0,0,0,0,0,0,1
468,23605,10569,trol,20,0,0,0,0,0,0,1
491,23606,10569,trol,20,0,0,0,0,0,0,1
507,23607,10569,trol,20,0,0,0,0,0,0,1
527,23608,10569,trol,20,0,0,0,0,0,0,1
550,23609,10569,trol,20,0,0,0,0,0,0,1
569,23610,10569,trol,20,0,0,0,0,0,0,1
606,23611,10569,trol,20,0,0,0,0,0,0,1
624,23612,10569,trol,20,0,0,0,0,0,0,1
638,23613,10569,trol,20,0,0,0,0,0,0,1
670,23614,10569,trol,20,0,0,0,0,0,0,1
689,23615,10569,trol,20,0,0,0,0,0,0,1
711,23616,10569,trol,20,0,0,0,0,0,0,1
733,23617,10569,trol,20,0,0,0,0,0,0,1
748,23618,10569,trol,20,0,0,0,0,0,0,1
767,23619,10569,trol,20,0,0,0,0,0,0,1
787,23620,10569,trol,20,0,0,0,0,0,0,1
808,23621,10569,trol,20,0,0,0,0,0,0,1
826,23622,10569,trol,20,0,0,0,0,0,0,1
843,23623,10569,trol,20,0,0,0,0,0,0,1
864,23624,10569,trol,20,0,0,0,0,0,0,1
887,23625,10569,trol,20,0,0,0,0,0,0,1
907,23626,10569,trol,20,0,0,0,0,0,0,1
927,23627,10569,trol,20,0,0,0,0,0,0,1
945,23628,10569,trol,20,0,0,0,0,0,0,1
965,23629,10569,trol,20,0,0,0,0,0,0,1
985,23630,10569,trol,20,0,0,0,0,0,0,1
999,23631,10569,trol,20,0,0,0,0,0,0,1
1023,23632,10569,trol,20,0,0,0,0,0,0,1
1047,23633,10569,trol,20,0,0,0,0,0,0,1
1073,23634,10569,trol,20,0,0,0,0,0,0,1
1102,23635,10569,trol,20,0,0,0,0,0,0,1
1128,23636,10569,trol,20,0,0,0,0,0,0,1
1151,23637,10569,trol,20,0,0,0,0,0,0,1
1172,23638,10569,trol,20,0,0,0,0,0,0,1
1183,23639,10569,trol,20,0,0,0,0,0,0,1
1208,23640,10569,trol,20,0,0,0,0,0,0,1
1228,23641,10569,trol,20,0,0,0,0,0,0,1
1241,23642,10569,trol,20,0,0,0,0,0,0,1
1257,23643,10569,trol,20,0,0,0,0,0,0,1
1284,23644,10569,trol,20,0,0,0,0,0,0,1
1308,23645,10569,trol,20,0,0,0,0,0,0,1
1332,23646,10569,trol,20,0,0,0,0,0,0,1
310,23647,10478,trol,20,1,1,1,1,1,0,0
341,23648,10478,trol,20,1,1,1,1,1,0,0
362,23649,10478,trol,20,1,1,1,1,1,0,0
383,23650,10478,trol,20,1,1,1,1,1,0,0
399,23651,10478,trol,20,1,1,1,1,1,0,0
413,23652,10478,trol,20,1,1,1,1,1,0,0
429,23653,10478,trol,20,1,1,1,1,1,0,0
441,23654,10478,trol,20,1,1,1,1,1,0,0
458,23655,10478,trol,20,1,1,1,1,1,0,0
472,23656,10478,trol,20,1,1,1,1,1,0,0
484,23657,10478,trol,20,1,1,1,1,1,0,0
501,23658,10478,trol,20,1,1,1,1,1,0,0
517,23659,10478,trol,20,1,1,1,1,1,0,0
531,23660,10478,trol,20,1,1,1,1,1,0,0
551,23661,10478,trol,20,1,1,1,1,1,0,0
573,23662,10478,trol,20,1,1,1,1,1,0,0
593,23663,10478,trol,20,1,1,1,1,1,0,0
613,23664,10478,trol,20,1,1,1,1,1,0,0
631,23665,10478,trol,20,1,1,1,1,1,0,0
647,23666,10478,trol,20,1,1,1,1,1,0,0
670,23667,10478,trol,20,1,1,1,1,1,0,0
685,23668,10478,trol,20,1,1,1,1,1,0,0
699,23669,10478,trol,20,1,1,1,1,1,0,0
717,23670,10478,trol,20,1,1,1,1,1,0,0
734,23671,10478,trol,20,1,1,1,1,1,0,0
756,23672,10478,trol,20,1,1,1,1,1,0,0
770,23673,10478,trol,20,1,1,1,1,1,0,0
785,23674,10478,trol,20,1,1,1,1,1,0,0
800,23675,10478,trol,20,1,1,1,1,1,0,0
815,23676,10478,trol,20,1,1,1,1,1,0,0
837,23677,10478,trol,20,1,1,1,1,1,0,0
852,23678,10478,trol,20,1,1,1,1,1,0,0
868,23679,10478,trol,20,1,1,1,1,1,0,0
887,23680,10478,trol,20,1,1,1,1,1,0,0
898,23681,10478,trol,20,1,1,1,1,1,0,0
917,23682,10478,trol,20,1,1,1,1,1,0,0
934,23683,10478,trol,20,1,1,1,1,1,0,0
945,23684,10478,trol,20,1,1,1,1,1,0,0
958,23685,10478,trol,20,1,1,1,1,1,0,0
973,23686,10478,trol,20,1,1,1,1,1,0,0
988,23687,10478,trol,20,1,1,1,1,1,0,0
1005,23688,10478,trol,20,1,1,1,1,1,0,0
1017,23689,10478,trol,20,1,1,1,1,1,0,0
1032,23690,10478,trol,20,1,1,1,1,1,0,0
1048,23691,10478,trol,20,1,1,1,1,1,0,0
1066,23692,10478,trol,20,1,1,1,1,1,0,0
1084,23693,10478,trol,20,1,1,1,1,1,0,0
1104,23694,10478,trol,20,1,1,1,1,1,0,0
1120,23695,10478,trol,20,1,1,1,1,1,0,0
1137,23696,10478,trol,20,1,1,1,1,1,0,0
1157,23697,10478,trol,20,1,1,1,1,1,0,0
1183,23698,10478,trol,20,1,1,1,1,1,0,0
1198,23699,10478,trol,20,1,1,1,1,1,0,0
1210,23700,10478,trol,20,1,1,1,1,1,0,0
1222,23701,10478,trol,20,1,1,1,1,1,0,0
1239,23702,10478,trol,20,1,1,1,1,1,0,0
1261,23703,10478,trol,20,1,1,1,1,1,0,0
1275,23704,10478,trol,20,1,1,1,1,1,0,0
1295,23705,10478,trol,20,1,1,1,1,1,0,0
1308,23706,10478,trol,20,1,1,1,1,1,0,0
1323,23707,10478,trol,20,1,1,1,1,1,0,0
1337,23708,10478,trol,20,1,1,1,1,1,0,0
1360,23709,10478,trol,20,1,1,1,1,1,0,0
357,23710,10479,trol,20,0,0,0,0,0,1,0
378,23711,10479,trol,20,0,0,0,0,0,1,0
407,23712,10479,trol,20,0,0,0,0,0,1,0
431,23713,10479,trol,20,0,0,0,0,0,1,0
450,23714,10479,trol,20,0,0,0,0,0,1,0
468,23715,10479,trol,20,0,0,0,0,0,1,0
491,23716,10479,trol,20,0,0,0,0,0,1,0
507,23717,10479,trol,20,0,0,0,0,0,1,0
527,23718,10479,trol,20,0,0,0,0,0,1,0
550,23719,10479,trol,20,0,0,0,0,0,1,0
569,23720,10479,trol,20,0,0,0,0,0,1,0
606,23721,10479,trol,20,0,0,0,0,0,1,0
624,23722,10479,trol,20,0,0,0,0,0,1,0
638,23723,10479,trol,20,0,0,0,0,0,1,0
670,23724,10479,trol,20,0,0,0,0,0,1,0
689,23725,10479,trol,20,0,0,0,0,0,1,0
711,23726,10479,trol,20,0,0,0,0,0,1,0
733,23727,10479,trol,20,0,0,0,0,0,1,0
748,23728,10479,trol,20,0,0,0,0,0,1,0
767,23729,10479,trol,20,0,0,0,0,0,1,0
787,23730,10479,trol,20,0,0,0,0,0,1,0
808,23731,10479,trol,20,0,0,0,0,0,1,0
826,23732,10479,trol,20,0,0,0,0,0,1,0
843,23733,10479,trol,20,0,0,0,0,0,1,0
864,23734,10479,trol,20,0,0,0,0,0,1,0
887,23735,10479,trol,20,0,0,0,0,0,1,0
907,23736,10479,trol,20,0,0,0,0,0,1,0
927,23737,10479,trol,20,0,0,0,0,0,1,0
945,23738,10479,trol,20,0,0,0,0,0,1,0
965,23739,10479,trol,20,0,0,0,0,0,1,0
985,23740,10479,trol,20,0,0,0,0,0,1,0
999,23741,10479,trol,20,0,0,0,0,0,1,0
1023,23742,10479,trol,20,0,0,0,0,0,1,0
1047,23743,10479,trol,20,0,0,0,0,0,1,0
1073,23744,10479,trol,20,0,0,0,0,0,1,0
1102,23745,10479,trol,20,0,0,0,0,0,1,0
1128,23746,10479,trol,20,0,0,0,0,0,1,0
1151,23747,10479,trol,20,0,0,0,0,0,1,0
1172,23748,10479,trol,20,0,0,0,0,0,1,0
1183,23749,10479,trol,20,0,0,0,0,0,1,0
1208,23750,10479,trol,20,0,0,0,0,0,1,0
1228,23751,10479,trol,20,0,0,0,0,0,1,0
1241,23752,10479,trol,20,0,0,0,0,0,1,0
1257,23753,10479,trol,20,0,0,0,0,0,1,0
1284,23754,10479,trol,20,0,0,0,0,0,1,0
1308,23755,10479,trol,20,0,0,0,0,0,1,0
1332,23756,10479,trol,20,0,0,0,0,0,1,0
1311,23914,10569,trol,20,0,0,0,0,0,0,1
1351,23915,10569,trol,20,0,0,0,0,0,0,1
1375,23916,10569,trol,20,0,0,0,0,0,0,1
1399,23917,10569,trol,20,0,0,0,0,0,0,1
1212,23918,10478,trol,20,1,1,1,1,1,0,0
1366,23919,10478,trol,20,1,1,1,1,1,0,0
1378,23920,10478,trol,20,1,1,1,1,1,0,0
1393,23921,10478,trol,20,1,1,1,1,1,0,0
1407,23922,10478,trol,20,1,1,1,1,1,0,0
1430,23923,10478,trol,20,1,1,1,1,1,0,0
1311,23924,10479,trol,20,0,0,0,0,0,1,0
1351,23925,10479,trol,20,0,0,0,0,0,1,0
1375,23926,10479,trol,20,0,0,0,0,0,1,0
1399,23927,10479,trol,20,0,0,0,0,0,1,0
351,23992,10480,trol,21,1,1,1,1,1,0,0
378,23993,10480,trol,21,1,1,1,1,1,0,0
411,23994,10480,trol,21,1,1,1,1,1,0,0
431,23995,10480,trol,21,1,1,1,1,1,0,0
455,23996,10480,trol,21,1,1,1,1,1,0,0
478,23997,10480,trol,21,1,1,1,1,1,0,0
503,23998,10480,trol,21,1,1,1,1,1,0,0
533,23999,10480,trol,21,1,1,1,1,1,0,0
571,24000,10480,trol,21,1,1,1,1,1,0,0
601,24001,10480,trol,21,1,1,1,1,1,0,0
635,24002,10480,trol,21,1,1,1,1,1,0,0
670,24003,10480,trol,21,1,1,1,1,1,0,0
700,24004,10480,trol,21,1,1,1,1,1,0,0
736,24005,10480,trol,21,1,1,1,1,1,0,0
767,24006,10480,trol,21,1,1,1,1,1,0,0
801,24007,10480,trol,21,1,1,1,1,1,0,0
840,24008,10480,trol,21,1,1,1,1,1,0,0
858,24009,10480,trol,21,1,1,1,1,1,0,0
879,24010,10480,trol,21,1,1,1,1,1,0,0
905,24011,10480,trol,21,1,1,1,1,1,0,0
925,24012,10480,trol,21,1,1,1,1,1,0,0
947,24013,10480,trol,21,1,1,1,1,1,0,0
971,24014,10480,trol,21,1,1,1,1,1,0,0
994,24015,10480,trol,21,1,1,1,1,1,0,0
1016,24016,10480,trol,21,1,1,1,1,1,0,0
1043,24017,10480,trol,21,1,1,1,1,1,0,0
1065,24018,10480,trol,21,1,1,1,1,1,0,0
1091,24019,10480,trol,21,1,1,1,1,1,0,0
1139,24020,10480,trol,21,1,1,1,1,1,0,0
1183,24021,10480,trol,21,1,1,1,1,1,0,0
1209,24022,10480,trol,21,1,1,1,1,1,0,0
1243,24023,10480,trol,21,1,1,1,1,1,0,0
1273,24024,10480,trol,21,1,1,1,1,1,0,0
1306,24025,10480,trol,21,1,1,1,1,1,0,0
376,24026,10481,trol,21,0,0,0,0,0,1,1
432,24027,10481,trol,21,0,0,0,0,0,1,1
494,24028,10481,trol,21,0,0,0,0,0,1,1
553,24029,10481,trol,21,0,0,0,0,0,1,1
643,24030,10481,trol,21,0,0,0,0,0,1,1
703,24031,10481,trol,21,0,0,0,0,0,1,1
761,24032,10481,trol,21,0,0,0,0,0,1,1
818,24033,10481,trol,21,0,0,0,0,0,1,1
879,24034,10481,trol,21,0,0,0,0,0,1,1
935,24035,10481,trol,21,0,0,0,0,0,1,1
992,24036,10481,trol,21,0,0,0,0,0,1,1
1080,24037,10481,trol,21,0,0,0,0,0,1,1
1137,24038,10481,trol,21,0,0,0,0,0,1,1
1194,24039,10481,trol,21,0,0,0,0,0,1,1
1251,24040,10481,trol,21,0,0,0,0,0,1,1
1307,24041,10481,trol,21,0,0,0,0,0,1,1
1334,24043,10480,trol,21,1,1,1,1,1,0,0
1369,24044,10480,trol,21,1,1,1,1,1,0,0
1361,24045,10481,trol,21,0,0,0,0,0,1,1
