timeInMin,trip_id,service_id,tipas,numeris,pirmadienis,antradienis,treciadienis,ketvirtadienis,penktadienis,sestadienis,sekmadienis 
420,1999,10329,expressbus,3G,0,0,0,0,0,0,1
434,2000,10329,expressbus,3G,0,0,0,0,0,0,1
448,2001,10329,expressbus,3G,0,0,0,0,0,0,1
461,2002,10329,expressbus,3G,0,0,0,0,0,0,1
472,2003,10329,expressbus,3G,0,0,0,0,0,0,1
485,2004,10329,expressbus,3G,0,0,0,0,0,0,1
497,2005,10329,expressbus,3G,0,0,0,0,0,0,1
512,2006,10329,expressbus,3G,0,0,0,0,0,0,1
523,2007,10329,expressbus,3G,0,0,0,0,0,0,1
536,2008,10329,expressbus,3G,0,0,0,0,0,0,1
548,2009,10329,expressbus,3G,0,0,0,0,0,0,1
561,2010,10329,expressbus,3G,0,0,0,0,0,0,1
574,2011,10329,expressbus,3G,0,0,0,0,0,0,1
586,2012,10329,expressbus,3G,0,0,0,0,0,0,1
600,2013,10329,expressbus,3G,0,0,0,0,0,0,1
612,2014,10329,expressbus,3G,0,0,0,0,0,0,1
626,2015,10329,expressbus,3G,0,0,0,0,0,0,1
636,2016,10329,expressbus,3G,0,0,0,0,0,0,1
646,2017,10329,expressbus,3G,0,0,0,0,0,0,1
655,2018,10329,expressbus,3G,0,0,0,0,0,0,1
667,2019,10329,expressbus,3G,0,0,0,0,0,0,1
678,2020,10329,expressbus,3G,0,0,0,0,0,0,1
690,2021,10329,expressbus,3G,0,0,0,0,0,0,1
701,2022,10329,expressbus,3G,0,0,0,0,0,0,1
713,2023,10329,expressbus,3G,0,0,0,0,0,0,1
725,2024,10329,expressbus,3G,0,0,0,0,0,0,1
735,2025,10329,expressbus,3G,0,0,0,0,0,0,1
744,2026,10329,expressbus,3G,0,0,0,0,0,0,1
756,2027,10329,expressbus,3G,0,0,0,0,0,0,1
767,2028,10329,expressbus,3G,0,0,0,0,0,0,1
775,2029,10329,expressbus,3G,0,0,0,0,0,0,1
783,2030,10329,expressbus,3G,0,0,0,0,0,0,1
790,2031,10329,expressbus,3G,0,0,0,0,0,0,1
797,2032,10329,expressbus,3G,0,0,0,0,0,0,1
808,2033,10329,expressbus,3G,0,0,0,0,0,0,1
819,2034,10329,expressbus,3G,0,0,0,0,0,0,1
833,2035,10329,expressbus,3G,0,0,0,0,0,0,1
844,2036,10329,expressbus,3G,0,0,0,0,0,0,1
856,2037,10329,expressbus,3G,0,0,0,0,0,0,1
871,2038,10329,expressbus,3G,0,0,0,0,0,0,1
881,2039,10329,expressbus,3G,0,0,0,0,0,0,1
890,2040,10329,expressbus,3G,0,0,0,0,0,0,1
897,2041,10329,expressbus,3G,0,0,0,0,0,0,1
905,2042,10329,expressbus,3G,0,0,0,0,0,0,1
912,2043,10329,expressbus,3G,0,0,0,0,0,0,1
922,2044,10329,expressbus,3G,0,0,0,0,0,0,1
935,2045,10329,expressbus,3G,0,0,0,0,0,0,1
948,2046,10329,expressbus,3G,0,0,0,0,0,0,1
960,2047,10329,expressbus,3G,0,0,0,0,0,0,1
971,2048,10329,expressbus,3G,0,0,0,0,0,0,1
982,2049,10329,expressbus,3G,0,0,0,0,0,0,1
989,2050,10329,expressbus,3G,0,0,0,0,0,0,1
997,2051,10329,expressbus,3G,0,0,0,0,0,0,1
1004,2052,10329,expressbus,3G,0,0,0,0,0,0,1
1011,2053,10329,expressbus,3G,0,0,0,0,0,0,1
1018,2054,10329,expressbus,3G,0,0,0,0,0,0,1
1030,2055,10329,expressbus,3G,0,0,0,0,0,0,1
1040,2056,10329,expressbus,3G,0,0,0,0,0,0,1
1050,2057,10329,expressbus,3G,0,0,0,0,0,0,1
1061,2058,10329,expressbus,3G,0,0,0,0,0,0,1
1071,2059,10329,expressbus,3G,0,0,0,0,0,0,1
1081,2060,10329,expressbus,3G,0,0,0,0,0,0,1
1091,2061,10329,expressbus,3G,0,0,0,0,0,0,1
1104,2062,10329,expressbus,3G,0,0,0,0,0,0,1
1114,2063,10329,expressbus,3G,0,0,0,0,0,0,1
1129,2064,10329,expressbus,3G,0,0,0,0,0,0,1
1143,2065,10329,expressbus,3G,0,0,0,0,0,0,1
1156,2066,10329,expressbus,3G,0,0,0,0,0,0,1
1169,2067,10329,expressbus,3G,0,0,0,0,0,0,1
1183,2068,10329,expressbus,3G,0,0,0,0,0,0,1
1199,2069,10329,expressbus,3G,0,0,0,0,0,0,1
1214,2070,10329,expressbus,3G,0,0,0,0,0,0,1
1228,2071,10329,expressbus,3G,0,0,0,0,0,0,1
1242,2072,10329,expressbus,3G,0,0,0,0,0,0,1
1253,2073,10329,expressbus,3G,0,0,0,0,0,0,1
1263,2074,10329,expressbus,3G,0,0,0,0,0,0,1
1276,2075,10329,expressbus,3G,0,0,0,0,0,0,1
1287,2076,10329,expressbus,3G,0,0,0,0,0,0,1
1301,2077,10329,expressbus,3G,0,0,0,0,0,0,1
1313,2078,10329,expressbus,3G,0,0,0,0,0,0,1
1327,2079,10329,expressbus,3G,0,0,0,0,0,0,1
1338,2080,10329,expressbus,3G,0,0,0,0,0,0,1
1349,2081,10329,expressbus,3G,0,0,0,0,0,0,1
1362,2082,10329,expressbus,3G,0,0,0,0,0,0,1
1377,2083,10329,expressbus,3G,0,0,0,0,0,0,1
1394,2084,10329,expressbus,3G,0,0,0,0,0,0,1
1410,2085,10329,expressbus,3G,0,0,0,0,0,0,1
1427,2086,10329,expressbus,3G,0,0,0,0,0,0,1
1442,2087,10329,expressbus,3G,0,0,0,0,0,0,1
349,2088,10327,expressbus,3G,1,1,1,1,1,0,0
361,2089,10327,expressbus,3G,1,1,1,1,1,0,0
371,2090,10327,expressbus,3G,1,1,1,1,1,0,0
381,2091,10327,expressbus,3G,1,1,1,1,1,0,0
389,2092,10327,expressbus,3G,1,1,1,1,1,0,0
397,2093,10327,expressbus,3G,1,1,1,1,1,0,0
405,2094,10327,expressbus,3G,1,1,1,1,1,0,0
415,2095,10327,expressbus,3G,1,1,1,1,1,0,0
425,2096,10327,expressbus,3G,1,1,1,1,1,0,0
433,2097,10327,expressbus,3G,1,1,1,1,1,0,0
442,2098,10327,expressbus,3G,1,1,1,1,1,0,0
448,2099,10327,expressbus,3G,1,1,1,1,1,0,0
454,2100,10327,expressbus,3G,1,1,1,1,1,0,0
461,2101,10327,expressbus,3G,1,1,1,1,1,0,0
465,2102,10327,expressbus,3G,1,1,1,1,1,0,0
471,2103,10327,expressbus,3G,1,1,1,1,1,0,0
476,2104,10327,expressbus,3G,1,1,1,1,1,0,0
481,2105,10327,expressbus,3G,1,1,1,1,1,0,0
486,2106,10327,expressbus,3G,1,1,1,1,1,0,0
492,2107,10327,expressbus,3G,1,1,1,1,1,0,0
500,2108,10327,expressbus,3G,1,1,1,1,1,0,0
505,2109,10327,expressbus,3G,1,1,1,1,1,0,0
510,2110,10327,expressbus,3G,1,1,1,1,1,0,0
515,2111,10327,expressbus,3G,1,1,1,1,1,0,0
521,2112,10327,expressbus,3G,1,1,1,1,1,0,0
527,2113,10327,expressbus,3G,1,1,1,1,1,0,0
532,2114,10327,expressbus,3G,1,1,1,1,1,0,0
537,2115,10327,expressbus,3G,1,1,1,1,1,0,0
542,2116,10327,expressbus,3G,1,1,1,1,1,0,0
548,2117,10327,expressbus,3G,1,1,1,1,1,0,0
553,2118,10327,expressbus,3G,1,1,1,1,1,0,0
558,2119,10327,expressbus,3G,1,1,1,1,1,0,0
563,2120,10327,expressbus,3G,1,1,1,1,1,0,0
569,2121,10327,expressbus,3G,1,1,1,1,1,0,0
575,2122,10327,expressbus,3G,1,1,1,1,1,0,0
580,2123,10327,expressbus,3G,1,1,1,1,1,0,0
585,2124,10327,expressbus,3G,1,1,1,1,1,0,0
590,2125,10327,expressbus,3G,1,1,1,1,1,0,0
595,2126,10327,expressbus,3G,1,1,1,1,1,0,0
601,2127,10327,expressbus,3G,1,1,1,1,1,0,0
607,2128,10327,expressbus,3G,1,1,1,1,1,0,0
612,2129,10327,expressbus,3G,1,1,1,1,1,0,0
617,2130,10327,expressbus,3G,1,1,1,1,1,0,0
622,2131,10327,expressbus,3G,1,1,1,1,1,0,0
627,2132,10327,expressbus,3G,1,1,1,1,1,0,0
632,2133,10327,expressbus,3G,1,1,1,1,1,0,0
637,2134,10327,expressbus,3G,1,1,1,1,1,0,0
644,2135,10327,expressbus,3G,1,1,1,1,1,0,0
650,2136,10327,expressbus,3G,1,1,1,1,1,0,0
657,2137,10327,expressbus,3G,1,1,1,1,1,0,0
665,2138,10327,expressbus,3G,1,1,1,1,1,0,0
673,2139,10327,expressbus,3G,1,1,1,1,1,0,0
681,2140,10327,expressbus,3G,1,1,1,1,1,0,0
691,2141,10327,expressbus,3G,1,1,1,1,1,0,0
702,2142,10327,expressbus,3G,1,1,1,1,1,0,0
713,2143,10327,expressbus,3G,1,1,1,1,1,0,0
724,2144,10327,expressbus,3G,1,1,1,1,1,0,0
734,2145,10327,expressbus,3G,1,1,1,1,1,0,0
744,2146,10327,expressbus,3G,1,1,1,1,1,0,0
753,2147,10327,expressbus,3G,1,1,1,1,1,0,0
763,2148,10327,expressbus,3G,1,1,1,1,1,0,0
772,2149,10327,expressbus,3G,1,1,1,1,1,0,0
779,2150,10327,expressbus,3G,1,1,1,1,1,0,0
786,2151,10327,expressbus,3G,1,1,1,1,1,0,0
794,2152,10327,expressbus,3G,1,1,1,1,1,0,0
802,2153,10327,expressbus,3G,1,1,1,1,1,0,0
810,2154,10327,expressbus,3G,1,1,1,1,1,0,0
820,2155,10327,expressbus,3G,1,1,1,1,1,0,0
829,2156,10327,expressbus,3G,1,1,1,1,1,0,0
836,2157,10327,expressbus,3G,1,1,1,1,1,0,0
846,2158,10327,expressbus,3G,1,1,1,1,1,0,0
855,2159,10327,expressbus,3G,1,1,1,1,1,0,0
865,2160,10327,expressbus,3G,1,1,1,1,1,0,0
874,2161,10327,expressbus,3G,1,1,1,1,1,0,0
881,2162,10327,expressbus,3G,1,1,1,1,1,0,0
888,2163,10327,expressbus,3G,1,1,1,1,1,0,0
897,2164,10327,expressbus,3G,1,1,1,1,1,0,0
907,2165,10327,expressbus,3G,1,1,1,1,1,0,0
915,2166,10327,expressbus,3G,1,1,1,1,1,0,0
922,2167,10327,expressbus,3G,1,1,1,1,1,0,0
931,2168,10327,expressbus,3G,1,1,1,1,1,0,0
939,2169,10327,expressbus,3G,1,1,1,1,1,0,0
949,2170,10327,expressbus,3G,1,1,1,1,1,0,0
958,2171,10327,expressbus,3G,1,1,1,1,1,0,0
967,2172,10327,expressbus,3G,1,1,1,1,1,0,0
976,2173,10327,expressbus,3G,1,1,1,1,1,0,0
984,2174,10327,expressbus,3G,1,1,1,1,1,0,0
993,2175,10327,expressbus,3G,1,1,1,1,1,0,0
998,2176,10327,expressbus,3G,1,1,1,1,1,0,0
1004,2177,10327,expressbus,3G,1,1,1,1,1,0,0
1010,2178,10327,expressbus,3G,1,1,1,1,1,0,0
1016,2179,10327,expressbus,3G,1,1,1,1,1,0,0
1021,2180,10327,expressbus,3G,1,1,1,1,1,0,0
1028,2181,10327,expressbus,3G,1,1,1,1,1,0,0
1033,2182,10327,expressbus,3G,1,1,1,1,1,0,0
1038,2183,10327,expressbus,3G,1,1,1,1,1,0,0
1043,2184,10327,expressbus,3G,1,1,1,1,1,0,0
1048,2185,10327,expressbus,3G,1,1,1,1,1,0,0
1053,2186,10327,expressbus,3G,1,1,1,1,1,0,0
1058,2187,10327,expressbus,3G,1,1,1,1,1,0,0
1063,2188,10327,expressbus,3G,1,1,1,1,1,0,0
1068,2189,10327,expressbus,3G,1,1,1,1,1,0,0
1074,2190,10327,expressbus,3G,1,1,1,1,1,0,0
1079,2191,10327,expressbus,3G,1,1,1,1,1,0,0
1085,2192,10327,expressbus,3G,1,1,1,1,1,0,0
1091,2193,10327,expressbus,3G,1,1,1,1,1,0,0
1096,2194,10327,expressbus,3G,1,1,1,1,1,0,0
1100,2195,10327,expressbus,3G,1,1,1,1,1,0,0
1105,2196,10327,expressbus,3G,1,1,1,1,1,0,0
1111,2197,10327,expressbus,3G,1,1,1,1,1,0,0
1118,2198,10327,expressbus,3G,1,1,1,1,1,0,0
1124,2199,10327,expressbus,3G,1,1,1,1,1,0,0
1130,2200,10327,expressbus,3G,1,1,1,1,1,0,0
1135,2201,10327,expressbus,3G,1,1,1,1,1,0,0
1140,2202,10327,expressbus,3G,1,1,1,1,1,0,0
1145,2203,10327,expressbus,3G,1,1,1,1,1,0,0
1150,2204,10327,expressbus,3G,1,1,1,1,1,0,0
1154,2205,10327,expressbus,3G,1,1,1,1,1,0,0
1159,2206,10327,expressbus,3G,1,1,1,1,1,0,0
1163,2207,10327,expressbus,3G,1,1,1,1,1,0,0
1167,2208,10327,expressbus,3G,1,1,1,1,1,0,0
1175,2209,10327,expressbus,3G,1,1,1,1,1,0,0
1185,2210,10327,expressbus,3G,1,1,1,1,1,0,0
1195,2211,10327,expressbus,3G,1,1,1,1,1,0,0
1204,2212,10327,expressbus,3G,1,1,1,1,1,0,0
1212,2213,10327,expressbus,3G,1,1,1,1,1,0,0
1221,2214,10327,expressbus,3G,1,1,1,1,1,0,0
1228,2215,10327,expressbus,3G,1,1,1,1,1,0,0
1237,2216,10327,expressbus,3G,1,1,1,1,1,0,0
1246,2217,10327,expressbus,3G,1,1,1,1,1,0,0
1254,2218,10327,expressbus,3G,1,1,1,1,1,0,0
1263,2219,10327,expressbus,3G,1,1,1,1,1,0,0
1270,2220,10327,expressbus,3G,1,1,1,1,1,0,0
1277,2221,10327,expressbus,3G,1,1,1,1,1,0,0
1285,2222,10327,expressbus,3G,1,1,1,1,1,0,0
1293,2223,10327,expressbus,3G,1,1,1,1,1,0,0
1301,2224,10327,expressbus,3G,1,1,1,1,1,0,0
1309,2225,10327,expressbus,3G,1,1,1,1,1,0,0
1317,2226,10327,expressbus,3G,1,1,1,1,1,0,0
1325,2227,10327,expressbus,3G,1,1,1,1,1,0,0
1334,2228,10327,expressbus,3G,1,1,1,1,1,0,0
1344,2229,10327,expressbus,3G,1,1,1,1,1,0,0
1352,2230,10327,expressbus,3G,1,1,1,1,1,0,0
1360,2231,10327,expressbus,3G,1,1,1,1,1,0,0
1368,2232,10327,expressbus,3G,1,1,1,1,1,0,0
1376,2233,10327,expressbus,3G,1,1,1,1,1,0,0
1386,2234,10327,expressbus,3G,1,1,1,1,1,0,0
1397,2235,10327,expressbus,3G,1,1,1,1,1,0,0
1409,2236,10327,expressbus,3G,1,1,1,1,1,0,0
1422,2237,10327,expressbus,3G,1,1,1,1,1,0,0
1438,2238,10327,expressbus,3G,1,1,1,1,1,0,0
382,2239,10328,expressbus,3G,0,0,0,0,0,1,0
404,2240,10328,expressbus,3G,0,0,0,0,0,1,0
420,2241,10328,expressbus,3G,0,0,0,0,0,1,0
434,2242,10328,expressbus,3G,0,0,0,0,0,1,0
448,2243,10328,expressbus,3G,0,0,0,0,0,1,0
461,2244,10328,expressbus,3G,0,0,0,0,0,1,0
472,2245,10328,expressbus,3G,0,0,0,0,0,1,0
485,2246,10328,expressbus,3G,0,0,0,0,0,1,0
497,2247,10328,expressbus,3G,0,0,0,0,0,1,0
512,2248,10328,expressbus,3G,0,0,0,0,0,1,0
523,2249,10328,expressbus,3G,0,0,0,0,0,1,0
536,2250,10328,expressbus,3G,0,0,0,0,0,1,0
548,2251,10328,expressbus,3G,0,0,0,0,0,1,0
561,2252,10328,expressbus,3G,0,0,0,0,0,1,0
574,2253,10328,expressbus,3G,0,0,0,0,0,1,0
586,2254,10328,expressbus,3G,0,0,0,0,0,1,0
600,2255,10328,expressbus,3G,0,0,0,0,0,1,0
612,2256,10328,expressbus,3G,0,0,0,0,0,1,0
626,2257,10328,expressbus,3G,0,0,0,0,0,1,0
636,2258,10328,expressbus,3G,0,0,0,0,0,1,0
646,2259,10328,expressbus,3G,0,0,0,0,0,1,0
655,2260,10328,expressbus,3G,0,0,0,0,0,1,0
667,2261,10328,expressbus,3G,0,0,0,0,0,1,0
678,2262,10328,expressbus,3G,0,0,0,0,0,1,0
690,2263,10328,expressbus,3G,0,0,0,0,0,1,0
701,2264,10328,expressbus,3G,0,0,0,0,0,1,0
713,2265,10328,expressbus,3G,0,0,0,0,0,1,0
725,2266,10328,expressbus,3G,0,0,0,0,0,1,0
735,2267,10328,expressbus,3G,0,0,0,0,0,1,0
744,2268,10328,expressbus,3G,0,0,0,0,0,1,0
756,2269,10328,expressbus,3G,0,0,0,0,0,1,0
767,2270,10328,expressbus,3G,0,0,0,0,0,1,0
775,2271,10328,expressbus,3G,0,0,0,0,0,1,0
783,2272,10328,expressbus,3G,0,0,0,0,0,1,0
790,2273,10328,expressbus,3G,0,0,0,0,0,1,0
797,2274,10328,expressbus,3G,0,0,0,0,0,1,0
808,2275,10328,expressbus,3G,0,0,0,0,0,1,0
819,2276,10328,expressbus,3G,0,0,0,0,0,1,0
833,2277,10328,expressbus,3G,0,0,0,0,0,1,0
844,2278,10328,expressbus,3G,0,0,0,0,0,1,0
856,2279,10328,expressbus,3G,0,0,0,0,0,1,0
871,2280,10328,expressbus,3G,0,0,0,0,0,1,0
881,2281,10328,expressbus,3G,0,0,0,0,0,1,0
890,2282,10328,expressbus,3G,0,0,0,0,0,1,0
897,2283,10328,expressbus,3G,0,0,0,0,0,1,0
905,2284,10328,expressbus,3G,0,0,0,0,0,1,0
912,2285,10328,expressbus,3G,0,0,0,0,0,1,0
922,2286,10328,expressbus,3G,0,0,0,0,0,1,0
935,2287,10328,expressbus,3G,0,0,0,0,0,1,0
948,2288,10328,expressbus,3G,0,0,0,0,0,1,0
960,2289,10328,expressbus,3G,0,0,0,0,0,1,0
971,2290,10328,expressbus,3G,0,0,0,0,0,1,0
982,2291,10328,expressbus,3G,0,0,0,0,0,1,0
989,2292,10328,expressbus,3G,0,0,0,0,0,1,0
997,2293,10328,expressbus,3G,0,0,0,0,0,1,0
1004,2294,10328,expressbus,3G,0,0,0,0,0,1,0
1011,2295,10328,expressbus,3G,0,0,0,0,0,1,0
1018,2296,10328,expressbus,3G,0,0,0,0,0,1,0
1030,2297,10328,expressbus,3G,0,0,0,0,0,1,0
1040,2298,10328,expressbus,3G,0,0,0,0,0,1,0
1050,2299,10328,expressbus,3G,0,0,0,0,0,1,0
1061,2300,10328,expressbus,3G,0,0,0,0,0,1,0
1071,2301,10328,expressbus,3G,0,0,0,0,0,1,0
1081,2302,10328,expressbus,3G,0,0,0,0,0,1,0
1091,2303,10328,expressbus,3G,0,0,0,0,0,1,0
1104,2304,10328,expressbus,3G,0,0,0,0,0,1,0
1114,2305,10328,expressbus,3G,0,0,0,0,0,1,0
1129,2306,10328,expressbus,3G,0,0,0,0,0,1,0
1143,2307,10328,expressbus,3G,0,0,0,0,0,1,0
1156,2308,10328,expressbus,3G,0,0,0,0,0,1,0
1169,2309,10328,expressbus,3G,0,0,0,0,0,1,0
1183,2310,10328,expressbus,3G,0,0,0,0,0,1,0
1199,2311,10328,expressbus,3G,0,0,0,0,0,1,0
1214,2312,10328,expressbus,3G,0,0,0,0,0,1,0
1228,2313,10328,expressbus,3G,0,0,0,0,0,1,0
1242,2314,10328,expressbus,3G,0,0,0,0,0,1,0
1253,2315,10328,expressbus,3G,0,0,0,0,0,1,0
1263,2316,10328,expressbus,3G,0,0,0,0,0,1,0
1276,2317,10328,expressbus,3G,0,0,0,0,0,1,0
1287,2318,10328,expressbus,3G,0,0,0,0,0,1,0
1301,2319,10328,expressbus,3G,0,0,0,0,0,1,0
1313,2320,10328,expressbus,3G,0,0,0,0,0,1,0
1327,2321,10328,expressbus,3G,0,0,0,0,0,1,0
1338,2322,10328,expressbus,3G,0,0,0,0,0,1,0
1349,2323,10328,expressbus,3G,0,0,0,0,0,1,0
1362,2324,10328,expressbus,3G,0,0,0,0,0,1,0
1377,2325,10328,expressbus,3G,0,0,0,0,0,1,0
1394,2326,10328,expressbus,3G,0,0,0,0,0,1,0
1410,2327,10328,expressbus,3G,0,0,0,0,0,1,0
1427,2328,10328,expressbus,3G,0,0,0,0,0,1,0
1442,2329,10328,expressbus,3G,0,0,0,0,0,1,0
361,7341,10356,bus,24,1,1,1,1,1,0,0
390,7342,10356,bus,24,1,1,1,1,1,0,0
403,7343,10356,bus,24,1,1,1,1,1,0,0
416,7344,10356,bus,24,1,1,1,1,1,0,0
429,7345,10356,bus,24,1,1,1,1,1,0,0
442,7346,10356,bus,24,1,1,1,1,1,0,0
454,7347,10356,bus,24,1,1,1,1,1,0,0
465,7348,10356,bus,24,1,1,1,1,1,0,0
476,7349,10356,bus,24,1,1,1,1,1,0,0
489,7350,10356,bus,24,1,1,1,1,1,0,0
499,7351,10356,bus,24,1,1,1,1,1,0,0
511,7352,10356,bus,24,1,1,1,1,1,0,0
522,7353,10356,bus,24,1,1,1,1,1,0,0
531,7354,10356,bus,24,1,1,1,1,1,0,0
541,7355,10356,bus,24,1,1,1,1,1,0,0
550,7356,10356,bus,24,1,1,1,1,1,0,0
563,7357,10356,bus,24,1,1,1,1,1,0,0
579,7358,10356,bus,24,1,1,1,1,1,0,0
588,7359,10356,bus,24,1,1,1,1,1,0,0
601,7360,10356,bus,24,1,1,1,1,1,0,0
614,7361,10356,bus,24,1,1,1,1,1,0,0
627,7362,10356,bus,24,1,1,1,1,1,0,0
657,7363,10356,bus,24,1,1,1,1,1,0,0
678,7364,10356,bus,24,1,1,1,1,1,0,0
699,7365,10356,bus,24,1,1,1,1,1,0,0
740,7366,10356,bus,24,1,1,1,1,1,0,0
765,7367,10356,bus,24,1,1,1,1,1,0,0
791,7368,10356,bus,24,1,1,1,1,1,0,0
823,7369,10356,bus,24,1,1,1,1,1,0,0
849,7370,10356,bus,24,1,1,1,1,1,0,0
875,7371,10356,bus,24,1,1,1,1,1,0,0
906,7372,10356,bus,24,1,1,1,1,1,0,0
937,7373,10356,bus,24,1,1,1,1,1,0,0
955,7374,10356,bus,24,1,1,1,1,1,0,0
971,7375,10356,bus,24,1,1,1,1,1,0,0
985,7376,10356,bus,24,1,1,1,1,1,0,0
995,7377,10356,bus,24,1,1,1,1,1,0,0
1007,7378,10356,bus,24,1,1,1,1,1,0,0
1017,7379,10356,bus,24,1,1,1,1,1,0,0
1027,7380,10356,bus,24,1,1,1,1,1,0,0
1037,7381,10356,bus,24,1,1,1,1,1,0,0
1049,7382,10356,bus,24,1,1,1,1,1,0,0
1062,7383,10356,bus,24,1,1,1,1,1,0,0
1073,7384,10356,bus,24,1,1,1,1,1,0,0
1084,7385,10356,bus,24,1,1,1,1,1,0,0
1096,7386,10356,bus,24,1,1,1,1,1,0,0
1107,7387,10356,bus,24,1,1,1,1,1,0,0
1118,7388,10356,bus,24,1,1,1,1,1,0,0
1127,7389,10356,bus,24,1,1,1,1,1,0,0
1138,7390,10356,bus,24,1,1,1,1,1,0,0
1151,7391,10356,bus,24,1,1,1,1,1,0,0
1169,7392,10356,bus,24,1,1,1,1,1,0,0
1196,7393,10356,bus,24,1,1,1,1,1,0,0
1232,7394,10356,bus,24,1,1,1,1,1,0,0
1254,7395,10356,bus,24,1,1,1,1,1,0,0
1275,7396,10356,bus,24,1,1,1,1,1,0,0
1308,7397,10356,bus,24,1,1,1,1,1,0,0
1330,7398,10356,bus,24,1,1,1,1,1,0,0
1352,7399,10356,bus,24,1,1,1,1,1,0,0
1384,7400,10356,bus,24,1,1,1,1,1,0,0
1406,7401,10356,bus,24,1,1,1,1,1,0,0
1429,7402,10356,bus,24,1,1,1,1,1,0,0
390,7403,9984,bus,24,0,0,0,0,0,1,0
427,7404,9984,bus,24,0,0,0,0,0,1,0
468,7405,9984,bus,24,0,0,0,0,0,1,0
508,7406,9984,bus,24,0,0,0,0,0,1,0
548,7407,9984,bus,24,0,0,0,0,0,1,0
588,7408,9984,bus,24,0,0,0,0,0,1,0
644,7409,9984,bus,24,0,0,0,0,0,1,0
666,7410,9984,bus,24,0,0,0,0,0,1,0
702,7411,9984,bus,24,0,0,0,0,0,1,0
727,7412,9984,bus,24,0,0,0,0,0,1,0
745,7413,9984,bus,24,0,0,0,0,0,1,0
785,7414,9984,bus,24,0,0,0,0,0,1,0
827,7415,9984,bus,24,0,0,0,0,0,1,0
841,7416,9984,bus,24,0,0,0,0,0,1,0
879,7417,9984,bus,24,0,0,0,0,0,1,0
909,7418,9984,bus,24,0,0,0,0,0,1,0
940,7419,9984,bus,24,0,0,0,0,0,1,0
965,7420,9984,bus,24,0,0,0,0,0,1,0
990,7421,9984,bus,24,0,0,0,0,0,1,0
1016,7422,9984,bus,24,0,0,0,0,0,1,0
1042,7423,9984,bus,24,0,0,0,0,0,1,0
1066,7424,9984,bus,24,0,0,0,0,0,1,0
1098,7425,9984,bus,24,0,0,0,0,0,1,0
1141,7426,9984,bus,24,0,0,0,0,0,1,0
1179,7427,9984,bus,24,0,0,0,0,0,1,0
1214,7428,9984,bus,24,0,0,0,0,0,1,0
1251,7429,9984,bus,24,0,0,0,0,0,1,0
1287,7430,9984,bus,24,0,0,0,0,0,1,0
1323,7431,9984,bus,24,0,0,0,0,0,1,0
1359,7432,9984,bus,24,0,0,0,0,0,1,0
1395,7433,9984,bus,24,0,0,0,0,0,1,0
427,7434,9985,bus,24,0,0,0,0,0,0,1
468,7435,9985,bus,24,0,0,0,0,0,0,1
508,7436,9985,bus,24,0,0,0,0,0,0,1
548,7437,9985,bus,24,0,0,0,0,0,0,1
588,7438,9985,bus,24,0,0,0,0,0,0,1
644,7439,9985,bus,24,0,0,0,0,0,0,1
666,7440,9985,bus,24,0,0,0,0,0,0,1
702,7441,9985,bus,24,0,0,0,0,0,0,1
727,7442,9985,bus,24,0,0,0,0,0,0,1
745,7443,9985,bus,24,0,0,0,0,0,0,1
785,7444,9985,bus,24,0,0,0,0,0,0,1
827,7445,9985,bus,24,0,0,0,0,0,0,1
841,7446,9985,bus,24,0,0,0,0,0,0,1
879,7447,9985,bus,24,0,0,0,0,0,0,1
909,7448,9985,bus,24,0,0,0,0,0,0,1
940,7449,9985,bus,24,0,0,0,0,0,0,1
965,7450,9985,bus,24,0,0,0,0,0,0,1
990,7451,9985,bus,24,0,0,0,0,0,0,1
1016,7452,9985,bus,24,0,0,0,0,0,0,1
1042,7453,9985,bus,24,0,0,0,0,0,0,1
1066,7454,9985,bus,24,0,0,0,0,0,0,1
1098,7455,9985,bus,24,0,0,0,0,0,0,1
1141,7456,9985,bus,24,0,0,0,0,0,0,1
1179,7457,9985,bus,24,0,0,0,0,0,0,1
1214,7458,9985,bus,24,0,0,0,0,0,0,1
1251,7459,9985,bus,24,0,0,0,0,0,0,1
1287,7460,9985,bus,24,0,0,0,0,0,0,1
1323,7461,9985,bus,24,0,0,0,0,0,0,1
1359,7462,9985,bus,24,0,0,0,0,0,0,1
1395,7463,9985,bus,24,0,0,0,0,0,0,1
1494,16330,9969,nightbus,101N,0,0,0,0,1,1,0
1537,16331,9969,nightbus,101N,0,0,0,0,1,1,0
1585,16332,9969,nightbus,101N,0,0,0,0,1,1,0
1637,16333,9969,nightbus,101N,0,0,0,0,1,1,0
