timeInMin,trip_id,service_id,tipas,numeris,pirmadienis,antradienis,treciadienis,ketvirtadienis,penktadienis,sestadienis,sekmadienis 
323,4688,9008,bus,8,1,1,1,1,1,0,0
321,4689,9009,bus,8,0,0,0,0,0,1,0
389,4690,8983,bus,8,0,0,0,0,0,0,1
304,4691,9008,bus,8,1,1,1,1,1,0,0
353,7219,10356,bus,24,1,1,1,1,1,0,0
366,7220,10356,bus,24,1,1,1,1,1,0,0
379,7221,10356,bus,24,1,1,1,1,1,0,0
392,7222,10356,bus,24,1,1,1,1,1,0,0
403,7223,10356,bus,24,1,1,1,1,1,0,0
415,7224,10356,bus,24,1,1,1,1,1,0,0
426,7225,10356,bus,24,1,1,1,1,1,0,0
436,7226,10356,bus,24,1,1,1,1,1,0,0
448,7227,10356,bus,24,1,1,1,1,1,0,0
459,7228,10356,bus,24,1,1,1,1,1,0,0
468,7229,10356,bus,24,1,1,1,1,1,0,0
478,7230,10356,bus,24,1,1,1,1,1,0,0
488,7231,10356,bus,24,1,1,1,1,1,0,0
498,7232,10356,bus,24,1,1,1,1,1,0,0
510,7233,10356,bus,24,1,1,1,1,1,0,0
522,7234,10356,bus,24,1,1,1,1,1,0,0
535,7235,10356,bus,24,1,1,1,1,1,0,0
545,7236,10356,bus,24,1,1,1,1,1,0,0
560,7237,10356,bus,24,1,1,1,1,1,0,0
575,7238,10356,bus,24,1,1,1,1,1,0,0
588,7239,10356,bus,24,1,1,1,1,1,0,0
618,7240,10356,bus,24,1,1,1,1,1,0,0
639,7241,10356,bus,24,1,1,1,1,1,0,0
660,7242,10356,bus,24,1,1,1,1,1,0,0
701,7243,10356,bus,24,1,1,1,1,1,0,0
726,7244,10356,bus,24,1,1,1,1,1,0,0
752,7245,10356,bus,24,1,1,1,1,1,0,0
784,7246,10356,bus,24,1,1,1,1,1,0,0
810,7247,10356,bus,24,1,1,1,1,1,0,0
836,7248,10356,bus,24,1,1,1,1,1,0,0
867,7249,10356,bus,24,1,1,1,1,1,0,0
898,7250,10356,bus,24,1,1,1,1,1,0,0
916,7251,10356,bus,24,1,1,1,1,1,0,0
930,7252,10356,bus,24,1,1,1,1,1,0,0
943,7253,10356,bus,24,1,1,1,1,1,0,0
955,7254,10356,bus,24,1,1,1,1,1,0,0
964,7255,10356,bus,24,1,1,1,1,1,0,0
974,7256,10356,bus,24,1,1,1,1,1,0,0
983,7257,10356,bus,24,1,1,1,1,1,0,0
993,7258,10356,bus,24,1,1,1,1,1,0,0
1003,7259,10356,bus,24,1,1,1,1,1,0,0
1016,7260,10356,bus,24,1,1,1,1,1,0,0
1029,7261,10356,bus,24,1,1,1,1,1,0,0
1040,7262,10356,bus,24,1,1,1,1,1,0,0
1052,7263,10356,bus,24,1,1,1,1,1,0,0
1063,7264,10356,bus,24,1,1,1,1,1,0,0
1074,7265,10356,bus,24,1,1,1,1,1,0,0
1085,7266,10356,bus,24,1,1,1,1,1,0,0
1096,7267,10356,bus,24,1,1,1,1,1,0,0
1109,7268,10356,bus,24,1,1,1,1,1,0,0
1128,7269,10356,bus,24,1,1,1,1,1,0,0
1156,7270,10356,bus,24,1,1,1,1,1,0,0
1195,7271,10356,bus,24,1,1,1,1,1,0,0
1217,7272,10356,bus,24,1,1,1,1,1,0,0
1238,7273,10356,bus,24,1,1,1,1,1,0,0
1271,7274,10356,bus,24,1,1,1,1,1,0,0
1293,7275,10356,bus,24,1,1,1,1,1,0,0
1315,7276,10356,bus,24,1,1,1,1,1,0,0
1347,7277,10356,bus,24,1,1,1,1,1,0,0
1369,7278,10356,bus,24,1,1,1,1,1,0,0
1392,7279,10356,bus,24,1,1,1,1,1,0,0
350,7280,9984,bus,24,0,0,0,0,0,1,0
390,7281,9984,bus,24,0,0,0,0,0,1,0
430,7282,9984,bus,24,0,0,0,0,0,1,0
468,7283,9984,bus,24,0,0,0,0,0,1,0
508,7284,9984,bus,24,0,0,0,0,0,1,0
548,7285,9984,bus,24,0,0,0,0,0,1,0
602,7286,9984,bus,24,0,0,0,0,0,1,0
625,7287,9984,bus,24,0,0,0,0,0,1,0
661,7288,9984,bus,24,0,0,0,0,0,1,0
686,7289,9984,bus,24,0,0,0,0,0,1,0
708,7290,9984,bus,24,0,0,0,0,0,1,0
742,7291,9984,bus,24,0,0,0,0,0,1,0
783,7292,9984,bus,24,0,0,0,0,0,1,0
804,7293,9984,bus,24,0,0,0,0,0,1,0
835,7294,9984,bus,24,0,0,0,0,0,1,0
869,7295,9984,bus,24,0,0,0,0,0,1,0
903,7296,9984,bus,24,0,0,0,0,0,1,0
927,7297,9984,bus,24,0,0,0,0,0,1,0
951,7298,9984,bus,24,0,0,0,0,0,1,0
978,7299,9984,bus,24,0,0,0,0,0,1,0
1003,7300,9984,bus,24,0,0,0,0,0,1,0
1029,7301,9984,bus,24,0,0,0,0,0,1,0
1061,7302,9984,bus,24,0,0,0,0,0,1,0
1104,7303,9984,bus,24,0,0,0,0,0,1,0
1143,7304,9984,bus,24,0,0,0,0,0,1,0
1178,7305,9984,bus,24,0,0,0,0,0,1,0
1215,7306,9984,bus,24,0,0,0,0,0,1,0
1251,7307,9984,bus,24,0,0,0,0,0,1,0
1287,7308,9984,bus,24,0,0,0,0,0,1,0
1323,7309,9984,bus,24,0,0,0,0,0,1,0
1359,7310,9984,bus,24,0,0,0,0,0,1,0
390,7311,9985,bus,24,0,0,0,0,0,0,1
430,7312,9985,bus,24,0,0,0,0,0,0,1
468,7313,9985,bus,24,0,0,0,0,0,0,1
508,7314,9985,bus,24,0,0,0,0,0,0,1
548,7315,9985,bus,24,0,0,0,0,0,0,1
602,7316,9985,bus,24,0,0,0,0,0,0,1
625,7317,9985,bus,24,0,0,0,0,0,0,1
661,7318,9985,bus,24,0,0,0,0,0,0,1
686,7319,9985,bus,24,0,0,0,0,0,0,1
708,7320,9985,bus,24,0,0,0,0,0,0,1
742,7321,9985,bus,24,0,0,0,0,0,0,1
783,7322,9985,bus,24,0,0,0,0,0,0,1
804,7323,9985,bus,24,0,0,0,0,0,0,1
835,7324,9985,bus,24,0,0,0,0,0,0,1
869,7325,9985,bus,24,0,0,0,0,0,0,1
903,7326,9985,bus,24,0,0,0,0,0,0,1
927,7327,9985,bus,24,0,0,0,0,0,0,1
951,7328,9985,bus,24,0,0,0,0,0,0,1
978,7329,9985,bus,24,0,0,0,0,0,0,1
1003,7330,9985,bus,24,0,0,0,0,0,0,1
1029,7331,9985,bus,24,0,0,0,0,0,0,1
1061,7332,9985,bus,24,0,0,0,0,0,0,1
1104,7333,9985,bus,24,0,0,0,0,0,0,1
1143,7334,9985,bus,24,0,0,0,0,0,0,1
1178,7335,9985,bus,24,0,0,0,0,0,0,1
1215,7336,9985,bus,24,0,0,0,0,0,0,1
1251,7337,9985,bus,24,0,0,0,0,0,0,1
1287,7338,9985,bus,24,0,0,0,0,0,0,1
1323,7339,9985,bus,24,0,0,0,0,0,0,1
1359,7340,9985,bus,24,0,0,0,0,0,0,1
328,7491,10356,bus,24,1,1,1,1,1,0,0
366,7620,9328,bus,25,1,1,1,1,1,0,0
385,7621,9330,bus,25,0,0,0,0,0,0,1
333,7622,9328,bus,25,1,1,1,1,1,0,0
328,7623,9329,bus,25,0,0,0,0,0,1,0
318,12100,9773,bus,51,1,1,1,1,1,0,0
420,12101,9774,bus,51,0,0,0,0,0,1,1
344,17862,10657,trol,4,1,1,1,1,1,0,0
354,17863,10657,trol,4,1,1,1,1,1,0,0
362,17864,10657,trol,4,1,1,1,1,1,0,0
372,17865,10657,trol,4,1,1,1,1,1,0,0
379,17866,10657,trol,4,1,1,1,1,1,0,0
387,17867,10657,trol,4,1,1,1,1,1,0,0
394,17868,10657,trol,4,1,1,1,1,1,0,0
402,17869,10657,trol,4,1,1,1,1,1,0,0
407,17870,10656,trol,4,1,1,1,1,1,0,0
413,17871,10657,trol,4,1,1,1,1,1,0,0
420,17872,10657,trol,4,1,1,1,1,1,0,0
428,17873,10657,trol,4,1,1,1,1,1,0,0
434,17874,10657,trol,4,1,1,1,1,1,0,0
440,17875,10657,trol,4,1,1,1,1,1,0,0
450,17876,10657,trol,4,1,1,1,1,1,0,0
456,17877,10657,trol,4,1,1,1,1,1,0,0
463,17878,10657,trol,4,1,1,1,1,1,0,0
469,17879,10657,trol,4,1,1,1,1,1,0,0
475,17880,10657,trol,4,1,1,1,1,1,0,0
483,17881,10657,trol,4,1,1,1,1,1,0,0
489,17882,10657,trol,4,1,1,1,1,1,0,0
498,17883,10657,trol,4,1,1,1,1,1,0,0
505,17884,10657,trol,4,1,1,1,1,1,0,0
512,17885,10657,trol,4,1,1,1,1,1,0,0
520,17886,10657,trol,4,1,1,1,1,1,0,0
529,17887,10657,trol,4,1,1,1,1,1,0,0
537,17888,10657,trol,4,1,1,1,1,1,0,0
548,17889,10657,trol,4,1,1,1,1,1,0,0
555,17890,10657,trol,4,1,1,1,1,1,0,0
562,17891,10657,trol,4,1,1,1,1,1,0,0
575,17892,10657,trol,4,1,1,1,1,1,0,0
584,17893,10657,trol,4,1,1,1,1,1,0,0
596,17894,10657,trol,4,1,1,1,1,1,0,0
610,17895,10657,trol,4,1,1,1,1,1,0,0
622,17896,10657,trol,4,1,1,1,1,1,0,0
634,17897,10657,trol,4,1,1,1,1,1,0,0
647,17898,10657,trol,4,1,1,1,1,1,0,0
656,17899,10657,trol,4,1,1,1,1,1,0,0
666,17900,10657,trol,4,1,1,1,1,1,0,0
676,17901,10657,trol,4,1,1,1,1,1,0,0
684,17902,10657,trol,4,1,1,1,1,1,0,0
694,17903,10657,trol,4,1,1,1,1,1,0,0
706,17904,10657,trol,4,1,1,1,1,1,0,0
714,17905,10657,trol,4,1,1,1,1,1,0,0
724,17906,10657,trol,4,1,1,1,1,1,0,0
733,17907,10657,trol,4,1,1,1,1,1,0,0
744,17908,10657,trol,4,1,1,1,1,1,0,0
755,17909,10657,trol,4,1,1,1,1,1,0,0
762,17910,10657,trol,4,1,1,1,1,1,0,0
771,17911,10657,trol,4,1,1,1,1,1,0,0
781,17912,10657,trol,4,1,1,1,1,1,0,0
793,17913,10657,trol,4,1,1,1,1,1,0,0
804,17914,10657,trol,4,1,1,1,1,1,0,0
813,17915,10657,trol,4,1,1,1,1,1,0,0
823,17916,10657,trol,4,1,1,1,1,1,0,0
832,17917,10657,trol,4,1,1,1,1,1,0,0
843,17918,10657,trol,4,1,1,1,1,1,0,0
854,17919,10657,trol,4,1,1,1,1,1,0,0
863,17920,10657,trol,4,1,1,1,1,1,0,0
874,17921,10657,trol,4,1,1,1,1,1,0,0
884,17922,10657,trol,4,1,1,1,1,1,0,0
894,17923,10657,trol,4,1,1,1,1,1,0,0
902,17924,10657,trol,4,1,1,1,1,1,0,0
913,17925,10657,trol,4,1,1,1,1,1,0,0
925,17926,10657,trol,4,1,1,1,1,1,0,0
934,17927,10657,trol,4,1,1,1,1,1,0,0
943,17928,10657,trol,4,1,1,1,1,1,0,0
949,17929,10657,trol,4,1,1,1,1,1,0,0
955,17930,10657,trol,4,1,1,1,1,1,0,0
962,17931,10657,trol,4,1,1,1,1,1,0,0
968,17932,10657,trol,4,1,1,1,1,1,0,0
973,17933,10657,trol,4,1,1,1,1,1,0,0
979,17934,10657,trol,4,1,1,1,1,1,0,0
987,17935,10657,trol,4,1,1,1,1,1,0,0
994,17936,10657,trol,4,1,1,1,1,1,0,0
1002,17937,10657,trol,4,1,1,1,1,1,0,0
1008,17938,10657,trol,4,1,1,1,1,1,0,0
1013,17939,10657,trol,4,1,1,1,1,1,0,0
1021,17940,10657,trol,4,1,1,1,1,1,0,0
1031,17941,10657,trol,4,1,1,1,1,1,0,0
1041,17942,10657,trol,4,1,1,1,1,1,0,0
1048,17943,10657,trol,4,1,1,1,1,1,0,0
1055,17944,10657,trol,4,1,1,1,1,1,0,0
1064,17945,10657,trol,4,1,1,1,1,1,0,0
1072,17946,10657,trol,4,1,1,1,1,1,0,0
1079,17947,10657,trol,4,1,1,1,1,1,0,0
1088,17948,10657,trol,4,1,1,1,1,1,0,0
1095,17949,10657,trol,4,1,1,1,1,1,0,0
1103,17950,10657,trol,4,1,1,1,1,1,0,0
1112,17951,10657,trol,4,1,1,1,1,1,0,0
1121,17952,10657,trol,4,1,1,1,1,1,0,0
1133,17953,10657,trol,4,1,1,1,1,1,0,0
1146,17954,10657,trol,4,1,1,1,1,1,0,0
1155,17955,10657,trol,4,1,1,1,1,1,0,0
1165,17956,10657,trol,4,1,1,1,1,1,0,0
1172,17957,10657,trol,4,1,1,1,1,1,0,0
1189,17958,10657,trol,4,1,1,1,1,1,0,0
1199,17959,10657,trol,4,1,1,1,1,1,0,0
1214,17960,10657,trol,4,1,1,1,1,1,0,0
1228,17961,10657,trol,4,1,1,1,1,1,0,0
1240,17962,10657,trol,4,1,1,1,1,1,0,0
1253,17963,10657,trol,4,1,1,1,1,1,0,0
1261,17964,10657,trol,4,1,1,1,1,1,0,0
1271,17965,10657,trol,4,1,1,1,1,1,0,0
1280,17966,10657,trol,4,1,1,1,1,1,0,0
1291,17967,10657,trol,4,1,1,1,1,1,0,0
1298,17968,10657,trol,4,1,1,1,1,1,0,0
1305,17969,10657,trol,4,1,1,1,1,1,0,0
1316,17970,10657,trol,4,1,1,1,1,1,0,0
1326,17971,10657,trol,4,1,1,1,1,1,0,0
1335,17972,10657,trol,4,1,1,1,1,1,0,0
1348,17973,10657,trol,4,1,1,1,1,1,0,0
1358,17974,10657,trol,4,1,1,1,1,1,0,0
1374,17975,10657,trol,4,1,1,1,1,1,0,0
1387,17976,10657,trol,4,1,1,1,1,1,0,0
1405,17977,10657,trol,4,1,1,1,1,1,0,0
364,17978,10444,trol,4,0,0,0,0,0,1,0
602,18129,10657,trol,4,1,1,1,1,1,0,0
615,18130,10657,trol,4,1,1,1,1,1,0,0
318,18462,10657,trol,4,1,1,1,1,1,0,0
322,18463,10444,trol,4,0,0,0,0,0,1,0
303,18466,10656,trol,4,1,1,1,1,1,0,0
422,18467,10448,trol,6,0,0,0,0,0,0,1
447,18468,10448,trol,6,0,0,0,0,0,0,1
460,18469,10448,trol,6,0,0,0,0,0,0,1
478,18470,10448,trol,6,0,0,0,0,0,0,1
498,18471,10448,trol,6,0,0,0,0,0,0,1
514,18472,10448,trol,6,0,0,0,0,0,0,1
531,18473,10448,trol,6,0,0,0,0,0,0,1
551,18474,10448,trol,6,0,0,0,0,0,0,1
567,18475,10448,trol,6,0,0,0,0,0,0,1
583,18476,10448,trol,6,0,0,0,0,0,0,1
598,18477,10448,trol,6,0,0,0,0,0,0,1
613,18478,10448,trol,6,0,0,0,0,0,0,1
625,18479,10448,trol,6,0,0,0,0,0,0,1
639,18480,10448,trol,6,0,0,0,0,0,0,1
656,18481,10448,trol,6,0,0,0,0,0,0,1
669,18482,10448,trol,6,0,0,0,0,0,0,1
684,18483,10448,trol,6,0,0,0,0,0,0,1
694,18484,10448,trol,6,0,0,0,0,0,0,1
707,18485,10448,trol,6,0,0,0,0,0,0,1
721,18486,10448,trol,6,0,0,0,0,0,0,1
731,18487,10448,trol,6,0,0,0,0,0,0,1
745,18488,10448,trol,6,0,0,0,0,0,0,1
760,18489,10448,trol,6,0,0,0,0,0,0,1
771,18490,10448,trol,6,0,0,0,0,0,0,1
784,18491,10448,trol,6,0,0,0,0,0,0,1
799,18492,10448,trol,6,0,0,0,0,0,0,1
817,18493,10448,trol,6,0,0,0,0,0,0,1
830,18494,10448,trol,6,0,0,0,0,0,0,1
842,18495,10448,trol,6,0,0,0,0,0,0,1
853,18496,10448,trol,6,0,0,0,0,0,0,1
864,18497,10448,trol,6,0,0,0,0,0,0,1
878,18498,10448,trol,6,0,0,0,0,0,0,1
894,18499,10448,trol,6,0,0,0,0,0,0,1
906,18500,10448,trol,6,0,0,0,0,0,0,1
917,18501,10448,trol,6,0,0,0,0,0,0,1
929,18502,10448,trol,6,0,0,0,0,0,0,1
942,18503,10448,trol,6,0,0,0,0,0,0,1
955,18504,10448,trol,6,0,0,0,0,0,0,1
966,18505,10448,trol,6,0,0,0,0,0,0,1
978,18506,10448,trol,6,0,0,0,0,0,0,1
989,18507,10448,trol,6,0,0,0,0,0,0,1
1001,18508,10448,trol,6,0,0,0,0,0,0,1
1017,18509,10448,trol,6,0,0,0,0,0,0,1
1031,18510,10448,trol,6,0,0,0,0,0,0,1
1044,18511,10448,trol,6,0,0,0,0,0,0,1
1064,18512,10448,trol,6,0,0,0,0,0,0,1
1084,18513,10448,trol,6,0,0,0,0,0,0,1
1112,18514,10448,trol,6,0,0,0,0,0,0,1
1133,18515,10448,trol,6,0,0,0,0,0,0,1
1150,18516,10448,trol,6,0,0,0,0,0,0,1
1175,18517,10448,trol,6,0,0,0,0,0,0,1
1198,18518,10448,trol,6,0,0,0,0,0,0,1
1217,18519,10448,trol,6,0,0,0,0,0,0,1
1239,18520,10448,trol,6,0,0,0,0,0,0,1
1253,18521,10448,trol,6,0,0,0,0,0,0,1
1279,18522,10448,trol,6,0,0,0,0,0,0,1
1294,18523,10448,trol,6,0,0,0,0,0,0,1
1313,18524,10448,trol,6,0,0,0,0,0,0,1
1335,18525,10448,trol,6,0,0,0,0,0,0,1
1360,18526,10448,trol,6,0,0,0,0,0,0,1
1382,18527,10448,trol,6,0,0,0,0,0,0,1
1396,18528,10448,trol,6,0,0,0,0,0,0,1
346,18529,10446,trol,6,1,1,1,1,1,0,0
355,18530,10446,trol,6,1,1,1,1,1,0,0
370,18531,10446,trol,6,1,1,1,1,1,0,0
382,18532,10446,trol,6,1,1,1,1,1,0,0
395,18533,10446,trol,6,1,1,1,1,1,0,0
403,18534,10446,trol,6,1,1,1,1,1,0,0
411,18535,10446,trol,6,1,1,1,1,1,0,0
420,18536,10446,trol,6,1,1,1,1,1,0,0
430,18537,10446,trol,6,1,1,1,1,1,0,0
440,18538,10446,trol,6,1,1,1,1,1,0,0
452,18539,10446,trol,6,1,1,1,1,1,0,0
462,18540,10446,trol,6,1,1,1,1,1,0,0
469,18541,10446,trol,6,1,1,1,1,1,0,0
476,18542,10446,trol,6,1,1,1,1,1,0,0
483,18543,10446,trol,6,1,1,1,1,1,0,0
493,18544,10446,trol,6,1,1,1,1,1,0,0
502,18545,10446,trol,6,1,1,1,1,1,0,0
508,18546,10446,trol,6,1,1,1,1,1,0,0
517,18547,10446,trol,6,1,1,1,1,1,0,0
526,18548,10446,trol,6,1,1,1,1,1,0,0
533,18549,10446,trol,6,1,1,1,1,1,0,0
547,18550,10446,trol,6,1,1,1,1,1,0,0
559,18551,10446,trol,6,1,1,1,1,1,0,0
574,18552,10446,trol,6,1,1,1,1,1,0,0
591,18553,10446,trol,6,1,1,1,1,1,0,0
603,18554,10446,trol,6,1,1,1,1,1,0,0
619,18555,10446,trol,6,1,1,1,1,1,0,0
629,18556,10446,trol,6,1,1,1,1,1,0,0
644,18557,10446,trol,6,1,1,1,1,1,0,0
659,18558,10446,trol,6,1,1,1,1,1,0,0
673,18559,10446,trol,6,1,1,1,1,1,0,0
686,18560,10446,trol,6,1,1,1,1,1,0,0
696,18561,10446,trol,6,1,1,1,1,1,0,0
705,18562,10446,trol,6,1,1,1,1,1,0,0
719,18563,10446,trol,6,1,1,1,1,1,0,0
731,18564,10446,trol,6,1,1,1,1,1,0,0
746,18565,10446,trol,6,1,1,1,1,1,0,0
759,18566,10446,trol,6,1,1,1,1,1,0,0
772,18567,10446,trol,6,1,1,1,1,1,0,0
786,18568,10446,trol,6,1,1,1,1,1,0,0
801,18569,10446,trol,6,1,1,1,1,1,0,0
812,18570,10446,trol,6,1,1,1,1,1,0,0
823,18571,10446,trol,6,1,1,1,1,1,0,0
837,18572,10446,trol,6,1,1,1,1,1,0,0
850,18573,10446,trol,6,1,1,1,1,1,0,0
863,18574,10446,trol,6,1,1,1,1,1,0,0
879,18575,10446,trol,6,1,1,1,1,1,0,0
894,18576,10446,trol,6,1,1,1,1,1,0,0
908,18577,10446,trol,6,1,1,1,1,1,0,0
922,18578,10446,trol,6,1,1,1,1,1,0,0
933,18579,10446,trol,6,1,1,1,1,1,0,0
944,18580,10446,trol,6,1,1,1,1,1,0,0
953,18581,10446,trol,6,1,1,1,1,1,0,0
960,18582,10446,trol,6,1,1,1,1,1,0,0
968,18583,10446,trol,6,1,1,1,1,1,0,0
975,18584,10446,trol,6,1,1,1,1,1,0,0
984,18585,10446,trol,6,1,1,1,1,1,0,0
992,18586,10446,trol,6,1,1,1,1,1,0,0
1000,18587,10446,trol,6,1,1,1,1,1,0,0
1010,18588,10446,trol,6,1,1,1,1,1,0,0
1020,18589,10446,trol,6,1,1,1,1,1,0,0
1029,18590,10446,trol,6,1,1,1,1,1,0,0
1040,18591,10446,trol,6,1,1,1,1,1,0,0
1050,18592,10446,trol,6,1,1,1,1,1,0,0
1059,18593,10446,trol,6,1,1,1,1,1,0,0
1068,18594,10446,trol,6,1,1,1,1,1,0,0
1078,18595,10446,trol,6,1,1,1,1,1,0,0
1088,18596,10446,trol,6,1,1,1,1,1,0,0
1097,18597,10446,trol,6,1,1,1,1,1,0,0
1108,18598,10446,trol,6,1,1,1,1,1,0,0
1119,18599,10446,trol,6,1,1,1,1,1,0,0
1130,18600,10446,trol,6,1,1,1,1,1,0,0
1142,18601,10446,trol,6,1,1,1,1,1,0,0
1154,18602,10446,trol,6,1,1,1,1,1,0,0
1162,18603,10446,trol,6,1,1,1,1,1,0,0
1176,18604,10446,trol,6,1,1,1,1,1,0,0
1190,18605,10446,trol,6,1,1,1,1,1,0,0
1200,18606,10446,trol,6,1,1,1,1,1,0,0
1213,18607,10446,trol,6,1,1,1,1,1,0,0
1220,18608,10446,trol,6,1,1,1,1,1,0,0
1238,18609,10446,trol,6,1,1,1,1,1,0,0
1252,18610,10446,trol,6,1,1,1,1,1,0,0
1263,18611,10446,trol,6,1,1,1,1,1,0,0
1273,18612,10446,trol,6,1,1,1,1,1,0,0
1286,18613,10446,trol,6,1,1,1,1,1,0,0
1298,18614,10446,trol,6,1,1,1,1,1,0,0
1310,18615,10446,trol,6,1,1,1,1,1,0,0
1320,18616,10446,trol,6,1,1,1,1,1,0,0
1331,18617,10446,trol,6,1,1,1,1,1,0,0
1344,18618,10446,trol,6,1,1,1,1,1,0,0
1356,18619,10446,trol,6,1,1,1,1,1,0,0
1370,18620,10446,trol,6,1,1,1,1,1,0,0
1384,18621,10446,trol,6,1,1,1,1,1,0,0
368,18622,10447,trol,6,0,0,0,0,0,1,0
395,18623,10447,trol,6,0,0,0,0,0,1,0
422,18624,10447,trol,6,0,0,0,0,0,1,0
447,18625,10447,trol,6,0,0,0,0,0,1,0
460,18626,10447,trol,6,0,0,0,0,0,1,0
478,18627,10447,trol,6,0,0,0,0,0,1,0
498,18628,10447,trol,6,0,0,0,0,0,1,0
514,18629,10447,trol,6,0,0,0,0,0,1,0
531,18630,10447,trol,6,0,0,0,0,0,1,0
551,18631,10447,trol,6,0,0,0,0,0,1,0
567,18632,10447,trol,6,0,0,0,0,0,1,0
583,18633,10447,trol,6,0,0,0,0,0,1,0
598,18634,10447,trol,6,0,0,0,0,0,1,0
613,18635,10447,trol,6,0,0,0,0,0,1,0
625,18636,10447,trol,6,0,0,0,0,0,1,0
639,18637,10447,trol,6,0,0,0,0,0,1,0
656,18638,10447,trol,6,0,0,0,0,0,1,0
669,18639,10447,trol,6,0,0,0,0,0,1,0
684,18640,10447,trol,6,0,0,0,0,0,1,0
694,18641,10447,trol,6,0,0,0,0,0,1,0
707,18642,10447,trol,6,0,0,0,0,0,1,0
721,18643,10447,trol,6,0,0,0,0,0,1,0
731,18644,10447,trol,6,0,0,0,0,0,1,0
745,18645,10447,trol,6,0,0,0,0,0,1,0
760,18646,10447,trol,6,0,0,0,0,0,1,0
771,18647,10447,trol,6,0,0,0,0,0,1,0
784,18648,10447,trol,6,0,0,0,0,0,1,0
799,18649,10447,trol,6,0,0,0,0,0,1,0
817,18650,10447,trol,6,0,0,0,0,0,1,0
830,18651,10447,trol,6,0,0,0,0,0,1,0
842,18652,10447,trol,6,0,0,0,0,0,1,0
853,18653,10447,trol,6,0,0,0,0,0,1,0
864,18654,10447,trol,6,0,0,0,0,0,1,0
878,18655,10447,trol,6,0,0,0,0,0,1,0
894,18656,10447,trol,6,0,0,0,0,0,1,0
906,18657,10447,trol,6,0,0,0,0,0,1,0
917,18658,10447,trol,6,0,0,0,0,0,1,0
929,18659,10447,trol,6,0,0,0,0,0,1,0
942,18660,10447,trol,6,0,0,0,0,0,1,0
955,18661,10447,trol,6,0,0,0,0,0,1,0
966,18662,10447,trol,6,0,0,0,0,0,1,0
978,18663,10447,trol,6,0,0,0,0,0,1,0
989,18664,10447,trol,6,0,0,0,0,0,1,0
1001,18665,10447,trol,6,0,0,0,0,0,1,0
1017,18666,10447,trol,6,0,0,0,0,0,1,0
1031,18667,10447,trol,6,0,0,0,0,0,1,0
1044,18668,10447,trol,6,0,0,0,0,0,1,0
1064,18669,10447,trol,6,0,0,0,0,0,1,0
1084,18670,10447,trol,6,0,0,0,0,0,1,0
1112,18671,10447,trol,6,0,0,0,0,0,1,0
1133,18672,10447,trol,6,0,0,0,0,0,1,0
1150,18673,10447,trol,6,0,0,0,0,0,1,0
1175,18674,10447,trol,6,0,0,0,0,0,1,0
1198,18675,10447,trol,6,0,0,0,0,0,1,0
1217,18676,10447,trol,6,0,0,0,0,0,1,0
1239,18677,10447,trol,6,0,0,0,0,0,1,0
1253,18678,10447,trol,6,0,0,0,0,0,1,0
1279,18679,10447,trol,6,0,0,0,0,0,1,0
1294,18680,10447,trol,6,0,0,0,0,0,1,0
1313,18681,10447,trol,6,0,0,0,0,0,1,0
1335,18682,10447,trol,6,0,0,0,0,0,1,0
1360,18683,10447,trol,6,0,0,0,0,0,1,0
1382,18684,10447,trol,6,0,0,0,0,0,1,0
1396,18685,10447,trol,6,0,0,0,0,0,1,0
581,18686,10446,trol,6,1,1,1,1,1,0,0
611,18687,10446,trol,6,1,1,1,1,1,0,0
368,18970,10448,trol,6,0,0,0,0,0,0,1
395,18971,10448,trol,6,0,0,0,0,0,0,1
390,18972,10446,trol,6,1,1,1,1,1,0,0
346,18973,10447,trol,6,0,0,0,0,0,1,0
324,18974,10446,trol,6,1,1,1,1,1,0,0
321,18975,10447,trol,6,0,0,0,0,0,1,0
431,20818,10460,trol,12,0,0,0,0,0,0,1
452,20819,10460,trol,12,0,0,0,0,0,0,1
468,20820,10460,trol,12,0,0,0,0,0,0,1
489,20821,10460,trol,12,0,0,0,0,0,0,1
511,20822,10460,trol,12,0,0,0,0,0,0,1
539,20823,10460,trol,12,0,0,0,0,0,0,1
561,20824,10460,trol,12,0,0,0,0,0,0,1
579,20825,10460,trol,12,0,0,0,0,0,0,1
602,20826,10460,trol,12,0,0,0,0,0,0,1
629,20827,10460,trol,12,0,0,0,0,0,0,1
649,20828,10460,trol,12,0,0,0,0,0,0,1
675,20829,10460,trol,12,0,0,0,0,0,0,1
700,20830,10460,trol,12,0,0,0,0,0,0,1
714,20831,10460,trol,12,0,0,0,0,0,0,1
736,20832,10460,trol,12,0,0,0,0,0,0,1
751,20833,10460,trol,12,0,0,0,0,0,0,1
768,20834,10460,trol,12,0,0,0,0,0,0,1
793,20835,10460,trol,12,0,0,0,0,0,0,1
810,20836,10460,trol,12,0,0,0,0,0,0,1
837,20837,10460,trol,12,0,0,0,0,0,0,1
859,20838,10460,trol,12,0,0,0,0,0,0,1
870,20839,10460,trol,12,0,0,0,0,0,0,1
886,20840,10460,trol,12,0,0,0,0,0,0,1
911,20841,10460,trol,12,0,0,0,0,0,0,1
924,20842,10460,trol,12,0,0,0,0,0,0,1
950,20843,10460,trol,12,0,0,0,0,0,0,1
970,20844,10460,trol,12,0,0,0,0,0,0,1
993,20845,10460,trol,12,0,0,0,0,0,0,1
1008,20846,10460,trol,12,0,0,0,0,0,0,1
1025,20847,10460,trol,12,0,0,0,0,0,0,1
1049,20848,10460,trol,12,0,0,0,0,0,0,1
1073,20849,10460,trol,12,0,0,0,0,0,0,1
1096,20850,10460,trol,12,0,0,0,0,0,0,1
1121,20851,10460,trol,12,0,0,0,0,0,0,1
1158,20852,10460,trol,12,0,0,0,0,0,0,1
1184,20853,10460,trol,12,0,0,0,0,0,0,1
1208,20854,10460,trol,12,0,0,0,0,0,0,1
1232,20855,10460,trol,12,0,0,0,0,0,0,1
1259,20856,10460,trol,12,0,0,0,0,0,0,1
1274,20857,10460,trol,12,0,0,0,0,0,0,1
1302,20858,10460,trol,12,0,0,0,0,0,0,1
1319,20859,10460,trol,12,0,0,0,0,0,0,1
1347,20860,10460,trol,12,0,0,0,0,0,0,1
1373,20861,10460,trol,12,0,0,0,0,0,0,1
1406,20862,10460,trol,12,0,0,0,0,0,0,1
343,20863,10458,trol,12,1,1,1,1,1,0,0
359,20864,10458,trol,12,1,1,1,1,1,0,0
374,20865,10458,trol,12,1,1,1,1,1,0,0
386,20866,10458,trol,12,1,1,1,1,1,0,0
399,20867,10458,trol,12,1,1,1,1,1,0,0
414,20868,10458,trol,12,1,1,1,1,1,0,0
427,20869,10458,trol,12,1,1,1,1,1,0,0
444,20870,10458,trol,12,1,1,1,1,1,0,0
455,20871,10458,trol,12,1,1,1,1,1,0,0
466,20872,10458,trol,12,1,1,1,1,1,0,0
474,20873,10458,trol,12,1,1,1,1,1,0,0
486,20874,10458,trol,12,1,1,1,1,1,0,0
497,20875,10458,trol,12,1,1,1,1,1,0,0
512,20876,10458,trol,12,1,1,1,1,1,0,0
524,20877,10458,trol,12,1,1,1,1,1,0,0
538,20878,10458,trol,12,1,1,1,1,1,0,0
554,20879,10458,trol,12,1,1,1,1,1,0,0
570,20880,10458,trol,12,1,1,1,1,1,0,0
586,20881,10458,trol,12,1,1,1,1,1,0,0
601,20882,10458,trol,12,1,1,1,1,1,0,0
615,20883,10458,trol,12,1,1,1,1,1,0,0
633,20884,10458,trol,12,1,1,1,1,1,0,0
649,20885,10458,trol,12,1,1,1,1,1,0,0
665,20886,10458,trol,12,1,1,1,1,1,0,0
682,20887,10458,trol,12,1,1,1,1,1,0,0
699,20888,10458,trol,12,1,1,1,1,1,0,0
714,20889,10458,trol,12,1,1,1,1,1,0,0
725,20890,10458,trol,12,1,1,1,1,1,0,0
739,20891,10458,trol,12,1,1,1,1,1,0,0
754,20892,10458,trol,12,1,1,1,1,1,0,0
768,20893,10458,trol,12,1,1,1,1,1,0,0
782,20894,10458,trol,12,1,1,1,1,1,0,0
797,20895,10458,trol,12,1,1,1,1,1,0,0
815,20896,10458,trol,12,1,1,1,1,1,0,0
832,20897,10458,trol,12,1,1,1,1,1,0,0
846,20898,10458,trol,12,1,1,1,1,1,0,0
860,20899,10458,trol,12,1,1,1,1,1,0,0
874,20900,10458,trol,12,1,1,1,1,1,0,0
890,20901,10458,trol,12,1,1,1,1,1,0,0
904,20902,10458,trol,12,1,1,1,1,1,0,0
918,20903,10458,trol,12,1,1,1,1,1,0,0
935,20904,10458,trol,12,1,1,1,1,1,0,0
946,20905,10458,trol,12,1,1,1,1,1,0,0
956,20906,10458,trol,12,1,1,1,1,1,0,0
970,20907,10458,trol,12,1,1,1,1,1,0,0
982,20908,10458,trol,12,1,1,1,1,1,0,0
995,20909,10458,trol,12,1,1,1,1,1,0,0
1005,20910,10458,trol,12,1,1,1,1,1,0,0
1016,20911,10458,trol,12,1,1,1,1,1,0,0
1032,20912,10458,trol,12,1,1,1,1,1,0,0
1047,20913,10458,trol,12,1,1,1,1,1,0,0
1064,20914,10458,trol,12,1,1,1,1,1,0,0
1082,20915,10458,trol,12,1,1,1,1,1,0,0
1095,20916,10458,trol,12,1,1,1,1,1,0,0
1111,20917,10458,trol,12,1,1,1,1,1,0,0
1124,20918,10458,trol,12,1,1,1,1,1,0,0
1138,20919,10458,trol,12,1,1,1,1,1,0,0
1157,20920,10458,trol,12,1,1,1,1,1,0,0
1171,20921,10458,trol,12,1,1,1,1,1,0,0
1187,20922,10458,trol,12,1,1,1,1,1,0,0
1205,20923,10458,trol,12,1,1,1,1,1,0,0
1224,20924,10458,trol,12,1,1,1,1,1,0,0
1234,20925,10458,trol,12,1,1,1,1,1,0,0
1246,20926,10458,trol,12,1,1,1,1,1,0,0
1259,20927,10458,trol,12,1,1,1,1,1,0,0
1276,20928,10458,trol,12,1,1,1,1,1,0,0
1290,20929,10458,trol,12,1,1,1,1,1,0,0
1306,20930,10458,trol,12,1,1,1,1,1,0,0
1324,20931,10458,trol,12,1,1,1,1,1,0,0
1339,20932,10458,trol,12,1,1,1,1,1,0,0
1362,20933,10458,trol,12,1,1,1,1,1,0,0
1375,20934,10458,trol,12,1,1,1,1,1,0,0
382,20935,10459,trol,12,0,0,0,0,0,1,0
406,20936,10459,trol,12,0,0,0,0,0,1,0
431,20937,10459,trol,12,0,0,0,0,0,1,0
452,20938,10459,trol,12,0,0,0,0,0,1,0
468,20939,10459,trol,12,0,0,0,0,0,1,0
489,20940,10459,trol,12,0,0,0,0,0,1,0
511,20941,10459,trol,12,0,0,0,0,0,1,0
539,20942,10459,trol,12,0,0,0,0,0,1,0
561,20943,10459,trol,12,0,0,0,0,0,1,0
579,20944,10459,trol,12,0,0,0,0,0,1,0
602,20945,10459,trol,12,0,0,0,0,0,1,0
629,20946,10459,trol,12,0,0,0,0,0,1,0
649,20947,10459,trol,12,0,0,0,0,0,1,0
675,20948,10459,trol,12,0,0,0,0,0,1,0
700,20949,10459,trol,12,0,0,0,0,0,1,0
714,20950,10459,trol,12,0,0,0,0,0,1,0
736,20951,10459,trol,12,0,0,0,0,0,1,0
751,20952,10459,trol,12,0,0,0,0,0,1,0
768,20953,10459,trol,12,0,0,0,0,0,1,0
793,20954,10459,trol,12,0,0,0,0,0,1,0
810,20955,10459,trol,12,0,0,0,0,0,1,0
837,20956,10459,trol,12,0,0,0,0,0,1,0
859,20957,10459,trol,12,0,0,0,0,0,1,0
870,20958,10459,trol,12,0,0,0,0,0,1,0
886,20959,10459,trol,12,0,0,0,0,0,1,0
911,20960,10459,trol,12,0,0,0,0,0,1,0
924,20961,10459,trol,12,0,0,0,0,0,1,0
950,20962,10459,trol,12,0,0,0,0,0,1,0
970,20963,10459,trol,12,0,0,0,0,0,1,0
993,20964,10459,trol,12,0,0,0,0,0,1,0
1008,20965,10459,trol,12,0,0,0,0,0,1,0
1025,20966,10459,trol,12,0,0,0,0,0,1,0
1049,20967,10459,trol,12,0,0,0,0,0,1,0
1073,20968,10459,trol,12,0,0,0,0,0,1,0
1096,20969,10459,trol,12,0,0,0,0,0,1,0
1121,20970,10459,trol,12,0,0,0,0,0,1,0
1158,20971,10459,trol,12,0,0,0,0,0,1,0
1184,20972,10459,trol,12,0,0,0,0,0,1,0
1208,20973,10459,trol,12,0,0,0,0,0,1,0
1232,20974,10459,trol,12,0,0,0,0,0,1,0
1259,20975,10459,trol,12,0,0,0,0,0,1,0
1274,20976,10459,trol,12,0,0,0,0,0,1,0
1302,20977,10459,trol,12,0,0,0,0,0,1,0
1319,20978,10459,trol,12,0,0,0,0,0,1,0
1347,20979,10459,trol,12,0,0,0,0,0,1,0
1373,20980,10459,trol,12,0,0,0,0,0,1,0
1406,20981,10459,trol,12,0,0,0,0,0,1,0
383,21188,10460,trol,12,0,0,0,0,0,0,1
407,21189,10460,trol,12,0,0,0,0,0,0,1
328,21190,10656,trol,13,1,1,1,1,1,0,0
359,21191,10656,trol,13,1,1,1,1,1,0,0
382,21192,10656,trol,13,1,1,1,1,1,0,0
402,21193,10656,trol,13,1,1,1,1,1,0,0
423,21194,10656,trol,13,1,1,1,1,1,0,0
452,21195,10656,trol,13,1,1,1,1,1,0,0
477,21196,10656,trol,13,1,1,1,1,1,0,0
501,21197,10656,trol,13,1,1,1,1,1,0,0
521,21198,10656,trol,13,1,1,1,1,1,0,0
850,21199,10656,trol,13,1,1,1,1,1,0,0
868,21200,10656,trol,13,1,1,1,1,1,0,0
883,21201,10656,trol,13,1,1,1,1,1,0,0
896,21202,10656,trol,13,1,1,1,1,1,0,0
913,21203,10656,trol,13,1,1,1,1,1,0,0
928,21204,10656,trol,13,1,1,1,1,1,0,0
947,21205,10656,trol,13,1,1,1,1,1,0,0
967,21206,10656,trol,13,1,1,1,1,1,0,0
980,21207,10656,trol,13,1,1,1,1,1,0,0
994,21208,10656,trol,13,1,1,1,1,1,0,0
1010,21209,10656,trol,13,1,1,1,1,1,0,0
1029,21210,10656,trol,13,1,1,1,1,1,0,0
1049,21211,10656,trol,13,1,1,1,1,1,0,0
534,21212,10656,trol,13,1,1,1,1,1,0,0
553,21213,10656,trol,13,1,1,1,1,1,0,0
574,21214,10656,trol,13,1,1,1,1,1,0,0
328,21468,10465,trol,15,1,1,1,1,1,0,0
348,21469,10465,trol,15,1,1,1,1,1,0,0
371,21470,10465,trol,15,1,1,1,1,1,0,0
388,21471,10465,trol,15,1,1,1,1,1,0,0
411,21472,10465,trol,15,1,1,1,1,1,0,0
434,21473,10465,trol,15,1,1,1,1,1,0,0
461,21474,10465,trol,15,1,1,1,1,1,0,0
485,21475,10465,trol,15,1,1,1,1,1,0,0
953,21476,10465,trol,15,1,1,1,1,1,0,0
978,21477,10465,trol,15,1,1,1,1,1,0,0
998,21478,10465,trol,15,1,1,1,1,1,0,0
1026,21479,10465,trol,15,1,1,1,1,1,0,0
1052,21480,10465,trol,15,1,1,1,1,1,0,0
1076,21481,10465,trol,15,1,1,1,1,1,0,0
1099,21482,10465,trol,15,1,1,1,1,1,0,0
505,21483,10465,trol,15,1,1,1,1,1,0,0
532,21484,10465,trol,15,1,1,1,1,1,0,0
554,21485,10465,trol,15,1,1,1,1,1,0,0
354,22777,10655,trol,18,1,1,1,1,1,0,0
374,22778,10654,trol,18,1,1,1,1,1,0,0
392,22779,10655,trol,18,1,1,1,1,1,0,0
408,22780,10656,trol,18,1,1,1,1,1,0,0
428,22781,10655,trol,18,1,1,1,1,1,0,0
443,22782,10655,trol,18,1,1,1,1,1,0,0
462,22783,10655,trol,18,1,1,1,1,1,0,0
480,22784,10654,trol,18,1,1,1,1,1,0,0
495,22785,10655,trol,18,1,1,1,1,1,0,0
516,22786,10656,trol,18,1,1,1,1,1,0,0
528,22787,10655,trol,18,1,1,1,1,1,0,0
545,22788,10655,trol,18,1,1,1,1,1,0,0
563,22789,10655,trol,18,1,1,1,1,1,0,0
596,22790,10655,trol,18,1,1,1,1,1,0,0
648,22791,10655,trol,18,1,1,1,1,1,0,0
683,22792,10655,trol,18,1,1,1,1,1,0,0
715,22793,10655,trol,18,1,1,1,1,1,0,0
743,22794,10655,trol,18,1,1,1,1,1,0,0
777,22795,10655,trol,18,1,1,1,1,1,0,0
808,22796,10655,trol,18,1,1,1,1,1,0,0
842,22797,10655,trol,18,1,1,1,1,1,0,0
876,22798,10655,trol,18,1,1,1,1,1,0,0
907,22799,10655,trol,18,1,1,1,1,1,0,0
941,22800,10655,trol,18,1,1,1,1,1,0,0
972,22801,10655,trol,18,1,1,1,1,1,0,0
1002,22802,10655,trol,18,1,1,1,1,1,0,0
1021,22803,10655,trol,18,1,1,1,1,1,0,0
1042,22804,10655,trol,18,1,1,1,1,1,0,0
1071,22805,10655,trol,18,1,1,1,1,1,0,0
1103,22806,10655,trol,18,1,1,1,1,1,0,0
1130,22807,10655,trol,18,1,1,1,1,1,0,0
1165,22808,10655,trol,18,1,1,1,1,1,0,0
1205,22809,10655,trol,18,1,1,1,1,1,0,0
1236,22810,10655,trol,18,1,1,1,1,1,0,0
1267,22811,10655,trol,18,1,1,1,1,1,0,0
1314,22812,10655,trol,18,1,1,1,1,1,0,0
1360,22813,10655,trol,18,1,1,1,1,1,0,0
326,22814,10651,trol,18,0,0,0,0,0,1,0
403,22815,10652,trol,18,0,0,0,0,0,1,0
436,22816,10652,trol,18,0,0,0,0,0,1,0
493,22817,10652,trol,18,0,0,0,0,0,1,0
530,22818,10652,trol,18,0,0,0,0,0,1,0
584,22819,10652,trol,18,0,0,0,0,0,1,0
627,22820,10652,trol,18,0,0,0,0,0,1,0
660,22821,10652,trol,18,0,0,0,0,0,1,0
702,22822,10652,trol,18,0,0,0,0,0,1,0
731,22823,10652,trol,18,0,0,0,0,0,1,0
753,22824,10652,trol,18,0,0,0,0,0,1,0
796,22825,10652,trol,18,0,0,0,0,0,1,0
843,22826,10652,trol,18,0,0,0,0,0,1,0
863,22827,10652,trol,18,0,0,0,0,0,1,0
896,22828,10652,trol,18,0,0,0,0,0,1,0
937,22829,10652,trol,18,0,0,0,0,0,1,0
959,22830,10652,trol,18,0,0,0,0,0,1,0
992,22831,10652,trol,18,0,0,0,0,0,1,0
1028,22832,10652,trol,18,0,0,0,0,0,1,0
1074,22833,10652,trol,18,0,0,0,0,0,1,0
1115,22834,10652,trol,18,0,0,0,0,0,1,0
1160,22835,10652,trol,18,0,0,0,0,0,1,0
1210,22836,10652,trol,18,0,0,0,0,0,1,0
1258,22837,10652,trol,18,0,0,0,0,0,1,0
1306,22838,10652,trol,18,0,0,0,0,0,1,0
1362,22839,10652,trol,18,0,0,0,0,0,1,0
375,22840,10474,trol,18,0,0,0,0,0,0,1
436,22841,10474,trol,18,0,0,0,0,0,0,1
483,22842,10474,trol,18,0,0,0,0,0,0,1
530,22843,10474,trol,18,0,0,0,0,0,0,1
584,22844,10474,trol,18,0,0,0,0,0,0,1
627,22845,10474,trol,18,0,0,0,0,0,0,1
660,22846,10474,trol,18,0,0,0,0,0,0,1
702,22847,10474,trol,18,0,0,0,0,0,0,1
731,22848,10474,trol,18,0,0,0,0,0,0,1
753,22849,10474,trol,18,0,0,0,0,0,0,1
796,22850,10474,trol,18,0,0,0,0,0,0,1
843,22851,10474,trol,18,0,0,0,0,0,0,1
863,22852,10474,trol,18,0,0,0,0,0,0,1
896,22853,10474,trol,18,0,0,0,0,0,0,1
937,22854,10474,trol,18,0,0,0,0,0,0,1
959,22855,10474,trol,18,0,0,0,0,0,0,1
992,22856,10474,trol,18,0,0,0,0,0,0,1
1028,22857,10474,trol,18,0,0,0,0,0,0,1
1074,22858,10474,trol,18,0,0,0,0,0,0,1
1115,22859,10474,trol,18,0,0,0,0,0,0,1
1160,22860,10474,trol,18,0,0,0,0,0,0,1
1210,22861,10474,trol,18,0,0,0,0,0,0,1
1258,22862,10474,trol,18,0,0,0,0,0,0,1
1306,22863,10474,trol,18,0,0,0,0,0,0,1
1362,22864,10474,trol,18,0,0,0,0,0,0,1
637,22865,10655,trol,18,1,1,1,1,1,0,0
332,22979,10655,trol,18,1,1,1,1,1,0,0
