timeInMin,trip_id,service_id,tipas,numeris,pirmadienis,antradienis,treciadienis,ketvirtadienis,penktadienis,sestadienis,sekmadienis 
376,14566,10499,bus,73,0,0,0,0,0,0,1
420,14567,10499,bus,73,0,0,0,0,0,0,1
471,14568,10499,bus,73,0,0,0,0,0,0,1
511,14569,10499,bus,73,0,0,0,0,0,0,1
555,14570,10499,bus,73,0,0,0,0,0,0,1
593,14571,10499,bus,73,0,0,0,0,0,0,1
631,14572,10499,bus,73,0,0,0,0,0,0,1
672,14573,10499,bus,73,0,0,0,0,0,0,1
710,14574,10499,bus,73,0,0,0,0,0,0,1
740,14575,10499,bus,73,0,0,0,0,0,0,1
776,14576,10499,bus,73,0,0,0,0,0,0,1
800,14577,10499,bus,73,0,0,0,0,0,0,1
832,14578,10499,bus,73,0,0,0,0,0,0,1
872,14579,10499,bus,73,0,0,0,0,0,0,1
901,14580,10499,bus,73,0,0,0,0,0,0,1
922,14581,10499,bus,73,0,0,0,0,0,0,1
959,14582,10499,bus,73,0,0,0,0,0,0,1
995,14583,10499,bus,73,0,0,0,0,0,0,1
1031,14584,10499,bus,73,0,0,0,0,0,0,1
1060,14585,10499,bus,73,0,0,0,0,0,0,1
1086,14586,10499,bus,73,0,0,0,0,0,0,1
1125,14587,10499,bus,73,0,0,0,0,0,0,1
1172,14588,10499,bus,73,0,0,0,0,0,0,1
1208,14589,10499,bus,73,0,0,0,0,0,0,1
1267,14590,10499,bus,73,0,0,0,0,0,0,1
1323,14591,10499,bus,73,0,0,0,0,0,0,1
1362,14592,10499,bus,73,0,0,0,0,0,0,1
1403,14593,10499,bus,73,0,0,0,0,0,0,1
336,14594,10497,bus,73,1,1,1,1,1,0,0
373,14595,10497,bus,73,1,1,1,1,1,0,0
406,14596,10497,bus,73,1,1,1,1,1,0,0
432,14597,10497,bus,73,1,1,1,1,1,0,0
457,14598,10497,bus,73,1,1,1,1,1,0,0
481,14599,10497,bus,73,1,1,1,1,1,0,0
500,14600,10497,bus,73,1,1,1,1,1,0,0
520,14601,10497,bus,73,1,1,1,1,1,0,0
545,14602,10497,bus,73,1,1,1,1,1,0,0
568,14603,10497,bus,73,1,1,1,1,1,0,0
583,14604,10497,bus,73,1,1,1,1,1,0,0
607,14605,10497,bus,73,1,1,1,1,1,0,0
636,14606,10497,bus,73,1,1,1,1,1,0,0
666,14607,10497,bus,73,1,1,1,1,1,0,0
698,14608,10497,bus,73,1,1,1,1,1,0,0
723,14609,10497,bus,73,1,1,1,1,1,0,0
754,14610,10497,bus,73,1,1,1,1,1,0,0
786,14611,10497,bus,73,1,1,1,1,1,0,0
810,14612,10497,bus,73,1,1,1,1,1,0,0
846,14613,10497,bus,73,1,1,1,1,1,0,0
883,14614,10497,bus,73,1,1,1,1,1,0,0
902,14615,10497,bus,73,1,1,1,1,1,0,0
935,14616,10497,bus,73,1,1,1,1,1,0,0
957,14617,10497,bus,73,1,1,1,1,1,0,0
974,14618,10497,bus,73,1,1,1,1,1,0,0
991,14619,10497,bus,73,1,1,1,1,1,0,0
1011,14620,10497,bus,73,1,1,1,1,1,0,0
1032,14621,10497,bus,73,1,1,1,1,1,0,0
1059,14622,10497,bus,73,1,1,1,1,1,0,0
1084,14623,10497,bus,73,1,1,1,1,1,0,0
1110,14624,10497,bus,73,1,1,1,1,1,0,0
1126,14625,10497,bus,73,1,1,1,1,1,0,0
1146,14626,10497,bus,73,1,1,1,1,1,0,0
1172,14627,10497,bus,73,1,1,1,1,1,0,0
1211,14628,10497,bus,73,1,1,1,1,1,0,0
1236,14629,10497,bus,73,1,1,1,1,1,0,0
1272,14630,10497,bus,73,1,1,1,1,1,0,0
1301,14631,10497,bus,73,1,1,1,1,1,0,0
1327,14632,10497,bus,73,1,1,1,1,1,0,0
1362,14633,10497,bus,73,1,1,1,1,1,0,0
1395,14634,10497,bus,73,1,1,1,1,1,0,0
335,14635,10498,bus,73,0,0,0,0,0,1,0
376,14636,10498,bus,73,0,0,0,0,0,1,0
420,14637,10498,bus,73,0,0,0,0,0,1,0
471,14638,10498,bus,73,0,0,0,0,0,1,0
511,14639,10498,bus,73,0,0,0,0,0,1,0
555,14640,10498,bus,73,0,0,0,0,0,1,0
593,14641,10498,bus,73,0,0,0,0,0,1,0
631,14642,10498,bus,73,0,0,0,0,0,1,0
672,14643,10498,bus,73,0,0,0,0,0,1,0
710,14644,10498,bus,73,0,0,0,0,0,1,0
740,14645,10498,bus,73,0,0,0,0,0,1,0
776,14646,10498,bus,73,0,0,0,0,0,1,0
800,14647,10498,bus,73,0,0,0,0,0,1,0
832,14648,10498,bus,73,0,0,0,0,0,1,0
872,14649,10498,bus,73,0,0,0,0,0,1,0
901,14650,10498,bus,73,0,0,0,0,0,1,0
922,14651,10498,bus,73,0,0,0,0,0,1,0
959,14652,10498,bus,73,0,0,0,0,0,1,0
995,14653,10498,bus,73,0,0,0,0,0,1,0
1031,14654,10498,bus,73,0,0,0,0,0,1,0
1060,14655,10498,bus,73,0,0,0,0,0,1,0
1086,14656,10498,bus,73,0,0,0,0,0,1,0
1125,14657,10498,bus,73,0,0,0,0,0,1,0
1172,14658,10498,bus,73,0,0,0,0,0,1,0
1208,14659,10498,bus,73,0,0,0,0,0,1,0
1267,14660,10498,bus,73,0,0,0,0,0,1,0
1323,14661,10498,bus,73,0,0,0,0,0,1,0
1362,14662,10498,bus,73,0,0,0,0,0,1,0
1403,14663,10498,bus,73,0,0,0,0,0,1,0
1408,14674,10497,bus,73,1,1,1,1,1,0,0
