timeInMin,trip_id,service_id,tipas,numeris,pirmadienis,antradienis,treciadienis,ketvirtadienis,penktadienis,sestadienis,sekmadienis 
377,13067,10395,bus,55,1,1,1,1,1,0,0
427,13068,10395,bus,55,1,1,1,1,1,0,0
461,13069,10395,bus,55,1,1,1,1,1,0,0
496,13070,10395,bus,55,1,1,1,1,1,0,0
522,13071,10395,bus,55,1,1,1,1,1,0,0
550,13072,10395,bus,55,1,1,1,1,1,0,0
599,13073,10395,bus,55,1,1,1,1,1,0,0
643,13074,10395,bus,55,1,1,1,1,1,0,0
691,13075,10395,bus,55,1,1,1,1,1,0,0
724,13076,10395,bus,55,1,1,1,1,1,0,0
762,13077,10395,bus,55,1,1,1,1,1,0,0
804,13078,10395,bus,55,1,1,1,1,1,0,0
840,13079,10395,bus,55,1,1,1,1,1,0,0
878,13080,10395,bus,55,1,1,1,1,1,0,0
923,13081,10395,bus,55,1,1,1,1,1,0,0
960,13082,10395,bus,55,1,1,1,1,1,0,0
999,13083,10395,bus,55,1,1,1,1,1,0,0
1024,13084,10395,bus,55,1,1,1,1,1,0,0
1048,13085,10395,bus,55,1,1,1,1,1,0,0
1078,13086,10395,bus,55,1,1,1,1,1,0,0
1116,13087,10395,bus,55,1,1,1,1,1,0,0
1144,13088,10395,bus,55,1,1,1,1,1,0,0
1192,13089,10395,bus,55,1,1,1,1,1,0,0
1231,13090,10395,bus,55,1,1,1,1,1,0,0
1264,13091,10395,bus,55,1,1,1,1,1,0,0
1305,13092,10395,bus,55,1,1,1,1,1,0,0
1344,13093,10395,bus,55,1,1,1,1,1,0,0
1377,13094,10395,bus,55,1,1,1,1,1,0,0
363,13095,10193,bus,55,0,0,0,0,0,1,0
416,13096,10193,bus,55,0,0,0,0,0,1,0
473,13097,10193,bus,55,0,0,0,0,0,1,0
526,13098,10193,bus,55,0,0,0,0,0,1,0
572,13099,10193,bus,55,0,0,0,0,0,1,0
620,13100,10193,bus,55,0,0,0,0,0,1,0
665,13101,10193,bus,55,0,0,0,0,0,1,0
708,13102,10193,bus,55,0,0,0,0,0,1,0
742,13103,10193,bus,55,0,0,0,0,0,1,0
779,13104,10193,bus,55,0,0,0,0,0,1,0
816,13105,10193,bus,55,0,0,0,0,0,1,0
855,13106,10193,bus,55,0,0,0,0,0,1,0
892,13107,10193,bus,55,0,0,0,0,0,1,0
924,13108,10193,bus,55,0,0,0,0,0,1,0
968,13109,10193,bus,55,0,0,0,0,0,1,0
1009,13110,10193,bus,55,0,0,0,0,0,1,0
1077,13111,10193,bus,55,0,0,0,0,0,1,0
1154,13112,10193,bus,55,0,0,0,0,0,1,0
1216,13113,10193,bus,55,0,0,0,0,0,1,0
1266,13114,10193,bus,55,0,0,0,0,0,1,0
1323,13115,10193,bus,55,0,0,0,0,0,1,0
1373,13116,10193,bus,55,0,0,0,0,0,1,0
416,13117,10194,bus,55,0,0,0,0,0,0,1
473,13118,10194,bus,55,0,0,0,0,0,0,1
526,13119,10194,bus,55,0,0,0,0,0,0,1
572,13120,10194,bus,55,0,0,0,0,0,0,1
620,13121,10194,bus,55,0,0,0,0,0,0,1
665,13122,10194,bus,55,0,0,0,0,0,0,1
708,13123,10194,bus,55,0,0,0,0,0,0,1
742,13124,10194,bus,55,0,0,0,0,0,0,1
779,13125,10194,bus,55,0,0,0,0,0,0,1
816,13126,10194,bus,55,0,0,0,0,0,0,1
855,13127,10194,bus,55,0,0,0,0,0,0,1
892,13128,10194,bus,55,0,0,0,0,0,0,1
924,13129,10194,bus,55,0,0,0,0,0,0,1
968,13130,10194,bus,55,0,0,0,0,0,0,1
1009,13131,10194,bus,55,0,0,0,0,0,0,1
1077,13132,10194,bus,55,0,0,0,0,0,0,1
1154,13133,10194,bus,55,0,0,0,0,0,0,1
1216,13134,10194,bus,55,0,0,0,0,0,0,1
1266,13135,10194,bus,55,0,0,0,0,0,0,1
1323,13136,10194,bus,55,0,0,0,0,0,0,1
1373,13137,10194,bus,55,0,0,0,0,0,0,1
317,13148,10395,bus,55,1,1,1,1,1,0,0
346,13149,10395,bus,55,1,1,1,1,1,0,0
403,13150,10395,bus,55,1,1,1,1,1,0,0
317,13151,10193,bus,55,0,0,0,0,0,1,0
370,13152,10194,bus,55,0,0,0,0,0,0,1
341,13640,10625,bus,59,1,1,1,1,1,0,0
393,13641,10625,bus,59,1,1,1,1,1,0,0
418,13642,10625,bus,59,1,1,1,1,1,0,0
445,13643,10625,bus,59,1,1,1,1,1,0,0
476,13644,10625,bus,59,1,1,1,1,1,0,0
497,13645,10625,bus,59,1,1,1,1,1,0,0
529,13646,10625,bus,59,1,1,1,1,1,0,0
559,13647,10625,bus,59,1,1,1,1,1,0,0
604,13648,10625,bus,59,1,1,1,1,1,0,0
661,13649,10625,bus,59,1,1,1,1,1,0,0
688,13650,10625,bus,59,1,1,1,1,1,0,0
738,13651,10625,bus,59,1,1,1,1,1,0,0
766,13652,10625,bus,59,1,1,1,1,1,0,0
816,13653,10625,bus,59,1,1,1,1,1,0,0
851,13654,10625,bus,59,1,1,1,1,1,0,0
906,13655,10625,bus,59,1,1,1,1,1,0,0
928,13656,10625,bus,59,1,1,1,1,1,0,0
950,13657,10625,bus,59,1,1,1,1,1,0,0
986,13658,10625,bus,59,1,1,1,1,1,0,0
1006,13659,10625,bus,59,1,1,1,1,1,0,0
1036,13660,10625,bus,59,1,1,1,1,1,0,0
1070,13661,10625,bus,59,1,1,1,1,1,0,0
1103,13662,10625,bus,59,1,1,1,1,1,0,0
1123,13663,10625,bus,59,1,1,1,1,1,0,0
1169,13664,10625,bus,59,1,1,1,1,1,0,0
1200,13665,10625,bus,59,1,1,1,1,1,0,0
1246,13666,10625,bus,59,1,1,1,1,1,0,0
1285,13667,10625,bus,59,1,1,1,1,1,0,0
1330,13668,10625,bus,59,1,1,1,1,1,0,0
1366,13669,10625,bus,59,1,1,1,1,1,0,0
422,13670,10133,bus,59,0,0,0,0,0,1,1
493,13671,10133,bus,59,0,0,0,0,0,1,1
562,13672,10133,bus,59,0,0,0,0,0,1,1
603,13673,10133,bus,59,0,0,0,0,0,1,1
646,13674,10133,bus,59,0,0,0,0,0,1,1
684,13675,10133,bus,59,0,0,0,0,0,1,1
742,13676,10133,bus,59,0,0,0,0,0,1,1
767,13677,10133,bus,59,0,0,0,0,0,1,1
816,13678,10133,bus,59,0,0,0,0,0,1,1
847,13679,10133,bus,59,0,0,0,0,0,1,1
910,13680,10133,bus,59,0,0,0,0,0,1,1
935,13681,10133,bus,59,0,0,0,0,0,1,1
984,13682,10133,bus,59,0,0,0,0,0,1,1
1022,13683,10133,bus,59,0,0,0,0,0,1,1
1057,13684,10133,bus,59,0,0,0,0,0,1,1
1127,13685,10133,bus,59,0,0,0,0,0,1,1
1201,13686,10133,bus,59,0,0,0,0,0,1,1
1275,13687,10133,bus,59,0,0,0,0,0,1,1
1350,13688,10133,bus,59,0,0,0,0,0,1,1
319,13694,10625,bus,59,1,1,1,1,1,0,0
366,13695,10625,bus,59,1,1,1,1,1,0,0
352,13696,10133,bus,59,0,0,0,0,0,1,1
362,16289,10411,bus,116,1,1,1,1,1,0,0
400,16290,10411,bus,116,1,1,1,1,1,0,0
434,16291,10411,bus,116,1,1,1,1,1,0,0
470,16292,10411,bus,116,1,1,1,1,1,0,0
505,16293,10411,bus,116,1,1,1,1,1,0,0
540,16294,10411,bus,116,1,1,1,1,1,0,0
608,16295,10411,bus,116,1,1,1,1,1,0,0
643,16296,10411,bus,116,1,1,1,1,1,0,0
681,16297,10411,bus,116,1,1,1,1,1,0,0
713,16298,10411,bus,116,1,1,1,1,1,0,0
751,16299,10411,bus,116,1,1,1,1,1,0,0
783,16300,10411,bus,116,1,1,1,1,1,0,0
821,16301,10411,bus,116,1,1,1,1,1,0,0
855,16302,10411,bus,116,1,1,1,1,1,0,0
889,16303,10411,bus,116,1,1,1,1,1,0,0
925,16304,10411,bus,116,1,1,1,1,1,0,0
961,16305,10411,bus,116,1,1,1,1,1,0,0
995,16306,10411,bus,116,1,1,1,1,1,0,0
1031,16307,10411,bus,116,1,1,1,1,1,0,0
1065,16308,10411,bus,116,1,1,1,1,1,0,0
1107,16309,10411,bus,116,1,1,1,1,1,0,0
1160,16310,10411,bus,116,1,1,1,1,1,0,0
1202,16311,10411,bus,116,1,1,1,1,1,0,0
1234,16312,10411,bus,116,1,1,1,1,1,0,0
1272,16313,10411,bus,116,1,1,1,1,1,0,0
1342,16314,10411,bus,116,1,1,1,1,1,0,0
370,16315,9366,bus,116,0,0,0,0,0,1,1
440,16316,9366,bus,116,0,0,0,0,0,1,1
510,16317,9366,bus,116,0,0,0,0,0,1,1
605,16318,9366,bus,116,0,0,0,0,0,1,1
678,16319,9366,bus,116,0,0,0,0,0,1,1
748,16320,9366,bus,116,0,0,0,0,0,1,1
818,16321,9366,bus,116,0,0,0,0,0,1,1
888,16322,9366,bus,116,0,0,0,0,0,1,1
958,16323,9366,bus,116,0,0,0,0,0,1,1
1028,16324,9366,bus,116,0,0,0,0,0,1,1
1123,16325,9366,bus,116,0,0,0,0,0,1,1
1193,16326,9366,bus,116,0,0,0,0,0,1,1
1263,16327,9366,bus,116,0,0,0,0,0,1,1
1333,16328,9366,bus,116,0,0,0,0,0,1,1
331,16329,10411,bus,116,1,1,1,1,1,0,0
