timeInMin,trip_id,service_id,tipas,numeris,pirmadienis,antradienis,treciadienis,ketvirtadienis,penktadienis,sestadienis,sekmadienis 
480,4595,9008,bus,8,1,1,1,1,1,0,0
519,4596,9008,bus,8,1,1,1,1,1,0,0
583,4597,9008,bus,8,1,1,1,1,1,0,0
650,4598,9008,bus,8,1,1,1,1,1,0,0
725,4599,9008,bus,8,1,1,1,1,1,0,0
794,4600,9008,bus,8,1,1,1,1,1,0,0
866,4601,9008,bus,8,1,1,1,1,1,0,0
933,4602,9008,bus,8,1,1,1,1,1,0,0
966,4603,9008,bus,8,1,1,1,1,1,0,0
1004,4604,9008,bus,8,1,1,1,1,1,0,0
1052,4605,9008,bus,8,1,1,1,1,1,0,0
1087,4606,9008,bus,8,1,1,1,1,1,0,0
1132,4607,9008,bus,8,1,1,1,1,1,0,0
1188,4608,9008,bus,8,1,1,1,1,1,0,0
1261,4609,9008,bus,8,1,1,1,1,1,0,0
1330,4610,9008,bus,8,1,1,1,1,1,0,0
345,4611,9009,bus,8,0,0,0,0,0,1,0
413,4612,9009,bus,8,0,0,0,0,0,1,0
481,4613,9009,bus,8,0,0,0,0,0,1,0
549,4614,9009,bus,8,0,0,0,0,0,1,0
655,4615,9009,bus,8,0,0,0,0,0,1,0
734,4616,9009,bus,8,0,0,0,0,0,1,0
802,4617,9009,bus,8,0,0,0,0,0,1,0
875,4618,9009,bus,8,0,0,0,0,0,1,0
945,4619,9009,bus,8,0,0,0,0,0,1,0
1016,4620,9009,bus,8,0,0,0,0,0,1,0
1091,4621,9009,bus,8,0,0,0,0,0,1,0
1192,4622,9009,bus,8,0,0,0,0,0,1,0
1270,4623,9009,bus,8,0,0,0,0,0,1,0
413,4624,8983,bus,8,0,0,0,0,0,0,1
481,4625,8983,bus,8,0,0,0,0,0,0,1
549,4626,8983,bus,8,0,0,0,0,0,0,1
655,4627,8983,bus,8,0,0,0,0,0,0,1
734,4628,8983,bus,8,0,0,0,0,0,0,1
802,4629,8983,bus,8,0,0,0,0,0,0,1
875,4630,8983,bus,8,0,0,0,0,0,0,1
945,4631,8983,bus,8,0,0,0,0,0,0,1
1016,4632,8983,bus,8,0,0,0,0,0,0,1
1091,4633,8983,bus,8,0,0,0,0,0,0,1
1192,4634,8983,bus,8,0,0,0,0,0,0,1
1270,4635,8983,bus,8,0,0,0,0,0,0,1
362,4636,9008,bus,8,1,1,1,1,1,0,0
397,4637,9008,bus,8,1,1,1,1,1,0,0
439,4638,9008,bus,8,1,1,1,1,1,0,0
319,4691,9008,bus,8,1,1,1,1,1,0,0
