timeInMin,trip_id,service_id,tipas,numeris,pirmadienis,antradienis,treciadienis,ketvirtadienis,penktadienis,sestadienis,sekmadienis 
481,4595,9008,bus,8,1,1,1,1,1,0,0
520,4596,9008,bus,8,1,1,1,1,1,0,0
584,4597,9008,bus,8,1,1,1,1,1,0,0
651,4598,9008,bus,8,1,1,1,1,1,0,0
726,4599,9008,bus,8,1,1,1,1,1,0,0
795,4600,9008,bus,8,1,1,1,1,1,0,0
867,4601,9008,bus,8,1,1,1,1,1,0,0
934,4602,9008,bus,8,1,1,1,1,1,0,0
967,4603,9008,bus,8,1,1,1,1,1,0,0
1005,4604,9008,bus,8,1,1,1,1,1,0,0
1053,4605,9008,bus,8,1,1,1,1,1,0,0
1088,4606,9008,bus,8,1,1,1,1,1,0,0
1133,4607,9008,bus,8,1,1,1,1,1,0,0
1189,4608,9008,bus,8,1,1,1,1,1,0,0
1262,4609,9008,bus,8,1,1,1,1,1,0,0
1331,4610,9008,bus,8,1,1,1,1,1,0,0
346,4611,9009,bus,8,0,0,0,0,0,1,0
414,4612,9009,bus,8,0,0,0,0,0,1,0
482,4613,9009,bus,8,0,0,0,0,0,1,0
550,4614,9009,bus,8,0,0,0,0,0,1,0
656,4615,9009,bus,8,0,0,0,0,0,1,0
735,4616,9009,bus,8,0,0,0,0,0,1,0
803,4617,9009,bus,8,0,0,0,0,0,1,0
876,4618,9009,bus,8,0,0,0,0,0,1,0
946,4619,9009,bus,8,0,0,0,0,0,1,0
1017,4620,9009,bus,8,0,0,0,0,0,1,0
1092,4621,9009,bus,8,0,0,0,0,0,1,0
1193,4622,9009,bus,8,0,0,0,0,0,1,0
1271,4623,9009,bus,8,0,0,0,0,0,1,0
414,4624,8983,bus,8,0,0,0,0,0,0,1
482,4625,8983,bus,8,0,0,0,0,0,0,1
550,4626,8983,bus,8,0,0,0,0,0,0,1
656,4627,8983,bus,8,0,0,0,0,0,0,1
735,4628,8983,bus,8,0,0,0,0,0,0,1
803,4629,8983,bus,8,0,0,0,0,0,0,1
876,4630,8983,bus,8,0,0,0,0,0,0,1
946,4631,8983,bus,8,0,0,0,0,0,0,1
1017,4632,8983,bus,8,0,0,0,0,0,0,1
1092,4633,8983,bus,8,0,0,0,0,0,0,1
1193,4634,8983,bus,8,0,0,0,0,0,0,1
1271,4635,8983,bus,8,0,0,0,0,0,0,1
364,4636,9008,bus,8,1,1,1,1,1,0,0
399,4637,9008,bus,8,1,1,1,1,1,0,0
440,4638,9008,bus,8,1,1,1,1,1,0,0
321,4691,9008,bus,8,1,1,1,1,1,0,0
