timeInMin,trip_id,service_id,tipas,numeris,pirmadienis,antradienis,treciadienis,ketvirtadienis,penktadienis,sestadienis,sekmadienis 
1185,4684,9008,bus,8,1,1,1,1,1,0,0
1383,4685,9008,bus,8,1,1,1,1,1,0,0
1322,4686,9009,bus,8,0,0,0,0,0,1,0
1322,4687,8983,bus,8,0,0,0,0,0,0,1
343,7341,10356,bus,24,1,1,1,1,1,0,0
372,7342,10356,bus,24,1,1,1,1,1,0,0
385,7343,10356,bus,24,1,1,1,1,1,0,0
398,7344,10356,bus,24,1,1,1,1,1,0,0
411,7345,10356,bus,24,1,1,1,1,1,0,0
423,7346,10356,bus,24,1,1,1,1,1,0,0
435,7347,10356,bus,24,1,1,1,1,1,0,0
446,7348,10356,bus,24,1,1,1,1,1,0,0
457,7349,10356,bus,24,1,1,1,1,1,0,0
470,7350,10356,bus,24,1,1,1,1,1,0,0
480,7351,10356,bus,24,1,1,1,1,1,0,0
492,7352,10356,bus,24,1,1,1,1,1,0,0
503,7353,10356,bus,24,1,1,1,1,1,0,0
512,7354,10356,bus,24,1,1,1,1,1,0,0
522,7355,10356,bus,24,1,1,1,1,1,0,0
531,7356,10356,bus,24,1,1,1,1,1,0,0
545,7357,10356,bus,24,1,1,1,1,1,0,0
561,7358,10356,bus,24,1,1,1,1,1,0,0
570,7359,10356,bus,24,1,1,1,1,1,0,0
583,7360,10356,bus,24,1,1,1,1,1,0,0
596,7361,10356,bus,24,1,1,1,1,1,0,0
609,7362,10356,bus,24,1,1,1,1,1,0,0
639,7363,10356,bus,24,1,1,1,1,1,0,0
660,7364,10356,bus,24,1,1,1,1,1,0,0
681,7365,10356,bus,24,1,1,1,1,1,0,0
722,7366,10356,bus,24,1,1,1,1,1,0,0
747,7367,10356,bus,24,1,1,1,1,1,0,0
773,7368,10356,bus,24,1,1,1,1,1,0,0
805,7369,10356,bus,24,1,1,1,1,1,0,0
831,7370,10356,bus,24,1,1,1,1,1,0,0
857,7371,10356,bus,24,1,1,1,1,1,0,0
888,7372,10356,bus,24,1,1,1,1,1,0,0
919,7373,10356,bus,24,1,1,1,1,1,0,0
937,7374,10356,bus,24,1,1,1,1,1,0,0
953,7375,10356,bus,24,1,1,1,1,1,0,0
966,7376,10356,bus,24,1,1,1,1,1,0,0
976,7377,10356,bus,24,1,1,1,1,1,0,0
986,7378,10356,bus,24,1,1,1,1,1,0,0
996,7379,10356,bus,24,1,1,1,1,1,0,0
1006,7380,10356,bus,24,1,1,1,1,1,0,0
1016,7381,10356,bus,24,1,1,1,1,1,0,0
1027,7382,10356,bus,24,1,1,1,1,1,0,0
1040,7383,10356,bus,24,1,1,1,1,1,0,0
1051,7384,10356,bus,24,1,1,1,1,1,0,0
1062,7385,10356,bus,24,1,1,1,1,1,0,0
1074,7386,10356,bus,24,1,1,1,1,1,0,0
1085,7387,10356,bus,24,1,1,1,1,1,0,0
1096,7388,10356,bus,24,1,1,1,1,1,0,0
1107,7389,10356,bus,24,1,1,1,1,1,0,0
1118,7390,10356,bus,24,1,1,1,1,1,0,0
1131,7391,10356,bus,24,1,1,1,1,1,0,0
1150,7392,10356,bus,24,1,1,1,1,1,0,0
1177,7393,10356,bus,24,1,1,1,1,1,0,0
1214,7394,10356,bus,24,1,1,1,1,1,0,0
1236,7395,10356,bus,24,1,1,1,1,1,0,0
1257,7396,10356,bus,24,1,1,1,1,1,0,0
1290,7397,10356,bus,24,1,1,1,1,1,0,0
1312,7398,10356,bus,24,1,1,1,1,1,0,0
1334,7399,10356,bus,24,1,1,1,1,1,0,0
1366,7400,10356,bus,24,1,1,1,1,1,0,0
1388,7401,10356,bus,24,1,1,1,1,1,0,0
1411,7402,10356,bus,24,1,1,1,1,1,0,0
373,7403,9984,bus,24,0,0,0,0,0,1,0
410,7404,9984,bus,24,0,0,0,0,0,1,0
451,7405,9984,bus,24,0,0,0,0,0,1,0
491,7406,9984,bus,24,0,0,0,0,0,1,0
531,7407,9984,bus,24,0,0,0,0,0,1,0
571,7408,9984,bus,24,0,0,0,0,0,1,0
627,7409,9984,bus,24,0,0,0,0,0,1,0
649,7410,9984,bus,24,0,0,0,0,0,1,0
685,7411,9984,bus,24,0,0,0,0,0,1,0
710,7412,9984,bus,24,0,0,0,0,0,1,0
728,7413,9984,bus,24,0,0,0,0,0,1,0
768,7414,9984,bus,24,0,0,0,0,0,1,0
810,7415,9984,bus,24,0,0,0,0,0,1,0
824,7416,9984,bus,24,0,0,0,0,0,1,0
862,7417,9984,bus,24,0,0,0,0,0,1,0
892,7418,9984,bus,24,0,0,0,0,0,1,0
923,7419,9984,bus,24,0,0,0,0,0,1,0
948,7420,9984,bus,24,0,0,0,0,0,1,0
973,7421,9984,bus,24,0,0,0,0,0,1,0
999,7422,9984,bus,24,0,0,0,0,0,1,0
1025,7423,9984,bus,24,0,0,0,0,0,1,0
1049,7424,9984,bus,24,0,0,0,0,0,1,0
1081,7425,9984,bus,24,0,0,0,0,0,1,0
1124,7426,9984,bus,24,0,0,0,0,0,1,0
1162,7427,9984,bus,24,0,0,0,0,0,1,0
1197,7428,9984,bus,24,0,0,0,0,0,1,0
1234,7429,9984,bus,24,0,0,0,0,0,1,0
1270,7430,9984,bus,24,0,0,0,0,0,1,0
1306,7431,9984,bus,24,0,0,0,0,0,1,0
1342,7432,9984,bus,24,0,0,0,0,0,1,0
1378,7433,9984,bus,24,0,0,0,0,0,1,0
410,7434,9985,bus,24,0,0,0,0,0,0,1
451,7435,9985,bus,24,0,0,0,0,0,0,1
491,7436,9985,bus,24,0,0,0,0,0,0,1
531,7437,9985,bus,24,0,0,0,0,0,0,1
571,7438,9985,bus,24,0,0,0,0,0,0,1
627,7439,9985,bus,24,0,0,0,0,0,0,1
649,7440,9985,bus,24,0,0,0,0,0,0,1
685,7441,9985,bus,24,0,0,0,0,0,0,1
710,7442,9985,bus,24,0,0,0,0,0,0,1
728,7443,9985,bus,24,0,0,0,0,0,0,1
768,7444,9985,bus,24,0,0,0,0,0,0,1
810,7445,9985,bus,24,0,0,0,0,0,0,1
824,7446,9985,bus,24,0,0,0,0,0,0,1
862,7447,9985,bus,24,0,0,0,0,0,0,1
892,7448,9985,bus,24,0,0,0,0,0,0,1
923,7449,9985,bus,24,0,0,0,0,0,0,1
948,7450,9985,bus,24,0,0,0,0,0,0,1
973,7451,9985,bus,24,0,0,0,0,0,0,1
999,7452,9985,bus,24,0,0,0,0,0,0,1
1025,7453,9985,bus,24,0,0,0,0,0,0,1
1049,7454,9985,bus,24,0,0,0,0,0,0,1
1081,7455,9985,bus,24,0,0,0,0,0,0,1
1124,7456,9985,bus,24,0,0,0,0,0,0,1
1162,7457,9985,bus,24,0,0,0,0,0,0,1
1197,7458,9985,bus,24,0,0,0,0,0,0,1
1234,7459,9985,bus,24,0,0,0,0,0,0,1
1270,7460,9985,bus,24,0,0,0,0,0,0,1
1306,7461,9985,bus,24,0,0,0,0,0,0,1
1342,7462,9985,bus,24,0,0,0,0,0,0,1
1378,7463,9985,bus,24,0,0,0,0,0,0,1
1136,7616,9328,bus,25,1,1,1,1,1,0,0
1267,7617,9330,bus,25,0,0,0,0,0,0,1
1413,8340,10607,bus,29,1,1,1,1,1,0,0
1429,8341,10607,bus,29,1,1,1,1,1,0,0
1430,8342,10172,bus,29,0,0,0,0,0,1,0
1430,8343,10173,bus,29,0,0,0,0,0,0,1
1402,12099,9774,bus,51,0,0,0,0,0,1,1
