timeInMin,trip_id,service_id,tipas,numeris,pirmadienis,antradienis,treciadienis,ketvirtadienis,penktadienis,sestadienis,sekmadienis 
380,11704,10387,bus,49,1,1,1,1,1,0,0
398,11705,10387,bus,49,1,1,1,1,1,0,0
416,11706,10387,bus,49,1,1,1,1,1,0,0
436,11707,10387,bus,49,1,1,1,1,1,0,0
456,11708,10387,bus,49,1,1,1,1,1,0,0
476,11709,10387,bus,49,1,1,1,1,1,0,0
497,11710,10387,bus,49,1,1,1,1,1,0,0
515,11711,10387,bus,49,1,1,1,1,1,0,0
538,11712,10387,bus,49,1,1,1,1,1,0,0
557,11713,10387,bus,49,1,1,1,1,1,0,0
578,11714,10387,bus,49,1,1,1,1,1,0,0
602,11715,10387,bus,49,1,1,1,1,1,0,0
635,11716,10387,bus,49,1,1,1,1,1,0,0
658,11717,10387,bus,49,1,1,1,1,1,0,0
691,11718,10387,bus,49,1,1,1,1,1,0,0
741,11719,10387,bus,49,1,1,1,1,1,0,0
773,11720,10387,bus,49,1,1,1,1,1,0,0
802,11721,10387,bus,49,1,1,1,1,1,0,0
832,11722,10387,bus,49,1,1,1,1,1,0,0
858,11723,10387,bus,49,1,1,1,1,1,0,0
895,11724,10387,bus,49,1,1,1,1,1,0,0
926,11725,10387,bus,49,1,1,1,1,1,0,0
953,11726,10387,bus,49,1,1,1,1,1,0,0
977,11727,10387,bus,49,1,1,1,1,1,0,0
1002,11728,10387,bus,49,1,1,1,1,1,0,0
1023,11729,10387,bus,49,1,1,1,1,1,0,0
1046,11730,10387,bus,49,1,1,1,1,1,0,0
1070,11731,10387,bus,49,1,1,1,1,1,0,0
1086,11732,10387,bus,49,1,1,1,1,1,0,0
1112,11733,10387,bus,49,1,1,1,1,1,0,0
1141,11734,10387,bus,49,1,1,1,1,1,0,0
1169,11735,10387,bus,49,1,1,1,1,1,0,0
1191,11736,10387,bus,49,1,1,1,1,1,0,0
1206,11737,10387,bus,49,1,1,1,1,1,0,0
1227,11738,10387,bus,49,1,1,1,1,1,0,0
1250,11739,10387,bus,49,1,1,1,1,1,0,0
1282,11740,10387,bus,49,1,1,1,1,1,0,0
1317,11741,10387,bus,49,1,1,1,1,1,0,0
1337,11742,10387,bus,49,1,1,1,1,1,0,0
1365,11743,10387,bus,49,1,1,1,1,1,0,0
1390,11744,10387,bus,49,1,1,1,1,1,0,0
1425,11745,10387,bus,49,1,1,1,1,1,0,0
382,11746,9637,bus,49,0,0,0,0,0,1,0
434,11747,9637,bus,49,0,0,0,0,0,1,0
493,11748,9637,bus,49,0,0,0,0,0,1,0
544,11749,9637,bus,49,0,0,0,0,0,1,0
607,11750,9637,bus,49,0,0,0,0,0,1,0
643,11751,9637,bus,49,0,0,0,0,0,1,0
684,11752,9637,bus,49,0,0,0,0,0,1,0
740,11753,9637,bus,49,0,0,0,0,0,1,0
764,11754,9637,bus,49,0,0,0,0,0,1,0
803,11755,9637,bus,49,0,0,0,0,0,1,0
848,11756,9637,bus,49,0,0,0,0,0,1,0
897,11757,9637,bus,49,0,0,0,0,0,1,0
925,11758,9637,bus,49,0,0,0,0,0,1,0
970,11759,9637,bus,49,0,0,0,0,0,1,0
1007,11760,9637,bus,49,0,0,0,0,0,1,0
1039,11761,9637,bus,49,0,0,0,0,0,1,0
1081,11762,9637,bus,49,0,0,0,0,0,1,0
1151,11763,9637,bus,49,0,0,0,0,0,1,0
1217,11764,9637,bus,49,0,0,0,0,0,1,0
1280,11765,9637,bus,49,0,0,0,0,0,1,0
1322,11766,9637,bus,49,0,0,0,0,0,1,0
1382,11767,9637,bus,49,0,0,0,0,0,1,0
423,11768,9638,bus,49,0,0,0,0,0,0,1
493,11769,9638,bus,49,0,0,0,0,0,0,1
544,11770,9638,bus,49,0,0,0,0,0,0,1
607,11771,9638,bus,49,0,0,0,0,0,0,1
643,11772,9638,bus,49,0,0,0,0,0,0,1
684,11773,9638,bus,49,0,0,0,0,0,0,1
740,11774,9638,bus,49,0,0,0,0,0,0,1
764,11775,9638,bus,49,0,0,0,0,0,0,1
803,11776,9638,bus,49,0,0,0,0,0,0,1
848,11777,9638,bus,49,0,0,0,0,0,0,1
897,11778,9638,bus,49,0,0,0,0,0,0,1
925,11779,9638,bus,49,0,0,0,0,0,0,1
970,11780,9638,bus,49,0,0,0,0,0,0,1
1007,11781,9638,bus,49,0,0,0,0,0,0,1
1039,11782,9638,bus,49,0,0,0,0,0,0,1
1081,11783,9638,bus,49,0,0,0,0,0,0,1
1151,11784,9638,bus,49,0,0,0,0,0,0,1
1217,11785,9638,bus,49,0,0,0,0,0,0,1
1280,11786,9638,bus,49,0,0,0,0,0,0,1
1322,11787,9638,bus,49,0,0,0,0,0,0,1
1382,11788,9638,bus,49,0,0,0,0,0,0,1
359,11801,10387,bus,49,1,1,1,1,1,0,0
890,11802,10387,bus,49,1,1,1,1,1,0,0
951,11803,10387,bus,49,1,1,1,1,1,0,0
334,11804,9637,bus,49,0,0,0,0,0,1,0
538,11805,9637,bus,49,0,0,0,0,0,1,0
388,11806,9638,bus,49,0,0,0,0,0,0,1
538,11807,9638,bus,49,0,0,0,0,0,0,1
309,14337,10403,bus,69,1,1,1,1,1,0,0
332,14338,10403,bus,69,1,1,1,1,1,0,0
351,14339,10403,bus,69,1,1,1,1,1,0,0
375,14340,10403,bus,69,1,1,1,1,1,0,0
410,14341,10403,bus,69,1,1,1,1,1,0,0
446,14342,10403,bus,69,1,1,1,1,1,0,0
465,14343,10403,bus,69,1,1,1,1,1,0,0
487,14344,10403,bus,69,1,1,1,1,1,0,0
525,14345,10403,bus,69,1,1,1,1,1,0,0
567,14346,10403,bus,69,1,1,1,1,1,0,0
590,14347,10403,bus,69,1,1,1,1,1,0,0
668,14348,10403,bus,69,1,1,1,1,1,0,0
708,14349,10403,bus,69,1,1,1,1,1,0,0
729,14350,10403,bus,69,1,1,1,1,1,0,0
785,14351,10403,bus,69,1,1,1,1,1,0,0
843,14352,10403,bus,69,1,1,1,1,1,0,0
871,14353,10403,bus,69,1,1,1,1,1,0,0
908,14354,10403,bus,69,1,1,1,1,1,0,0
940,14355,10403,bus,69,1,1,1,1,1,0,0
965,14356,10403,bus,69,1,1,1,1,1,0,0
992,14357,10403,bus,69,1,1,1,1,1,0,0
1034,14358,10403,bus,69,1,1,1,1,1,0,0
1058,14359,10403,bus,69,1,1,1,1,1,0,0
1096,14360,10403,bus,69,1,1,1,1,1,0,0
1130,14361,10403,bus,69,1,1,1,1,1,0,0
1157,14362,10403,bus,69,1,1,1,1,1,0,0
1237,14363,10403,bus,69,1,1,1,1,1,0,0
1262,14364,10403,bus,69,1,1,1,1,1,0,0
1299,14365,10403,bus,69,1,1,1,1,1,0,0
322,14366,9660,bus,69,0,0,0,0,0,1,0
417,14367,9660,bus,69,0,0,0,0,0,1,0
523,14368,9660,bus,69,0,0,0,0,0,1,0
603,14369,9660,bus,69,0,0,0,0,0,1,0
653,14370,9660,bus,69,0,0,0,0,0,1,0
710,14371,9660,bus,69,0,0,0,0,0,1,0
782,14372,9660,bus,69,0,0,0,0,0,1,0
821,14373,9660,bus,69,0,0,0,0,0,1,0
885,14374,9660,bus,69,0,0,0,0,0,1,0
952,14375,9660,bus,69,0,0,0,0,0,1,0
996,14376,9660,bus,69,0,0,0,0,0,1,0
1058,14377,9660,bus,69,0,0,0,0,0,1,0
1102,14378,9660,bus,69,0,0,0,0,0,1,0
1235,14379,9660,bus,69,0,0,0,0,0,1,0
1337,14380,9660,bus,69,0,0,0,0,0,1,0
423,14381,9661,bus,69,0,0,0,0,0,0,1
523,14382,9661,bus,69,0,0,0,0,0,0,1
603,14383,9661,bus,69,0,0,0,0,0,0,1
653,14384,9661,bus,69,0,0,0,0,0,0,1
710,14385,9661,bus,69,0,0,0,0,0,0,1
782,14386,9661,bus,69,0,0,0,0,0,0,1
821,14387,9661,bus,69,0,0,0,0,0,0,1
885,14388,9661,bus,69,0,0,0,0,0,0,1
952,14389,9661,bus,69,0,0,0,0,0,0,1
996,14390,9661,bus,69,0,0,0,0,0,0,1
1058,14391,9661,bus,69,0,0,0,0,0,0,1
1102,14392,9661,bus,69,0,0,0,0,0,0,1
1235,14393,9661,bus,69,0,0,0,0,0,0,1
1337,14394,9661,bus,69,0,0,0,0,0,0,1
409,14395,10403,bus,69,1,1,1,1,1,0,0
445,14396,10403,bus,69,1,1,1,1,1,0,0
464,14397,10403,bus,69,1,1,1,1,1,0,0
486,14398,10403,bus,69,1,1,1,1,1,0,0
524,14399,10403,bus,69,1,1,1,1,1,0,0
566,14400,10403,bus,69,1,1,1,1,1,0,0
589,14401,10403,bus,69,1,1,1,1,1,0,0
617,14402,10403,bus,69,1,1,1,1,1,0,0
667,14403,10403,bus,69,1,1,1,1,1,0,0
707,14404,10403,bus,69,1,1,1,1,1,0,0
728,14405,10403,bus,69,1,1,1,1,1,0,0
784,14406,10403,bus,69,1,1,1,1,1,0,0
842,14407,10403,bus,69,1,1,1,1,1,0,0
870,14408,10403,bus,69,1,1,1,1,1,0,0
907,14409,10403,bus,69,1,1,1,1,1,0,0
964,14410,10403,bus,69,1,1,1,1,1,0,0
991,14411,10403,bus,69,1,1,1,1,1,0,0
1033,14412,10403,bus,69,1,1,1,1,1,0,0
1057,14413,10403,bus,69,1,1,1,1,1,0,0
1095,14414,10403,bus,69,1,1,1,1,1,0,0
1129,14415,10403,bus,69,1,1,1,1,1,0,0
1156,14416,10403,bus,69,1,1,1,1,1,0,0
1178,14417,10403,bus,69,1,1,1,1,1,0,0
1236,14418,10403,bus,69,1,1,1,1,1,0,0
1261,14419,10403,bus,69,1,1,1,1,1,0,0
1298,14420,10403,bus,69,1,1,1,1,1,0,0
1346,14421,10403,bus,69,1,1,1,1,1,0,0
1374,14422,10403,bus,69,1,1,1,1,1,0,0
1405,14423,10403,bus,69,1,1,1,1,1,0,0
416,14424,9660,bus,69,0,0,0,0,0,1,0
522,14425,9660,bus,69,0,0,0,0,0,1,0
652,14426,9660,bus,69,0,0,0,0,0,1,0
709,14427,9660,bus,69,0,0,0,0,0,1,0
781,14428,9660,bus,69,0,0,0,0,0,1,0
820,14429,9660,bus,69,0,0,0,0,0,1,0
884,14430,9660,bus,69,0,0,0,0,0,1,0
951,14431,9660,bus,69,0,0,0,0,0,1,0
995,14432,9660,bus,69,0,0,0,0,0,1,0
1057,14433,9660,bus,69,0,0,0,0,0,1,0
1101,14434,9660,bus,69,0,0,0,0,0,1,0
1188,14435,9660,bus,69,0,0,0,0,0,1,0
1234,14436,9660,bus,69,0,0,0,0,0,1,0
1336,14437,9660,bus,69,0,0,0,0,0,1,0
1438,14438,9660,bus,69,0,0,0,0,0,1,0
522,14439,9661,bus,69,0,0,0,0,0,0,1
652,14440,9661,bus,69,0,0,0,0,0,0,1
709,14441,9661,bus,69,0,0,0,0,0,0,1
781,14442,9661,bus,69,0,0,0,0,0,0,1
820,14443,9661,bus,69,0,0,0,0,0,0,1
884,14444,9661,bus,69,0,0,0,0,0,0,1
951,14445,9661,bus,69,0,0,0,0,0,0,1
995,14446,9661,bus,69,0,0,0,0,0,0,1
1057,14447,9661,bus,69,0,0,0,0,0,0,1
1101,14448,9661,bus,69,0,0,0,0,0,0,1
1188,14449,9661,bus,69,0,0,0,0,0,0,1
1234,14450,9661,bus,69,0,0,0,0,0,0,1
1336,14451,9661,bus,69,0,0,0,0,0,0,1
1438,14452,9661,bus,69,0,0,0,0,0,0,1
308,14461,10403,bus,69,1,1,1,1,1,0,0
331,14462,10403,bus,69,1,1,1,1,1,0,0
350,14463,10403,bus,69,1,1,1,1,1,0,0
374,14464,10403,bus,69,1,1,1,1,1,0,0
939,14465,10403,bus,69,1,1,1,1,1,0,0
321,14466,9660,bus,69,0,0,0,0,0,1,0
602,14467,9660,bus,69,0,0,0,0,0,1,0
422,14468,9661,bus,69,0,0,0,0,0,0,1
602,14469,9661,bus,69,0,0,0,0,0,0,1
351,15120,10617,bus,76,1,1,1,1,1,0,0
380,15121,10617,bus,76,1,1,1,1,1,0,0
439,15122,10617,bus,76,1,1,1,1,1,0,0
471,15123,10617,bus,76,1,1,1,1,1,0,0
523,15124,10617,bus,76,1,1,1,1,1,0,0
553,15125,10617,bus,76,1,1,1,1,1,0,0
610,15126,10617,bus,76,1,1,1,1,1,0,0
642,15127,10617,bus,76,1,1,1,1,1,0,0
719,15128,10617,bus,76,1,1,1,1,1,0,0
750,15129,10617,bus,76,1,1,1,1,1,0,0
802,15130,10617,bus,76,1,1,1,1,1,0,0
858,15131,10617,bus,76,1,1,1,1,1,0,0
918,15132,10617,bus,76,1,1,1,1,1,0,0
955,15133,10617,bus,76,1,1,1,1,1,0,0
1012,15134,10617,bus,76,1,1,1,1,1,0,0
1047,15135,10617,bus,76,1,1,1,1,1,0,0
1101,15136,10617,bus,76,1,1,1,1,1,0,0
1136,15137,10617,bus,76,1,1,1,1,1,0,0
1183,15138,10617,bus,76,1,1,1,1,1,0,0
1245,15139,10617,bus,76,1,1,1,1,1,0,0
1293,15140,10617,bus,76,1,1,1,1,1,0,0
1327,15141,10617,bus,76,1,1,1,1,1,0,0
389,15142,10618,bus,76,0,0,0,0,0,1,0
471,15143,10618,bus,76,0,0,0,0,0,1,0
550,15144,10618,bus,76,0,0,0,0,0,1,0
559,15145,10618,bus,76,0,0,0,0,0,1,0
629,15146,10618,bus,76,0,0,0,0,0,1,0
677,15147,10618,bus,76,0,0,0,0,0,1,0
712,15148,10618,bus,76,0,0,0,0,0,1,0
759,15149,10618,bus,76,0,0,0,0,0,1,0
819,15150,10618,bus,76,0,0,0,0,0,1,0
847,15151,10618,bus,76,0,0,0,0,0,1,0
901,15152,10618,bus,76,0,0,0,0,0,1,0
934,15153,10618,bus,76,0,0,0,0,0,1,0
983,15154,10618,bus,76,0,0,0,0,0,1,0
1018,15155,10618,bus,76,0,0,0,0,0,1,0
1125,15156,10618,bus,76,0,0,0,0,0,1,0
1232,15157,10618,bus,76,0,0,0,0,0,1,0
1314,15158,10618,bus,76,0,0,0,0,0,1,0
392,15159,10619,bus,76,0,0,0,0,0,0,1
471,15160,10619,bus,76,0,0,0,0,0,0,1
550,15161,10619,bus,76,0,0,0,0,0,0,1
559,15162,10619,bus,76,0,0,0,0,0,0,1
629,15163,10619,bus,76,0,0,0,0,0,0,1
677,15164,10619,bus,76,0,0,0,0,0,0,1
712,15165,10619,bus,76,0,0,0,0,0,0,1
759,15166,10619,bus,76,0,0,0,0,0,0,1
819,15167,10619,bus,76,0,0,0,0,0,0,1
847,15168,10619,bus,76,0,0,0,0,0,0,1
901,15169,10619,bus,76,0,0,0,0,0,0,1
934,15170,10619,bus,76,0,0,0,0,0,0,1
983,15171,10619,bus,76,0,0,0,0,0,0,1
1018,15172,10619,bus,76,0,0,0,0,0,0,1
1125,15173,10619,bus,76,0,0,0,0,0,0,1
1232,15174,10619,bus,76,0,0,0,0,0,0,1
1314,15175,10619,bus,76,0,0,0,0,0,0,1
379,15176,10617,bus,76,1,1,1,1,1,0,0
438,15177,10617,bus,76,1,1,1,1,1,0,0
470,15178,10617,bus,76,1,1,1,1,1,0,0
522,15179,10617,bus,76,1,1,1,1,1,0,0
552,15180,10617,bus,76,1,1,1,1,1,0,0
609,15181,10617,bus,76,1,1,1,1,1,0,0
641,15182,10617,bus,76,1,1,1,1,1,0,0
718,15183,10617,bus,76,1,1,1,1,1,0,0
749,15184,10617,bus,76,1,1,1,1,1,0,0
801,15185,10617,bus,76,1,1,1,1,1,0,0
857,15186,10617,bus,76,1,1,1,1,1,0,0
917,15187,10617,bus,76,1,1,1,1,1,0,0
954,15188,10617,bus,76,1,1,1,1,1,0,0
1011,15189,10617,bus,76,1,1,1,1,1,0,0
1046,15190,10617,bus,76,1,1,1,1,1,0,0
1100,15191,10617,bus,76,1,1,1,1,1,0,0
1135,15192,10617,bus,76,1,1,1,1,1,0,0
1182,15193,10617,bus,76,1,1,1,1,1,0,0
1244,15194,10617,bus,76,1,1,1,1,1,0,0
1292,15195,10617,bus,76,1,1,1,1,1,0,0
1326,15196,10617,bus,76,1,1,1,1,1,0,0
1374,15197,10617,bus,76,1,1,1,1,1,0,0
1412,15198,10617,bus,76,1,1,1,1,1,0,0
388,15199,10618,bus,76,0,0,0,0,0,1,0
470,15200,10618,bus,76,0,0,0,0,0,1,0
558,15201,10618,bus,76,0,0,0,0,0,1,0
628,15202,10618,bus,76,0,0,0,0,0,1,0
676,15203,10618,bus,76,0,0,0,0,0,1,0
711,15204,10618,bus,76,0,0,0,0,0,1,0
758,15205,10618,bus,76,0,0,0,0,0,1,0
818,15206,10618,bus,76,0,0,0,0,0,1,0
846,15207,10618,bus,76,0,0,0,0,0,1,0
900,15208,10618,bus,76,0,0,0,0,0,1,0
933,15209,10618,bus,76,0,0,0,0,0,1,0
982,15210,10618,bus,76,0,0,0,0,0,1,0
1017,15211,10618,bus,76,0,0,0,0,0,1,0
1069,15212,10618,bus,76,0,0,0,0,0,1,0
1124,15213,10618,bus,76,0,0,0,0,0,1,0
1231,15214,10618,bus,76,0,0,0,0,0,1,0
1313,15215,10618,bus,76,0,0,0,0,0,1,0
1397,15216,10618,bus,76,0,0,0,0,0,1,0
470,15217,10619,bus,76,0,0,0,0,0,0,1
558,15218,10619,bus,76,0,0,0,0,0,0,1
628,15219,10619,bus,76,0,0,0,0,0,0,1
676,15220,10619,bus,76,0,0,0,0,0,0,1
711,15221,10619,bus,76,0,0,0,0,0,0,1
758,15222,10619,bus,76,0,0,0,0,0,0,1
818,15223,10619,bus,76,0,0,0,0,0,0,1
846,15224,10619,bus,76,0,0,0,0,0,0,1
900,15225,10619,bus,76,0,0,0,0,0,0,1
933,15226,10619,bus,76,0,0,0,0,0,0,1
982,15227,10619,bus,76,0,0,0,0,0,0,1
1017,15228,10619,bus,76,0,0,0,0,0,0,1
1069,15229,10619,bus,76,0,0,0,0,0,0,1
1124,15230,10619,bus,76,0,0,0,0,0,0,1
1231,15231,10619,bus,76,0,0,0,0,0,0,1
1313,15232,10619,bus,76,0,0,0,0,0,0,1
1397,15233,10619,bus,76,0,0,0,0,0,0,1
1374,15234,10617,bus,76,1,1,1,1,1,0,0
1413,15235,10617,bus,76,1,1,1,1,1,0,0
1070,15236,10618,bus,76,0,0,0,0,0,1,0
1398,15237,10618,bus,76,0,0,0,0,0,1,0
1070,15238,10619,bus,76,0,0,0,0,0,0,1
1398,15239,10619,bus,76,0,0,0,0,0,0,1
351,15240,10617,bus,76,1,1,1,1,1,0,0
549,15241,10618,bus,76,0,0,0,0,0,1,0
391,15242,10619,bus,76,0,0,0,0,0,0,1
549,15243,10619,bus,76,0,0,0,0,0,0,1
296,15588,10409,bus,87,1,1,1,1,1,0,0
328,15589,10409,bus,87,1,1,1,1,1,0,0
360,15590,10409,bus,87,1,1,1,1,1,0,0
394,15591,10409,bus,87,1,1,1,1,1,0,0
424,15592,10409,bus,87,1,1,1,1,1,0,0
458,15593,10409,bus,87,1,1,1,1,1,0,0
495,15594,10409,bus,87,1,1,1,1,1,0,0
532,15595,10409,bus,87,1,1,1,1,1,0,0
561,15596,10409,bus,87,1,1,1,1,1,0,0
593,15597,10409,bus,87,1,1,1,1,1,0,0
623,15598,10409,bus,87,1,1,1,1,1,0,0
660,15599,10409,bus,87,1,1,1,1,1,0,0
715,15600,10409,bus,87,1,1,1,1,1,0,0
747,15601,10409,bus,87,1,1,1,1,1,0,0
779,15602,10409,bus,87,1,1,1,1,1,0,0
811,15603,10409,bus,87,1,1,1,1,1,0,0
864,15604,10409,bus,87,1,1,1,1,1,0,0
886,15605,10409,bus,87,1,1,1,1,1,0,0
919,15606,10409,bus,87,1,1,1,1,1,0,0
950,15607,10409,bus,87,1,1,1,1,1,0,0
998,15608,10409,bus,87,1,1,1,1,1,0,0
1033,15609,10409,bus,87,1,1,1,1,1,0,0
1062,15610,10409,bus,87,1,1,1,1,1,0,0
1093,15611,10409,bus,87,1,1,1,1,1,0,0
1127,15612,10409,bus,87,1,1,1,1,1,0,0
1167,15613,10409,bus,87,1,1,1,1,1,0,0
1215,15614,10409,bus,87,1,1,1,1,1,0,0
1254,15615,10409,bus,87,1,1,1,1,1,0,0
1288,15616,10409,bus,87,1,1,1,1,1,0,0
1318,15617,10409,bus,87,1,1,1,1,1,0,0
1366,15618,10409,bus,87,1,1,1,1,1,0,0
352,15619,10410,bus,87,0,0,0,0,0,1,1
413,15620,10410,bus,87,0,0,0,0,0,1,1
475,15621,10410,bus,87,0,0,0,0,0,1,1
536,15622,10410,bus,87,0,0,0,0,0,1,1
601,15623,10410,bus,87,0,0,0,0,0,1,1
666,15624,10410,bus,87,0,0,0,0,0,1,1
753,15625,10410,bus,87,0,0,0,0,0,1,1
819,15626,10410,bus,87,0,0,0,0,0,1,1
879,15627,10410,bus,87,0,0,0,0,0,1,1
945,15628,10410,bus,87,0,0,0,0,0,1,1
1010,15629,10410,bus,87,0,0,0,0,0,1,1
1076,15630,10410,bus,87,0,0,0,0,0,1,1
1136,15631,10410,bus,87,0,0,0,0,0,1,1
1202,15632,10410,bus,87,0,0,0,0,0,1,1
1288,15633,10410,bus,87,0,0,0,0,0,1,1
1353,15634,10410,bus,87,0,0,0,0,0,1,1
359,15635,10409,bus,87,1,1,1,1,1,0,0
393,15636,10409,bus,87,1,1,1,1,1,0,0
423,15637,10409,bus,87,1,1,1,1,1,0,0
457,15638,10409,bus,87,1,1,1,1,1,0,0
494,15639,10409,bus,87,1,1,1,1,1,0,0
531,15640,10409,bus,87,1,1,1,1,1,0,0
560,15641,10409,bus,87,1,1,1,1,1,0,0
592,15642,10409,bus,87,1,1,1,1,1,0,0
622,15643,10409,bus,87,1,1,1,1,1,0,0
659,15644,10409,bus,87,1,1,1,1,1,0,0
714,15645,10409,bus,87,1,1,1,1,1,0,0
746,15646,10409,bus,87,1,1,1,1,1,0,0
778,15647,10409,bus,87,1,1,1,1,1,0,0
810,15648,10409,bus,87,1,1,1,1,1,0,0
863,15649,10409,bus,87,1,1,1,1,1,0,0
885,15650,10409,bus,87,1,1,1,1,1,0,0
918,15651,10409,bus,87,1,1,1,1,1,0,0
949,15652,10409,bus,87,1,1,1,1,1,0,0
997,15653,10409,bus,87,1,1,1,1,1,0,0
1032,15654,10409,bus,87,1,1,1,1,1,0,0
1061,15655,10409,bus,87,1,1,1,1,1,0,0
1092,15656,10409,bus,87,1,1,1,1,1,0,0
1126,15657,10409,bus,87,1,1,1,1,1,0,0
1166,15658,10409,bus,87,1,1,1,1,1,0,0
1214,15659,10409,bus,87,1,1,1,1,1,0,0
1253,15660,10409,bus,87,1,1,1,1,1,0,0
1287,15661,10409,bus,87,1,1,1,1,1,0,0
1317,15662,10409,bus,87,1,1,1,1,1,0,0
1365,15663,10409,bus,87,1,1,1,1,1,0,0
1412,15664,10409,bus,87,1,1,1,1,1,0,0
474,15665,10410,bus,87,0,0,0,0,0,1,1
535,15666,10410,bus,87,0,0,0,0,0,1,1
600,15667,10410,bus,87,0,0,0,0,0,1,1
665,15668,10410,bus,87,0,0,0,0,0,1,1
752,15669,10410,bus,87,0,0,0,0,0,1,1
818,15670,10410,bus,87,0,0,0,0,0,1,1
878,15671,10410,bus,87,0,0,0,0,0,1,1
944,15672,10410,bus,87,0,0,0,0,0,1,1
1009,15673,10410,bus,87,0,0,0,0,0,1,1
1075,15674,10410,bus,87,0,0,0,0,0,1,1
1135,15675,10410,bus,87,0,0,0,0,0,1,1
1201,15676,10410,bus,87,0,0,0,0,0,1,1
1287,15677,10410,bus,87,0,0,0,0,0,1,1
1352,15678,10410,bus,87,0,0,0,0,0,1,1
1413,15679,10410,bus,87,0,0,0,0,0,1,1
1412,15680,10409,bus,87,1,1,1,1,1,0,0
1413,15681,10410,bus,87,0,0,0,0,0,1,1
295,15686,10409,bus,87,1,1,1,1,1,0,0
327,15687,10409,bus,87,1,1,1,1,1,0,0
351,15688,10410,bus,87,0,0,0,0,0,1,1
412,15689,10410,bus,87,0,0,0,0,0,1,1
1502,16375,9972,nightbus,104N,0,0,0,0,1,1,0
1552,16376,9972,nightbus,104N,0,0,0,0,1,1,0
1601,16377,9972,nightbus,104N,0,0,0,0,1,1,0
1406,16380,9972,nightbus,104N,0,0,0,0,1,1,0
1456,16381,9972,nightbus,104N,0,0,0,0,1,1,0
