timeInMin,trip_id,service_id,tipas,numeris,pirmadienis,antradienis,treciadienis,ketvirtadienis,penktadienis,sestadienis,sekmadienis 
370,4710,10340,bus,10,0,0,0,0,0,0,1
393,4711,10340,bus,10,0,0,0,0,0,0,1
414,4712,10340,bus,10,0,0,0,0,0,0,1
436,4713,10340,bus,10,0,0,0,0,0,0,1
463,4714,10340,bus,10,0,0,0,0,0,0,1
485,4715,10340,bus,10,0,0,0,0,0,0,1
507,4716,10340,bus,10,0,0,0,0,0,0,1
527,4717,10340,bus,10,0,0,0,0,0,0,1
546,4718,10340,bus,10,0,0,0,0,0,0,1
562,4719,10340,bus,10,0,0,0,0,0,0,1
573,4720,10340,bus,10,0,0,0,0,0,0,1
586,4721,10340,bus,10,0,0,0,0,0,0,1
609,4722,10340,bus,10,0,0,0,0,0,0,1
619,4723,10340,bus,10,0,0,0,0,0,0,1
632,4724,10340,bus,10,0,0,0,0,0,0,1
646,4725,10340,bus,10,0,0,0,0,0,0,1
662,4726,10340,bus,10,0,0,0,0,0,0,1
671,4727,10340,bus,10,0,0,0,0,0,0,1
681,4728,10340,bus,10,0,0,0,0,0,0,1
703,4729,10340,bus,10,0,0,0,0,0,0,1
722,4730,10340,bus,10,0,0,0,0,0,0,1
737,4731,10340,bus,10,0,0,0,0,0,0,1
753,4732,10340,bus,10,0,0,0,0,0,0,1
766,4733,10340,bus,10,0,0,0,0,0,0,1
778,4734,10340,bus,10,0,0,0,0,0,0,1
790,4735,10340,bus,10,0,0,0,0,0,0,1
800,4736,10340,bus,10,0,0,0,0,0,0,1
820,4737,10340,bus,10,0,0,0,0,0,0,1
843,4738,10340,bus,10,0,0,0,0,0,0,1
857,4739,10340,bus,10,0,0,0,0,0,0,1
872,4740,10340,bus,10,0,0,0,0,0,0,1
886,4741,10340,bus,10,0,0,0,0,0,0,1
899,4742,10340,bus,10,0,0,0,0,0,0,1
910,4743,10340,bus,10,0,0,0,0,0,0,1
920,4744,10340,bus,10,0,0,0,0,0,0,1
939,4745,10340,bus,10,0,0,0,0,0,0,1
948,4746,10340,bus,10,0,0,0,0,0,0,1
964,4747,10340,bus,10,0,0,0,0,0,0,1
977,4748,10340,bus,10,0,0,0,0,0,0,1
992,4749,10340,bus,10,0,0,0,0,0,0,1
1003,4750,10340,bus,10,0,0,0,0,0,0,1
1014,4751,10340,bus,10,0,0,0,0,0,0,1
1040,4752,10340,bus,10,0,0,0,0,0,0,1
1062,4753,10340,bus,10,0,0,0,0,0,0,1
1092,4754,10340,bus,10,0,0,0,0,0,0,1
1129,4755,10340,bus,10,0,0,0,0,0,0,1
1159,4756,10340,bus,10,0,0,0,0,0,0,1
1184,4757,10340,bus,10,0,0,0,0,0,0,1
1212,4758,10340,bus,10,0,0,0,0,0,0,1
1244,4759,10340,bus,10,0,0,0,0,0,0,1
1272,4760,10340,bus,10,0,0,0,0,0,0,1
1296,4761,10340,bus,10,0,0,0,0,0,0,1
1309,4762,10340,bus,10,0,0,0,0,0,0,1
1335,4763,10340,bus,10,0,0,0,0,0,0,1
1359,4764,10340,bus,10,0,0,0,0,0,0,1
1383,4765,10340,bus,10,0,0,0,0,0,0,1
1408,4766,10340,bus,10,0,0,0,0,0,0,1
339,4767,10338,bus,10,1,1,1,1,1,0,0
355,4768,10338,bus,10,1,1,1,1,1,0,0
371,4769,10338,bus,10,1,1,1,1,1,0,0
388,4770,10338,bus,10,1,1,1,1,1,0,0
400,4771,10338,bus,10,1,1,1,1,1,0,0
412,4772,10338,bus,10,1,1,1,1,1,0,0
423,4773,10338,bus,10,1,1,1,1,1,0,0
433,4774,10338,bus,10,1,1,1,1,1,0,0
441,4775,10338,bus,10,1,1,1,1,1,0,0
451,4776,10338,bus,10,1,1,1,1,1,0,0
466,4777,10338,bus,10,1,1,1,1,1,0,0
476,4778,10338,bus,10,1,1,1,1,1,0,0
486,4779,10338,bus,10,1,1,1,1,1,0,0
498,4780,10338,bus,10,1,1,1,1,1,0,0
510,4781,10338,bus,10,1,1,1,1,1,0,0
523,4782,10338,bus,10,1,1,1,1,1,0,0
534,4783,10338,bus,10,1,1,1,1,1,0,0
546,4784,10338,bus,10,1,1,1,1,1,0,0
560,4785,10338,bus,10,1,1,1,1,1,0,0
574,4786,10338,bus,10,1,1,1,1,1,0,0
589,4787,10338,bus,10,1,1,1,1,1,0,0
603,4788,10338,bus,10,1,1,1,1,1,0,0
617,4789,10338,bus,10,1,1,1,1,1,0,0
633,4790,10338,bus,10,1,1,1,1,1,0,0
647,4791,10338,bus,10,1,1,1,1,1,0,0
662,4792,10338,bus,10,1,1,1,1,1,0,0
680,4793,10338,bus,10,1,1,1,1,1,0,0
700,4794,10338,bus,10,1,1,1,1,1,0,0
720,4795,10338,bus,10,1,1,1,1,1,0,0
738,4796,10338,bus,10,1,1,1,1,1,0,0
754,4797,10338,bus,10,1,1,1,1,1,0,0
771,4798,10338,bus,10,1,1,1,1,1,0,0
788,4799,10338,bus,10,1,1,1,1,1,0,0
806,4800,10338,bus,10,1,1,1,1,1,0,0
824,4801,10338,bus,10,1,1,1,1,1,0,0
840,4802,10338,bus,10,1,1,1,1,1,0,0
858,4803,10338,bus,10,1,1,1,1,1,0,0
878,4804,10338,bus,10,1,1,1,1,1,0,0
897,4805,10338,bus,10,1,1,1,1,1,0,0
915,4806,10338,bus,10,1,1,1,1,1,0,0
925,4807,10338,bus,10,1,1,1,1,1,0,0
934,4808,10338,bus,10,1,1,1,1,1,0,0
943,4809,10338,bus,10,1,1,1,1,1,0,0
953,4810,10338,bus,10,1,1,1,1,1,0,0
963,4811,10338,bus,10,1,1,1,1,1,0,0
974,4812,10338,bus,10,1,1,1,1,1,0,0
987,4813,10338,bus,10,1,1,1,1,1,0,0
1000,4814,10338,bus,10,1,1,1,1,1,0,0
1013,4815,10338,bus,10,1,1,1,1,1,0,0
1026,4816,10338,bus,10,1,1,1,1,1,0,0
1037,4817,10338,bus,10,1,1,1,1,1,0,0
1047,4818,10338,bus,10,1,1,1,1,1,0,0
1056,4819,10338,bus,10,1,1,1,1,1,0,0
1065,4820,10338,bus,10,1,1,1,1,1,0,0
1076,4821,10338,bus,10,1,1,1,1,1,0,0
1089,4822,10338,bus,10,1,1,1,1,1,0,0
1100,4823,10338,bus,10,1,1,1,1,1,0,0
1120,4824,10338,bus,10,1,1,1,1,1,0,0
1146,4825,10338,bus,10,1,1,1,1,1,0,0
1165,4826,10338,bus,10,1,1,1,1,1,0,0
1181,4827,10338,bus,10,1,1,1,1,1,0,0
1199,4828,10338,bus,10,1,1,1,1,1,0,0
1216,4829,10338,bus,10,1,1,1,1,1,0,0
1232,4830,10338,bus,10,1,1,1,1,1,0,0
1247,4831,10338,bus,10,1,1,1,1,1,0,0
1262,4832,10338,bus,10,1,1,1,1,1,0,0
1278,4833,10338,bus,10,1,1,1,1,1,0,0
1295,4834,10338,bus,10,1,1,1,1,1,0,0
1312,4835,10338,bus,10,1,1,1,1,1,0,0
1327,4836,10338,bus,10,1,1,1,1,1,0,0
1344,4837,10338,bus,10,1,1,1,1,1,0,0
1360,4838,10338,bus,10,1,1,1,1,1,0,0
1382,4839,10338,bus,10,1,1,1,1,1,0,0
1403,4840,10338,bus,10,1,1,1,1,1,0,0
326,4841,10339,bus,10,0,0,0,0,0,1,0
347,4842,10339,bus,10,0,0,0,0,0,1,0
370,4843,10339,bus,10,0,0,0,0,0,1,0
393,4844,10339,bus,10,0,0,0,0,0,1,0
414,4845,10339,bus,10,0,0,0,0,0,1,0
436,4846,10339,bus,10,0,0,0,0,0,1,0
463,4847,10339,bus,10,0,0,0,0,0,1,0
485,4848,10339,bus,10,0,0,0,0,0,1,0
507,4849,10339,bus,10,0,0,0,0,0,1,0
527,4850,10339,bus,10,0,0,0,0,0,1,0
546,4851,10339,bus,10,0,0,0,0,0,1,0
562,4852,10339,bus,10,0,0,0,0,0,1,0
573,4853,10339,bus,10,0,0,0,0,0,1,0
586,4854,10339,bus,10,0,0,0,0,0,1,0
609,4855,10339,bus,10,0,0,0,0,0,1,0
619,4856,10339,bus,10,0,0,0,0,0,1,0
632,4857,10339,bus,10,0,0,0,0,0,1,0
646,4858,10339,bus,10,0,0,0,0,0,1,0
662,4859,10339,bus,10,0,0,0,0,0,1,0
671,4860,10339,bus,10,0,0,0,0,0,1,0
681,4861,10339,bus,10,0,0,0,0,0,1,0
703,4862,10339,bus,10,0,0,0,0,0,1,0
722,4863,10339,bus,10,0,0,0,0,0,1,0
737,4864,10339,bus,10,0,0,0,0,0,1,0
753,4865,10339,bus,10,0,0,0,0,0,1,0
766,4866,10339,bus,10,0,0,0,0,0,1,0
778,4867,10339,bus,10,0,0,0,0,0,1,0
790,4868,10339,bus,10,0,0,0,0,0,1,0
800,4869,10339,bus,10,0,0,0,0,0,1,0
820,4870,10339,bus,10,0,0,0,0,0,1,0
843,4871,10339,bus,10,0,0,0,0,0,1,0
857,4872,10339,bus,10,0,0,0,0,0,1,0
872,4873,10339,bus,10,0,0,0,0,0,1,0
886,4874,10339,bus,10,0,0,0,0,0,1,0
899,4875,10339,bus,10,0,0,0,0,0,1,0
910,4876,10339,bus,10,0,0,0,0,0,1,0
920,4877,10339,bus,10,0,0,0,0,0,1,0
939,4878,10339,bus,10,0,0,0,0,0,1,0
948,4879,10339,bus,10,0,0,0,0,0,1,0
964,4880,10339,bus,10,0,0,0,0,0,1,0
977,4881,10339,bus,10,0,0,0,0,0,1,0
992,4882,10339,bus,10,0,0,0,0,0,1,0
1003,4883,10339,bus,10,0,0,0,0,0,1,0
1014,4884,10339,bus,10,0,0,0,0,0,1,0
1040,4885,10339,bus,10,0,0,0,0,0,1,0
1062,4886,10339,bus,10,0,0,0,0,0,1,0
1092,4887,10339,bus,10,0,0,0,0,0,1,0
1129,4888,10339,bus,10,0,0,0,0,0,1,0
1159,4889,10339,bus,10,0,0,0,0,0,1,0
1184,4890,10339,bus,10,0,0,0,0,0,1,0
1212,4891,10339,bus,10,0,0,0,0,0,1,0
1244,4892,10339,bus,10,0,0,0,0,0,1,0
1272,4893,10339,bus,10,0,0,0,0,0,1,0
1296,4894,10339,bus,10,0,0,0,0,0,1,0
1309,4895,10339,bus,10,0,0,0,0,0,1,0
1335,4896,10339,bus,10,0,0,0,0,0,1,0
1359,4897,10339,bus,10,0,0,0,0,0,1,0
1383,4898,10339,bus,10,0,0,0,0,0,1,0
1408,4899,10339,bus,10,0,0,0,0,0,1,0
332,7679,10357,bus,26,1,1,1,1,1,0,0
386,7680,10357,bus,26,1,1,1,1,1,0,0
440,7681,10357,bus,26,1,1,1,1,1,0,0
493,7682,10357,bus,26,1,1,1,1,1,0,0
559,7683,10357,bus,26,1,1,1,1,1,0,0
643,7684,10357,bus,26,1,1,1,1,1,0,0
692,7685,10357,bus,26,1,1,1,1,1,0,0
746,7686,10357,bus,26,1,1,1,1,1,0,0
807,7687,10357,bus,26,1,1,1,1,1,0,0
868,7688,10357,bus,26,1,1,1,1,1,0,0
922,7689,10357,bus,26,1,1,1,1,1,0,0
979,7690,10357,bus,26,1,1,1,1,1,0,0
1032,7691,10357,bus,26,1,1,1,1,1,0,0
1090,7692,10357,bus,26,1,1,1,1,1,0,0
1165,7693,10357,bus,26,1,1,1,1,1,0,0
1215,7694,10357,bus,26,1,1,1,1,1,0,0
1272,7695,10357,bus,26,1,1,1,1,1,0,0
1318,7696,10357,bus,26,1,1,1,1,1,0,0
1370,7697,10357,bus,26,1,1,1,1,1,0,0
327,7698,10358,bus,26,0,0,0,0,0,1,0
377,7699,10358,bus,26,0,0,0,0,0,1,0
429,7700,10358,bus,26,0,0,0,0,0,1,0
487,7701,10358,bus,26,0,0,0,0,0,1,0
549,7702,10358,bus,26,0,0,0,0,0,1,0
631,7703,10358,bus,26,0,0,0,0,0,1,0
680,7704,10358,bus,26,0,0,0,0,0,1,0
735,7705,10358,bus,26,0,0,0,0,0,1,0
787,7706,10358,bus,26,0,0,0,0,0,1,0
834,7707,10358,bus,26,0,0,0,0,0,1,0
890,7708,10358,bus,26,0,0,0,0,0,1,0
946,7709,10358,bus,26,0,0,0,0,0,1,0
1001,7710,10358,bus,26,0,0,0,0,0,1,0
1056,7711,10358,bus,26,0,0,0,0,0,1,0
1140,7712,10358,bus,26,0,0,0,0,0,1,0
1196,7713,10358,bus,26,0,0,0,0,0,1,0
1244,7714,10358,bus,26,0,0,0,0,0,1,0
1295,7715,10358,bus,26,0,0,0,0,0,1,0
1345,7716,10358,bus,26,0,0,0,0,0,1,0
1391,7717,10358,bus,26,0,0,0,0,0,1,0
377,7718,10359,bus,26,0,0,0,0,0,0,1
429,7719,10359,bus,26,0,0,0,0,0,0,1
487,7720,10359,bus,26,0,0,0,0,0,0,1
549,7721,10359,bus,26,0,0,0,0,0,0,1
631,7722,10359,bus,26,0,0,0,0,0,0,1
680,7723,10359,bus,26,0,0,0,0,0,0,1
735,7724,10359,bus,26,0,0,0,0,0,0,1
787,7725,10359,bus,26,0,0,0,0,0,0,1
834,7726,10359,bus,26,0,0,0,0,0,0,1
890,7727,10359,bus,26,0,0,0,0,0,0,1
946,7728,10359,bus,26,0,0,0,0,0,0,1
1001,7729,10359,bus,26,0,0,0,0,0,0,1
1056,7730,10359,bus,26,0,0,0,0,0,0,1
1140,7731,10359,bus,26,0,0,0,0,0,0,1
1196,7732,10359,bus,26,0,0,0,0,0,0,1
1244,7733,10359,bus,26,0,0,0,0,0,0,1
1295,7734,10359,bus,26,0,0,0,0,0,0,1
1345,7735,10359,bus,26,0,0,0,0,0,0,1
1391,7736,10359,bus,26,0,0,0,0,0,0,1
321,9250,10370,bus,34,1,1,1,1,1,0,0
349,9251,10370,bus,34,1,1,1,1,1,0,0
383,9252,10370,bus,34,1,1,1,1,1,0,0
407,9253,10370,bus,34,1,1,1,1,1,0,0
433,9254,10370,bus,34,1,1,1,1,1,0,0
459,9255,10370,bus,34,1,1,1,1,1,0,0
480,9256,10370,bus,34,1,1,1,1,1,0,0
502,9257,10370,bus,34,1,1,1,1,1,0,0
524,9258,10370,bus,34,1,1,1,1,1,0,0
551,9259,10370,bus,34,1,1,1,1,1,0,0
576,9260,10370,bus,34,1,1,1,1,1,0,0
596,9261,10370,bus,34,1,1,1,1,1,0,0
615,9262,10370,bus,34,1,1,1,1,1,0,0
637,9263,10370,bus,34,1,1,1,1,1,0,0
687,9264,10370,bus,34,1,1,1,1,1,0,0
723,9265,10370,bus,34,1,1,1,1,1,0,0
761,9266,10370,bus,34,1,1,1,1,1,0,0
797,9267,10370,bus,34,1,1,1,1,1,0,0
831,9268,10370,bus,34,1,1,1,1,1,0,0
875,9269,10370,bus,34,1,1,1,1,1,0,0
913,9270,10370,bus,34,1,1,1,1,1,0,0
949,9271,10370,bus,34,1,1,1,1,1,0,0
970,9272,10370,bus,34,1,1,1,1,1,0,0
993,9273,10370,bus,34,1,1,1,1,1,0,0
1016,9274,10370,bus,34,1,1,1,1,1,0,0
1039,9275,10370,bus,34,1,1,1,1,1,0,0
1064,9276,10370,bus,34,1,1,1,1,1,0,0
1088,9277,10370,bus,34,1,1,1,1,1,0,0
1114,9278,10370,bus,34,1,1,1,1,1,0,0
1137,9279,10370,bus,34,1,1,1,1,1,0,0
1180,9280,10370,bus,34,1,1,1,1,1,0,0
1208,9281,10370,bus,34,1,1,1,1,1,0,0
1252,9282,10370,bus,34,1,1,1,1,1,0,0
1289,9283,10370,bus,34,1,1,1,1,1,0,0
1321,9284,10370,bus,34,1,1,1,1,1,0,0
1359,9285,10370,bus,34,1,1,1,1,1,0,0
394,9286,10372,bus,34,0,0,0,0,0,0,1
427,9287,10372,bus,34,0,0,0,0,0,0,1
462,9288,10372,bus,34,0,0,0,0,0,0,1
492,9289,10372,bus,34,0,0,0,0,0,0,1
523,9290,10372,bus,34,0,0,0,0,0,0,1
558,9291,10372,bus,34,0,0,0,0,0,0,1
583,9292,10372,bus,34,0,0,0,0,0,0,1
616,9293,10372,bus,34,0,0,0,0,0,0,1
652,9294,10372,bus,34,0,0,0,0,0,0,1
680,9295,10372,bus,34,0,0,0,0,0,0,1
701,9296,10372,bus,34,0,0,0,0,0,0,1
741,9297,10372,bus,34,0,0,0,0,0,0,1
779,9298,10372,bus,34,0,0,0,0,0,0,1
805,9299,10372,bus,34,0,0,0,0,0,0,1
828,9300,10372,bus,34,0,0,0,0,0,0,1
856,9301,10372,bus,34,0,0,0,0,0,0,1
882,9302,10372,bus,34,0,0,0,0,0,0,1
931,9303,10372,bus,34,0,0,0,0,0,0,1
947,9304,10372,bus,34,0,0,0,0,0,0,1
964,9305,10372,bus,34,0,0,0,0,0,0,1
987,9306,10372,bus,34,0,0,0,0,0,0,1
1029,9307,10372,bus,34,0,0,0,0,0,0,1
1046,9308,10372,bus,34,0,0,0,0,0,0,1
1069,9309,10372,bus,34,0,0,0,0,0,0,1
1113,9310,10372,bus,34,0,0,0,0,0,0,1
1154,9311,10372,bus,34,0,0,0,0,0,0,1
1197,9312,10372,bus,34,0,0,0,0,0,0,1
1239,9313,10372,bus,34,0,0,0,0,0,0,1
1278,9314,10372,bus,34,0,0,0,0,0,0,1
1302,9315,10372,bus,34,0,0,0,0,0,0,1
1343,9316,10372,bus,34,0,0,0,0,0,0,1
1386,9317,10372,bus,34,0,0,0,0,0,0,1
332,9318,10371,bus,34,0,0,0,0,0,1,0
394,9319,10371,bus,34,0,0,0,0,0,1,0
427,9320,10371,bus,34,0,0,0,0,0,1,0
462,9321,10371,bus,34,0,0,0,0,0,1,0
492,9322,10371,bus,34,0,0,0,0,0,1,0
523,9323,10371,bus,34,0,0,0,0,0,1,0
558,9324,10371,bus,34,0,0,0,0,0,1,0
583,9325,10371,bus,34,0,0,0,0,0,1,0
616,9326,10371,bus,34,0,0,0,0,0,1,0
652,9327,10371,bus,34,0,0,0,0,0,1,0
680,9328,10371,bus,34,0,0,0,0,0,1,0
701,9329,10371,bus,34,0,0,0,0,0,1,0
741,9330,10371,bus,34,0,0,0,0,0,1,0
779,9331,10371,bus,34,0,0,0,0,0,1,0
805,9332,10371,bus,34,0,0,0,0,0,1,0
828,9333,10371,bus,34,0,0,0,0,0,1,0
856,9334,10371,bus,34,0,0,0,0,0,1,0
882,9335,10371,bus,34,0,0,0,0,0,1,0
931,9336,10371,bus,34,0,0,0,0,0,1,0
947,9337,10371,bus,34,0,0,0,0,0,1,0
964,9338,10371,bus,34,0,0,0,0,0,1,0
987,9339,10371,bus,34,0,0,0,0,0,1,0
1029,9340,10371,bus,34,0,0,0,0,0,1,0
1046,9341,10371,bus,34,0,0,0,0,0,1,0
1069,9342,10371,bus,34,0,0,0,0,0,1,0
1113,9343,10371,bus,34,0,0,0,0,0,1,0
1154,9344,10371,bus,34,0,0,0,0,0,1,0
1197,9345,10371,bus,34,0,0,0,0,0,1,0
1239,9346,10371,bus,34,0,0,0,0,0,1,0
1278,9347,10371,bus,34,0,0,0,0,0,1,0
1302,9348,10371,bus,34,0,0,0,0,0,1,0
1343,9349,10371,bus,34,0,0,0,0,0,1,0
1386,9350,10371,bus,34,0,0,0,0,0,1,0
351,9445,10609,bus,35,1,1,1,1,1,0,0
396,9446,10609,bus,35,1,1,1,1,1,0,0
437,9447,10609,bus,35,1,1,1,1,1,0,0
464,9448,10609,bus,35,1,1,1,1,1,0,0
490,9449,10609,bus,35,1,1,1,1,1,0,0
535,9450,10609,bus,35,1,1,1,1,1,0,0
574,9451,10609,bus,35,1,1,1,1,1,0,0
616,9452,10609,bus,35,1,1,1,1,1,0,0
664,9453,10609,bus,35,1,1,1,1,1,0,0
709,9454,10609,bus,35,1,1,1,1,1,0,0
748,9455,10609,bus,35,1,1,1,1,1,0,0
417,9456,10610,bus,35,0,0,0,0,0,0,1
446,9457,10610,bus,35,0,0,0,0,0,0,1
496,9458,10610,bus,35,0,0,0,0,0,0,1
528,9459,10610,bus,35,0,0,0,0,0,0,1
580,9460,10610,bus,35,0,0,0,0,0,0,1
664,9461,10610,bus,35,0,0,0,0,0,0,1
718,9462,10610,bus,35,0,0,0,0,0,0,1
756,9463,10610,bus,35,0,0,0,0,0,0,1
807,9464,10610,bus,35,0,0,0,0,0,0,1
848,9465,10610,bus,35,0,0,0,0,0,0,1
893,9466,10610,bus,35,0,0,0,0,0,0,1
944,9467,10610,bus,35,0,0,0,0,0,0,1
980,9468,10610,bus,35,0,0,0,0,0,0,1
1030,9469,10610,bus,35,0,0,0,0,0,0,1
1066,9470,10610,bus,35,0,0,0,0,0,0,1
364,9471,10588,bus,35,0,0,0,0,0,1,0
450,9472,10588,bus,35,0,0,0,0,0,1,0
477,9473,10588,bus,35,0,0,0,0,0,1,0
541,9474,10588,bus,35,0,0,0,0,0,1,0
580,9475,10588,bus,35,0,0,0,0,0,1,0
664,9476,10588,bus,35,0,0,0,0,0,1,0
718,9477,10588,bus,35,0,0,0,0,0,1,0
756,9478,10588,bus,35,0,0,0,0,0,1,0
807,9479,10588,bus,35,0,0,0,0,0,1,0
848,9480,10588,bus,35,0,0,0,0,0,1,0
893,9481,10588,bus,35,0,0,0,0,0,1,0
944,9482,10588,bus,35,0,0,0,0,0,1,0
980,9483,10588,bus,35,0,0,0,0,0,1,0
1030,9484,10588,bus,35,0,0,0,0,0,1,0
1066,9485,10588,bus,35,0,0,0,0,0,1,0
799,9486,10609,bus,35,1,1,1,1,1,0,0
834,9487,10609,bus,35,1,1,1,1,1,0,0
895,9488,10609,bus,35,1,1,1,1,1,0,0
925,9489,10609,bus,35,1,1,1,1,1,0,0
951,9490,10609,bus,35,1,1,1,1,1,0,0
982,9491,10609,bus,35,1,1,1,1,1,0,0
1021,9492,10609,bus,35,1,1,1,1,1,0,0
1041,9493,10609,bus,35,1,1,1,1,1,0,0
1077,9494,10609,bus,35,1,1,1,1,1,0,0
1110,9495,10609,bus,35,1,1,1,1,1,0,0
1134,9496,10609,bus,35,1,1,1,1,1,0,0
1172,9497,10609,bus,35,1,1,1,1,1,0,0
1230,9498,10609,bus,35,1,1,1,1,1,0,0
1282,9499,10609,bus,35,1,1,1,1,1,0,0
1313,9500,10609,bus,35,1,1,1,1,1,0,0
1357,9501,10609,bus,35,1,1,1,1,1,0,0
1402,9502,10609,bus,35,1,1,1,1,1,0,0
1156,9503,10610,bus,35,0,0,0,0,0,0,1
1204,9504,10610,bus,35,0,0,0,0,0,0,1
1247,9505,10610,bus,35,0,0,0,0,0,0,1
1294,9506,10610,bus,35,0,0,0,0,0,0,1
1350,9507,10610,bus,35,0,0,0,0,0,0,1
1410,9508,10610,bus,35,0,0,0,0,0,0,1
1156,9509,10588,bus,35,0,0,0,0,0,1,0
1204,9510,10588,bus,35,0,0,0,0,0,1,0
1247,9511,10588,bus,35,0,0,0,0,0,1,0
1294,9512,10588,bus,35,0,0,0,0,0,1,0
1350,9513,10588,bus,35,0,0,0,0,0,1,0
1410,9514,10588,bus,35,0,0,0,0,0,1,0
363,9594,10609,bus,36,1,1,1,1,1,0,0
380,9595,10611,bus,36,1,1,1,1,1,0,0
419,9596,10611,bus,36,1,1,1,1,1,0,0
455,9597,10611,bus,36,1,1,1,1,1,0,0
478,9598,10611,bus,36,1,1,1,1,1,0,0
521,9599,10611,bus,36,1,1,1,1,1,0,0
563,9600,10611,bus,36,1,1,1,1,1,0,0
607,9601,10611,bus,36,1,1,1,1,1,0,0
659,9602,10611,bus,36,1,1,1,1,1,0,0
703,9603,10611,bus,36,1,1,1,1,1,0,0
757,9604,10611,bus,36,1,1,1,1,1,0,0
807,9605,10611,bus,36,1,1,1,1,1,0,0
862,9606,10611,bus,36,1,1,1,1,1,0,0
911,9607,10611,bus,36,1,1,1,1,1,0,0
962,9608,10611,bus,36,1,1,1,1,1,0,0
988,9609,10611,bus,36,1,1,1,1,1,0,0
1015,9610,10611,bus,36,1,1,1,1,1,0,0
1065,9611,10611,bus,36,1,1,1,1,1,0,0
1094,9612,10611,bus,36,1,1,1,1,1,0,0
1114,9613,10611,bus,36,1,1,1,1,1,0,0
1168,9614,10611,bus,36,1,1,1,1,1,0,0
1193,9615,10611,bus,36,1,1,1,1,1,0,0
1236,9616,10611,bus,36,1,1,1,1,1,0,0
1287,9617,10611,bus,36,1,1,1,1,1,0,0
1333,9618,10611,bus,36,1,1,1,1,1,0,0
1386,9619,10611,bus,36,1,1,1,1,1,0,0
1426,9620,10611,bus,36,1,1,1,1,1,0,0
406,9621,10181,bus,36,0,0,0,0,0,1,0
445,9622,10181,bus,36,0,0,0,0,0,1,0
513,9623,10181,bus,36,0,0,0,0,0,1,0
549,9624,10181,bus,36,0,0,0,0,0,1,0
612,9625,10181,bus,36,0,0,0,0,0,1,0
652,9626,10181,bus,36,0,0,0,0,0,1,0
742,9627,10181,bus,36,0,0,0,0,0,1,0
785,9628,10181,bus,36,0,0,0,0,0,1,0
841,9629,10181,bus,36,0,0,0,0,0,1,0
883,9630,10181,bus,36,0,0,0,0,0,1,0
951,9631,10181,bus,36,0,0,0,0,0,1,0
990,9632,10181,bus,36,0,0,0,0,0,1,0
1054,9633,10181,bus,36,0,0,0,0,0,1,0
1091,9634,10181,bus,36,0,0,0,0,0,1,0
1179,9635,10181,bus,36,0,0,0,0,0,1,0
1218,9636,10181,bus,36,0,0,0,0,0,1,0
1281,9637,10181,bus,36,0,0,0,0,0,1,0
1321,9638,10181,bus,36,0,0,0,0,0,1,0
1381,9639,10181,bus,36,0,0,0,0,0,1,0
1444,9640,10181,bus,36,0,0,0,0,0,1,0
406,9641,10182,bus,36,0,0,0,0,0,0,1
445,9642,10182,bus,36,0,0,0,0,0,0,1
513,9643,10182,bus,36,0,0,0,0,0,0,1
549,9644,10182,bus,36,0,0,0,0,0,0,1
612,9645,10182,bus,36,0,0,0,0,0,0,1
652,9646,10182,bus,36,0,0,0,0,0,0,1
742,9647,10182,bus,36,0,0,0,0,0,0,1
785,9648,10182,bus,36,0,0,0,0,0,0,1
841,9649,10182,bus,36,0,0,0,0,0,0,1
883,9650,10182,bus,36,0,0,0,0,0,0,1
951,9651,10182,bus,36,0,0,0,0,0,0,1
990,9652,10182,bus,36,0,0,0,0,0,0,1
1054,9653,10182,bus,36,0,0,0,0,0,0,1
1091,9654,10182,bus,36,0,0,0,0,0,0,1
1179,9655,10182,bus,36,0,0,0,0,0,0,1
1218,9656,10182,bus,36,0,0,0,0,0,0,1
1281,9657,10182,bus,36,0,0,0,0,0,0,1
1321,9658,10182,bus,36,0,0,0,0,0,0,1
1381,9659,10182,bus,36,0,0,0,0,0,0,1
1444,9660,10182,bus,36,0,0,0,0,0,0,1
368,11623,10387,bus,49,1,1,1,1,1,0,0
391,11624,10387,bus,49,1,1,1,1,1,0,0
411,11625,10387,bus,49,1,1,1,1,1,0,0
431,11626,10387,bus,49,1,1,1,1,1,0,0
452,11627,10387,bus,49,1,1,1,1,1,0,0
474,11628,10387,bus,49,1,1,1,1,1,0,0
498,11629,10387,bus,49,1,1,1,1,1,0,0
535,11630,10387,bus,49,1,1,1,1,1,0,0
558,11631,10387,bus,49,1,1,1,1,1,0,0
591,11632,10387,bus,49,1,1,1,1,1,0,0
640,11633,10387,bus,49,1,1,1,1,1,0,0
673,11634,10387,bus,49,1,1,1,1,1,0,0
699,11635,10387,bus,49,1,1,1,1,1,0,0
732,11636,10387,bus,49,1,1,1,1,1,0,0
757,11637,10387,bus,49,1,1,1,1,1,0,0
790,11638,10387,bus,49,1,1,1,1,1,0,0
820,11639,10387,bus,49,1,1,1,1,1,0,0
847,11640,10387,bus,49,1,1,1,1,1,0,0
876,11641,10387,bus,49,1,1,1,1,1,0,0
900,11642,10387,bus,49,1,1,1,1,1,0,0
916,11643,10387,bus,49,1,1,1,1,1,0,0
939,11644,10387,bus,49,1,1,1,1,1,0,0
961,11645,10387,bus,49,1,1,1,1,1,0,0
977,11646,10387,bus,49,1,1,1,1,1,0,0
1001,11647,10387,bus,49,1,1,1,1,1,0,0
1028,11648,10387,bus,49,1,1,1,1,1,0,0
1061,11649,10387,bus,49,1,1,1,1,1,0,0
1083,11650,10387,bus,49,1,1,1,1,1,0,0
1097,11651,10387,bus,49,1,1,1,1,1,0,0
1124,11652,10387,bus,49,1,1,1,1,1,0,0
1151,11653,10387,bus,49,1,1,1,1,1,0,0
1181,11654,10387,bus,49,1,1,1,1,1,0,0
1222,11655,10387,bus,49,1,1,1,1,1,0,0
1239,11656,10387,bus,49,1,1,1,1,1,0,0
1263,11657,10387,bus,49,1,1,1,1,1,0,0
1294,11658,10387,bus,49,1,1,1,1,1,0,0
1330,11659,10387,bus,49,1,1,1,1,1,0,0
1354,11660,10387,bus,49,1,1,1,1,1,0,0
342,11661,9637,bus,49,0,0,0,0,0,1,0
396,11662,9637,bus,49,0,0,0,0,0,1,0
447,11663,9637,bus,49,0,0,0,0,0,1,0
509,11664,9637,bus,49,0,0,0,0,0,1,0
547,11665,9637,bus,49,0,0,0,0,0,1,0
582,11666,9637,bus,49,0,0,0,0,0,1,0
645,11667,9637,bus,49,0,0,0,0,0,1,0
669,11668,9637,bus,49,0,0,0,0,0,1,0
704,11669,9637,bus,49,0,0,0,0,0,1,0
753,11670,9637,bus,49,0,0,0,0,0,1,0
801,11671,9637,bus,49,0,0,0,0,0,1,0
827,11672,9637,bus,49,0,0,0,0,0,1,0
872,11673,9637,bus,49,0,0,0,0,0,1,0
909,11674,9637,bus,49,0,0,0,0,0,1,0
941,11675,9637,bus,49,0,0,0,0,0,1,0
983,11676,9637,bus,49,0,0,0,0,0,1,0
1055,11677,9637,bus,49,0,0,0,0,0,1,0
1120,11678,9637,bus,49,0,0,0,0,0,1,0
1189,11679,9637,bus,49,0,0,0,0,0,1,0
1229,11680,9637,bus,49,0,0,0,0,0,1,0
1291,11681,9637,bus,49,0,0,0,0,0,1,0
1336,11682,9637,bus,49,0,0,0,0,0,1,0
396,11683,9638,bus,49,0,0,0,0,0,0,1
447,11684,9638,bus,49,0,0,0,0,0,0,1
509,11685,9638,bus,49,0,0,0,0,0,0,1
547,11686,9638,bus,49,0,0,0,0,0,0,1
582,11687,9638,bus,49,0,0,0,0,0,0,1
645,11688,9638,bus,49,0,0,0,0,0,0,1
669,11689,9638,bus,49,0,0,0,0,0,0,1
704,11690,9638,bus,49,0,0,0,0,0,0,1
753,11691,9638,bus,49,0,0,0,0,0,0,1
801,11692,9638,bus,49,0,0,0,0,0,0,1
827,11693,9638,bus,49,0,0,0,0,0,0,1
872,11694,9638,bus,49,0,0,0,0,0,0,1
909,11695,9638,bus,49,0,0,0,0,0,0,1
941,11696,9638,bus,49,0,0,0,0,0,0,1
983,11697,9638,bus,49,0,0,0,0,0,0,1
1055,11698,9638,bus,49,0,0,0,0,0,0,1
1120,11699,9638,bus,49,0,0,0,0,0,0,1
1189,11700,9638,bus,49,0,0,0,0,0,0,1
1229,11701,9638,bus,49,0,0,0,0,0,0,1
1291,11702,9638,bus,49,0,0,0,0,0,0,1
1336,11703,9638,bus,49,0,0,0,0,0,0,1
327,11910,10612,bus,50,1,1,1,1,1,0,0
356,11911,10612,bus,50,1,1,1,1,1,0,0
373,11912,10612,bus,50,1,1,1,1,1,0,0
391,11913,10612,bus,50,1,1,1,1,1,0,0
406,11914,10612,bus,50,1,1,1,1,1,0,0
420,11915,10612,bus,50,1,1,1,1,1,0,0
435,11916,10612,bus,50,1,1,1,1,1,0,0
449,11917,10612,bus,50,1,1,1,1,1,0,0
467,11918,10612,bus,50,1,1,1,1,1,0,0
485,11919,10612,bus,50,1,1,1,1,1,0,0
502,11920,10612,bus,50,1,1,1,1,1,0,0
521,11921,10612,bus,50,1,1,1,1,1,0,0
539,11922,10612,bus,50,1,1,1,1,1,0,0
555,11923,10612,bus,50,1,1,1,1,1,0,0
571,11924,10612,bus,50,1,1,1,1,1,0,0
586,11925,10612,bus,50,1,1,1,1,1,0,0
609,11926,10612,bus,50,1,1,1,1,1,0,0
637,11927,10612,bus,50,1,1,1,1,1,0,0
671,11928,10612,bus,50,1,1,1,1,1,0,0
702,11929,10612,bus,50,1,1,1,1,1,0,0
731,11930,10612,bus,50,1,1,1,1,1,0,0
759,11931,10612,bus,50,1,1,1,1,1,0,0
785,11932,10612,bus,50,1,1,1,1,1,0,0
818,11933,10612,bus,50,1,1,1,1,1,0,0
842,11934,10612,bus,50,1,1,1,1,1,0,0
879,11935,10612,bus,50,1,1,1,1,1,0,0
912,11936,10612,bus,50,1,1,1,1,1,0,0
937,11937,10612,bus,50,1,1,1,1,1,0,0
957,11938,10612,bus,50,1,1,1,1,1,0,0
974,11939,10612,bus,50,1,1,1,1,1,0,0
989,11940,10612,bus,50,1,1,1,1,1,0,0
1005,11941,10612,bus,50,1,1,1,1,1,0,0
1023,11942,10612,bus,50,1,1,1,1,1,0,0
1039,11943,10612,bus,50,1,1,1,1,1,0,0
1055,11944,10612,bus,50,1,1,1,1,1,0,0
1072,11945,10612,bus,50,1,1,1,1,1,0,0
1086,11946,10612,bus,50,1,1,1,1,1,0,0
1102,11947,10612,bus,50,1,1,1,1,1,0,0
1119,11948,10612,bus,50,1,1,1,1,1,0,0
1134,11949,10612,bus,50,1,1,1,1,1,0,0
1153,11950,10612,bus,50,1,1,1,1,1,0,0
1174,11951,10612,bus,50,1,1,1,1,1,0,0
1191,11952,10612,bus,50,1,1,1,1,1,0,0
1221,11953,10612,bus,50,1,1,1,1,1,0,0
1249,11954,10612,bus,50,1,1,1,1,1,0,0
1283,11955,10612,bus,50,1,1,1,1,1,0,0
1306,11956,10612,bus,50,1,1,1,1,1,0,0
1335,11957,10612,bus,50,1,1,1,1,1,0,0
1364,11958,10612,bus,50,1,1,1,1,1,0,0
1413,11959,10612,bus,50,1,1,1,1,1,0,0
341,11960,10389,bus,50,0,0,0,0,0,1,0
418,11961,10389,bus,50,0,0,0,0,0,1,0
497,11962,10389,bus,50,0,0,0,0,0,1,0
537,11963,10389,bus,50,0,0,0,0,0,1,0
582,11964,10389,bus,50,0,0,0,0,0,1,0
620,11965,10389,bus,50,0,0,0,0,0,1,0
661,11966,10389,bus,50,0,0,0,0,0,1,0
700,11967,10389,bus,50,0,0,0,0,0,1,0
726,11968,10389,bus,50,0,0,0,0,0,1,0
758,11969,10389,bus,50,0,0,0,0,0,1,0
810,11970,10389,bus,50,0,0,0,0,0,1,0
843,11971,10389,bus,50,0,0,0,0,0,1,0
870,11972,10389,bus,50,0,0,0,0,0,1,0
902,11973,10389,bus,50,0,0,0,0,0,1,0
927,11974,10389,bus,50,0,0,0,0,0,1,0
958,11975,10389,bus,50,0,0,0,0,0,1,0
988,11976,10389,bus,50,0,0,0,0,0,1,0
1016,11977,10389,bus,50,0,0,0,0,0,1,0
1040,11978,10389,bus,50,0,0,0,0,0,1,0
1076,11979,10389,bus,50,0,0,0,0,0,1,0
1121,11980,10389,bus,50,0,0,0,0,0,1,0
1182,11981,10389,bus,50,0,0,0,0,0,1,0
1259,11982,10389,bus,50,0,0,0,0,0,1,0
1333,11983,10389,bus,50,0,0,0,0,0,1,0
1404,11984,10389,bus,50,0,0,0,0,0,1,0
418,11985,10390,bus,50,0,0,0,0,0,0,1
497,11986,10390,bus,50,0,0,0,0,0,0,1
537,11987,10390,bus,50,0,0,0,0,0,0,1
582,11988,10390,bus,50,0,0,0,0,0,0,1
620,11989,10390,bus,50,0,0,0,0,0,0,1
661,11990,10390,bus,50,0,0,0,0,0,0,1
700,11991,10390,bus,50,0,0,0,0,0,0,1
726,11992,10390,bus,50,0,0,0,0,0,0,1
758,11993,10390,bus,50,0,0,0,0,0,0,1
810,11994,10390,bus,50,0,0,0,0,0,0,1
843,11995,10390,bus,50,0,0,0,0,0,0,1
870,11996,10390,bus,50,0,0,0,0,0,0,1
902,11997,10390,bus,50,0,0,0,0,0,0,1
927,11998,10390,bus,50,0,0,0,0,0,0,1
958,11999,10390,bus,50,0,0,0,0,0,0,1
988,12000,10390,bus,50,0,0,0,0,0,0,1
1016,12001,10390,bus,50,0,0,0,0,0,0,1
1040,12002,10390,bus,50,0,0,0,0,0,0,1
1076,12003,10390,bus,50,0,0,0,0,0,0,1
1121,12004,10390,bus,50,0,0,0,0,0,0,1
1182,12005,10390,bus,50,0,0,0,0,0,0,1
1259,12006,10390,bus,50,0,0,0,0,0,0,1
1333,12007,10390,bus,50,0,0,0,0,0,0,1
1404,12008,10390,bus,50,0,0,0,0,0,0,1
375,14025,10615,bus,66,1,1,1,1,1,0,0
399,14026,10615,bus,66,1,1,1,1,1,0,0
427,14027,10615,bus,66,1,1,1,1,1,0,0
470,14028,10615,bus,66,1,1,1,1,1,0,0
497,14029,10615,bus,66,1,1,1,1,1,0,0
529,14030,10615,bus,66,1,1,1,1,1,0,0
570,14031,10615,bus,66,1,1,1,1,1,0,0
597,14032,10615,bus,66,1,1,1,1,1,0,0
628,14033,10615,bus,66,1,1,1,1,1,0,0
689,14034,10615,bus,66,1,1,1,1,1,0,0
731,14035,10615,bus,66,1,1,1,1,1,0,0
783,14036,10615,bus,66,1,1,1,1,1,0,0
836,14037,10615,bus,66,1,1,1,1,1,0,0
880,14038,10615,bus,66,1,1,1,1,1,0,0
934,14039,10615,bus,66,1,1,1,1,1,0,0
974,14040,10615,bus,66,1,1,1,1,1,0,0
1028,14041,10615,bus,66,1,1,1,1,1,0,0
1055,14042,10615,bus,66,1,1,1,1,1,0,0
1081,14043,10615,bus,66,1,1,1,1,1,0,0
1131,14044,10615,bus,66,1,1,1,1,1,0,0
1157,14045,10615,bus,66,1,1,1,1,1,0,0
1209,14046,10615,bus,66,1,1,1,1,1,0,0
1254,14047,10615,bus,66,1,1,1,1,1,0,0
1305,14048,10615,bus,66,1,1,1,1,1,0,0
1349,14049,10615,bus,66,1,1,1,1,1,0,0
1398,14050,10615,bus,66,1,1,1,1,1,0,0
375,14051,10401,bus,66,0,0,0,0,0,1,0
473,14052,10401,bus,66,0,0,0,0,0,1,0
573,14053,10401,bus,66,0,0,0,0,0,1,0
632,14054,10401,bus,66,0,0,0,0,0,1,0
696,14055,10401,bus,66,0,0,0,0,0,1,0
726,14056,10401,bus,66,0,0,0,0,0,1,0
797,14057,10401,bus,66,0,0,0,0,0,1,0
849,14058,10401,bus,66,0,0,0,0,0,1,0
899,14059,10401,bus,66,0,0,0,0,0,1,0
960,14060,10401,bus,66,0,0,0,0,0,1,0
1001,14061,10401,bus,66,0,0,0,0,0,1,0
1064,14062,10401,bus,66,0,0,0,0,0,1,0
1124,14063,10401,bus,66,0,0,0,0,0,1,0
1243,14064,10401,bus,66,0,0,0,0,0,1,0
1336,14065,10401,bus,66,0,0,0,0,0,1,0
1430,14066,10401,bus,66,0,0,0,0,0,1,0
473,14067,10402,bus,66,0,0,0,0,0,0,1
573,14068,10402,bus,66,0,0,0,0,0,0,1
632,14069,10402,bus,66,0,0,0,0,0,0,1
696,14070,10402,bus,66,0,0,0,0,0,0,1
726,14071,10402,bus,66,0,0,0,0,0,0,1
797,14072,10402,bus,66,0,0,0,0,0,0,1
849,14073,10402,bus,66,0,0,0,0,0,0,1
899,14074,10402,bus,66,0,0,0,0,0,0,1
960,14075,10402,bus,66,0,0,0,0,0,0,1
1001,14076,10402,bus,66,0,0,0,0,0,0,1
1064,14077,10402,bus,66,0,0,0,0,0,0,1
1124,14078,10402,bus,66,0,0,0,0,0,0,1
1243,14079,10402,bus,66,0,0,0,0,0,0,1
1336,14080,10402,bus,66,0,0,0,0,0,0,1
1430,14081,10402,bus,66,0,0,0,0,0,0,1
317,14337,10403,bus,69,1,1,1,1,1,0,0
340,14338,10403,bus,69,1,1,1,1,1,0,0
359,14339,10403,bus,69,1,1,1,1,1,0,0
383,14340,10403,bus,69,1,1,1,1,1,0,0
421,14341,10403,bus,69,1,1,1,1,1,0,0
463,14342,10403,bus,69,1,1,1,1,1,0,0
482,14343,10403,bus,69,1,1,1,1,1,0,0
516,14344,10403,bus,69,1,1,1,1,1,0,0
570,14345,10403,bus,69,1,1,1,1,1,0,0
607,14346,10403,bus,69,1,1,1,1,1,0,0
630,14347,10403,bus,69,1,1,1,1,1,0,0
680,14348,10403,bus,69,1,1,1,1,1,0,0
745,14349,10403,bus,69,1,1,1,1,1,0,0
773,14350,10403,bus,69,1,1,1,1,1,0,0
800,14351,10403,bus,69,1,1,1,1,1,0,0
860,14352,10403,bus,69,1,1,1,1,1,0,0
888,14353,10403,bus,69,1,1,1,1,1,0,0
926,14354,10403,bus,69,1,1,1,1,1,0,0
949,14355,10403,bus,69,1,1,1,1,1,0,0
986,14356,10403,bus,69,1,1,1,1,1,0,0
1015,14357,10403,bus,69,1,1,1,1,1,0,0
1046,14358,10403,bus,69,1,1,1,1,1,0,0
1070,14359,10403,bus,69,1,1,1,1,1,0,0
1136,14360,10403,bus,69,1,1,1,1,1,0,0
1169,14361,10403,bus,69,1,1,1,1,1,0,0
1199,14362,10403,bus,69,1,1,1,1,1,0,0
1256,14363,10403,bus,69,1,1,1,1,1,0,0
1273,14364,10403,bus,69,1,1,1,1,1,0,0
1310,14365,10403,bus,69,1,1,1,1,1,0,0
329,14366,9660,bus,69,0,0,0,0,0,1,0
430,14367,9660,bus,69,0,0,0,0,0,1,0
560,14368,9660,bus,69,0,0,0,0,0,1,0
611,14369,9660,bus,69,0,0,0,0,0,1,0
690,14370,9660,bus,69,0,0,0,0,0,1,0
723,14371,9660,bus,69,0,0,0,0,0,1,0
794,14372,9660,bus,69,0,0,0,0,0,1,0
858,14373,9660,bus,69,0,0,0,0,0,1,0
902,14374,9660,bus,69,0,0,0,0,0,1,0
964,14375,9660,bus,69,0,0,0,0,0,1,0
1008,14376,9660,bus,69,0,0,0,0,0,1,0
1095,14377,9660,bus,69,0,0,0,0,0,1,0
1143,14378,9660,bus,69,0,0,0,0,0,1,0
1248,14379,9660,bus,69,0,0,0,0,0,1,0
1350,14380,9660,bus,69,0,0,0,0,0,1,0
430,14381,9661,bus,69,0,0,0,0,0,0,1
560,14382,9661,bus,69,0,0,0,0,0,0,1
611,14383,9661,bus,69,0,0,0,0,0,0,1
690,14384,9661,bus,69,0,0,0,0,0,0,1
723,14385,9661,bus,69,0,0,0,0,0,0,1
794,14386,9661,bus,69,0,0,0,0,0,0,1
858,14387,9661,bus,69,0,0,0,0,0,0,1
902,14388,9661,bus,69,0,0,0,0,0,0,1
964,14389,9661,bus,69,0,0,0,0,0,0,1
1008,14390,9661,bus,69,0,0,0,0,0,0,1
1095,14391,9661,bus,69,0,0,0,0,0,0,1
1143,14392,9661,bus,69,0,0,0,0,0,0,1
1248,14393,9661,bus,69,0,0,0,0,0,0,1
1350,14394,9661,bus,69,0,0,0,0,0,0,1
1436,16355,9971,nightbus,103N,0,0,0,0,1,1,0
1470,16356,9971,nightbus,103N,0,0,0,0,1,1,0
1518,16357,9971,nightbus,103N,0,0,0,0,1,1,0
1546,16358,9971,nightbus,103N,0,0,0,0,1,1,0
1574,16359,9971,nightbus,103N,0,0,0,0,1,1,0
