timeInMin,trip_id,service_id,tipas,numeris,pirmadienis,antradienis,treciadienis,ketvirtadienis,penktadienis,sestadienis,sekmadienis 
378,75,10323,expressbus,1G,0,0,0,0,0,0,1
388,76,10323,expressbus,1G,0,0,0,0,0,0,1
398,77,10323,expressbus,1G,0,0,0,0,0,0,1
407,78,10323,expressbus,1G,0,0,0,0,0,0,1
415,79,10323,expressbus,1G,0,0,0,0,0,0,1
423,80,10323,expressbus,1G,0,0,0,0,0,0,1
431,81,10323,expressbus,1G,0,0,0,0,0,0,1
441,82,10323,expressbus,1G,0,0,0,0,0,0,1
453,83,10323,expressbus,1G,0,0,0,0,0,0,1
463,84,10323,expressbus,1G,0,0,0,0,0,0,1
475,85,10323,expressbus,1G,0,0,0,0,0,0,1
483,86,10323,expressbus,1G,0,0,0,0,0,0,1
492,87,10323,expressbus,1G,0,0,0,0,0,0,1
500,88,10323,expressbus,1G,0,0,0,0,0,0,1
509,89,10323,expressbus,1G,0,0,0,0,0,0,1
516,90,10323,expressbus,1G,0,0,0,0,0,0,1
522,91,10323,expressbus,1G,0,0,0,0,0,0,1
531,92,10323,expressbus,1G,0,0,0,0,0,0,1
540,93,10323,expressbus,1G,0,0,0,0,0,0,1
548,94,10323,expressbus,1G,0,0,0,0,0,0,1
557,95,10323,expressbus,1G,0,0,0,0,0,0,1
565,96,10323,expressbus,1G,0,0,0,0,0,0,1
580,97,10323,expressbus,1G,0,0,0,0,0,0,1
594,98,10323,expressbus,1G,0,0,0,0,0,0,1
606,99,10323,expressbus,1G,0,0,0,0,0,0,1
621,100,10323,expressbus,1G,0,0,0,0,0,0,1
632,101,10323,expressbus,1G,0,0,0,0,0,0,1
641,102,10323,expressbus,1G,0,0,0,0,0,0,1
651,103,10323,expressbus,1G,0,0,0,0,0,0,1
662,104,10323,expressbus,1G,0,0,0,0,0,0,1
673,105,10323,expressbus,1G,0,0,0,0,0,0,1
685,106,10323,expressbus,1G,0,0,0,0,0,0,1
699,107,10323,expressbus,1G,0,0,0,0,0,0,1
714,108,10323,expressbus,1G,0,0,0,0,0,0,1
722,109,10323,expressbus,1G,0,0,0,0,0,0,1
731,110,10323,expressbus,1G,0,0,0,0,0,0,1
742,111,10323,expressbus,1G,0,0,0,0,0,0,1
756,112,10323,expressbus,1G,0,0,0,0,0,0,1
767,113,10323,expressbus,1G,0,0,0,0,0,0,1
778,114,10323,expressbus,1G,0,0,0,0,0,0,1
792,115,10323,expressbus,1G,0,0,0,0,0,0,1
804,116,10323,expressbus,1G,0,0,0,0,0,0,1
813,117,10323,expressbus,1G,0,0,0,0,0,0,1
819,118,10323,expressbus,1G,0,0,0,0,0,0,1
827,119,10323,expressbus,1G,0,0,0,0,0,0,1
833,120,10323,expressbus,1G,0,0,0,0,0,0,1
842,121,10323,expressbus,1G,0,0,0,0,0,0,1
847,122,10323,expressbus,1G,0,0,0,0,0,0,1
857,123,10323,expressbus,1G,0,0,0,0,0,0,1
866,124,10323,expressbus,1G,0,0,0,0,0,0,1
877,125,10323,expressbus,1G,0,0,0,0,0,0,1
888,126,10323,expressbus,1G,0,0,0,0,0,0,1
898,127,10323,expressbus,1G,0,0,0,0,0,0,1
907,128,10323,expressbus,1G,0,0,0,0,0,0,1
917,129,10323,expressbus,1G,0,0,0,0,0,0,1
927,130,10323,expressbus,1G,0,0,0,0,0,0,1
936,131,10323,expressbus,1G,0,0,0,0,0,0,1
943,132,10323,expressbus,1G,0,0,0,0,0,0,1
953,133,10323,expressbus,1G,0,0,0,0,0,0,1
959,134,10323,expressbus,1G,0,0,0,0,0,0,1
968,135,10323,expressbus,1G,0,0,0,0,0,0,1
974,136,10323,expressbus,1G,0,0,0,0,0,0,1
982,137,10323,expressbus,1G,0,0,0,0,0,0,1
992,138,10323,expressbus,1G,0,0,0,0,0,0,1
1000,139,10323,expressbus,1G,0,0,0,0,0,0,1
1011,140,10323,expressbus,1G,0,0,0,0,0,0,1
1025,141,10323,expressbus,1G,0,0,0,0,0,0,1
1036,142,10323,expressbus,1G,0,0,0,0,0,0,1
1052,143,10323,expressbus,1G,0,0,0,0,0,0,1
1062,144,10323,expressbus,1G,0,0,0,0,0,0,1
1078,145,10323,expressbus,1G,0,0,0,0,0,0,1
1098,146,10323,expressbus,1G,0,0,0,0,0,0,1
1116,147,10323,expressbus,1G,0,0,0,0,0,0,1
1127,148,10323,expressbus,1G,0,0,0,0,0,0,1
1139,149,10323,expressbus,1G,0,0,0,0,0,0,1
1153,150,10323,expressbus,1G,0,0,0,0,0,0,1
1165,151,10323,expressbus,1G,0,0,0,0,0,0,1
1176,152,10323,expressbus,1G,0,0,0,0,0,0,1
1183,153,10323,expressbus,1G,0,0,0,0,0,0,1
1195,154,10323,expressbus,1G,0,0,0,0,0,0,1
1206,155,10323,expressbus,1G,0,0,0,0,0,0,1
1221,156,10323,expressbus,1G,0,0,0,0,0,0,1
1228,157,10323,expressbus,1G,0,0,0,0,0,0,1
1239,158,10323,expressbus,1G,0,0,0,0,0,0,1
1249,159,10323,expressbus,1G,0,0,0,0,0,0,1
1256,160,10323,expressbus,1G,0,0,0,0,0,0,1
1266,161,10323,expressbus,1G,0,0,0,0,0,0,1
1278,162,10323,expressbus,1G,0,0,0,0,0,0,1
1288,163,10323,expressbus,1G,0,0,0,0,0,0,1
1300,164,10323,expressbus,1G,0,0,0,0,0,0,1
1310,165,10323,expressbus,1G,0,0,0,0,0,0,1
1320,166,10323,expressbus,1G,0,0,0,0,0,0,1
1331,167,10323,expressbus,1G,0,0,0,0,0,0,1
1345,168,10323,expressbus,1G,0,0,0,0,0,0,1
1359,169,10323,expressbus,1G,0,0,0,0,0,0,1
1370,170,10323,expressbus,1G,0,0,0,0,0,0,1
1383,171,10323,expressbus,1G,0,0,0,0,0,0,1
1395,172,10323,expressbus,1G,0,0,0,0,0,0,1
1409,173,10323,expressbus,1G,0,0,0,0,0,0,1
337,174,10321,expressbus,1G,1,1,1,1,1,0,0
348,175,10321,expressbus,1G,1,1,1,1,1,0,0
358,176,10321,expressbus,1G,1,1,1,1,1,0,0
367,177,10321,expressbus,1G,1,1,1,1,1,0,0
376,178,10321,expressbus,1G,1,1,1,1,1,0,0
384,179,10321,expressbus,1G,1,1,1,1,1,0,0
391,180,10321,expressbus,1G,1,1,1,1,1,0,0
396,181,10321,expressbus,1G,1,1,1,1,1,0,0
401,182,10321,expressbus,1G,1,1,1,1,1,0,0
406,183,10321,expressbus,1G,1,1,1,1,1,0,0
411,184,10321,expressbus,1G,1,1,1,1,1,0,0
416,185,10321,expressbus,1G,1,1,1,1,1,0,0
421,186,10321,expressbus,1G,1,1,1,1,1,0,0
425,187,10321,expressbus,1G,1,1,1,1,1,0,0
430,188,10321,expressbus,1G,1,1,1,1,1,0,0
435,189,10321,expressbus,1G,1,1,1,1,1,0,0
440,190,10321,expressbus,1G,1,1,1,1,1,0,0
445,191,10321,expressbus,1G,1,1,1,1,1,0,0
450,192,10321,expressbus,1G,1,1,1,1,1,0,0
455,193,10321,expressbus,1G,1,1,1,1,1,0,0
461,194,10321,expressbus,1G,1,1,1,1,1,0,0
467,195,10321,expressbus,1G,1,1,1,1,1,0,0
473,196,10321,expressbus,1G,1,1,1,1,1,0,0
479,197,10321,expressbus,1G,1,1,1,1,1,0,0
485,198,10321,expressbus,1G,1,1,1,1,1,0,0
491,199,10321,expressbus,1G,1,1,1,1,1,0,0
498,200,10321,expressbus,1G,1,1,1,1,1,0,0
504,201,10321,expressbus,1G,1,1,1,1,1,0,0
510,202,10321,expressbus,1G,1,1,1,1,1,0,0
515,203,10321,expressbus,1G,1,1,1,1,1,0,0
519,204,10321,expressbus,1G,1,1,1,1,1,0,0
524,205,10321,expressbus,1G,1,1,1,1,1,0,0
529,206,10321,expressbus,1G,1,1,1,1,1,0,0
533,207,10321,expressbus,1G,1,1,1,1,1,0,0
537,208,10321,expressbus,1G,1,1,1,1,1,0,0
542,209,10321,expressbus,1G,1,1,1,1,1,0,0
547,210,10321,expressbus,1G,1,1,1,1,1,0,0
552,211,10321,expressbus,1G,1,1,1,1,1,0,0
557,212,10321,expressbus,1G,1,1,1,1,1,0,0
562,213,10321,expressbus,1G,1,1,1,1,1,0,0
568,214,10321,expressbus,1G,1,1,1,1,1,0,0
573,215,10321,expressbus,1G,1,1,1,1,1,0,0
578,216,10321,expressbus,1G,1,1,1,1,1,0,0
584,217,10321,expressbus,1G,1,1,1,1,1,0,0
590,218,10321,expressbus,1G,1,1,1,1,1,0,0
597,219,10321,expressbus,1G,1,1,1,1,1,0,0
606,220,10321,expressbus,1G,1,1,1,1,1,0,0
614,221,10321,expressbus,1G,1,1,1,1,1,0,0
620,222,10321,expressbus,1G,1,1,1,1,1,0,0
628,223,10321,expressbus,1G,1,1,1,1,1,0,0
634,224,10321,expressbus,1G,1,1,1,1,1,0,0
642,225,10321,expressbus,1G,1,1,1,1,1,0,0
651,226,10321,expressbus,1G,1,1,1,1,1,0,0
663,227,10321,expressbus,1G,1,1,1,1,1,0,0
679,228,10321,expressbus,1G,1,1,1,1,1,0,0
685,229,10321,expressbus,1G,1,1,1,1,1,0,0
692,230,10321,expressbus,1G,1,1,1,1,1,0,0
699,231,10321,expressbus,1G,1,1,1,1,1,0,0
708,232,10321,expressbus,1G,1,1,1,1,1,0,0
714,233,10321,expressbus,1G,1,1,1,1,1,0,0
724,234,10321,expressbus,1G,1,1,1,1,1,0,0
730,235,10321,expressbus,1G,1,1,1,1,1,0,0
740,236,10321,expressbus,1G,1,1,1,1,1,0,0
750,237,10321,expressbus,1G,1,1,1,1,1,0,0
760,238,10321,expressbus,1G,1,1,1,1,1,0,0
770,239,10321,expressbus,1G,1,1,1,1,1,0,0
779,240,10321,expressbus,1G,1,1,1,1,1,0,0
787,241,10321,expressbus,1G,1,1,1,1,1,0,0
797,242,10321,expressbus,1G,1,1,1,1,1,0,0
805,243,10321,expressbus,1G,1,1,1,1,1,0,0
813,244,10321,expressbus,1G,1,1,1,1,1,0,0
821,245,10321,expressbus,1G,1,1,1,1,1,0,0
829,246,10321,expressbus,1G,1,1,1,1,1,0,0
840,247,10321,expressbus,1G,1,1,1,1,1,0,0
852,248,10321,expressbus,1G,1,1,1,1,1,0,0
859,249,10321,expressbus,1G,1,1,1,1,1,0,0
866,250,10321,expressbus,1G,1,1,1,1,1,0,0
875,251,10321,expressbus,1G,1,1,1,1,1,0,0
885,252,10321,expressbus,1G,1,1,1,1,1,0,0
895,253,10321,expressbus,1G,1,1,1,1,1,0,0
903,254,10321,expressbus,1G,1,1,1,1,1,0,0
911,255,10321,expressbus,1G,1,1,1,1,1,0,0
920,256,10321,expressbus,1G,1,1,1,1,1,0,0
926,257,10321,expressbus,1G,1,1,1,1,1,0,0
932,258,10321,expressbus,1G,1,1,1,1,1,0,0
936,259,10321,expressbus,1G,1,1,1,1,1,0,0
944,260,10321,expressbus,1G,1,1,1,1,1,0,0
949,261,10321,expressbus,1G,1,1,1,1,1,0,0
954,262,10321,expressbus,1G,1,1,1,1,1,0,0
962,263,10321,expressbus,1G,1,1,1,1,1,0,0
966,264,10321,expressbus,1G,1,1,1,1,1,0,0
972,265,10321,expressbus,1G,1,1,1,1,1,0,0
978,266,10321,expressbus,1G,1,1,1,1,1,0,0
985,267,10321,expressbus,1G,1,1,1,1,1,0,0
992,268,10321,expressbus,1G,1,1,1,1,1,0,0
999,269,10321,expressbus,1G,1,1,1,1,1,0,0
1005,270,10321,expressbus,1G,1,1,1,1,1,0,0
1010,271,10321,expressbus,1G,1,1,1,1,1,0,0
1015,272,10321,expressbus,1G,1,1,1,1,1,0,0
1021,273,10321,expressbus,1G,1,1,1,1,1,0,0
1026,274,10321,expressbus,1G,1,1,1,1,1,0,0
1032,275,10321,expressbus,1G,1,1,1,1,1,0,0
1037,276,10321,expressbus,1G,1,1,1,1,1,0,0
1042,277,10321,expressbus,1G,1,1,1,1,1,0,0
1047,278,10321,expressbus,1G,1,1,1,1,1,0,0
1051,279,10321,expressbus,1G,1,1,1,1,1,0,0
1056,280,10321,expressbus,1G,1,1,1,1,1,0,0
1063,281,10321,expressbus,1G,1,1,1,1,1,0,0
1068,282,10321,expressbus,1G,1,1,1,1,1,0,0
1073,283,10321,expressbus,1G,1,1,1,1,1,0,0
1080,284,10321,expressbus,1G,1,1,1,1,1,0,0
1088,285,10321,expressbus,1G,1,1,1,1,1,0,0
1095,286,10321,expressbus,1G,1,1,1,1,1,0,0
1102,287,10321,expressbus,1G,1,1,1,1,1,0,0
1108,288,10321,expressbus,1G,1,1,1,1,1,0,0
1116,289,10321,expressbus,1G,1,1,1,1,1,0,0
1124,290,10321,expressbus,1G,1,1,1,1,1,0,0
1130,291,10321,expressbus,1G,1,1,1,1,1,0,0
1137,292,10321,expressbus,1G,1,1,1,1,1,0,0
1143,293,10321,expressbus,1G,1,1,1,1,1,0,0
1147,294,10321,expressbus,1G,1,1,1,1,1,0,0
1155,295,10321,expressbus,1G,1,1,1,1,1,0,0
1161,296,10321,expressbus,1G,1,1,1,1,1,0,0
1168,297,10321,expressbus,1G,1,1,1,1,1,0,0
1176,298,10321,expressbus,1G,1,1,1,1,1,0,0
1185,299,10321,expressbus,1G,1,1,1,1,1,0,0
1195,300,10321,expressbus,1G,1,1,1,1,1,0,0
1206,301,10321,expressbus,1G,1,1,1,1,1,0,0
1217,302,10321,expressbus,1G,1,1,1,1,1,0,0
1224,303,10321,expressbus,1G,1,1,1,1,1,0,0
1232,304,10321,expressbus,1G,1,1,1,1,1,0,0
1239,305,10321,expressbus,1G,1,1,1,1,1,0,0
1246,306,10321,expressbus,1G,1,1,1,1,1,0,0
1254,307,10321,expressbus,1G,1,1,1,1,1,0,0
1261,308,10321,expressbus,1G,1,1,1,1,1,0,0
1271,309,10321,expressbus,1G,1,1,1,1,1,0,0
1282,310,10321,expressbus,1G,1,1,1,1,1,0,0
1290,311,10321,expressbus,1G,1,1,1,1,1,0,0
1299,312,10321,expressbus,1G,1,1,1,1,1,0,0
1308,313,10321,expressbus,1G,1,1,1,1,1,0,0
1316,314,10321,expressbus,1G,1,1,1,1,1,0,0
1325,315,10321,expressbus,1G,1,1,1,1,1,0,0
1335,316,10321,expressbus,1G,1,1,1,1,1,0,0
1343,317,10321,expressbus,1G,1,1,1,1,1,0,0
1355,318,10321,expressbus,1G,1,1,1,1,1,0,0
1372,319,10321,expressbus,1G,1,1,1,1,1,0,0
1393,320,10321,expressbus,1G,1,1,1,1,1,0,0
1408,321,10321,expressbus,1G,1,1,1,1,1,0,0
1420,322,10321,expressbus,1G,1,1,1,1,1,0,0
337,323,10322,expressbus,1G,0,0,0,0,0,1,0
353,324,10322,expressbus,1G,0,0,0,0,0,1,0
367,325,10322,expressbus,1G,0,0,0,0,0,1,0
378,326,10322,expressbus,1G,0,0,0,0,0,1,0
388,327,10322,expressbus,1G,0,0,0,0,0,1,0
398,328,10322,expressbus,1G,0,0,0,0,0,1,0
407,329,10322,expressbus,1G,0,0,0,0,0,1,0
415,330,10322,expressbus,1G,0,0,0,0,0,1,0
423,331,10322,expressbus,1G,0,0,0,0,0,1,0
431,332,10322,expressbus,1G,0,0,0,0,0,1,0
441,333,10322,expressbus,1G,0,0,0,0,0,1,0
453,334,10322,expressbus,1G,0,0,0,0,0,1,0
463,335,10322,expressbus,1G,0,0,0,0,0,1,0
475,336,10322,expressbus,1G,0,0,0,0,0,1,0
483,337,10322,expressbus,1G,0,0,0,0,0,1,0
492,338,10322,expressbus,1G,0,0,0,0,0,1,0
500,339,10322,expressbus,1G,0,0,0,0,0,1,0
509,340,10322,expressbus,1G,0,0,0,0,0,1,0
516,341,10322,expressbus,1G,0,0,0,0,0,1,0
522,342,10322,expressbus,1G,0,0,0,0,0,1,0
531,343,10322,expressbus,1G,0,0,0,0,0,1,0
540,344,10322,expressbus,1G,0,0,0,0,0,1,0
548,345,10322,expressbus,1G,0,0,0,0,0,1,0
557,346,10322,expressbus,1G,0,0,0,0,0,1,0
565,347,10322,expressbus,1G,0,0,0,0,0,1,0
580,348,10322,expressbus,1G,0,0,0,0,0,1,0
594,349,10322,expressbus,1G,0,0,0,0,0,1,0
606,350,10322,expressbus,1G,0,0,0,0,0,1,0
621,351,10322,expressbus,1G,0,0,0,0,0,1,0
632,352,10322,expressbus,1G,0,0,0,0,0,1,0
641,353,10322,expressbus,1G,0,0,0,0,0,1,0
651,354,10322,expressbus,1G,0,0,0,0,0,1,0
662,355,10322,expressbus,1G,0,0,0,0,0,1,0
673,356,10322,expressbus,1G,0,0,0,0,0,1,0
685,357,10322,expressbus,1G,0,0,0,0,0,1,0
699,358,10322,expressbus,1G,0,0,0,0,0,1,0
714,359,10322,expressbus,1G,0,0,0,0,0,1,0
722,360,10322,expressbus,1G,0,0,0,0,0,1,0
731,361,10322,expressbus,1G,0,0,0,0,0,1,0
742,362,10322,expressbus,1G,0,0,0,0,0,1,0
756,363,10322,expressbus,1G,0,0,0,0,0,1,0
767,364,10322,expressbus,1G,0,0,0,0,0,1,0
778,365,10322,expressbus,1G,0,0,0,0,0,1,0
792,366,10322,expressbus,1G,0,0,0,0,0,1,0
804,367,10322,expressbus,1G,0,0,0,0,0,1,0
813,368,10322,expressbus,1G,0,0,0,0,0,1,0
819,369,10322,expressbus,1G,0,0,0,0,0,1,0
827,370,10322,expressbus,1G,0,0,0,0,0,1,0
833,371,10322,expressbus,1G,0,0,0,0,0,1,0
842,372,10322,expressbus,1G,0,0,0,0,0,1,0
847,373,10322,expressbus,1G,0,0,0,0,0,1,0
857,374,10322,expressbus,1G,0,0,0,0,0,1,0
866,375,10322,expressbus,1G,0,0,0,0,0,1,0
877,376,10322,expressbus,1G,0,0,0,0,0,1,0
888,377,10322,expressbus,1G,0,0,0,0,0,1,0
898,378,10322,expressbus,1G,0,0,0,0,0,1,0
907,379,10322,expressbus,1G,0,0,0,0,0,1,0
917,380,10322,expressbus,1G,0,0,0,0,0,1,0
927,381,10322,expressbus,1G,0,0,0,0,0,1,0
936,382,10322,expressbus,1G,0,0,0,0,0,1,0
943,383,10322,expressbus,1G,0,0,0,0,0,1,0
953,384,10322,expressbus,1G,0,0,0,0,0,1,0
959,385,10322,expressbus,1G,0,0,0,0,0,1,0
968,386,10322,expressbus,1G,0,0,0,0,0,1,0
974,387,10322,expressbus,1G,0,0,0,0,0,1,0
982,388,10322,expressbus,1G,0,0,0,0,0,1,0
992,389,10322,expressbus,1G,0,0,0,0,0,1,0
1000,390,10322,expressbus,1G,0,0,0,0,0,1,0
1011,391,10322,expressbus,1G,0,0,0,0,0,1,0
1025,392,10322,expressbus,1G,0,0,0,0,0,1,0
1036,393,10322,expressbus,1G,0,0,0,0,0,1,0
1052,394,10322,expressbus,1G,0,0,0,0,0,1,0
1062,395,10322,expressbus,1G,0,0,0,0,0,1,0
1078,396,10322,expressbus,1G,0,0,0,0,0,1,0
1098,397,10322,expressbus,1G,0,0,0,0,0,1,0
1116,398,10322,expressbus,1G,0,0,0,0,0,1,0
1127,399,10322,expressbus,1G,0,0,0,0,0,1,0
1139,400,10322,expressbus,1G,0,0,0,0,0,1,0
1153,401,10322,expressbus,1G,0,0,0,0,0,1,0
1165,402,10322,expressbus,1G,0,0,0,0,0,1,0
1176,403,10322,expressbus,1G,0,0,0,0,0,1,0
1183,404,10322,expressbus,1G,0,0,0,0,0,1,0
1195,405,10322,expressbus,1G,0,0,0,0,0,1,0
1206,406,10322,expressbus,1G,0,0,0,0,0,1,0
1221,407,10322,expressbus,1G,0,0,0,0,0,1,0
1228,408,10322,expressbus,1G,0,0,0,0,0,1,0
1239,409,10322,expressbus,1G,0,0,0,0,0,1,0
1249,410,10322,expressbus,1G,0,0,0,0,0,1,0
1256,411,10322,expressbus,1G,0,0,0,0,0,1,0
1266,412,10322,expressbus,1G,0,0,0,0,0,1,0
1278,413,10322,expressbus,1G,0,0,0,0,0,1,0
1288,414,10322,expressbus,1G,0,0,0,0,0,1,0
1300,415,10322,expressbus,1G,0,0,0,0,0,1,0
1310,416,10322,expressbus,1G,0,0,0,0,0,1,0
1320,417,10322,expressbus,1G,0,0,0,0,0,1,0
1331,418,10322,expressbus,1G,0,0,0,0,0,1,0
1345,419,10322,expressbus,1G,0,0,0,0,0,1,0
1359,420,10322,expressbus,1G,0,0,0,0,0,1,0
1370,421,10322,expressbus,1G,0,0,0,0,0,1,0
1383,422,10322,expressbus,1G,0,0,0,0,0,1,0
1395,423,10322,expressbus,1G,0,0,0,0,0,1,0
1409,424,10322,expressbus,1G,0,0,0,0,0,1,0
375,4900,10340,bus,10,0,0,0,0,0,0,1
397,4901,10340,bus,10,0,0,0,0,0,0,1
423,4902,10340,bus,10,0,0,0,0,0,0,1
446,4903,10340,bus,10,0,0,0,0,0,0,1
467,4904,10340,bus,10,0,0,0,0,0,0,1
490,4905,10340,bus,10,0,0,0,0,0,0,1
522,4906,10340,bus,10,0,0,0,0,0,0,1
542,4907,10340,bus,10,0,0,0,0,0,0,1
564,4908,10340,bus,10,0,0,0,0,0,0,1
584,4909,10340,bus,10,0,0,0,0,0,0,1
603,4910,10340,bus,10,0,0,0,0,0,0,1
619,4911,10340,bus,10,0,0,0,0,0,0,1
630,4912,10340,bus,10,0,0,0,0,0,0,1
643,4913,10340,bus,10,0,0,0,0,0,0,1
666,4914,10340,bus,10,0,0,0,0,0,0,1
676,4915,10340,bus,10,0,0,0,0,0,0,1
689,4916,10340,bus,10,0,0,0,0,0,0,1
703,4917,10340,bus,10,0,0,0,0,0,0,1
719,4918,10340,bus,10,0,0,0,0,0,0,1
728,4919,10340,bus,10,0,0,0,0,0,0,1
738,4920,10340,bus,10,0,0,0,0,0,0,1
760,4921,10340,bus,10,0,0,0,0,0,0,1
779,4922,10340,bus,10,0,0,0,0,0,0,1
794,4923,10340,bus,10,0,0,0,0,0,0,1
810,4924,10340,bus,10,0,0,0,0,0,0,1
823,4925,10340,bus,10,0,0,0,0,0,0,1
835,4926,10340,bus,10,0,0,0,0,0,0,1
847,4927,10340,bus,10,0,0,0,0,0,0,1
857,4928,10340,bus,10,0,0,0,0,0,0,1
881,4929,10340,bus,10,0,0,0,0,0,0,1
905,4930,10340,bus,10,0,0,0,0,0,0,1
914,4931,10340,bus,10,0,0,0,0,0,0,1
929,4932,10340,bus,10,0,0,0,0,0,0,1
943,4933,10340,bus,10,0,0,0,0,0,0,1
958,4934,10340,bus,10,0,0,0,0,0,0,1
967,4935,10340,bus,10,0,0,0,0,0,0,1
979,4936,10340,bus,10,0,0,0,0,0,0,1
996,4937,10340,bus,10,0,0,0,0,0,0,1
1005,4938,10340,bus,10,0,0,0,0,0,0,1
1021,4939,10340,bus,10,0,0,0,0,0,0,1
1034,4940,10340,bus,10,0,0,0,0,0,0,1
1049,4941,10340,bus,10,0,0,0,0,0,0,1
1060,4942,10340,bus,10,0,0,0,0,0,0,1
1071,4943,10340,bus,10,0,0,0,0,0,0,1
1097,4944,10340,bus,10,0,0,0,0,0,0,1
1119,4945,10340,bus,10,0,0,0,0,0,0,1
1149,4946,10340,bus,10,0,0,0,0,0,0,1
1186,4947,10340,bus,10,0,0,0,0,0,0,1
1213,4948,10340,bus,10,0,0,0,0,0,0,1
1237,4949,10340,bus,10,0,0,0,0,0,0,1
1264,4950,10340,bus,10,0,0,0,0,0,0,1
1296,4951,10340,bus,10,0,0,0,0,0,0,1
1324,4952,10340,bus,10,0,0,0,0,0,0,1
1348,4953,10340,bus,10,0,0,0,0,0,0,1
1363,4954,10340,bus,10,0,0,0,0,0,0,1
1412,4955,10340,bus,10,0,0,0,0,0,0,1
352,4956,10338,bus,10,1,1,1,1,1,0,0
372,4957,10338,bus,10,1,1,1,1,1,0,0
392,4958,10338,bus,10,1,1,1,1,1,0,0
401,4959,10338,bus,10,1,1,1,1,1,0,0
411,4960,10338,bus,10,1,1,1,1,1,0,0
422,4961,10338,bus,10,1,1,1,1,1,0,0
434,4962,10338,bus,10,1,1,1,1,1,0,0
444,4963,10338,bus,10,1,1,1,1,1,0,0
455,4964,10338,bus,10,1,1,1,1,1,0,0
466,4965,10338,bus,10,1,1,1,1,1,0,0
479,4966,10338,bus,10,1,1,1,1,1,0,0
491,4967,10338,bus,10,1,1,1,1,1,0,0
503,4968,10338,bus,10,1,1,1,1,1,0,0
513,4969,10338,bus,10,1,1,1,1,1,0,0
523,4970,10338,bus,10,1,1,1,1,1,0,0
535,4971,10338,bus,10,1,1,1,1,1,0,0
545,4972,10338,bus,10,1,1,1,1,1,0,0
555,4973,10338,bus,10,1,1,1,1,1,0,0
565,4974,10338,bus,10,1,1,1,1,1,0,0
575,4975,10338,bus,10,1,1,1,1,1,0,0
588,4976,10338,bus,10,1,1,1,1,1,0,0
600,4977,10338,bus,10,1,1,1,1,1,0,0
610,4978,10338,bus,10,1,1,1,1,1,0,0
623,4979,10338,bus,10,1,1,1,1,1,0,0
636,4980,10338,bus,10,1,1,1,1,1,0,0
652,4981,10338,bus,10,1,1,1,1,1,0,0
667,4982,10338,bus,10,1,1,1,1,1,0,0
679,4983,10338,bus,10,1,1,1,1,1,0,0
695,4984,10338,bus,10,1,1,1,1,1,0,0
709,4985,10338,bus,10,1,1,1,1,1,0,0
724,4986,10338,bus,10,1,1,1,1,1,0,0
743,4987,10338,bus,10,1,1,1,1,1,0,0
762,4988,10338,bus,10,1,1,1,1,1,0,0
782,4989,10338,bus,10,1,1,1,1,1,0,0
800,4990,10338,bus,10,1,1,1,1,1,0,0
816,4991,10338,bus,10,1,1,1,1,1,0,0
834,4992,10338,bus,10,1,1,1,1,1,0,0
854,4993,10338,bus,10,1,1,1,1,1,0,0
872,4994,10338,bus,10,1,1,1,1,1,0,0
888,4995,10338,bus,10,1,1,1,1,1,0,0
907,4996,10338,bus,10,1,1,1,1,1,0,0
925,4997,10338,bus,10,1,1,1,1,1,0,0
944,4998,10338,bus,10,1,1,1,1,1,0,0
963,4999,10338,bus,10,1,1,1,1,1,0,0
983,5000,10338,bus,10,1,1,1,1,1,0,0
993,5001,10338,bus,10,1,1,1,1,1,0,0
1002,5002,10338,bus,10,1,1,1,1,1,0,0
1011,5003,10338,bus,10,1,1,1,1,1,0,0
1021,5004,10338,bus,10,1,1,1,1,1,0,0
1031,5005,10338,bus,10,1,1,1,1,1,0,0
1043,5006,10338,bus,10,1,1,1,1,1,0,0
1055,5007,10338,bus,10,1,1,1,1,1,0,0
1068,5008,10338,bus,10,1,1,1,1,1,0,0
1081,5009,10338,bus,10,1,1,1,1,1,0,0
1092,5010,10338,bus,10,1,1,1,1,1,0,0
1102,5011,10338,bus,10,1,1,1,1,1,0,0
1114,5012,10338,bus,10,1,1,1,1,1,0,0
1123,5013,10338,bus,10,1,1,1,1,1,0,0
1132,5014,10338,bus,10,1,1,1,1,1,0,0
1142,5015,10338,bus,10,1,1,1,1,1,0,0
1153,5016,10338,bus,10,1,1,1,1,1,0,0
1166,5017,10338,bus,10,1,1,1,1,1,0,0
1184,5018,10338,bus,10,1,1,1,1,1,0,0
1206,5019,10338,bus,10,1,1,1,1,1,0,0
1221,5020,10338,bus,10,1,1,1,1,1,0,0
1238,5021,10338,bus,10,1,1,1,1,1,0,0
1257,5022,10338,bus,10,1,1,1,1,1,0,0
1273,5023,10338,bus,10,1,1,1,1,1,0,0
1288,5024,10338,bus,10,1,1,1,1,1,0,0
1305,5025,10338,bus,10,1,1,1,1,1,0,0
1321,5026,10338,bus,10,1,1,1,1,1,0,0
1338,5027,10338,bus,10,1,1,1,1,1,0,0
1356,5028,10338,bus,10,1,1,1,1,1,0,0
1372,5029,10338,bus,10,1,1,1,1,1,0,0
1387,5030,10338,bus,10,1,1,1,1,1,0,0
1406,5031,10338,bus,10,1,1,1,1,1,0,0
353,5032,10339,bus,10,0,0,0,0,0,1,0
375,5033,10339,bus,10,0,0,0,0,0,1,0
397,5034,10339,bus,10,0,0,0,0,0,1,0
423,5035,10339,bus,10,0,0,0,0,0,1,0
446,5036,10339,bus,10,0,0,0,0,0,1,0
467,5037,10339,bus,10,0,0,0,0,0,1,0
490,5038,10339,bus,10,0,0,0,0,0,1,0
522,5039,10339,bus,10,0,0,0,0,0,1,0
542,5040,10339,bus,10,0,0,0,0,0,1,0
564,5041,10339,bus,10,0,0,0,0,0,1,0
584,5042,10339,bus,10,0,0,0,0,0,1,0
603,5043,10339,bus,10,0,0,0,0,0,1,0
619,5044,10339,bus,10,0,0,0,0,0,1,0
630,5045,10339,bus,10,0,0,0,0,0,1,0
643,5046,10339,bus,10,0,0,0,0,0,1,0
666,5047,10339,bus,10,0,0,0,0,0,1,0
676,5048,10339,bus,10,0,0,0,0,0,1,0
689,5049,10339,bus,10,0,0,0,0,0,1,0
703,5050,10339,bus,10,0,0,0,0,0,1,0
719,5051,10339,bus,10,0,0,0,0,0,1,0
728,5052,10339,bus,10,0,0,0,0,0,1,0
738,5053,10339,bus,10,0,0,0,0,0,1,0
760,5054,10339,bus,10,0,0,0,0,0,1,0
779,5055,10339,bus,10,0,0,0,0,0,1,0
794,5056,10339,bus,10,0,0,0,0,0,1,0
810,5057,10339,bus,10,0,0,0,0,0,1,0
823,5058,10339,bus,10,0,0,0,0,0,1,0
835,5059,10339,bus,10,0,0,0,0,0,1,0
847,5060,10339,bus,10,0,0,0,0,0,1,0
857,5061,10339,bus,10,0,0,0,0,0,1,0
881,5062,10339,bus,10,0,0,0,0,0,1,0
905,5063,10339,bus,10,0,0,0,0,0,1,0
914,5064,10339,bus,10,0,0,0,0,0,1,0
929,5065,10339,bus,10,0,0,0,0,0,1,0
943,5066,10339,bus,10,0,0,0,0,0,1,0
958,5067,10339,bus,10,0,0,0,0,0,1,0
967,5068,10339,bus,10,0,0,0,0,0,1,0
979,5069,10339,bus,10,0,0,0,0,0,1,0
996,5070,10339,bus,10,0,0,0,0,0,1,0
1005,5071,10339,bus,10,0,0,0,0,0,1,0
1021,5072,10339,bus,10,0,0,0,0,0,1,0
1034,5073,10339,bus,10,0,0,0,0,0,1,0
1049,5074,10339,bus,10,0,0,0,0,0,1,0
1060,5075,10339,bus,10,0,0,0,0,0,1,0
1071,5076,10339,bus,10,0,0,0,0,0,1,0
1097,5077,10339,bus,10,0,0,0,0,0,1,0
1119,5078,10339,bus,10,0,0,0,0,0,1,0
1149,5079,10339,bus,10,0,0,0,0,0,1,0
1186,5080,10339,bus,10,0,0,0,0,0,1,0
1213,5081,10339,bus,10,0,0,0,0,0,1,0
1237,5082,10339,bus,10,0,0,0,0,0,1,0
1264,5083,10339,bus,10,0,0,0,0,0,1,0
1296,5084,10339,bus,10,0,0,0,0,0,1,0
1324,5085,10339,bus,10,0,0,0,0,0,1,0
1348,5086,10339,bus,10,0,0,0,0,0,1,0
1363,5087,10339,bus,10,0,0,0,0,0,1,0
1412,5088,10339,bus,10,0,0,0,0,0,1,0
350,7624,10357,bus,26,1,1,1,1,1,0,0
400,7625,10357,bus,26,1,1,1,1,1,0,0
457,7626,10357,bus,26,1,1,1,1,1,0,0
514,7627,10357,bus,26,1,1,1,1,1,0,0
604,7628,10357,bus,26,1,1,1,1,1,0,0
657,7629,10357,bus,26,1,1,1,1,1,0,0
707,7630,10357,bus,26,1,1,1,1,1,0,0
766,7631,10357,bus,26,1,1,1,1,1,0,0
826,7632,10357,bus,26,1,1,1,1,1,0,0
887,7633,10357,bus,26,1,1,1,1,1,0,0
941,7634,10357,bus,26,1,1,1,1,1,0,0
998,7635,10357,bus,26,1,1,1,1,1,0,0
1048,7636,10357,bus,26,1,1,1,1,1,0,0
1130,7637,10357,bus,26,1,1,1,1,1,0,0
1180,7638,10357,bus,26,1,1,1,1,1,0,0
1238,7639,10357,bus,26,1,1,1,1,1,0,0
1286,7640,10357,bus,26,1,1,1,1,1,0,0
1332,7641,10357,bus,26,1,1,1,1,1,0,0
342,7642,10358,bus,26,0,0,0,0,0,1,0
396,7643,10358,bus,26,0,0,0,0,0,1,0
448,7644,10358,bus,26,0,0,0,0,0,1,0
508,7645,10358,bus,26,0,0,0,0,0,1,0
591,7646,10358,bus,26,0,0,0,0,0,1,0
645,7647,10358,bus,26,0,0,0,0,0,1,0
702,7648,10358,bus,26,0,0,0,0,0,1,0
749,7649,10358,bus,26,0,0,0,0,0,1,0
801,7650,10358,bus,26,0,0,0,0,0,1,0
856,7651,10358,bus,26,0,0,0,0,0,1,0
906,7652,10358,bus,26,0,0,0,0,0,1,0
961,7653,10358,bus,26,0,0,0,0,0,1,0
1016,7654,10358,bus,26,0,0,0,0,0,1,0
1096,7655,10358,bus,26,0,0,0,0,0,1,0
1160,7656,10358,bus,26,0,0,0,0,0,1,0
1210,7657,10358,bus,26,0,0,0,0,0,1,0
1259,7658,10358,bus,26,0,0,0,0,0,1,0
1309,7659,10358,bus,26,0,0,0,0,0,1,0
1359,7660,10358,bus,26,0,0,0,0,0,1,0
396,7661,10359,bus,26,0,0,0,0,0,0,1
448,7662,10359,bus,26,0,0,0,0,0,0,1
508,7663,10359,bus,26,0,0,0,0,0,0,1
591,7664,10359,bus,26,0,0,0,0,0,0,1
645,7665,10359,bus,26,0,0,0,0,0,0,1
702,7666,10359,bus,26,0,0,0,0,0,0,1
749,7667,10359,bus,26,0,0,0,0,0,0,1
801,7668,10359,bus,26,0,0,0,0,0,0,1
856,7669,10359,bus,26,0,0,0,0,0,0,1
906,7670,10359,bus,26,0,0,0,0,0,0,1
961,7671,10359,bus,26,0,0,0,0,0,0,1
1016,7672,10359,bus,26,0,0,0,0,0,0,1
1096,7673,10359,bus,26,0,0,0,0,0,0,1
1160,7674,10359,bus,26,0,0,0,0,0,0,1
1210,7675,10359,bus,26,0,0,0,0,0,0,1
1259,7676,10359,bus,26,0,0,0,0,0,0,1
1309,7677,10359,bus,26,0,0,0,0,0,0,1
1359,7678,10359,bus,26,0,0,0,0,0,0,1
301,7740,10357,bus,26,1,1,1,1,1,0,0
296,7741,10358,bus,26,0,0,0,0,0,1,0
346,7742,10359,bus,26,0,0,0,0,0,0,1
384,9148,10372,bus,34,0,0,0,0,0,0,1
419,9149,10372,bus,34,0,0,0,0,0,0,1
450,9150,10372,bus,34,0,0,0,0,0,0,1
481,9151,10372,bus,34,0,0,0,0,0,0,1
516,9152,10372,bus,34,0,0,0,0,0,0,1
540,9153,10372,bus,34,0,0,0,0,0,0,1
574,9154,10372,bus,34,0,0,0,0,0,0,1
609,9155,10372,bus,34,0,0,0,0,0,0,1
638,9156,10372,bus,34,0,0,0,0,0,0,1
654,9157,10372,bus,34,0,0,0,0,0,0,1
698,9158,10372,bus,34,0,0,0,0,0,0,1
736,9159,10372,bus,34,0,0,0,0,0,0,1
762,9160,10372,bus,34,0,0,0,0,0,0,1
785,9161,10372,bus,34,0,0,0,0,0,0,1
808,9162,10372,bus,34,0,0,0,0,0,0,1
834,9163,10372,bus,34,0,0,0,0,0,0,1
883,9164,10372,bus,34,0,0,0,0,0,0,1
902,9165,10372,bus,34,0,0,0,0,0,0,1
921,9166,10372,bus,34,0,0,0,0,0,0,1
943,9167,10372,bus,34,0,0,0,0,0,0,1
986,9168,10372,bus,34,0,0,0,0,0,0,1
1003,9169,10372,bus,34,0,0,0,0,0,0,1
1026,9170,10372,bus,34,0,0,0,0,0,0,1
1069,9171,10372,bus,34,0,0,0,0,0,0,1
1111,9172,10372,bus,34,0,0,0,0,0,0,1
1153,9173,10372,bus,34,0,0,0,0,0,0,1
1195,9174,10372,bus,34,0,0,0,0,0,0,1
1235,9175,10372,bus,34,0,0,0,0,0,0,1
1259,9176,10372,bus,34,0,0,0,0,0,0,1
1295,9177,10372,bus,34,0,0,0,0,0,0,1
1331,9178,10372,bus,34,0,0,0,0,0,0,1
1355,9179,10372,bus,34,0,0,0,0,0,0,1
1392,9180,10372,bus,34,0,0,0,0,0,0,1
336,9181,10370,bus,34,1,1,1,1,1,0,0
380,9182,10370,bus,34,1,1,1,1,1,0,0
408,9183,10370,bus,34,1,1,1,1,1,0,0
428,9184,10370,bus,34,1,1,1,1,1,0,0
451,9185,10370,bus,34,1,1,1,1,1,0,0
474,9186,10370,bus,34,1,1,1,1,1,0,0
502,9187,10370,bus,34,1,1,1,1,1,0,0
527,9188,10370,bus,34,1,1,1,1,1,0,0
549,9189,10370,bus,34,1,1,1,1,1,0,0
568,9190,10370,bus,34,1,1,1,1,1,0,0
590,9191,10370,bus,34,1,1,1,1,1,0,0
640,9192,10370,bus,34,1,1,1,1,1,0,0
676,9193,10370,bus,34,1,1,1,1,1,0,0
711,9194,10370,bus,34,1,1,1,1,1,0,0
749,9195,10370,bus,34,1,1,1,1,1,0,0
785,9196,10370,bus,34,1,1,1,1,1,0,0
824,9197,10370,bus,34,1,1,1,1,1,0,0
864,9198,10370,bus,34,1,1,1,1,1,0,0
898,9199,10370,bus,34,1,1,1,1,1,0,0
921,9200,10370,bus,34,1,1,1,1,1,0,0
942,9201,10370,bus,34,1,1,1,1,1,0,0
966,9202,10370,bus,34,1,1,1,1,1,0,0
989,9203,10370,bus,34,1,1,1,1,1,0,0
1014,9204,10370,bus,34,1,1,1,1,1,0,0
1038,9205,10370,bus,34,1,1,1,1,1,0,0
1063,9206,10370,bus,34,1,1,1,1,1,0,0
1087,9207,10370,bus,34,1,1,1,1,1,0,0
1131,9208,10370,bus,34,1,1,1,1,1,0,0
1161,9209,10370,bus,34,1,1,1,1,1,0,0
1206,9210,10370,bus,34,1,1,1,1,1,0,0
1243,9211,10370,bus,34,1,1,1,1,1,0,0
1273,9212,10370,bus,34,1,1,1,1,1,0,0
1313,9213,10370,bus,34,1,1,1,1,1,0,0
1350,9214,10370,bus,34,1,1,1,1,1,0,0
1392,9215,10370,bus,34,1,1,1,1,1,0,0
351,9216,10371,bus,34,0,0,0,0,0,1,0
384,9217,10371,bus,34,0,0,0,0,0,1,0
419,9218,10371,bus,34,0,0,0,0,0,1,0
450,9219,10371,bus,34,0,0,0,0,0,1,0
481,9220,10371,bus,34,0,0,0,0,0,1,0
516,9221,10371,bus,34,0,0,0,0,0,1,0
540,9222,10371,bus,34,0,0,0,0,0,1,0
574,9223,10371,bus,34,0,0,0,0,0,1,0
609,9224,10371,bus,34,0,0,0,0,0,1,0
638,9225,10371,bus,34,0,0,0,0,0,1,0
654,9226,10371,bus,34,0,0,0,0,0,1,0
698,9227,10371,bus,34,0,0,0,0,0,1,0
736,9228,10371,bus,34,0,0,0,0,0,1,0
762,9229,10371,bus,34,0,0,0,0,0,1,0
785,9230,10371,bus,34,0,0,0,0,0,1,0
808,9231,10371,bus,34,0,0,0,0,0,1,0
834,9232,10371,bus,34,0,0,0,0,0,1,0
883,9233,10371,bus,34,0,0,0,0,0,1,0
902,9234,10371,bus,34,0,0,0,0,0,1,0
921,9235,10371,bus,34,0,0,0,0,0,1,0
943,9236,10371,bus,34,0,0,0,0,0,1,0
986,9237,10371,bus,34,0,0,0,0,0,1,0
1003,9238,10371,bus,34,0,0,0,0,0,1,0
1026,9239,10371,bus,34,0,0,0,0,0,1,0
1069,9240,10371,bus,34,0,0,0,0,0,1,0
1111,9241,10371,bus,34,0,0,0,0,0,1,0
1153,9242,10371,bus,34,0,0,0,0,0,1,0
1195,9243,10371,bus,34,0,0,0,0,0,1,0
1235,9244,10371,bus,34,0,0,0,0,0,1,0
1259,9245,10371,bus,34,0,0,0,0,0,1,0
1295,9246,10371,bus,34,0,0,0,0,0,1,0
1331,9247,10371,bus,34,0,0,0,0,0,1,0
1355,9248,10371,bus,34,0,0,0,0,0,1,0
1392,9249,10371,bus,34,0,0,0,0,0,1,0
735,9378,10609,bus,35,1,1,1,1,1,0,0
770,9379,10609,bus,35,1,1,1,1,1,0,0
826,9380,10609,bus,35,1,1,1,1,1,0,0
858,9381,10609,bus,35,1,1,1,1,1,0,0
881,9382,10609,bus,35,1,1,1,1,1,0,0
918,9383,10609,bus,35,1,1,1,1,1,0,0
948,9384,10609,bus,35,1,1,1,1,1,0,0
977,9385,10609,bus,35,1,1,1,1,1,0,0
1007,9386,10609,bus,35,1,1,1,1,1,0,0
1041,9387,10609,bus,35,1,1,1,1,1,0,0
1066,9388,10609,bus,35,1,1,1,1,1,0,0
1101,9389,10609,bus,35,1,1,1,1,1,0,0
1166,9390,10609,bus,35,1,1,1,1,1,0,0
1221,9391,10609,bus,35,1,1,1,1,1,0,0
1251,9392,10609,bus,35,1,1,1,1,1,0,0
1299,9393,10609,bus,35,1,1,1,1,1,0,0
1339,9394,10609,bus,35,1,1,1,1,1,0,0
1076,9395,10610,bus,35,0,0,0,0,0,0,1
1122,9396,10610,bus,35,0,0,0,0,0,0,1
1175,9397,10610,bus,35,0,0,0,0,0,0,1
1220,9398,10610,bus,35,0,0,0,0,0,0,1
1279,9399,10610,bus,35,0,0,0,0,0,0,1
1342,9400,10610,bus,35,0,0,0,0,0,0,1
1076,9401,10588,bus,35,0,0,0,0,0,1,0
1122,9402,10588,bus,35,0,0,0,0,0,1,0
1175,9403,10588,bus,35,0,0,0,0,0,1,0
1220,9404,10588,bus,35,0,0,0,0,0,1,0
1279,9405,10588,bus,35,0,0,0,0,0,1,0
1342,9406,10588,bus,35,0,0,0,0,0,1,0
330,9407,10609,bus,35,1,1,1,1,1,0,0
369,9408,10609,bus,35,1,1,1,1,1,0,0
391,9409,10609,bus,35,1,1,1,1,1,0,0
425,9410,10609,bus,35,1,1,1,1,1,0,0
467,9411,10609,bus,35,1,1,1,1,1,0,0
504,9412,10609,bus,35,1,1,1,1,1,0,0
543,9413,10609,bus,35,1,1,1,1,1,0,0
595,9414,10609,bus,35,1,1,1,1,1,0,0
643,9415,10609,bus,35,1,1,1,1,1,0,0
684,9416,10609,bus,35,1,1,1,1,1,0,0
380,9417,10610,bus,35,0,0,0,0,0,0,1
429,9418,10610,bus,35,0,0,0,0,0,0,1
462,9419,10610,bus,35,0,0,0,0,0,0,1
512,9420,10610,bus,35,0,0,0,0,0,0,1
584,9421,10610,bus,35,0,0,0,0,0,0,1
636,9422,10610,bus,35,0,0,0,0,0,0,1
686,9423,10610,bus,35,0,0,0,0,0,0,1
739,9424,10610,bus,35,0,0,0,0,0,0,1
777,9425,10610,bus,35,0,0,0,0,0,0,1
827,9426,10610,bus,35,0,0,0,0,0,0,1
871,9427,10610,bus,35,0,0,0,0,0,0,1
914,9428,10610,bus,35,0,0,0,0,0,0,1
962,9429,10610,bus,35,0,0,0,0,0,0,1
998,9430,10610,bus,35,0,0,0,0,0,0,1
380,9431,10588,bus,35,0,0,0,0,0,1,0
409,9432,10588,bus,35,0,0,0,0,0,1,0
473,9433,10588,bus,35,0,0,0,0,0,1,0
512,9434,10588,bus,35,0,0,0,0,0,1,0
587,9435,10588,bus,35,0,0,0,0,0,1,0
636,9436,10588,bus,35,0,0,0,0,0,1,0
686,9437,10588,bus,35,0,0,0,0,0,1,0
739,9438,10588,bus,35,0,0,0,0,0,1,0
777,9439,10588,bus,35,0,0,0,0,0,1,0
827,9440,10588,bus,35,0,0,0,0,0,1,0
871,9441,10588,bus,35,0,0,0,0,0,1,0
914,9442,10588,bus,35,0,0,0,0,0,1,0
962,9443,10588,bus,35,0,0,0,0,0,1,0
998,9444,10588,bus,35,0,0,0,0,0,1,0
293,9527,10609,bus,35,1,1,1,1,1,0,0
356,9528,10610,bus,35,0,0,0,0,0,0,1
302,9529,10588,bus,35,0,0,0,0,0,1,0
341,9530,10611,bus,36,1,1,1,1,1,0,0
377,9531,10611,bus,36,1,1,1,1,1,0,0
403,9532,10611,bus,36,1,1,1,1,1,0,0
444,9533,10611,bus,36,1,1,1,1,1,0,0
484,9534,10611,bus,36,1,1,1,1,1,0,0
530,9535,10611,bus,36,1,1,1,1,1,0,0
574,9536,10611,bus,36,1,1,1,1,1,0,0
627,9537,10611,bus,36,1,1,1,1,1,0,0
679,9538,10611,bus,36,1,1,1,1,1,0,0
729,9539,10611,bus,36,1,1,1,1,1,0,0
783,9540,10611,bus,36,1,1,1,1,1,0,0
831,9541,10611,bus,36,1,1,1,1,1,0,0
887,9542,10611,bus,36,1,1,1,1,1,0,0
911,9543,10611,bus,36,1,1,1,1,1,0,0
936,9544,10611,bus,36,1,1,1,1,1,0,0
985,9545,10611,bus,36,1,1,1,1,1,0,0
1015,9546,10611,bus,36,1,1,1,1,1,0,0
1035,9547,10611,bus,36,1,1,1,1,1,0,0
1089,9548,10611,bus,36,1,1,1,1,1,0,0
1114,9549,10611,bus,36,1,1,1,1,1,0,0
1159,9550,10611,bus,36,1,1,1,1,1,0,0
1212,9551,10611,bus,36,1,1,1,1,1,0,0
1258,9552,10611,bus,36,1,1,1,1,1,0,0
1308,9553,10611,bus,36,1,1,1,1,1,0,0
1354,9554,10611,bus,36,1,1,1,1,1,0,0
321,9555,10181,bus,36,0,0,0,0,0,1,0
360,9556,10181,bus,36,0,0,0,0,0,1,0
429,9557,10181,bus,36,0,0,0,0,0,1,0
462,9558,10181,bus,36,0,0,0,0,0,1,0
530,9559,10181,bus,36,0,0,0,0,0,1,0
567,9560,10181,bus,36,0,0,0,0,0,1,0
657,9561,10181,bus,36,0,0,0,0,0,1,0
700,9562,10181,bus,36,0,0,0,0,0,1,0
759,9563,10181,bus,36,0,0,0,0,0,1,0
802,9564,10181,bus,36,0,0,0,0,0,1,0
863,9565,10181,bus,36,0,0,0,0,0,1,0
905,9566,10181,bus,36,0,0,0,0,0,1,0
973,9567,10181,bus,36,0,0,0,0,0,1,0
1009,9568,10181,bus,36,0,0,0,0,0,1,0
1098,9569,10181,bus,36,0,0,0,0,0,1,0
1133,9570,10181,bus,36,0,0,0,0,0,1,0
1200,9571,10181,bus,36,0,0,0,0,0,1,0
1235,9572,10181,bus,36,0,0,0,0,0,1,0
1298,9573,10181,bus,36,0,0,0,0,0,1,0
1359,9574,10181,bus,36,0,0,0,0,0,1,0
360,9575,10182,bus,36,0,0,0,0,0,0,1
429,9576,10182,bus,36,0,0,0,0,0,0,1
462,9577,10182,bus,36,0,0,0,0,0,0,1
530,9578,10182,bus,36,0,0,0,0,0,0,1
567,9579,10182,bus,36,0,0,0,0,0,0,1
657,9580,10182,bus,36,0,0,0,0,0,0,1
700,9581,10182,bus,36,0,0,0,0,0,0,1
759,9582,10182,bus,36,0,0,0,0,0,0,1
802,9583,10182,bus,36,0,0,0,0,0,0,1
863,9584,10182,bus,36,0,0,0,0,0,0,1
905,9585,10182,bus,36,0,0,0,0,0,0,1
973,9586,10182,bus,36,0,0,0,0,0,0,1
1009,9587,10182,bus,36,0,0,0,0,0,0,1
1098,9588,10182,bus,36,0,0,0,0,0,0,1
1133,9589,10182,bus,36,0,0,0,0,0,0,1
1200,9590,10182,bus,36,0,0,0,0,0,0,1
1235,9591,10182,bus,36,0,0,0,0,0,0,1
1298,9592,10182,bus,36,0,0,0,0,0,0,1
1359,9593,10182,bus,36,0,0,0,0,0,0,1
316,9675,10611,bus,36,1,1,1,1,1,0,0
299,9676,10609,bus,36,1,1,1,1,1,0,0
331,9677,10182,bus,36,0,0,0,0,0,0,1
371,11704,10387,bus,49,1,1,1,1,1,0,0
389,11705,10387,bus,49,1,1,1,1,1,0,0
407,11706,10387,bus,49,1,1,1,1,1,0,0
427,11707,10387,bus,49,1,1,1,1,1,0,0
446,11708,10387,bus,49,1,1,1,1,1,0,0
466,11709,10387,bus,49,1,1,1,1,1,0,0
487,11710,10387,bus,49,1,1,1,1,1,0,0
505,11711,10387,bus,49,1,1,1,1,1,0,0
528,11712,10387,bus,49,1,1,1,1,1,0,0
548,11713,10387,bus,49,1,1,1,1,1,0,0
569,11714,10387,bus,49,1,1,1,1,1,0,0
593,11715,10387,bus,49,1,1,1,1,1,0,0
626,11716,10387,bus,49,1,1,1,1,1,0,0
649,11717,10387,bus,49,1,1,1,1,1,0,0
682,11718,10387,bus,49,1,1,1,1,1,0,0
732,11719,10387,bus,49,1,1,1,1,1,0,0
764,11720,10387,bus,49,1,1,1,1,1,0,0
793,11721,10387,bus,49,1,1,1,1,1,0,0
823,11722,10387,bus,49,1,1,1,1,1,0,0
849,11723,10387,bus,49,1,1,1,1,1,0,0
886,11724,10387,bus,49,1,1,1,1,1,0,0
917,11725,10387,bus,49,1,1,1,1,1,0,0
944,11726,10387,bus,49,1,1,1,1,1,0,0
967,11727,10387,bus,49,1,1,1,1,1,0,0
991,11728,10387,bus,49,1,1,1,1,1,0,0
1012,11729,10387,bus,49,1,1,1,1,1,0,0
1035,11730,10387,bus,49,1,1,1,1,1,0,0
1059,11731,10387,bus,49,1,1,1,1,1,0,0
1075,11732,10387,bus,49,1,1,1,1,1,0,0
1101,11733,10387,bus,49,1,1,1,1,1,0,0
1130,11734,10387,bus,49,1,1,1,1,1,0,0
1159,11735,10387,bus,49,1,1,1,1,1,0,0
1181,11736,10387,bus,49,1,1,1,1,1,0,0
1197,11737,10387,bus,49,1,1,1,1,1,0,0
1218,11738,10387,bus,49,1,1,1,1,1,0,0
1241,11739,10387,bus,49,1,1,1,1,1,0,0
1273,11740,10387,bus,49,1,1,1,1,1,0,0
1308,11741,10387,bus,49,1,1,1,1,1,0,0
1328,11742,10387,bus,49,1,1,1,1,1,0,0
1356,11743,10387,bus,49,1,1,1,1,1,0,0
1381,11744,10387,bus,49,1,1,1,1,1,0,0
1416,11745,10387,bus,49,1,1,1,1,1,0,0
373,11746,9637,bus,49,0,0,0,0,0,1,0
425,11747,9637,bus,49,0,0,0,0,0,1,0
485,11748,9637,bus,49,0,0,0,0,0,1,0
536,11749,9637,bus,49,0,0,0,0,0,1,0
599,11750,9637,bus,49,0,0,0,0,0,1,0
635,11751,9637,bus,49,0,0,0,0,0,1,0
676,11752,9637,bus,49,0,0,0,0,0,1,0
732,11753,9637,bus,49,0,0,0,0,0,1,0
756,11754,9637,bus,49,0,0,0,0,0,1,0
795,11755,9637,bus,49,0,0,0,0,0,1,0
840,11756,9637,bus,49,0,0,0,0,0,1,0
889,11757,9637,bus,49,0,0,0,0,0,1,0
917,11758,9637,bus,49,0,0,0,0,0,1,0
962,11759,9637,bus,49,0,0,0,0,0,1,0
999,11760,9637,bus,49,0,0,0,0,0,1,0
1031,11761,9637,bus,49,0,0,0,0,0,1,0
1073,11762,9637,bus,49,0,0,0,0,0,1,0
1143,11763,9637,bus,49,0,0,0,0,0,1,0
1209,11764,9637,bus,49,0,0,0,0,0,1,0
1271,11765,9637,bus,49,0,0,0,0,0,1,0
1313,11766,9637,bus,49,0,0,0,0,0,1,0
1373,11767,9637,bus,49,0,0,0,0,0,1,0
414,11768,9638,bus,49,0,0,0,0,0,0,1
485,11769,9638,bus,49,0,0,0,0,0,0,1
536,11770,9638,bus,49,0,0,0,0,0,0,1
599,11771,9638,bus,49,0,0,0,0,0,0,1
635,11772,9638,bus,49,0,0,0,0,0,0,1
676,11773,9638,bus,49,0,0,0,0,0,0,1
732,11774,9638,bus,49,0,0,0,0,0,0,1
756,11775,9638,bus,49,0,0,0,0,0,0,1
795,11776,9638,bus,49,0,0,0,0,0,0,1
840,11777,9638,bus,49,0,0,0,0,0,0,1
889,11778,9638,bus,49,0,0,0,0,0,0,1
917,11779,9638,bus,49,0,0,0,0,0,0,1
962,11780,9638,bus,49,0,0,0,0,0,0,1
999,11781,9638,bus,49,0,0,0,0,0,0,1
1031,11782,9638,bus,49,0,0,0,0,0,0,1
1073,11783,9638,bus,49,0,0,0,0,0,0,1
1143,11784,9638,bus,49,0,0,0,0,0,0,1
1209,11785,9638,bus,49,0,0,0,0,0,0,1
1271,11786,9638,bus,49,0,0,0,0,0,0,1
1313,11787,9638,bus,49,0,0,0,0,0,0,1
1373,11788,9638,bus,49,0,0,0,0,0,0,1
377,11815,10612,bus,50,1,1,1,1,1,0,0
392,11816,10612,bus,50,1,1,1,1,1,0,0
409,11817,10612,bus,50,1,1,1,1,1,0,0
425,11818,10612,bus,50,1,1,1,1,1,0,0
443,11819,10612,bus,50,1,1,1,1,1,0,0
460,11820,10612,bus,50,1,1,1,1,1,0,0
475,11821,10612,bus,50,1,1,1,1,1,0,0
490,11822,10612,bus,50,1,1,1,1,1,0,0
507,11823,10612,bus,50,1,1,1,1,1,0,0
525,11824,10612,bus,50,1,1,1,1,1,0,0
543,11825,10612,bus,50,1,1,1,1,1,0,0
566,11826,10612,bus,50,1,1,1,1,1,0,0
596,11827,10612,bus,50,1,1,1,1,1,0,0
630,11828,10612,bus,50,1,1,1,1,1,0,0
661,11829,10612,bus,50,1,1,1,1,1,0,0
690,11830,10612,bus,50,1,1,1,1,1,0,0
719,11831,10612,bus,50,1,1,1,1,1,0,0
749,11832,10612,bus,50,1,1,1,1,1,0,0
781,11833,10612,bus,50,1,1,1,1,1,0,0
806,11834,10612,bus,50,1,1,1,1,1,0,0
838,11835,10612,bus,50,1,1,1,1,1,0,0
870,11836,10612,bus,50,1,1,1,1,1,0,0
894,11837,10612,bus,50,1,1,1,1,1,0,0
914,11838,10612,bus,50,1,1,1,1,1,0,0
932,11839,10612,bus,50,1,1,1,1,1,0,0
945,11840,10612,bus,50,1,1,1,1,1,0,0
961,11841,10612,bus,50,1,1,1,1,1,0,0
980,11842,10612,bus,50,1,1,1,1,1,0,0
992,11843,10612,bus,50,1,1,1,1,1,0,0
1011,11844,10612,bus,50,1,1,1,1,1,0,0
1027,11845,10612,bus,50,1,1,1,1,1,0,0
1043,11846,10612,bus,50,1,1,1,1,1,0,0
1059,11847,10612,bus,50,1,1,1,1,1,0,0
1076,11848,10612,bus,50,1,1,1,1,1,0,0
1095,11849,10612,bus,50,1,1,1,1,1,0,0
1110,11850,10612,bus,50,1,1,1,1,1,0,0
1135,11851,10612,bus,50,1,1,1,1,1,0,0
1154,11852,10612,bus,50,1,1,1,1,1,0,0
1185,11853,10612,bus,50,1,1,1,1,1,0,0
1212,11854,10612,bus,50,1,1,1,1,1,0,0
1235,11855,10612,bus,50,1,1,1,1,1,0,0
1272,11856,10612,bus,50,1,1,1,1,1,0,0
1298,11857,10612,bus,50,1,1,1,1,1,0,0
1327,11858,10612,bus,50,1,1,1,1,1,0,0
1350,11859,10612,bus,50,1,1,1,1,1,0,0
1379,11860,10612,bus,50,1,1,1,1,1,0,0
1408,11861,10612,bus,50,1,1,1,1,1,0,0
380,11862,10389,bus,50,0,0,0,0,0,1,0
459,11863,10389,bus,50,0,0,0,0,0,1,0
498,11864,10389,bus,50,0,0,0,0,0,1,0
543,11865,10389,bus,50,0,0,0,0,0,1,0
581,11866,10389,bus,50,0,0,0,0,0,1,0
624,11867,10389,bus,50,0,0,0,0,0,1,0
659,11868,10389,bus,50,0,0,0,0,0,1,0
692,11869,10389,bus,50,0,0,0,0,0,1,0
715,11870,10389,bus,50,0,0,0,0,0,1,0
774,11871,10389,bus,50,0,0,0,0,0,1,0
806,11872,10389,bus,50,0,0,0,0,0,1,0
831,11873,10389,bus,50,0,0,0,0,0,1,0
863,11874,10389,bus,50,0,0,0,0,0,1,0
893,11875,10389,bus,50,0,0,0,0,0,1,0
919,11876,10389,bus,50,0,0,0,0,0,1,0
949,11877,10389,bus,50,0,0,0,0,0,1,0
972,11878,10389,bus,50,0,0,0,0,0,1,0
1002,11879,10389,bus,50,0,0,0,0,0,1,0
1031,11880,10389,bus,50,0,0,0,0,0,1,0
1083,11881,10389,bus,50,0,0,0,0,0,1,0
1147,11882,10389,bus,50,0,0,0,0,0,1,0
1225,11883,10389,bus,50,0,0,0,0,0,1,0
1300,11884,10389,bus,50,0,0,0,0,0,1,0
1371,11885,10389,bus,50,0,0,0,0,0,1,0
380,11886,10390,bus,50,0,0,0,0,0,0,1
459,11887,10390,bus,50,0,0,0,0,0,0,1
498,11888,10390,bus,50,0,0,0,0,0,0,1
543,11889,10390,bus,50,0,0,0,0,0,0,1
581,11890,10390,bus,50,0,0,0,0,0,0,1
624,11891,10390,bus,50,0,0,0,0,0,0,1
659,11892,10390,bus,50,0,0,0,0,0,0,1
692,11893,10390,bus,50,0,0,0,0,0,0,1
715,11894,10390,bus,50,0,0,0,0,0,0,1
774,11895,10390,bus,50,0,0,0,0,0,0,1
806,11896,10390,bus,50,0,0,0,0,0,0,1
831,11897,10390,bus,50,0,0,0,0,0,0,1
863,11898,10390,bus,50,0,0,0,0,0,0,1
893,11899,10390,bus,50,0,0,0,0,0,0,1
919,11900,10390,bus,50,0,0,0,0,0,0,1
949,11901,10390,bus,50,0,0,0,0,0,0,1
972,11902,10390,bus,50,0,0,0,0,0,0,1
1002,11903,10390,bus,50,0,0,0,0,0,0,1
1031,11904,10390,bus,50,0,0,0,0,0,0,1
1083,11905,10390,bus,50,0,0,0,0,0,0,1
1147,11906,10390,bus,50,0,0,0,0,0,0,1
1225,11907,10390,bus,50,0,0,0,0,0,0,1
1300,11908,10390,bus,50,0,0,0,0,0,0,1
1371,11909,10390,bus,50,0,0,0,0,0,0,1
353,13971,10615,bus,66,1,1,1,1,1,0,0
395,13972,10615,bus,66,1,1,1,1,1,0,0
419,13973,10615,bus,66,1,1,1,1,1,0,0
453,13974,10615,bus,66,1,1,1,1,1,0,0
494,13975,10615,bus,66,1,1,1,1,1,0,0
521,13976,10615,bus,66,1,1,1,1,1,0,0
553,13977,10615,bus,66,1,1,1,1,1,0,0
615,13978,10615,bus,66,1,1,1,1,1,0,0
657,13979,10615,bus,66,1,1,1,1,1,0,0
709,13980,10615,bus,66,1,1,1,1,1,0,0
762,13981,10615,bus,66,1,1,1,1,1,0,0
803,13982,10615,bus,66,1,1,1,1,1,0,0
860,13983,10615,bus,66,1,1,1,1,1,0,0
900,13984,10615,bus,66,1,1,1,1,1,0,0
954,13985,10615,bus,66,1,1,1,1,1,0,0
972,13986,10615,bus,66,1,1,1,1,1,0,0
1003,13987,10615,bus,66,1,1,1,1,1,0,0
1053,13988,10615,bus,66,1,1,1,1,1,0,0
1079,13989,10615,bus,66,1,1,1,1,1,0,0
1131,13990,10615,bus,66,1,1,1,1,1,0,0
1180,13991,10615,bus,66,1,1,1,1,1,0,0
1231,13992,10615,bus,66,1,1,1,1,1,0,0
1275,13993,10615,bus,66,1,1,1,1,1,0,0
1324,13994,10615,bus,66,1,1,1,1,1,0,0
398,13995,10401,bus,66,0,0,0,0,0,1,0
497,13996,10401,bus,66,0,0,0,0,0,1,0
557,13997,10401,bus,66,0,0,0,0,0,1,0
620,13998,10401,bus,66,0,0,0,0,0,1,0
652,13999,10401,bus,66,0,0,0,0,0,1,0
719,14000,10401,bus,66,0,0,0,0,0,1,0
773,14001,10401,bus,66,0,0,0,0,0,1,0
822,14002,10401,bus,66,0,0,0,0,0,1,0
882,14003,10401,bus,66,0,0,0,0,0,1,0
925,14004,10401,bus,66,0,0,0,0,0,1,0
985,14005,10401,bus,66,0,0,0,0,0,1,0
1046,14006,10401,bus,66,0,0,0,0,0,1,0
1169,14007,10401,bus,66,0,0,0,0,0,1,0
1262,14008,10401,bus,66,0,0,0,0,0,1,0
1356,14009,10401,bus,66,0,0,0,0,0,1,0
398,14010,10402,bus,66,0,0,0,0,0,0,1
497,14011,10402,bus,66,0,0,0,0,0,0,1
557,14012,10402,bus,66,0,0,0,0,0,0,1
620,14013,10402,bus,66,0,0,0,0,0,0,1
652,14014,10402,bus,66,0,0,0,0,0,0,1
719,14015,10402,bus,66,0,0,0,0,0,0,1
773,14016,10402,bus,66,0,0,0,0,0,0,1
822,14017,10402,bus,66,0,0,0,0,0,0,1
882,14018,10402,bus,66,0,0,0,0,0,0,1
925,14019,10402,bus,66,0,0,0,0,0,0,1
985,14020,10402,bus,66,0,0,0,0,0,0,1
1046,14021,10402,bus,66,0,0,0,0,0,0,1
1169,14022,10402,bus,66,0,0,0,0,0,0,1
1262,14023,10402,bus,66,0,0,0,0,0,0,1
1356,14024,10402,bus,66,0,0,0,0,0,0,1
305,14095,10615,bus,66,1,1,1,1,1,0,0
328,14096,10615,bus,66,1,1,1,1,1,0,0
305,14097,10401,bus,66,0,0,0,0,0,1,0
400,14395,10403,bus,69,1,1,1,1,1,0,0
435,14396,10403,bus,69,1,1,1,1,1,0,0
454,14397,10403,bus,69,1,1,1,1,1,0,0
476,14398,10403,bus,69,1,1,1,1,1,0,0
514,14399,10403,bus,69,1,1,1,1,1,0,0
557,14400,10403,bus,69,1,1,1,1,1,0,0
580,14401,10403,bus,69,1,1,1,1,1,0,0
608,14402,10403,bus,69,1,1,1,1,1,0,0
658,14403,10403,bus,69,1,1,1,1,1,0,0
698,14404,10403,bus,69,1,1,1,1,1,0,0
719,14405,10403,bus,69,1,1,1,1,1,0,0
775,14406,10403,bus,69,1,1,1,1,1,0,0
833,14407,10403,bus,69,1,1,1,1,1,0,0
861,14408,10403,bus,69,1,1,1,1,1,0,0
898,14409,10403,bus,69,1,1,1,1,1,0,0
955,14410,10403,bus,69,1,1,1,1,1,0,0
981,14411,10403,bus,69,1,1,1,1,1,0,0
1022,14412,10403,bus,69,1,1,1,1,1,0,0
1046,14413,10403,bus,69,1,1,1,1,1,0,0
1084,14414,10403,bus,69,1,1,1,1,1,0,0
1118,14415,10403,bus,69,1,1,1,1,1,0,0
1146,14416,10403,bus,69,1,1,1,1,1,0,0
1168,14417,10403,bus,69,1,1,1,1,1,0,0
1227,14418,10403,bus,69,1,1,1,1,1,0,0
1252,14419,10403,bus,69,1,1,1,1,1,0,0
1289,14420,10403,bus,69,1,1,1,1,1,0,0
1337,14421,10403,bus,69,1,1,1,1,1,0,0
1365,14422,10403,bus,69,1,1,1,1,1,0,0
1396,14423,10403,bus,69,1,1,1,1,1,0,0
407,14424,9660,bus,69,0,0,0,0,0,1,0
514,14425,9660,bus,69,0,0,0,0,0,1,0
644,14426,9660,bus,69,0,0,0,0,0,1,0
701,14427,9660,bus,69,0,0,0,0,0,1,0
773,14428,9660,bus,69,0,0,0,0,0,1,0
812,14429,9660,bus,69,0,0,0,0,0,1,0
876,14430,9660,bus,69,0,0,0,0,0,1,0
943,14431,9660,bus,69,0,0,0,0,0,1,0
987,14432,9660,bus,69,0,0,0,0,0,1,0
1049,14433,9660,bus,69,0,0,0,0,0,1,0
1093,14434,9660,bus,69,0,0,0,0,0,1,0
1180,14435,9660,bus,69,0,0,0,0,0,1,0
1225,14436,9660,bus,69,0,0,0,0,0,1,0
1327,14437,9660,bus,69,0,0,0,0,0,1,0
1429,14438,9660,bus,69,0,0,0,0,0,1,0
514,14439,9661,bus,69,0,0,0,0,0,0,1
644,14440,9661,bus,69,0,0,0,0,0,0,1
701,14441,9661,bus,69,0,0,0,0,0,0,1
773,14442,9661,bus,69,0,0,0,0,0,0,1
812,14443,9661,bus,69,0,0,0,0,0,0,1
876,14444,9661,bus,69,0,0,0,0,0,0,1
943,14445,9661,bus,69,0,0,0,0,0,0,1
987,14446,9661,bus,69,0,0,0,0,0,0,1
1049,14447,9661,bus,69,0,0,0,0,0,0,1
1093,14448,9661,bus,69,0,0,0,0,0,0,1
1180,14449,9661,bus,69,0,0,0,0,0,0,1
1225,14450,9661,bus,69,0,0,0,0,0,0,1
1327,14451,9661,bus,69,0,0,0,0,0,0,1
1429,14452,9661,bus,69,0,0,0,0,0,0,1
1471,16360,9971,nightbus,103N,0,0,0,0,1,1,0
1499,16361,9971,nightbus,103N,0,0,0,0,1,1,0
1533,16362,9971,nightbus,103N,0,0,0,0,1,1,0
1580,16363,9971,nightbus,103N,0,0,0,0,1,1,0
1609,16364,9971,nightbus,103N,0,0,0,0,1,1,0
