timeInMin,trip_id,service_id,tipas,numeris,pirmadienis,antradienis,treciadienis,ketvirtadienis,penktadienis,sestadienis,sekmadienis 
364,16553,10645,trol,1,1,1,1,1,1,0,0
380,16554,10645,trol,1,1,1,1,1,1,0,0
403,16555,10645,trol,1,1,1,1,1,1,0,0
419,16556,10645,trol,1,1,1,1,1,1,0,0
439,16557,10645,trol,1,1,1,1,1,1,0,0
460,16558,10645,trol,1,1,1,1,1,1,0,0
471,16559,10645,trol,1,1,1,1,1,1,0,0
485,16560,10645,trol,1,1,1,1,1,1,0,0
499,16561,10645,trol,1,1,1,1,1,1,0,0
515,16562,10645,trol,1,1,1,1,1,1,0,0
531,16563,10645,trol,1,1,1,1,1,1,0,0
541,16564,10645,trol,1,1,1,1,1,1,0,0
551,16565,10645,trol,1,1,1,1,1,1,0,0
567,16566,10645,trol,1,1,1,1,1,1,0,0
585,16567,10645,trol,1,1,1,1,1,1,0,0
602,16568,10645,trol,1,1,1,1,1,1,0,0
624,16569,10645,trol,1,1,1,1,1,1,0,0
638,16570,10645,trol,1,1,1,1,1,1,0,0
652,16571,10645,trol,1,1,1,1,1,1,0,0
667,16572,10645,trol,1,1,1,1,1,1,0,0
686,16573,10645,trol,1,1,1,1,1,1,0,0
703,16574,10645,trol,1,1,1,1,1,1,0,0
716,16575,10645,trol,1,1,1,1,1,1,0,0
730,16576,10645,trol,1,1,1,1,1,1,0,0
746,16577,10645,trol,1,1,1,1,1,1,0,0
763,16578,10645,trol,1,1,1,1,1,1,0,0
778,16579,10645,trol,1,1,1,1,1,1,0,0
792,16580,10645,trol,1,1,1,1,1,1,0,0
809,16581,10645,trol,1,1,1,1,1,1,0,0
820,16582,10645,trol,1,1,1,1,1,1,0,0
838,16583,10645,trol,1,1,1,1,1,1,0,0
855,16584,10645,trol,1,1,1,1,1,1,0,0
869,16585,10645,trol,1,1,1,1,1,1,0,0
885,16586,10645,trol,1,1,1,1,1,1,0,0
901,16587,10645,trol,1,1,1,1,1,1,0,0
919,16588,10645,trol,1,1,1,1,1,1,0,0
932,16589,10645,trol,1,1,1,1,1,1,0,0
945,16590,10645,trol,1,1,1,1,1,1,0,0
958,16591,10645,trol,1,1,1,1,1,1,0,0
969,16592,10645,trol,1,1,1,1,1,1,0,0
982,16593,10645,trol,1,1,1,1,1,1,0,0
996,16594,10645,trol,1,1,1,1,1,1,0,0
1012,16595,10645,trol,1,1,1,1,1,1,0,0
1023,16596,10645,trol,1,1,1,1,1,1,0,0
1037,16597,10645,trol,1,1,1,1,1,1,0,0
1049,16598,10645,trol,1,1,1,1,1,1,0,0
1062,16599,10645,trol,1,1,1,1,1,1,0,0
1078,16600,10645,trol,1,1,1,1,1,1,0,0
1094,16601,10645,trol,1,1,1,1,1,1,0,0
1111,16602,10645,trol,1,1,1,1,1,1,0,0
1130,16603,10645,trol,1,1,1,1,1,1,0,0
1147,16604,10645,trol,1,1,1,1,1,1,0,0
1165,16605,10645,trol,1,1,1,1,1,1,0,0
1186,16606,10645,trol,1,1,1,1,1,1,0,0
1202,16607,10645,trol,1,1,1,1,1,1,0,0
1213,16608,10645,trol,1,1,1,1,1,1,0,0
1227,16609,10645,trol,1,1,1,1,1,1,0,0
1239,16610,10645,trol,1,1,1,1,1,1,0,0
1258,16611,10645,trol,1,1,1,1,1,1,0,0
1275,16612,10645,trol,1,1,1,1,1,1,0,0
1294,16613,10645,trol,1,1,1,1,1,1,0,0
1313,16614,10645,trol,1,1,1,1,1,1,0,0
1331,16615,10645,trol,1,1,1,1,1,1,0,0
1353,16616,10645,trol,1,1,1,1,1,1,0,0
1375,16617,10645,trol,1,1,1,1,1,1,0,0
1403,16618,10645,trol,1,1,1,1,1,1,0,0
1427,16619,10645,trol,1,1,1,1,1,1,0,0
381,16620,10646,trol,1,0,0,0,0,0,1,0
416,16621,10646,trol,1,0,0,0,0,0,1,0
451,16622,10646,trol,1,0,0,0,0,0,1,0
472,16623,10646,trol,1,0,0,0,0,0,1,0
492,16624,10646,trol,1,0,0,0,0,0,1,0
520,16625,10646,trol,1,0,0,0,0,0,1,0
545,16626,10646,trol,1,0,0,0,0,0,1,0
566,16627,10646,trol,1,0,0,0,0,0,1,0
586,16628,10646,trol,1,0,0,0,0,0,1,0
614,16629,10646,trol,1,0,0,0,0,0,1,0
628,16630,10646,trol,1,0,0,0,0,0,1,0
656,16631,10646,trol,1,0,0,0,0,0,1,0
671,16632,10646,trol,1,0,0,0,0,0,1,0
698,16633,10646,trol,1,0,0,0,0,0,1,0
715,16634,10646,trol,1,0,0,0,0,0,1,0
736,16635,10646,trol,1,0,0,0,0,0,1,0
749,16636,10646,trol,1,0,0,0,0,0,1,0
773,16637,10646,trol,1,0,0,0,0,0,1,0
797,16638,10646,trol,1,0,0,0,0,0,1,0
824,16639,10646,trol,1,0,0,0,0,0,1,0
839,16640,10646,trol,1,0,0,0,0,0,1,0
854,16641,10646,trol,1,0,0,0,0,0,1,0
872,16642,10646,trol,1,0,0,0,0,0,1,0
894,16643,10646,trol,1,0,0,0,0,0,1,0
913,16644,10646,trol,1,0,0,0,0,0,1,0
931,16645,10646,trol,1,0,0,0,0,0,1,0
947,16646,10646,trol,1,0,0,0,0,0,1,0
968,16647,10646,trol,1,0,0,0,0,0,1,0
986,16648,10646,trol,1,0,0,0,0,0,1,0
1002,16649,10646,trol,1,0,0,0,0,0,1,0
1027,16650,10646,trol,1,0,0,0,0,0,1,0
1048,16651,10646,trol,1,0,0,0,0,0,1,0
1072,16652,10646,trol,1,0,0,0,0,0,1,0
1099,16653,10646,trol,1,0,0,0,0,0,1,0
1124,16654,10646,trol,1,0,0,0,0,0,1,0
1165,16655,10646,trol,1,0,0,0,0,0,1,0
1193,16656,10646,trol,1,0,0,0,0,0,1,0
1219,16657,10646,trol,1,0,0,0,0,0,1,0
1240,16658,10646,trol,1,0,0,0,0,0,1,0
1263,16659,10646,trol,1,0,0,0,0,0,1,0
1290,16660,10646,trol,1,0,0,0,0,0,1,0
1315,16661,10646,trol,1,0,0,0,0,0,1,0
1337,16662,10646,trol,1,0,0,0,0,0,1,0
1360,16663,10646,trol,1,0,0,0,0,0,1,0
1388,16664,10646,trol,1,0,0,0,0,0,1,0
1413,16665,10646,trol,1,0,0,0,0,0,1,0
416,16666,10647,trol,1,0,0,0,0,0,0,1
451,16667,10647,trol,1,0,0,0,0,0,0,1
472,16668,10647,trol,1,0,0,0,0,0,0,1
492,16669,10647,trol,1,0,0,0,0,0,0,1
520,16670,10647,trol,1,0,0,0,0,0,0,1
545,16671,10647,trol,1,0,0,0,0,0,0,1
566,16672,10647,trol,1,0,0,0,0,0,0,1
586,16673,10647,trol,1,0,0,0,0,0,0,1
614,16674,10647,trol,1,0,0,0,0,0,0,1
628,16675,10647,trol,1,0,0,0,0,0,0,1
656,16676,10647,trol,1,0,0,0,0,0,0,1
671,16677,10647,trol,1,0,0,0,0,0,0,1
698,16678,10647,trol,1,0,0,0,0,0,0,1
715,16679,10647,trol,1,0,0,0,0,0,0,1
736,16680,10647,trol,1,0,0,0,0,0,0,1
749,16681,10647,trol,1,0,0,0,0,0,0,1
773,16682,10647,trol,1,0,0,0,0,0,0,1
797,16683,10647,trol,1,0,0,0,0,0,0,1
824,16684,10647,trol,1,0,0,0,0,0,0,1
839,16685,10647,trol,1,0,0,0,0,0,0,1
854,16686,10647,trol,1,0,0,0,0,0,0,1
872,16687,10647,trol,1,0,0,0,0,0,0,1
894,16688,10647,trol,1,0,0,0,0,0,0,1
913,16689,10647,trol,1,0,0,0,0,0,0,1
931,16690,10647,trol,1,0,0,0,0,0,0,1
947,16691,10647,trol,1,0,0,0,0,0,0,1
968,16692,10647,trol,1,0,0,0,0,0,0,1
986,16693,10647,trol,1,0,0,0,0,0,0,1
1002,16694,10647,trol,1,0,0,0,0,0,0,1
1027,16695,10647,trol,1,0,0,0,0,0,0,1
1048,16696,10647,trol,1,0,0,0,0,0,0,1
1072,16697,10647,trol,1,0,0,0,0,0,0,1
1099,16698,10647,trol,1,0,0,0,0,0,0,1
1124,16699,10647,trol,1,0,0,0,0,0,0,1
1165,16700,10647,trol,1,0,0,0,0,0,0,1
1193,16701,10647,trol,1,0,0,0,0,0,0,1
1219,16702,10647,trol,1,0,0,0,0,0,0,1
1240,16703,10647,trol,1,0,0,0,0,0,0,1
1263,16704,10647,trol,1,0,0,0,0,0,0,1
1290,16705,10647,trol,1,0,0,0,0,0,0,1
1315,16706,10647,trol,1,0,0,0,0,0,0,1
1337,16707,10647,trol,1,0,0,0,0,0,0,1
1360,16708,10647,trol,1,0,0,0,0,0,0,1
1388,16709,10647,trol,1,0,0,0,0,0,0,1
1413,16710,10647,trol,1,0,0,0,0,0,0,1
311,16725,10645,trol,1,1,1,1,1,1,0,0
334,16726,10645,trol,1,1,1,1,1,1,0,0
350,16727,10645,trol,1,1,1,1,1,1,0,0
400,16728,10645,trol,1,1,1,1,1,1,0,0
441,16729,10645,trol,1,1,1,1,1,1,0,0
317,16730,10646,trol,1,0,0,0,0,0,1,0
352,16731,10646,trol,1,0,0,0,0,0,1,0
408,16732,10646,trol,1,0,0,0,0,0,1,0
520,16733,10646,trol,1,0,0,0,0,0,1,0
352,16734,10647,trol,1,0,0,0,0,0,0,1
387,16735,10647,trol,1,0,0,0,0,0,0,1
408,16736,10647,trol,1,0,0,0,0,0,0,1
520,16737,10647,trol,1,0,0,0,0,0,0,1
412,17711,10648,trol,3,1,1,1,1,1,0,0
433,17712,10648,trol,3,1,1,1,1,1,0,0
454,17713,10648,trol,3,1,1,1,1,1,0,0
475,17714,10648,trol,3,1,1,1,1,1,0,0
496,17715,10648,trol,3,1,1,1,1,1,0,0
509,17716,10648,trol,3,1,1,1,1,1,0,0
527,17717,10648,trol,3,1,1,1,1,1,0,0
543,17718,10648,trol,3,1,1,1,1,1,0,0
563,17719,10648,trol,3,1,1,1,1,1,0,0
581,17720,10648,trol,3,1,1,1,1,1,0,0
597,17721,10648,trol,3,1,1,1,1,1,0,0
616,17722,10648,trol,3,1,1,1,1,1,0,0
648,17723,10648,trol,3,1,1,1,1,1,0,0
677,17724,10648,trol,3,1,1,1,1,1,0,0
698,17725,10648,trol,3,1,1,1,1,1,0,0
724,17726,10648,trol,3,1,1,1,1,1,0,0
740,17727,10648,trol,3,1,1,1,1,1,0,0
758,17728,10648,trol,3,1,1,1,1,1,0,0
780,17729,10648,trol,3,1,1,1,1,1,0,0
804,17730,10648,trol,3,1,1,1,1,1,0,0
828,17731,10648,trol,3,1,1,1,1,1,0,0
848,17732,10648,trol,3,1,1,1,1,1,0,0
864,17733,10648,trol,3,1,1,1,1,1,0,0
887,17734,10648,trol,3,1,1,1,1,1,0,0
911,17735,10648,trol,3,1,1,1,1,1,0,0
934,17736,10648,trol,3,1,1,1,1,1,0,0
953,17737,10648,trol,3,1,1,1,1,1,0,0
971,17738,10648,trol,3,1,1,1,1,1,0,0
992,17739,10648,trol,3,1,1,1,1,1,0,0
1008,17740,10648,trol,3,1,1,1,1,1,0,0
1026,17741,10648,trol,3,1,1,1,1,1,0,0
1042,17742,10648,trol,3,1,1,1,1,1,0,0
1066,17743,10648,trol,3,1,1,1,1,1,0,0
1084,17744,10648,trol,3,1,1,1,1,1,0,0
1099,17745,10648,trol,3,1,1,1,1,1,0,0
1115,17746,10648,trol,3,1,1,1,1,1,0,0
1135,17747,10648,trol,3,1,1,1,1,1,0,0
1160,17748,10648,trol,3,1,1,1,1,1,0,0
1180,17749,10648,trol,3,1,1,1,1,1,0,0
1198,17750,10648,trol,3,1,1,1,1,1,0,0
1222,17751,10648,trol,3,1,1,1,1,1,0,0
1246,17752,10648,trol,3,1,1,1,1,1,0,0
1266,17753,10648,trol,3,1,1,1,1,1,0,0
1284,17754,10648,trol,3,1,1,1,1,1,0,0
1305,17755,10648,trol,3,1,1,1,1,1,0,0
1323,17756,10648,trol,3,1,1,1,1,1,0,0
1344,17757,10648,trol,3,1,1,1,1,1,0,0
1365,17758,10648,trol,3,1,1,1,1,1,0,0
1398,17759,10648,trol,3,1,1,1,1,1,0,0
1421,17760,10648,trol,3,1,1,1,1,1,0,0
395,17761,10649,trol,3,0,0,0,0,0,1,0
431,17762,10649,trol,3,0,0,0,0,0,1,0
469,17763,10649,trol,3,0,0,0,0,0,1,0
506,17764,10649,trol,3,0,0,0,0,0,1,0
541,17765,10649,trol,3,0,0,0,0,0,1,0
581,17766,10649,trol,3,0,0,0,0,0,1,0
599,17767,10649,trol,3,0,0,0,0,0,1,0
624,17768,10649,trol,3,0,0,0,0,0,1,0
646,17769,10649,trol,3,0,0,0,0,0,1,0
677,17770,10649,trol,3,0,0,0,0,0,1,0
690,17771,10649,trol,3,0,0,0,0,0,1,0
710,17772,10649,trol,3,0,0,0,0,0,1,0
731,17773,10649,trol,3,0,0,0,0,0,1,0
764,17774,10649,trol,3,0,0,0,0,0,1,0
785,17775,10649,trol,3,0,0,0,0,0,1,0
809,17776,10649,trol,3,0,0,0,0,0,1,0
821,17777,10649,trol,3,0,0,0,0,0,1,0
848,17778,10649,trol,3,0,0,0,0,0,1,0
868,17779,10649,trol,3,0,0,0,0,0,1,0
888,17780,10649,trol,3,0,0,0,0,0,1,0
907,17781,10649,trol,3,0,0,0,0,0,1,0
926,17782,10649,trol,3,0,0,0,0,0,1,0
961,17783,10649,trol,3,0,0,0,0,0,1,0
978,17784,10649,trol,3,0,0,0,0,0,1,0
998,17785,10649,trol,3,0,0,0,0,0,1,0
1018,17786,10649,trol,3,0,0,0,0,0,1,0
1042,17787,10649,trol,3,0,0,0,0,0,1,0
1063,17788,10649,trol,3,0,0,0,0,0,1,0
1084,17789,10649,trol,3,0,0,0,0,0,1,0
1107,17790,10649,trol,3,0,0,0,0,0,1,0
1149,17791,10649,trol,3,0,0,0,0,0,1,0
1182,17792,10649,trol,3,0,0,0,0,0,1,0
1226,17793,10649,trol,3,0,0,0,0,0,1,0
1254,17794,10649,trol,3,0,0,0,0,0,1,0
1299,17795,10649,trol,3,0,0,0,0,0,1,0
1326,17796,10649,trol,3,0,0,0,0,0,1,0
1372,17797,10649,trol,3,0,0,0,0,0,1,0
1399,17798,10649,trol,3,0,0,0,0,0,1,0
431,17799,10650,trol,3,0,0,0,0,0,0,1
469,17800,10650,trol,3,0,0,0,0,0,0,1
506,17801,10650,trol,3,0,0,0,0,0,0,1
541,17802,10650,trol,3,0,0,0,0,0,0,1
581,17803,10650,trol,3,0,0,0,0,0,0,1
599,17804,10650,trol,3,0,0,0,0,0,0,1
624,17805,10650,trol,3,0,0,0,0,0,0,1
646,17806,10650,trol,3,0,0,0,0,0,0,1
677,17807,10650,trol,3,0,0,0,0,0,0,1
690,17808,10650,trol,3,0,0,0,0,0,0,1
710,17809,10650,trol,3,0,0,0,0,0,0,1
731,17810,10650,trol,3,0,0,0,0,0,0,1
764,17811,10650,trol,3,0,0,0,0,0,0,1
785,17812,10650,trol,3,0,0,0,0,0,0,1
809,17813,10650,trol,3,0,0,0,0,0,0,1
821,17814,10650,trol,3,0,0,0,0,0,0,1
848,17815,10650,trol,3,0,0,0,0,0,0,1
868,17816,10650,trol,3,0,0,0,0,0,0,1
888,17817,10650,trol,3,0,0,0,0,0,0,1
907,17818,10650,trol,3,0,0,0,0,0,0,1
926,17819,10650,trol,3,0,0,0,0,0,0,1
961,17820,10650,trol,3,0,0,0,0,0,0,1
978,17821,10650,trol,3,0,0,0,0,0,0,1
998,17822,10650,trol,3,0,0,0,0,0,0,1
1018,17823,10650,trol,3,0,0,0,0,0,0,1
1042,17824,10650,trol,3,0,0,0,0,0,0,1
1063,17825,10650,trol,3,0,0,0,0,0,0,1
1084,17826,10650,trol,3,0,0,0,0,0,0,1
1107,17827,10650,trol,3,0,0,0,0,0,0,1
1149,17828,10650,trol,3,0,0,0,0,0,0,1
1182,17829,10650,trol,3,0,0,0,0,0,0,1
1226,17830,10650,trol,3,0,0,0,0,0,0,1
1254,17831,10650,trol,3,0,0,0,0,0,0,1
1299,17832,10650,trol,3,0,0,0,0,0,0,1
1326,17833,10650,trol,3,0,0,0,0,0,0,1
1372,17834,10650,trol,3,0,0,0,0,0,0,1
1399,17835,10650,trol,3,0,0,0,0,0,0,1
376,17849,10648,trol,3,1,1,1,1,1,0,0
396,17850,10648,trol,3,1,1,1,1,1,0,0
342,17851,10648,trol,3,1,1,1,1,1,0,0
362,17852,10648,trol,3,1,1,1,1,1,0,0
429,17853,10648,trol,3,1,1,1,1,1,0,0
329,17854,10649,trol,3,0,0,0,0,0,1,0
366,17855,10649,trol,3,0,0,0,0,0,1,0
530,17856,10649,trol,3,0,0,0,0,0,1,0
555,17857,10649,trol,3,0,0,0,0,0,1,0
366,17858,10650,trol,3,0,0,0,0,0,0,1
401,17859,10650,trol,3,0,0,0,0,0,0,1
530,17860,10650,trol,3,0,0,0,0,0,0,1
555,17861,10650,trol,3,0,0,0,0,0,0,1
356,20149,10452,trol,9,1,1,1,1,1,0,0
373,20150,10452,trol,9,1,1,1,1,1,0,0
388,20151,10452,trol,9,1,1,1,1,1,0,0
401,20152,10452,trol,9,1,1,1,1,1,0,0
410,20153,10452,trol,9,1,1,1,1,1,0,0
424,20154,10452,trol,9,1,1,1,1,1,0,0
436,20155,10452,trol,9,1,1,1,1,1,0,0
445,20156,10452,trol,9,1,1,1,1,1,0,0
455,20157,10452,trol,9,1,1,1,1,1,0,0
464,20158,10452,trol,9,1,1,1,1,1,0,0
472,20159,10452,trol,9,1,1,1,1,1,0,0
480,20160,10452,trol,9,1,1,1,1,1,0,0
489,20161,10452,trol,9,1,1,1,1,1,0,0
500,20162,10452,trol,9,1,1,1,1,1,0,0
507,20163,10452,trol,9,1,1,1,1,1,0,0
516,20164,10452,trol,9,1,1,1,1,1,0,0
523,20165,10452,trol,9,1,1,1,1,1,0,0
532,20166,10452,trol,9,1,1,1,1,1,0,0
538,20167,10452,trol,9,1,1,1,1,1,0,0
547,20168,10452,trol,9,1,1,1,1,1,0,0
558,20169,10452,trol,9,1,1,1,1,1,0,0
569,20170,10452,trol,9,1,1,1,1,1,0,0
577,20171,10452,trol,9,1,1,1,1,1,0,0
584,20172,10452,trol,9,1,1,1,1,1,0,0
593,20173,10452,trol,9,1,1,1,1,1,0,0
605,20174,10452,trol,9,1,1,1,1,1,0,0
614,20175,10452,trol,9,1,1,1,1,1,0,0
635,20176,10452,trol,9,1,1,1,1,1,0,0
659,20177,10452,trol,9,1,1,1,1,1,0,0
680,20178,10452,trol,9,1,1,1,1,1,0,0
695,20179,10452,trol,9,1,1,1,1,1,0,0
712,20180,10452,trol,9,1,1,1,1,1,0,0
728,20181,10452,trol,9,1,1,1,1,1,0,0
743,20182,10452,trol,9,1,1,1,1,1,0,0
757,20183,10452,trol,9,1,1,1,1,1,0,0
775,20184,10452,trol,9,1,1,1,1,1,0,0
794,20185,10452,trol,9,1,1,1,1,1,0,0
807,20186,10452,trol,9,1,1,1,1,1,0,0
822,20187,10452,trol,9,1,1,1,1,1,0,0
841,20188,10452,trol,9,1,1,1,1,1,0,0
858,20189,10452,trol,9,1,1,1,1,1,0,0
874,20190,10452,trol,9,1,1,1,1,1,0,0
894,20191,10452,trol,9,1,1,1,1,1,0,0
908,20192,10452,trol,9,1,1,1,1,1,0,0
917,20193,10452,trol,9,1,1,1,1,1,0,0
928,20194,10452,trol,9,1,1,1,1,1,0,0
937,20195,10452,trol,9,1,1,1,1,1,0,0
943,20196,10452,trol,9,1,1,1,1,1,0,0
951,20197,10452,trol,9,1,1,1,1,1,0,0
957,20198,10452,trol,9,1,1,1,1,1,0,0
965,20199,10452,trol,9,1,1,1,1,1,0,0
973,20200,10452,trol,9,1,1,1,1,1,0,0
980,20201,10452,trol,9,1,1,1,1,1,0,0
989,20202,10452,trol,9,1,1,1,1,1,0,0
1001,20203,10452,trol,9,1,1,1,1,1,0,0
1014,20204,10452,trol,9,1,1,1,1,1,0,0
1023,20205,10452,trol,9,1,1,1,1,1,0,0
1031,20206,10452,trol,9,1,1,1,1,1,0,0
1040,20207,10452,trol,9,1,1,1,1,1,0,0
1047,20208,10452,trol,9,1,1,1,1,1,0,0
1055,20209,10452,trol,9,1,1,1,1,1,0,0
1064,20210,10452,trol,9,1,1,1,1,1,0,0
1072,20211,10452,trol,9,1,1,1,1,1,0,0
1080,20212,10452,trol,9,1,1,1,1,1,0,0
1090,20213,10452,trol,9,1,1,1,1,1,0,0
1098,20214,10452,trol,9,1,1,1,1,1,0,0
1105,20215,10452,trol,9,1,1,1,1,1,0,0
1113,20216,10452,trol,9,1,1,1,1,1,0,0
1122,20217,10452,trol,9,1,1,1,1,1,0,0
1128,20218,10452,trol,9,1,1,1,1,1,0,0
1140,20219,10452,trol,9,1,1,1,1,1,0,0
1149,20220,10452,trol,9,1,1,1,1,1,0,0
1156,20221,10452,trol,9,1,1,1,1,1,0,0
1164,20222,10452,trol,9,1,1,1,1,1,0,0
1170,20223,10452,trol,9,1,1,1,1,1,0,0
1179,20224,10452,trol,9,1,1,1,1,1,0,0
1195,20225,10452,trol,9,1,1,1,1,1,0,0
1210,20226,10452,trol,9,1,1,1,1,1,0,0
1233,20227,10452,trol,9,1,1,1,1,1,0,0
1255,20228,10452,trol,9,1,1,1,1,1,0,0
1272,20229,10452,trol,9,1,1,1,1,1,0,0
1289,20230,10452,trol,9,1,1,1,1,1,0,0
1303,20231,10452,trol,9,1,1,1,1,1,0,0
1320,20232,10452,trol,9,1,1,1,1,1,0,0
1338,20233,10452,trol,9,1,1,1,1,1,0,0
1349,20234,10452,trol,9,1,1,1,1,1,0,0
1363,20235,10452,trol,9,1,1,1,1,1,0,0
1383,20236,10452,trol,9,1,1,1,1,1,0,0
1395,20237,10452,trol,9,1,1,1,1,1,0,0
1414,20238,10452,trol,9,1,1,1,1,1,0,0
363,20239,10453,trol,9,0,0,0,0,0,1,0
407,20240,10453,trol,9,0,0,0,0,0,1,0
441,20241,10453,trol,9,0,0,0,0,0,1,0
457,20242,10453,trol,9,0,0,0,0,0,1,0
475,20243,10453,trol,9,0,0,0,0,0,1,0
487,20244,10453,trol,9,0,0,0,0,0,1,0
513,20245,10453,trol,9,0,0,0,0,0,1,0
531,20246,10453,trol,9,0,0,0,0,0,1,0
552,20247,10453,trol,9,0,0,0,0,0,1,0
563,20248,10453,trol,9,0,0,0,0,0,1,0
577,20249,10453,trol,9,0,0,0,0,0,1,0
595,20250,10453,trol,9,0,0,0,0,0,1,0
609,20251,10453,trol,9,0,0,0,0,0,1,0
620,20252,10453,trol,9,0,0,0,0,0,1,0
636,20253,10453,trol,9,0,0,0,0,0,1,0
654,20254,10453,trol,9,0,0,0,0,0,1,0
667,20255,10453,trol,9,0,0,0,0,0,1,0
687,20256,10453,trol,9,0,0,0,0,0,1,0
701,20257,10453,trol,9,0,0,0,0,0,1,0
713,20258,10453,trol,9,0,0,0,0,0,1,0
728,20259,10453,trol,9,0,0,0,0,0,1,0
744,20260,10453,trol,9,0,0,0,0,0,1,0
759,20261,10453,trol,9,0,0,0,0,0,1,0
776,20262,10453,trol,9,0,0,0,0,0,1,0
791,20263,10453,trol,9,0,0,0,0,0,1,0
803,20264,10453,trol,9,0,0,0,0,0,1,0
818,20265,10453,trol,9,0,0,0,0,0,1,0
834,20266,10453,trol,9,0,0,0,0,0,1,0
844,20267,10453,trol,9,0,0,0,0,0,1,0
865,20268,10453,trol,9,0,0,0,0,0,1,0
877,20269,10453,trol,9,0,0,0,0,0,1,0
891,20270,10453,trol,9,0,0,0,0,0,1,0
904,20271,10453,trol,9,0,0,0,0,0,1,0
917,20272,10453,trol,9,0,0,0,0,0,1,0
929,20273,10453,trol,9,0,0,0,0,0,1,0
945,20274,10453,trol,9,0,0,0,0,0,1,0
957,20275,10453,trol,9,0,0,0,0,0,1,0
973,20276,10453,trol,9,0,0,0,0,0,1,0
990,20277,10453,trol,9,0,0,0,0,0,1,0
1006,20278,10453,trol,9,0,0,0,0,0,1,0
1021,20279,10453,trol,9,0,0,0,0,0,1,0
1035,20280,10453,trol,9,0,0,0,0,0,1,0
1051,20281,10453,trol,9,0,0,0,0,0,1,0
1060,20282,10453,trol,9,0,0,0,0,0,1,0
1076,20283,10453,trol,9,0,0,0,0,0,1,0
1088,20284,10453,trol,9,0,0,0,0,0,1,0
1113,20285,10453,trol,9,0,0,0,0,0,1,0
1135,20286,10453,trol,9,0,0,0,0,0,1,0
1162,20287,10453,trol,9,0,0,0,0,0,1,0
1189,20288,10453,trol,9,0,0,0,0,0,1,0
1212,20289,10453,trol,9,0,0,0,0,0,1,0
1235,20290,10453,trol,9,0,0,0,0,0,1,0
1260,20291,10453,trol,9,0,0,0,0,0,1,0
1274,20292,10453,trol,9,0,0,0,0,0,1,0
1295,20293,10453,trol,9,0,0,0,0,0,1,0
1318,20294,10453,trol,9,0,0,0,0,0,1,0
1334,20295,10453,trol,9,0,0,0,0,0,1,0
1348,20296,10453,trol,9,0,0,0,0,0,1,0
1376,20297,10453,trol,9,0,0,0,0,0,1,0
1392,20298,10453,trol,9,0,0,0,0,0,1,0
1423,20299,10453,trol,9,0,0,0,0,0,1,0
407,20300,10454,trol,9,0,0,0,0,0,0,1
441,20301,10454,trol,9,0,0,0,0,0,0,1
457,20302,10454,trol,9,0,0,0,0,0,0,1
475,20303,10454,trol,9,0,0,0,0,0,0,1
487,20304,10454,trol,9,0,0,0,0,0,0,1
513,20305,10454,trol,9,0,0,0,0,0,0,1
531,20306,10454,trol,9,0,0,0,0,0,0,1
552,20307,10454,trol,9,0,0,0,0,0,0,1
563,20308,10454,trol,9,0,0,0,0,0,0,1
577,20309,10454,trol,9,0,0,0,0,0,0,1
595,20310,10454,trol,9,0,0,0,0,0,0,1
609,20311,10454,trol,9,0,0,0,0,0,0,1
620,20312,10454,trol,9,0,0,0,0,0,0,1
636,20313,10454,trol,9,0,0,0,0,0,0,1
654,20314,10454,trol,9,0,0,0,0,0,0,1
667,20315,10454,trol,9,0,0,0,0,0,0,1
687,20316,10454,trol,9,0,0,0,0,0,0,1
701,20317,10454,trol,9,0,0,0,0,0,0,1
713,20318,10454,trol,9,0,0,0,0,0,0,1
728,20319,10454,trol,9,0,0,0,0,0,0,1
744,20320,10454,trol,9,0,0,0,0,0,0,1
759,20321,10454,trol,9,0,0,0,0,0,0,1
776,20322,10454,trol,9,0,0,0,0,0,0,1
791,20323,10454,trol,9,0,0,0,0,0,0,1
803,20324,10454,trol,9,0,0,0,0,0,0,1
818,20325,10454,trol,9,0,0,0,0,0,0,1
834,20326,10454,trol,9,0,0,0,0,0,0,1
844,20327,10454,trol,9,0,0,0,0,0,0,1
865,20328,10454,trol,9,0,0,0,0,0,0,1
877,20329,10454,trol,9,0,0,0,0,0,0,1
891,20330,10454,trol,9,0,0,0,0,0,0,1
904,20331,10454,trol,9,0,0,0,0,0,0,1
917,20332,10454,trol,9,0,0,0,0,0,0,1
929,20333,10454,trol,9,0,0,0,0,0,0,1
945,20334,10454,trol,9,0,0,0,0,0,0,1
957,20335,10454,trol,9,0,0,0,0,0,0,1
973,20336,10454,trol,9,0,0,0,0,0,0,1
990,20337,10454,trol,9,0,0,0,0,0,0,1
1006,20338,10454,trol,9,0,0,0,0,0,0,1
1021,20339,10454,trol,9,0,0,0,0,0,0,1
1035,20340,10454,trol,9,0,0,0,0,0,0,1
1051,20341,10454,trol,9,0,0,0,0,0,0,1
1060,20342,10454,trol,9,0,0,0,0,0,0,1
1076,20343,10454,trol,9,0,0,0,0,0,0,1
1088,20344,10454,trol,9,0,0,0,0,0,0,1
1113,20345,10454,trol,9,0,0,0,0,0,0,1
1135,20346,10454,trol,9,0,0,0,0,0,0,1
1162,20347,10454,trol,9,0,0,0,0,0,0,1
1189,20348,10454,trol,9,0,0,0,0,0,0,1
1212,20349,10454,trol,9,0,0,0,0,0,0,1
1235,20350,10454,trol,9,0,0,0,0,0,0,1
1260,20351,10454,trol,9,0,0,0,0,0,0,1
1274,20352,10454,trol,9,0,0,0,0,0,0,1
1295,20353,10454,trol,9,0,0,0,0,0,0,1
1318,20354,10454,trol,9,0,0,0,0,0,0,1
1334,20355,10454,trol,9,0,0,0,0,0,0,1
1348,20356,10454,trol,9,0,0,0,0,0,0,1
1376,20357,10454,trol,9,0,0,0,0,0,0,1
1392,20358,10454,trol,9,0,0,0,0,0,0,1
1423,20359,10454,trol,9,0,0,0,0,0,0,1
371,20383,10454,trol,9,0,0,0,0,0,0,1
325,20398,10452,trol,9,1,1,1,1,1,0,0
346,20399,10452,trol,9,1,1,1,1,1,0,0
419,20400,10452,trol,9,1,1,1,1,1,0,0
448,20401,10452,trol,9,1,1,1,1,1,0,0
337,20402,10453,trol,9,0,0,0,0,0,1,0
394,20403,10453,trol,9,0,0,0,0,0,1,0
394,20404,10454,trol,9,0,0,0,0,0,0,1
