timeInMin,trip_id,service_id,tipas,numeris,pirmadienis,antradienis,treciadienis,ketvirtadienis,penktadienis,sestadienis,sekmadienis 
381,892,10573,bus,2,1,1,1,1,1,1,0
427,893,10573,bus,2,1,1,1,1,1,1,0
478,894,10573,bus,2,1,1,1,1,1,1,0
533,895,10573,bus,2,1,1,1,1,1,1,0
579,896,10573,bus,2,1,1,1,1,1,1,0
649,897,10573,bus,2,1,1,1,1,1,1,0
694,898,10573,bus,2,1,1,1,1,1,1,0
743,899,10573,bus,2,1,1,1,1,1,1,0
785,900,10573,bus,2,1,1,1,1,1,1,0
839,901,10573,bus,2,1,1,1,1,1,1,0
890,902,10573,bus,2,1,1,1,1,1,1,0
932,903,10573,bus,2,1,1,1,1,1,1,0
975,904,10573,bus,2,1,1,1,1,1,1,0
1017,905,10573,bus,2,1,1,1,1,1,1,0
1062,906,10573,bus,2,1,1,1,1,1,1,0
1105,907,10573,bus,2,1,1,1,1,1,1,0
1175,908,10573,bus,2,1,1,1,1,1,1,0
1218,909,10573,bus,2,1,1,1,1,1,1,0
1263,910,10573,bus,2,1,1,1,1,1,1,0
1313,911,10573,bus,2,1,1,1,1,1,1,0
1362,912,10573,bus,2,1,1,1,1,1,1,0
414,913,10574,bus,2,0,0,0,0,0,0,1
478,914,10574,bus,2,0,0,0,0,0,0,1
533,915,10574,bus,2,0,0,0,0,0,0,1
579,916,10574,bus,2,0,0,0,0,0,0,1
649,917,10574,bus,2,0,0,0,0,0,0,1
694,918,10574,bus,2,0,0,0,0,0,0,1
743,919,10574,bus,2,0,0,0,0,0,0,1
785,920,10574,bus,2,0,0,0,0,0,0,1
839,921,10574,bus,2,0,0,0,0,0,0,1
890,922,10574,bus,2,0,0,0,0,0,0,1
932,923,10574,bus,2,0,0,0,0,0,0,1
975,924,10574,bus,2,0,0,0,0,0,0,1
1017,925,10574,bus,2,0,0,0,0,0,0,1
1062,926,10574,bus,2,0,0,0,0,0,0,1
1105,927,10574,bus,2,0,0,0,0,0,0,1
1175,928,10574,bus,2,0,0,0,0,0,0,1
1218,929,10574,bus,2,0,0,0,0,0,0,1
1263,930,10574,bus,2,0,0,0,0,0,0,1
1313,931,10574,bus,2,0,0,0,0,0,0,1
1362,932,10574,bus,2,0,0,0,0,0,0,1
379,5344,10658,bus,12,1,1,1,1,1,0,0
421,5345,10658,bus,12,1,1,1,1,1,0,0
460,5346,10658,bus,12,1,1,1,1,1,0,0
509,5347,10658,bus,12,1,1,1,1,1,0,0
549,5348,10658,bus,12,1,1,1,1,1,0,0
613,5349,10658,bus,12,1,1,1,1,1,0,0
664,5350,10658,bus,12,1,1,1,1,1,0,0
723,5351,10658,bus,12,1,1,1,1,1,0,0
779,5352,10658,bus,12,1,1,1,1,1,0,0
812,5353,10658,bus,12,1,1,1,1,1,0,0
861,5354,10658,bus,12,1,1,1,1,1,0,0
910,5355,10658,bus,12,1,1,1,1,1,0,0
961,5356,10658,bus,12,1,1,1,1,1,0,0
995,5357,10658,bus,12,1,1,1,1,1,0,0
1044,5358,10658,bus,12,1,1,1,1,1,0,0
1077,5359,10658,bus,12,1,1,1,1,1,0,0
1131,5360,10658,bus,12,1,1,1,1,1,0,0
1195,5361,10658,bus,12,1,1,1,1,1,0,0
1242,5362,10658,bus,12,1,1,1,1,1,0,0
1277,5363,10658,bus,12,1,1,1,1,1,0,0
1323,5364,10658,bus,12,1,1,1,1,1,0,0
1362,5365,10658,bus,12,1,1,1,1,1,0,0
1403,5366,10658,bus,12,1,1,1,1,1,0,0
384,5367,10659,bus,12,0,0,0,0,0,1,0
460,5368,10659,bus,12,0,0,0,0,0,1,0
533,5369,10659,bus,12,0,0,0,0,0,1,0
642,5370,10659,bus,12,0,0,0,0,0,1,0
761,5371,10659,bus,12,0,0,0,0,0,1,0
837,5372,10659,bus,12,0,0,0,0,0,1,0
918,5373,10659,bus,12,0,0,0,0,0,1,0
1000,5374,10659,bus,12,0,0,0,0,0,1,0
1083,5375,10659,bus,12,0,0,0,0,0,1,0
1184,5376,10659,bus,12,0,0,0,0,0,1,0
1253,5377,10659,bus,12,0,0,0,0,0,1,0
1323,5378,10659,bus,12,0,0,0,0,0,1,0
1397,5379,10659,bus,12,0,0,0,0,0,1,0
399,5380,10660,bus,12,0,0,0,0,0,0,1
475,5381,10660,bus,12,0,0,0,0,0,0,1
555,5382,10660,bus,12,0,0,0,0,0,0,1
664,5383,10660,bus,12,0,0,0,0,0,0,1
783,5384,10660,bus,12,0,0,0,0,0,0,1
859,5385,10660,bus,12,0,0,0,0,0,0,1
940,5386,10660,bus,12,0,0,0,0,0,0,1
1016,5387,10660,bus,12,0,0,0,0,0,0,1
1092,5388,10660,bus,12,0,0,0,0,0,0,1
1166,5389,10660,bus,12,0,0,0,0,0,0,1
1270,5390,10660,bus,12,0,0,0,0,0,0,1
1341,5391,10660,bus,12,0,0,0,0,0,0,1
1411,5392,10660,bus,12,0,0,0,0,0,0,1
342,5393,10658,bus,12,1,1,1,1,1,0,0
353,5800,10044,bus,16,1,1,1,1,1,0,0
376,5801,10044,bus,16,1,1,1,1,1,0,0
406,5802,10044,bus,16,1,1,1,1,1,0,0
423,5803,10044,bus,16,1,1,1,1,1,0,0
450,5804,10044,bus,16,1,1,1,1,1,0,0
478,5805,10044,bus,16,1,1,1,1,1,0,0
519,5806,10044,bus,16,1,1,1,1,1,0,0
563,5807,10044,bus,16,1,1,1,1,1,0,0
600,5808,10044,bus,16,1,1,1,1,1,0,0
628,5809,10044,bus,16,1,1,1,1,1,0,0
671,5810,10044,bus,16,1,1,1,1,1,0,0
729,5811,10044,bus,16,1,1,1,1,1,0,0
758,5812,10044,bus,16,1,1,1,1,1,0,0
800,5813,10044,bus,16,1,1,1,1,1,0,0
829,5814,10044,bus,16,1,1,1,1,1,0,0
879,5815,10044,bus,16,1,1,1,1,1,0,0
910,5816,10044,bus,16,1,1,1,1,1,0,0
950,5817,10044,bus,16,1,1,1,1,1,0,0
980,5818,10044,bus,16,1,1,1,1,1,0,0
1012,5819,10044,bus,16,1,1,1,1,1,0,0
1031,5820,10044,bus,16,1,1,1,1,1,0,0
1057,5821,10044,bus,16,1,1,1,1,1,0,0
1084,5822,10044,bus,16,1,1,1,1,1,0,0
1105,5823,10044,bus,16,1,1,1,1,1,0,0
1133,5824,10044,bus,16,1,1,1,1,1,0,0
1152,5825,10044,bus,16,1,1,1,1,1,0,0
1201,5826,10044,bus,16,1,1,1,1,1,0,0
1244,5827,10044,bus,16,1,1,1,1,1,0,0
1302,5828,10044,bus,16,1,1,1,1,1,0,0
1342,5829,10044,bus,16,1,1,1,1,1,0,0
1418,5830,10044,bus,16,1,1,1,1,1,0,0
391,5831,10045,bus,16,0,0,0,0,0,1,0
467,5832,10045,bus,16,0,0,0,0,0,1,0
537,5833,10045,bus,16,0,0,0,0,0,1,0
602,5834,10045,bus,16,0,0,0,0,0,1,0
654,5835,10045,bus,16,0,0,0,0,0,1,0
697,5836,10045,bus,16,0,0,0,0,0,1,0
719,5837,10045,bus,16,0,0,0,0,0,1,0
784,5838,10045,bus,16,0,0,0,0,0,1,0
803,5839,10045,bus,16,0,0,0,0,0,1,0
868,5840,10045,bus,16,0,0,0,0,0,1,0
884,5841,10045,bus,16,0,0,0,0,0,1,0
939,5842,10045,bus,16,0,0,0,0,0,1,0
977,5843,10045,bus,16,0,0,0,0,0,1,0
1010,5844,10045,bus,16,0,0,0,0,0,1,0
1042,5845,10045,bus,16,0,0,0,0,0,1,0
1075,5846,10045,bus,16,0,0,0,0,0,1,0
1108,5847,10045,bus,16,0,0,0,0,0,1,0
1140,5848,10045,bus,16,0,0,0,0,0,1,0
1235,5849,10045,bus,16,0,0,0,0,0,1,0
1341,5850,10045,bus,16,0,0,0,0,0,1,0
1415,5851,10045,bus,16,0,0,0,0,0,1,0
450,5852,10046,bus,16,0,0,0,0,0,0,1
537,5853,10046,bus,16,0,0,0,0,0,0,1
602,5854,10046,bus,16,0,0,0,0,0,0,1
654,5855,10046,bus,16,0,0,0,0,0,0,1
697,5856,10046,bus,16,0,0,0,0,0,0,1
719,5857,10046,bus,16,0,0,0,0,0,0,1
784,5858,10046,bus,16,0,0,0,0,0,0,1
803,5859,10046,bus,16,0,0,0,0,0,0,1
868,5860,10046,bus,16,0,0,0,0,0,0,1
884,5861,10046,bus,16,0,0,0,0,0,0,1
939,5862,10046,bus,16,0,0,0,0,0,0,1
977,5863,10046,bus,16,0,0,0,0,0,0,1
1010,5864,10046,bus,16,0,0,0,0,0,0,1
1042,5865,10046,bus,16,0,0,0,0,0,0,1
1075,5866,10046,bus,16,0,0,0,0,0,0,1
1108,5867,10046,bus,16,0,0,0,0,0,0,1
1140,5868,10046,bus,16,0,0,0,0,0,0,1
1235,5869,10046,bus,16,0,0,0,0,0,0,1
1341,5870,10046,bus,16,0,0,0,0,0,0,1
1415,5871,10046,bus,16,0,0,0,0,0,0,1
502,5879,10044,bus,16,1,1,1,1,1,0,0
354,6344,10047,bus,19,1,1,1,1,1,0,0
378,6345,10047,bus,19,1,1,1,1,1,0,0
409,6346,10047,bus,19,1,1,1,1,1,0,0
429,6347,10047,bus,19,1,1,1,1,1,0,0
451,6348,10047,bus,19,1,1,1,1,1,0,0
477,6349,10047,bus,19,1,1,1,1,1,0,0
500,6350,10047,bus,19,1,1,1,1,1,0,0
524,6351,10047,bus,19,1,1,1,1,1,0,0
547,6352,10047,bus,19,1,1,1,1,1,0,0
578,6353,10047,bus,19,1,1,1,1,1,0,0
623,6354,10047,bus,19,1,1,1,1,1,0,0
646,6355,10047,bus,19,1,1,1,1,1,0,0
674,6356,10047,bus,19,1,1,1,1,1,0,0
700,6357,10047,bus,19,1,1,1,1,1,0,0
720,6358,10047,bus,19,1,1,1,1,1,0,0
745,6359,10047,bus,19,1,1,1,1,1,0,0
768,6360,10047,bus,19,1,1,1,1,1,0,0
791,6361,10047,bus,19,1,1,1,1,1,0,0
813,6362,10047,bus,19,1,1,1,1,1,0,0
843,6363,10047,bus,19,1,1,1,1,1,0,0
863,6364,10047,bus,19,1,1,1,1,1,0,0
891,6365,10047,bus,19,1,1,1,1,1,0,0
918,6366,10047,bus,19,1,1,1,1,1,0,0
939,6367,10047,bus,19,1,1,1,1,1,0,0
966,6368,10047,bus,19,1,1,1,1,1,0,0
992,6369,10047,bus,19,1,1,1,1,1,0,0
1010,6370,10047,bus,19,1,1,1,1,1,0,0
1042,6371,10047,bus,19,1,1,1,1,1,0,0
1066,6372,10047,bus,19,1,1,1,1,1,0,0
1085,6373,10047,bus,19,1,1,1,1,1,0,0
1114,6374,10047,bus,19,1,1,1,1,1,0,0
1137,6375,10047,bus,19,1,1,1,1,1,0,0
1169,6376,10047,bus,19,1,1,1,1,1,0,0
1218,6377,10047,bus,19,1,1,1,1,1,0,0
1245,6378,10047,bus,19,1,1,1,1,1,0,0
1280,6379,10047,bus,19,1,1,1,1,1,0,0
1298,6380,10047,bus,19,1,1,1,1,1,0,0
1321,6381,10047,bus,19,1,1,1,1,1,0,0
1353,6382,10047,bus,19,1,1,1,1,1,0,0
1369,6383,10047,bus,19,1,1,1,1,1,0,0
1394,6384,10047,bus,19,1,1,1,1,1,0,0
1424,6385,10047,bus,19,1,1,1,1,1,0,0
358,6386,10048,bus,19,0,0,0,0,0,1,0
425,6387,10048,bus,19,0,0,0,0,0,1,0
458,6388,10048,bus,19,0,0,0,0,0,1,0
491,6389,10048,bus,19,0,0,0,0,0,1,0
524,6390,10048,bus,19,0,0,0,0,0,1,0
561,6391,10048,bus,19,0,0,0,0,0,1,0
590,6392,10048,bus,19,0,0,0,0,0,1,0
636,6393,10048,bus,19,0,0,0,0,0,1,0
668,6394,10048,bus,19,0,0,0,0,0,1,0
691,6395,10048,bus,19,0,0,0,0,0,1,0
707,6396,10048,bus,19,0,0,0,0,0,1,0
736,6397,10048,bus,19,0,0,0,0,0,1,0
774,6398,10048,bus,19,0,0,0,0,0,1,0
788,6399,10048,bus,19,0,0,0,0,0,1,0
813,6400,10048,bus,19,0,0,0,0,0,1,0
854,6401,10048,bus,19,0,0,0,0,0,1,0
880,6402,10048,bus,19,0,0,0,0,0,1,0
893,6403,10048,bus,19,0,0,0,0,0,1,0
932,6404,10048,bus,19,0,0,0,0,0,1,0
963,6405,10048,bus,19,0,0,0,0,0,1,0
992,6406,10048,bus,19,0,0,0,0,0,1,0
1004,6407,10048,bus,19,0,0,0,0,0,1,0
1035,6408,10048,bus,19,0,0,0,0,0,1,0
1062,6409,10048,bus,19,0,0,0,0,0,1,0
1078,6410,10048,bus,19,0,0,0,0,0,1,0
1105,6411,10048,bus,19,0,0,0,0,0,1,0
1147,6412,10048,bus,19,0,0,0,0,0,1,0
1202,6413,10048,bus,19,0,0,0,0,0,1,0
1243,6414,10048,bus,19,0,0,0,0,0,1,0
1277,6415,10048,bus,19,0,0,0,0,0,1,0
1315,6416,10048,bus,19,0,0,0,0,0,1,0
1343,6417,10048,bus,19,0,0,0,0,0,1,0
1384,6418,10048,bus,19,0,0,0,0,0,1,0
412,6419,10049,bus,19,0,0,0,0,0,0,1
458,6420,10049,bus,19,0,0,0,0,0,0,1
491,6421,10049,bus,19,0,0,0,0,0,0,1
524,6422,10049,bus,19,0,0,0,0,0,0,1
561,6423,10049,bus,19,0,0,0,0,0,0,1
590,6424,10049,bus,19,0,0,0,0,0,0,1
636,6425,10049,bus,19,0,0,0,0,0,0,1
668,6426,10049,bus,19,0,0,0,0,0,0,1
691,6427,10049,bus,19,0,0,0,0,0,0,1
707,6428,10049,bus,19,0,0,0,0,0,0,1
736,6429,10049,bus,19,0,0,0,0,0,0,1
774,6430,10049,bus,19,0,0,0,0,0,0,1
788,6431,10049,bus,19,0,0,0,0,0,0,1
813,6432,10049,bus,19,0,0,0,0,0,0,1
854,6433,10049,bus,19,0,0,0,0,0,0,1
880,6434,10049,bus,19,0,0,0,0,0,0,1
893,6435,10049,bus,19,0,0,0,0,0,0,1
932,6436,10049,bus,19,0,0,0,0,0,0,1
963,6437,10049,bus,19,0,0,0,0,0,0,1
992,6438,10049,bus,19,0,0,0,0,0,0,1
1004,6439,10049,bus,19,0,0,0,0,0,0,1
1035,6440,10049,bus,19,0,0,0,0,0,0,1
1062,6441,10049,bus,19,0,0,0,0,0,0,1
1078,6442,10049,bus,19,0,0,0,0,0,0,1
1105,6443,10049,bus,19,0,0,0,0,0,0,1
1147,6444,10049,bus,19,0,0,0,0,0,0,1
1202,6445,10049,bus,19,0,0,0,0,0,0,1
1243,6446,10049,bus,19,0,0,0,0,0,0,1
1277,6447,10049,bus,19,0,0,0,0,0,0,1
1315,6448,10049,bus,19,0,0,0,0,0,0,1
1343,6449,10049,bus,19,0,0,0,0,0,0,1
1383,6450,10049,bus,19,0,0,0,0,0,0,1
366,13788,10050,bus,61,1,1,1,1,1,0,0
380,13789,10050,bus,61,1,1,1,1,1,0,0
392,13790,10050,bus,61,1,1,1,1,1,0,0
404,13791,10050,bus,61,1,1,1,1,1,0,0
418,13792,10050,bus,61,1,1,1,1,1,0,0
432,13793,10050,bus,61,1,1,1,1,1,0,0
445,13794,10050,bus,61,1,1,1,1,1,0,0
458,13795,10050,bus,61,1,1,1,1,1,0,0
472,13796,10050,bus,61,1,1,1,1,1,0,0
486,13797,10050,bus,61,1,1,1,1,1,0,0
499,13798,10050,bus,61,1,1,1,1,1,0,0
512,13799,10050,bus,61,1,1,1,1,1,0,0
526,13800,10050,bus,61,1,1,1,1,1,0,0
540,13801,10050,bus,61,1,1,1,1,1,0,0
552,13802,10050,bus,61,1,1,1,1,1,0,0
565,13803,10050,bus,61,1,1,1,1,1,0,0
600,13804,10050,bus,61,1,1,1,1,1,0,0
626,13805,10050,bus,61,1,1,1,1,1,0,0
653,13806,10050,bus,61,1,1,1,1,1,0,0
677,13807,10050,bus,61,1,1,1,1,1,0,0
704,13808,10050,bus,61,1,1,1,1,1,0,0
728,13809,10050,bus,61,1,1,1,1,1,0,0
755,13810,10050,bus,61,1,1,1,1,1,0,0
779,13811,10050,bus,61,1,1,1,1,1,0,0
806,13812,10050,bus,61,1,1,1,1,1,0,0
830,13813,10050,bus,61,1,1,1,1,1,0,0
857,13814,10050,bus,61,1,1,1,1,1,0,0
881,13815,10050,bus,61,1,1,1,1,1,0,0
908,13816,10050,bus,61,1,1,1,1,1,0,0
932,13817,10050,bus,61,1,1,1,1,1,0,0
945,13818,10050,bus,61,1,1,1,1,1,0,0
959,13819,10050,bus,61,1,1,1,1,1,0,0
971,13820,10050,bus,61,1,1,1,1,1,0,0
984,13821,10050,bus,61,1,1,1,1,1,0,0
997,13822,10050,bus,61,1,1,1,1,1,0,0
1011,13823,10050,bus,61,1,1,1,1,1,0,0
1024,13824,10050,bus,61,1,1,1,1,1,0,0
1037,13825,10050,bus,61,1,1,1,1,1,0,0
1050,13826,10050,bus,61,1,1,1,1,1,0,0
1064,13827,10050,bus,61,1,1,1,1,1,0,0
1077,13828,10050,bus,61,1,1,1,1,1,0,0
1090,13829,10050,bus,61,1,1,1,1,1,0,0
1103,13830,10050,bus,61,1,1,1,1,1,0,0
1117,13831,10050,bus,61,1,1,1,1,1,0,0
1129,13832,10050,bus,61,1,1,1,1,1,0,0
1142,13833,10050,bus,61,1,1,1,1,1,0,0
1159,13834,10050,bus,61,1,1,1,1,1,0,0
1180,13835,10050,bus,61,1,1,1,1,1,0,0
1198,13836,10050,bus,61,1,1,1,1,1,0,0
1223,13837,10050,bus,61,1,1,1,1,1,0,0
1248,13838,10050,bus,61,1,1,1,1,1,0,0
1273,13839,10050,bus,61,1,1,1,1,1,0,0
1298,13840,10050,bus,61,1,1,1,1,1,0,0
1323,13841,10050,bus,61,1,1,1,1,1,0,0
1354,13842,10050,bus,61,1,1,1,1,1,0,0
1383,13843,10050,bus,61,1,1,1,1,1,0,0
370,13844,10051,bus,61,0,0,0,0,0,1,0
427,13845,10051,bus,61,0,0,0,0,0,1,0
485,13846,10051,bus,61,0,0,0,0,0,1,0
542,13847,10051,bus,61,0,0,0,0,0,1,0
625,13848,10051,bus,61,0,0,0,0,0,1,0
680,13849,10051,bus,61,0,0,0,0,0,1,0
735,13850,10051,bus,61,0,0,0,0,0,1,0
798,13851,10051,bus,61,0,0,0,0,0,1,0
857,13852,10051,bus,61,0,0,0,0,0,1,0
915,13853,10051,bus,61,0,0,0,0,0,1,0
971,13854,10051,bus,61,0,0,0,0,0,1,0
1029,13855,10051,bus,61,0,0,0,0,0,1,0
1085,13856,10051,bus,61,0,0,0,0,0,1,0
1168,13857,10051,bus,61,0,0,0,0,0,1,0
1224,13858,10051,bus,61,0,0,0,0,0,1,0
1281,13859,10051,bus,61,0,0,0,0,0,1,0
1338,13860,10051,bus,61,0,0,0,0,0,1,0
427,13861,10052,bus,61,0,0,0,0,0,0,1
485,13862,10052,bus,61,0,0,0,0,0,0,1
542,13863,10052,bus,61,0,0,0,0,0,0,1
625,13864,10052,bus,61,0,0,0,0,0,0,1
680,13865,10052,bus,61,0,0,0,0,0,0,1
735,13866,10052,bus,61,0,0,0,0,0,0,1
798,13867,10052,bus,61,0,0,0,0,0,0,1
857,13868,10052,bus,61,0,0,0,0,0,0,1
915,13869,10052,bus,61,0,0,0,0,0,0,1
971,13870,10052,bus,61,0,0,0,0,0,0,1
1029,13871,10052,bus,61,0,0,0,0,0,0,1
1085,13872,10052,bus,61,0,0,0,0,0,0,1
1168,13873,10052,bus,61,0,0,0,0,0,0,1
1224,13874,10052,bus,61,0,0,0,0,0,0,1
1281,13875,10052,bus,61,0,0,0,0,0,0,1
1338,13876,10052,bus,61,0,0,0,0,0,0,1
367,15494,10053,bus,82,1,1,1,1,1,0,0
441,15495,10053,bus,82,1,1,1,1,1,0,0
513,15496,10053,bus,82,1,1,1,1,1,0,0
612,15497,10053,bus,82,1,1,1,1,1,0,0
687,15498,10053,bus,82,1,1,1,1,1,0,0
762,15499,10053,bus,82,1,1,1,1,1,0,0
834,15500,10053,bus,82,1,1,1,1,1,0,0
910,15501,10053,bus,82,1,1,1,1,1,0,0
984,15502,10053,bus,82,1,1,1,1,1,0,0
1058,15503,10053,bus,82,1,1,1,1,1,0,0
1158,15504,10053,bus,82,1,1,1,1,1,0,0
1232,15505,10053,bus,82,1,1,1,1,1,0,0
1310,15506,10053,bus,82,1,1,1,1,1,0,0
1384,15507,10053,bus,82,1,1,1,1,1,0,0
364,15508,10054,bus,82,0,0,0,0,0,1,0
441,15509,10054,bus,82,0,0,0,0,0,1,0
514,15510,10054,bus,82,0,0,0,0,0,1,0
610,15511,10054,bus,82,0,0,0,0,0,1,0
683,15512,10054,bus,82,0,0,0,0,0,1,0
756,15513,10054,bus,82,0,0,0,0,0,1,0
831,15514,10054,bus,82,0,0,0,0,0,1,0
904,15515,10054,bus,82,0,0,0,0,0,1,0
977,15516,10054,bus,82,0,0,0,0,0,1,0
1050,15517,10054,bus,82,0,0,0,0,0,1,0
1123,15518,10054,bus,82,0,0,0,0,0,1,0
1219,15519,10054,bus,82,0,0,0,0,0,1,0
1292,15520,10054,bus,82,0,0,0,0,0,1,0
1366,15521,10054,bus,82,0,0,0,0,0,1,0
441,15522,10055,bus,82,0,0,0,0,0,0,1
514,15523,10055,bus,82,0,0,0,0,0,0,1
610,15524,10055,bus,82,0,0,0,0,0,0,1
683,15525,10055,bus,82,0,0,0,0,0,0,1
756,15526,10055,bus,82,0,0,0,0,0,0,1
831,15527,10055,bus,82,0,0,0,0,0,0,1
904,15528,10055,bus,82,0,0,0,0,0,0,1
977,15529,10055,bus,82,0,0,0,0,0,0,1
1050,15530,10055,bus,82,0,0,0,0,0,0,1
1123,15531,10055,bus,82,0,0,0,0,0,0,1
1219,15532,10055,bus,82,0,0,0,0,0,0,1
1292,15533,10055,bus,82,0,0,0,0,0,0,1
1366,15534,10055,bus,82,0,0,0,0,0,0,1
402,15535,10053,bus,82,1,1,1,1,1,0,0
473,15536,10053,bus,82,1,1,1,1,1,0,0
555,15537,10053,bus,82,1,1,1,1,1,0,0
659,15538,10053,bus,82,1,1,1,1,1,0,0
732,15539,10053,bus,82,1,1,1,1,1,0,0
803,15540,10053,bus,82,1,1,1,1,1,0,0
876,15541,10053,bus,82,1,1,1,1,1,0,0
948,15542,10053,bus,82,1,1,1,1,1,0,0
1024,15543,10053,bus,82,1,1,1,1,1,0,0
1098,15544,10053,bus,82,1,1,1,1,1,0,0
1195,15545,10053,bus,82,1,1,1,1,1,0,0
1266,15546,10053,bus,82,1,1,1,1,1,0,0
1340,15547,10053,bus,82,1,1,1,1,1,0,0
402,15548,10054,bus,82,0,0,0,0,0,1,0
477,15549,10054,bus,82,0,0,0,0,0,1,0
549,15550,10054,bus,82,0,0,0,0,0,1,0
649,15551,10054,bus,82,0,0,0,0,0,1,0
724,15552,10054,bus,82,0,0,0,0,0,1,0
796,15553,10054,bus,82,0,0,0,0,0,1,0
868,15554,10054,bus,82,0,0,0,0,0,1,0
943,15555,10054,bus,82,0,0,0,0,0,1,0
1016,15556,10054,bus,82,0,0,0,0,0,1,0
1087,15557,10054,bus,82,0,0,0,0,0,1,0
1158,15558,10054,bus,82,0,0,0,0,0,1,0
1255,15559,10054,bus,82,0,0,0,0,0,1,0
1326,15560,10054,bus,82,0,0,0,0,0,1,0
1403,15561,10054,bus,82,0,0,0,0,0,1,0
402,15562,10055,bus,82,0,0,0,0,0,0,1
477,15563,10055,bus,82,0,0,0,0,0,0,1
549,15564,10055,bus,82,0,0,0,0,0,0,1
649,15565,10055,bus,82,0,0,0,0,0,0,1
724,15566,10055,bus,82,0,0,0,0,0,0,1
796,15567,10055,bus,82,0,0,0,0,0,0,1
868,15568,10055,bus,82,0,0,0,0,0,0,1
943,15569,10055,bus,82,0,0,0,0,0,0,1
1016,15570,10055,bus,82,0,0,0,0,0,0,1
1087,15571,10055,bus,82,0,0,0,0,0,0,1
1158,15572,10055,bus,82,0,0,0,0,0,0,1
1255,15573,10055,bus,82,0,0,0,0,0,0,1
1326,15574,10055,bus,82,0,0,0,0,0,0,1
1403,15575,10055,bus,82,0,0,0,0,0,0,1
