timeInMin,trip_id,service_id,tipas,numeris,pirmadienis,antradienis,treciadienis,ketvirtadienis,penktadienis,sestadienis,sekmadienis 
373,5344,10658,bus,12,1,1,1,1,1,0,0
415,5345,10658,bus,12,1,1,1,1,1,0,0
454,5346,10658,bus,12,1,1,1,1,1,0,0
503,5347,10658,bus,12,1,1,1,1,1,0,0
543,5348,10658,bus,12,1,1,1,1,1,0,0
607,5349,10658,bus,12,1,1,1,1,1,0,0
658,5350,10658,bus,12,1,1,1,1,1,0,0
717,5351,10658,bus,12,1,1,1,1,1,0,0
773,5352,10658,bus,12,1,1,1,1,1,0,0
806,5353,10658,bus,12,1,1,1,1,1,0,0
855,5354,10658,bus,12,1,1,1,1,1,0,0
904,5355,10658,bus,12,1,1,1,1,1,0,0
955,5356,10658,bus,12,1,1,1,1,1,0,0
989,5357,10658,bus,12,1,1,1,1,1,0,0
1038,5358,10658,bus,12,1,1,1,1,1,0,0
1071,5359,10658,bus,12,1,1,1,1,1,0,0
1125,5360,10658,bus,12,1,1,1,1,1,0,0
1189,5361,10658,bus,12,1,1,1,1,1,0,0
1236,5362,10658,bus,12,1,1,1,1,1,0,0
1271,5363,10658,bus,12,1,1,1,1,1,0,0
1317,5364,10658,bus,12,1,1,1,1,1,0,0
1356,5365,10658,bus,12,1,1,1,1,1,0,0
1397,5366,10658,bus,12,1,1,1,1,1,0,0
378,5367,10659,bus,12,0,0,0,0,0,1,0
454,5368,10659,bus,12,0,0,0,0,0,1,0
527,5369,10659,bus,12,0,0,0,0,0,1,0
636,5370,10659,bus,12,0,0,0,0,0,1,0
755,5371,10659,bus,12,0,0,0,0,0,1,0
831,5372,10659,bus,12,0,0,0,0,0,1,0
912,5373,10659,bus,12,0,0,0,0,0,1,0
994,5374,10659,bus,12,0,0,0,0,0,1,0
1077,5375,10659,bus,12,0,0,0,0,0,1,0
1178,5376,10659,bus,12,0,0,0,0,0,1,0
1248,5377,10659,bus,12,0,0,0,0,0,1,0
1317,5378,10659,bus,12,0,0,0,0,0,1,0
1391,5379,10659,bus,12,0,0,0,0,0,1,0
393,5380,10660,bus,12,0,0,0,0,0,0,1
469,5381,10660,bus,12,0,0,0,0,0,0,1
549,5382,10660,bus,12,0,0,0,0,0,0,1
658,5383,10660,bus,12,0,0,0,0,0,0,1
777,5384,10660,bus,12,0,0,0,0,0,0,1
853,5385,10660,bus,12,0,0,0,0,0,0,1
934,5386,10660,bus,12,0,0,0,0,0,0,1
1010,5387,10660,bus,12,0,0,0,0,0,0,1
1086,5388,10660,bus,12,0,0,0,0,0,0,1
1160,5389,10660,bus,12,0,0,0,0,0,0,1
1265,5390,10660,bus,12,0,0,0,0,0,0,1
1336,5391,10660,bus,12,0,0,0,0,0,0,1
1405,5392,10660,bus,12,0,0,0,0,0,0,1
336,5393,10658,bus,12,1,1,1,1,1,0,0
347,6344,10047,bus,19,1,1,1,1,1,0,0
371,6345,10047,bus,19,1,1,1,1,1,0,0
402,6346,10047,bus,19,1,1,1,1,1,0,0
422,6347,10047,bus,19,1,1,1,1,1,0,0
444,6348,10047,bus,19,1,1,1,1,1,0,0
470,6349,10047,bus,19,1,1,1,1,1,0,0
493,6350,10047,bus,19,1,1,1,1,1,0,0
517,6351,10047,bus,19,1,1,1,1,1,0,0
540,6352,10047,bus,19,1,1,1,1,1,0,0
571,6353,10047,bus,19,1,1,1,1,1,0,0
616,6354,10047,bus,19,1,1,1,1,1,0,0
639,6355,10047,bus,19,1,1,1,1,1,0,0
667,6356,10047,bus,19,1,1,1,1,1,0,0
693,6357,10047,bus,19,1,1,1,1,1,0,0
713,6358,10047,bus,19,1,1,1,1,1,0,0
738,6359,10047,bus,19,1,1,1,1,1,0,0
761,6360,10047,bus,19,1,1,1,1,1,0,0
784,6361,10047,bus,19,1,1,1,1,1,0,0
806,6362,10047,bus,19,1,1,1,1,1,0,0
836,6363,10047,bus,19,1,1,1,1,1,0,0
856,6364,10047,bus,19,1,1,1,1,1,0,0
884,6365,10047,bus,19,1,1,1,1,1,0,0
911,6366,10047,bus,19,1,1,1,1,1,0,0
932,6367,10047,bus,19,1,1,1,1,1,0,0
959,6368,10047,bus,19,1,1,1,1,1,0,0
985,6369,10047,bus,19,1,1,1,1,1,0,0
1003,6370,10047,bus,19,1,1,1,1,1,0,0
1035,6371,10047,bus,19,1,1,1,1,1,0,0
1059,6372,10047,bus,19,1,1,1,1,1,0,0
1078,6373,10047,bus,19,1,1,1,1,1,0,0
1107,6374,10047,bus,19,1,1,1,1,1,0,0
1130,6375,10047,bus,19,1,1,1,1,1,0,0
1162,6376,10047,bus,19,1,1,1,1,1,0,0
1211,6377,10047,bus,19,1,1,1,1,1,0,0
1238,6378,10047,bus,19,1,1,1,1,1,0,0
1273,6379,10047,bus,19,1,1,1,1,1,0,0
1291,6380,10047,bus,19,1,1,1,1,1,0,0
1314,6381,10047,bus,19,1,1,1,1,1,0,0
1346,6382,10047,bus,19,1,1,1,1,1,0,0
1362,6383,10047,bus,19,1,1,1,1,1,0,0
1387,6384,10047,bus,19,1,1,1,1,1,0,0
1417,6385,10047,bus,19,1,1,1,1,1,0,0
351,6386,10048,bus,19,0,0,0,0,0,1,0
418,6387,10048,bus,19,0,0,0,0,0,1,0
451,6388,10048,bus,19,0,0,0,0,0,1,0
484,6389,10048,bus,19,0,0,0,0,0,1,0
517,6390,10048,bus,19,0,0,0,0,0,1,0
554,6391,10048,bus,19,0,0,0,0,0,1,0
583,6392,10048,bus,19,0,0,0,0,0,1,0
629,6393,10048,bus,19,0,0,0,0,0,1,0
661,6394,10048,bus,19,0,0,0,0,0,1,0
684,6395,10048,bus,19,0,0,0,0,0,1,0
700,6396,10048,bus,19,0,0,0,0,0,1,0
729,6397,10048,bus,19,0,0,0,0,0,1,0
767,6398,10048,bus,19,0,0,0,0,0,1,0
781,6399,10048,bus,19,0,0,0,0,0,1,0
806,6400,10048,bus,19,0,0,0,0,0,1,0
847,6401,10048,bus,19,0,0,0,0,0,1,0
873,6402,10048,bus,19,0,0,0,0,0,1,0
886,6403,10048,bus,19,0,0,0,0,0,1,0
925,6404,10048,bus,19,0,0,0,0,0,1,0
956,6405,10048,bus,19,0,0,0,0,0,1,0
985,6406,10048,bus,19,0,0,0,0,0,1,0
997,6407,10048,bus,19,0,0,0,0,0,1,0
1028,6408,10048,bus,19,0,0,0,0,0,1,0
1055,6409,10048,bus,19,0,0,0,0,0,1,0
1071,6410,10048,bus,19,0,0,0,0,0,1,0
1098,6411,10048,bus,19,0,0,0,0,0,1,0
1140,6412,10048,bus,19,0,0,0,0,0,1,0
1195,6413,10048,bus,19,0,0,0,0,0,1,0
1236,6414,10048,bus,19,0,0,0,0,0,1,0
1270,6415,10048,bus,19,0,0,0,0,0,1,0
1308,6416,10048,bus,19,0,0,0,0,0,1,0
1336,6417,10048,bus,19,0,0,0,0,0,1,0
1377,6418,10048,bus,19,0,0,0,0,0,1,0
405,6419,10049,bus,19,0,0,0,0,0,0,1
451,6420,10049,bus,19,0,0,0,0,0,0,1
484,6421,10049,bus,19,0,0,0,0,0,0,1
517,6422,10049,bus,19,0,0,0,0,0,0,1
554,6423,10049,bus,19,0,0,0,0,0,0,1
583,6424,10049,bus,19,0,0,0,0,0,0,1
629,6425,10049,bus,19,0,0,0,0,0,0,1
661,6426,10049,bus,19,0,0,0,0,0,0,1
684,6427,10049,bus,19,0,0,0,0,0,0,1
700,6428,10049,bus,19,0,0,0,0,0,0,1
729,6429,10049,bus,19,0,0,0,0,0,0,1
767,6430,10049,bus,19,0,0,0,0,0,0,1
781,6431,10049,bus,19,0,0,0,0,0,0,1
806,6432,10049,bus,19,0,0,0,0,0,0,1
847,6433,10049,bus,19,0,0,0,0,0,0,1
873,6434,10049,bus,19,0,0,0,0,0,0,1
886,6435,10049,bus,19,0,0,0,0,0,0,1
925,6436,10049,bus,19,0,0,0,0,0,0,1
956,6437,10049,bus,19,0,0,0,0,0,0,1
985,6438,10049,bus,19,0,0,0,0,0,0,1
997,6439,10049,bus,19,0,0,0,0,0,0,1
1028,6440,10049,bus,19,0,0,0,0,0,0,1
1055,6441,10049,bus,19,0,0,0,0,0,0,1
1071,6442,10049,bus,19,0,0,0,0,0,0,1
1098,6443,10049,bus,19,0,0,0,0,0,0,1
1140,6444,10049,bus,19,0,0,0,0,0,0,1
1195,6445,10049,bus,19,0,0,0,0,0,0,1
1236,6446,10049,bus,19,0,0,0,0,0,0,1
1270,6447,10049,bus,19,0,0,0,0,0,0,1
1308,6448,10049,bus,19,0,0,0,0,0,0,1
1336,6449,10049,bus,19,0,0,0,0,0,0,1
1377,6450,10049,bus,19,0,0,0,0,0,0,1
361,15494,10053,bus,82,1,1,1,1,1,0,0
435,15495,10053,bus,82,1,1,1,1,1,0,0
507,15496,10053,bus,82,1,1,1,1,1,0,0
606,15497,10053,bus,82,1,1,1,1,1,0,0
681,15498,10053,bus,82,1,1,1,1,1,0,0
756,15499,10053,bus,82,1,1,1,1,1,0,0
828,15500,10053,bus,82,1,1,1,1,1,0,0
904,15501,10053,bus,82,1,1,1,1,1,0,0
978,15502,10053,bus,82,1,1,1,1,1,0,0
1052,15503,10053,bus,82,1,1,1,1,1,0,0
1152,15504,10053,bus,82,1,1,1,1,1,0,0
1226,15505,10053,bus,82,1,1,1,1,1,0,0
1304,15506,10053,bus,82,1,1,1,1,1,0,0
1378,15507,10053,bus,82,1,1,1,1,1,0,0
357,15508,10054,bus,82,0,0,0,0,0,1,0
434,15509,10054,bus,82,0,0,0,0,0,1,0
507,15510,10054,bus,82,0,0,0,0,0,1,0
603,15511,10054,bus,82,0,0,0,0,0,1,0
676,15512,10054,bus,82,0,0,0,0,0,1,0
749,15513,10054,bus,82,0,0,0,0,0,1,0
824,15514,10054,bus,82,0,0,0,0,0,1,0
897,15515,10054,bus,82,0,0,0,0,0,1,0
970,15516,10054,bus,82,0,0,0,0,0,1,0
1043,15517,10054,bus,82,0,0,0,0,0,1,0
1116,15518,10054,bus,82,0,0,0,0,0,1,0
1212,15519,10054,bus,82,0,0,0,0,0,1,0
1285,15520,10054,bus,82,0,0,0,0,0,1,0
1359,15521,10054,bus,82,0,0,0,0,0,1,0
434,15522,10055,bus,82,0,0,0,0,0,0,1
507,15523,10055,bus,82,0,0,0,0,0,0,1
603,15524,10055,bus,82,0,0,0,0,0,0,1
676,15525,10055,bus,82,0,0,0,0,0,0,1
749,15526,10055,bus,82,0,0,0,0,0,0,1
824,15527,10055,bus,82,0,0,0,0,0,0,1
897,15528,10055,bus,82,0,0,0,0,0,0,1
970,15529,10055,bus,82,0,0,0,0,0,0,1
1043,15530,10055,bus,82,0,0,0,0,0,0,1
1116,15531,10055,bus,82,0,0,0,0,0,0,1
1212,15532,10055,bus,82,0,0,0,0,0,0,1
1285,15533,10055,bus,82,0,0,0,0,0,0,1
1359,15534,10055,bus,82,0,0,0,0,0,0,1
394,15535,10053,bus,82,1,1,1,1,1,0,0
465,15536,10053,bus,82,1,1,1,1,1,0,0
547,15537,10053,bus,82,1,1,1,1,1,0,0
651,15538,10053,bus,82,1,1,1,1,1,0,0
724,15539,10053,bus,82,1,1,1,1,1,0,0
795,15540,10053,bus,82,1,1,1,1,1,0,0
868,15541,10053,bus,82,1,1,1,1,1,0,0
940,15542,10053,bus,82,1,1,1,1,1,0,0
1016,15543,10053,bus,82,1,1,1,1,1,0,0
1090,15544,10053,bus,82,1,1,1,1,1,0,0
1187,15545,10053,bus,82,1,1,1,1,1,0,0
1258,15546,10053,bus,82,1,1,1,1,1,0,0
1332,15547,10053,bus,82,1,1,1,1,1,0,0
396,15548,10054,bus,82,0,0,0,0,0,1,0
471,15549,10054,bus,82,0,0,0,0,0,1,0
543,15550,10054,bus,82,0,0,0,0,0,1,0
643,15551,10054,bus,82,0,0,0,0,0,1,0
718,15552,10054,bus,82,0,0,0,0,0,1,0
790,15553,10054,bus,82,0,0,0,0,0,1,0
862,15554,10054,bus,82,0,0,0,0,0,1,0
937,15555,10054,bus,82,0,0,0,0,0,1,0
1010,15556,10054,bus,82,0,0,0,0,0,1,0
1081,15557,10054,bus,82,0,0,0,0,0,1,0
1152,15558,10054,bus,82,0,0,0,0,0,1,0
1249,15559,10054,bus,82,0,0,0,0,0,1,0
1320,15560,10054,bus,82,0,0,0,0,0,1,0
1397,15561,10054,bus,82,0,0,0,0,0,1,0
396,15562,10055,bus,82,0,0,0,0,0,0,1
471,15563,10055,bus,82,0,0,0,0,0,0,1
543,15564,10055,bus,82,0,0,0,0,0,0,1
643,15565,10055,bus,82,0,0,0,0,0,0,1
718,15566,10055,bus,82,0,0,0,0,0,0,1
790,15567,10055,bus,82,0,0,0,0,0,0,1
862,15568,10055,bus,82,0,0,0,0,0,0,1
937,15569,10055,bus,82,0,0,0,0,0,0,1
1010,15570,10055,bus,82,0,0,0,0,0,0,1
1081,15571,10055,bus,82,0,0,0,0,0,0,1
1152,15572,10055,bus,82,0,0,0,0,0,0,1
1249,15573,10055,bus,82,0,0,0,0,0,0,1
1320,15574,10055,bus,82,0,0,0,0,0,0,1
1397,15575,10055,bus,82,0,0,0,0,0,0,1
