timeInMin,trip_id,service_id,tipas,numeris,pirmadienis,antradienis,treciadienis,ketvirtadienis,penktadienis,sestadienis,sekmadienis 
368,5344,10658,bus,12,1,1,1,1,1,0,0
410,5345,10658,bus,12,1,1,1,1,1,0,0
449,5346,10658,bus,12,1,1,1,1,1,0,0
498,5347,10658,bus,12,1,1,1,1,1,0,0
538,5348,10658,bus,12,1,1,1,1,1,0,0
602,5349,10658,bus,12,1,1,1,1,1,0,0
653,5350,10658,bus,12,1,1,1,1,1,0,0
712,5351,10658,bus,12,1,1,1,1,1,0,0
768,5352,10658,bus,12,1,1,1,1,1,0,0
801,5353,10658,bus,12,1,1,1,1,1,0,0
850,5354,10658,bus,12,1,1,1,1,1,0,0
899,5355,10658,bus,12,1,1,1,1,1,0,0
950,5356,10658,bus,12,1,1,1,1,1,0,0
984,5357,10658,bus,12,1,1,1,1,1,0,0
1033,5358,10658,bus,12,1,1,1,1,1,0,0
1066,5359,10658,bus,12,1,1,1,1,1,0,0
1120,5360,10658,bus,12,1,1,1,1,1,0,0
1184,5361,10658,bus,12,1,1,1,1,1,0,0
1231,5362,10658,bus,12,1,1,1,1,1,0,0
1266,5363,10658,bus,12,1,1,1,1,1,0,0
1312,5364,10658,bus,12,1,1,1,1,1,0,0
1351,5365,10658,bus,12,1,1,1,1,1,0,0
1392,5366,10658,bus,12,1,1,1,1,1,0,0
373,5367,10659,bus,12,0,0,0,0,0,1,0
449,5368,10659,bus,12,0,0,0,0,0,1,0
522,5369,10659,bus,12,0,0,0,0,0,1,0
631,5370,10659,bus,12,0,0,0,0,0,1,0
750,5371,10659,bus,12,0,0,0,0,0,1,0
826,5372,10659,bus,12,0,0,0,0,0,1,0
907,5373,10659,bus,12,0,0,0,0,0,1,0
989,5374,10659,bus,12,0,0,0,0,0,1,0
1072,5375,10659,bus,12,0,0,0,0,0,1,0
1173,5376,10659,bus,12,0,0,0,0,0,1,0
1244,5377,10659,bus,12,0,0,0,0,0,1,0
1312,5378,10659,bus,12,0,0,0,0,0,1,0
1386,5379,10659,bus,12,0,0,0,0,0,1,0
388,5380,10660,bus,12,0,0,0,0,0,0,1
464,5381,10660,bus,12,0,0,0,0,0,0,1
544,5382,10660,bus,12,0,0,0,0,0,0,1
653,5383,10660,bus,12,0,0,0,0,0,0,1
772,5384,10660,bus,12,0,0,0,0,0,0,1
848,5385,10660,bus,12,0,0,0,0,0,0,1
929,5386,10660,bus,12,0,0,0,0,0,0,1
1005,5387,10660,bus,12,0,0,0,0,0,0,1
1081,5388,10660,bus,12,0,0,0,0,0,0,1
1155,5389,10660,bus,12,0,0,0,0,0,0,1
1261,5390,10660,bus,12,0,0,0,0,0,0,1
1332,5391,10660,bus,12,0,0,0,0,0,0,1
1400,5392,10660,bus,12,0,0,0,0,0,0,1
331,5393,10658,bus,12,1,1,1,1,1,0,0
