timeInMin,trip_id,service_id,tipas,numeris,pirmadienis,antradienis,treciadienis,ketvirtadienis,penktadienis,sestadienis,sekmadienis 
337,5296,10658,bus,12,1,1,1,1,1,0,0
376,5297,10658,bus,12,1,1,1,1,1,0,0
413,5298,10658,bus,12,1,1,1,1,1,0,0
467,5299,10658,bus,12,1,1,1,1,1,0,0
507,5300,10658,bus,12,1,1,1,1,1,0,0
571,5301,10658,bus,12,1,1,1,1,1,0,0
621,5302,10658,bus,12,1,1,1,1,1,0,0
681,5303,10658,bus,12,1,1,1,1,1,0,0
736,5304,10658,bus,12,1,1,1,1,1,0,0
771,5305,10658,bus,12,1,1,1,1,1,0,0
819,5306,10658,bus,12,1,1,1,1,1,0,0
857,5307,10658,bus,12,1,1,1,1,1,0,0
906,5308,10658,bus,12,1,1,1,1,1,0,0
953,5309,10658,bus,12,1,1,1,1,1,0,0
1002,5310,10658,bus,12,1,1,1,1,1,0,0
1034,5311,10658,bus,12,1,1,1,1,1,0,0
1089,5312,10658,bus,12,1,1,1,1,1,0,0
1149,5313,10658,bus,12,1,1,1,1,1,0,0
1200,5314,10658,bus,12,1,1,1,1,1,0,0
1235,5315,10658,bus,12,1,1,1,1,1,0,0
1281,5316,10658,bus,12,1,1,1,1,1,0,0
1321,5317,10658,bus,12,1,1,1,1,1,0,0
1362,5318,10658,bus,12,1,1,1,1,1,0,0
342,5319,10659,bus,12,0,0,0,0,0,1,0
418,5320,10659,bus,12,0,0,0,0,0,1,0
491,5321,10659,bus,12,0,0,0,0,0,1,0
600,5322,10659,bus,12,0,0,0,0,0,1,0
712,5323,10659,bus,12,0,0,0,0,0,1,0
795,5324,10659,bus,12,0,0,0,0,0,1,0
876,5325,10659,bus,12,0,0,0,0,0,1,0
958,5326,10659,bus,12,0,0,0,0,0,1,0
1034,5327,10659,bus,12,0,0,0,0,0,1,0
1144,5328,10659,bus,12,0,0,0,0,0,1,0
1215,5329,10659,bus,12,0,0,0,0,0,1,0
1284,5330,10659,bus,12,0,0,0,0,0,1,0
1355,5331,10659,bus,12,0,0,0,0,0,1,0
433,5332,10660,bus,12,0,0,0,0,0,0,1
513,5333,10660,bus,12,0,0,0,0,0,0,1
622,5334,10660,bus,12,0,0,0,0,0,0,1
734,5335,10660,bus,12,0,0,0,0,0,0,1
817,5336,10660,bus,12,0,0,0,0,0,0,1
898,5337,10660,bus,12,0,0,0,0,0,0,1
974,5338,10660,bus,12,0,0,0,0,0,0,1
1050,5339,10660,bus,12,0,0,0,0,0,0,1
1124,5340,10660,bus,12,0,0,0,0,0,0,1
1233,5341,10660,bus,12,0,0,0,0,0,0,1
1304,5342,10660,bus,12,0,0,0,0,0,0,1
1373,5343,10660,bus,12,0,0,0,0,0,0,1
322,5401,10658,bus,12,1,1,1,1,1,0,0
