timeInMin,trip_id,service_id,tipas,numeris,pirmadienis,antradienis,treciadienis,ketvirtadienis,penktadienis,sestadienis,sekmadienis 
354,13527,9756,bus,58,1,1,1,1,1,0,0
383,13528,9756,bus,58,1,1,1,1,1,0,0
413,13529,9756,bus,58,1,1,1,1,1,0,0
445,13530,9756,bus,58,1,1,1,1,1,0,0
476,13531,9756,bus,58,1,1,1,1,1,0,0
511,13532,9756,bus,58,1,1,1,1,1,0,0
541,13533,9756,bus,58,1,1,1,1,1,0,0
576,13534,9756,bus,58,1,1,1,1,1,0,0
630,13535,9756,bus,58,1,1,1,1,1,0,0
689,13536,9756,bus,58,1,1,1,1,1,0,0
748,13537,9756,bus,58,1,1,1,1,1,0,0
810,13538,9756,bus,58,1,1,1,1,1,0,0
874,13539,9756,bus,58,1,1,1,1,1,0,0
933,13540,9756,bus,58,1,1,1,1,1,0,0
963,13541,9756,bus,58,1,1,1,1,1,0,0
992,13542,9756,bus,58,1,1,1,1,1,0,0
1024,13543,9756,bus,58,1,1,1,1,1,0,0
1056,13544,9756,bus,58,1,1,1,1,1,0,0
1097,13545,9756,bus,58,1,1,1,1,1,0,0
1145,13546,9756,bus,58,1,1,1,1,1,0,0
1204,13547,9756,bus,58,1,1,1,1,1,0,0
1263,13548,9756,bus,58,1,1,1,1,1,0,0
1323,13549,9756,bus,58,1,1,1,1,1,0,0
1382,13550,9756,bus,58,1,1,1,1,1,0,0
357,13551,9136,bus,58,0,0,0,0,0,1,0
414,13552,9136,bus,58,0,0,0,0,0,1,0
471,13553,9136,bus,58,0,0,0,0,0,1,0
528,13554,9136,bus,58,0,0,0,0,0,1,0
628,13555,9136,bus,58,0,0,0,0,0,1,0
685,13556,9136,bus,58,0,0,0,0,0,1,0
742,13557,9136,bus,58,0,0,0,0,0,1,0
799,13558,9136,bus,58,0,0,0,0,0,1,0
861,13559,9136,bus,58,0,0,0,0,0,1,0
918,13560,9136,bus,58,0,0,0,0,0,1,0
975,13561,9136,bus,58,0,0,0,0,0,1,0
1032,13562,9136,bus,58,0,0,0,0,0,1,0
1089,13563,9136,bus,58,0,0,0,0,0,1,0
1189,13564,9136,bus,58,0,0,0,0,0,1,0
1246,13565,9136,bus,58,0,0,0,0,0,1,0
1303,13566,9136,bus,58,0,0,0,0,0,1,0
1360,13567,9136,bus,58,0,0,0,0,0,1,0
414,13568,9137,bus,58,0,0,0,0,0,0,1
471,13569,9137,bus,58,0,0,0,0,0,0,1
528,13570,9137,bus,58,0,0,0,0,0,0,1
628,13571,9137,bus,58,0,0,0,0,0,0,1
685,13572,9137,bus,58,0,0,0,0,0,0,1
742,13573,9137,bus,58,0,0,0,0,0,0,1
799,13574,9137,bus,58,0,0,0,0,0,0,1
861,13575,9137,bus,58,0,0,0,0,0,0,1
918,13576,9137,bus,58,0,0,0,0,0,0,1
975,13577,9137,bus,58,0,0,0,0,0,0,1
1032,13578,9137,bus,58,0,0,0,0,0,0,1
1089,13579,9137,bus,58,0,0,0,0,0,0,1
1189,13580,9137,bus,58,0,0,0,0,0,0,1
1246,13581,9137,bus,58,0,0,0,0,0,0,1
1303,13582,9137,bus,58,0,0,0,0,0,0,1
1360,13583,9137,bus,58,0,0,0,0,0,0,1
