timeInMin,trip_id,service_id,tipas,numeris,pirmadienis,antradienis,treciadienis,ketvirtadienis,penktadienis,sestadienis,sekmadienis 
338,13471,9756,bus,58,1,1,1,1,1,0,0
368,13472,9756,bus,58,1,1,1,1,1,0,0
398,13473,9756,bus,58,1,1,1,1,1,0,0
427,13474,9756,bus,58,1,1,1,1,1,0,0
460,13475,9756,bus,58,1,1,1,1,1,0,0
494,13476,9756,bus,58,1,1,1,1,1,0,0
529,13477,9756,bus,58,1,1,1,1,1,0,0
585,13478,9756,bus,58,1,1,1,1,1,0,0
644,13479,9756,bus,58,1,1,1,1,1,0,0
703,13480,9756,bus,58,1,1,1,1,1,0,0
765,13481,9756,bus,58,1,1,1,1,1,0,0
824,13482,9756,bus,58,1,1,1,1,1,0,0
888,13483,9756,bus,58,1,1,1,1,1,0,0
918,13484,9756,bus,58,1,1,1,1,1,0,0
947,13485,9756,bus,58,1,1,1,1,1,0,0
979,13486,9756,bus,58,1,1,1,1,1,0,0
1009,13487,9756,bus,58,1,1,1,1,1,0,0
1050,13488,9756,bus,58,1,1,1,1,1,0,0
1098,13489,9756,bus,58,1,1,1,1,1,0,0
1159,13490,9756,bus,58,1,1,1,1,1,0,0
1218,13491,9756,bus,58,1,1,1,1,1,0,0
1277,13492,9756,bus,58,1,1,1,1,1,0,0
1337,13493,9756,bus,58,1,1,1,1,1,0,0
315,13494,9136,bus,58,0,0,0,0,0,1,0
372,13495,9136,bus,58,0,0,0,0,0,1,0
429,13496,9136,bus,58,0,0,0,0,0,1,0
486,13497,9136,bus,58,0,0,0,0,0,1,0
586,13498,9136,bus,58,0,0,0,0,0,1,0
643,13499,9136,bus,58,0,0,0,0,0,1,0
700,13500,9136,bus,58,0,0,0,0,0,1,0
757,13501,9136,bus,58,0,0,0,0,0,1,0
819,13502,9136,bus,58,0,0,0,0,0,1,0
876,13503,9136,bus,58,0,0,0,0,0,1,0
933,13504,9136,bus,58,0,0,0,0,0,1,0
990,13505,9136,bus,58,0,0,0,0,0,1,0
1047,13506,9136,bus,58,0,0,0,0,0,1,0
1147,13507,9136,bus,58,0,0,0,0,0,1,0
1204,13508,9136,bus,58,0,0,0,0,0,1,0
1261,13509,9136,bus,58,0,0,0,0,0,1,0
1318,13510,9136,bus,58,0,0,0,0,0,1,0
372,13511,9137,bus,58,0,0,0,0,0,0,1
429,13512,9137,bus,58,0,0,0,0,0,0,1
486,13513,9137,bus,58,0,0,0,0,0,0,1
586,13514,9137,bus,58,0,0,0,0,0,0,1
643,13515,9137,bus,58,0,0,0,0,0,0,1
700,13516,9137,bus,58,0,0,0,0,0,0,1
757,13517,9137,bus,58,0,0,0,0,0,0,1
819,13518,9137,bus,58,0,0,0,0,0,0,1
876,13519,9137,bus,58,0,0,0,0,0,0,1
933,13520,9137,bus,58,0,0,0,0,0,0,1
990,13521,9137,bus,58,0,0,0,0,0,0,1
1047,13522,9137,bus,58,0,0,0,0,0,0,1
1147,13523,9137,bus,58,0,0,0,0,0,0,1
1204,13524,9137,bus,58,0,0,0,0,0,0,1
1261,13525,9137,bus,58,0,0,0,0,0,0,1
1318,13526,9137,bus,58,0,0,0,0,0,0,1
