timeInMin,trip_id,service_id,tipas,numeris,pirmadienis,antradienis,treciadienis,ketvirtadienis,penktadienis,sestadienis,sekmadienis 
341,5729,10044,bus,16,1,1,1,1,1,0,0
373,5730,10044,bus,16,1,1,1,1,1,0,0
389,5731,10044,bus,16,1,1,1,1,1,0,0
417,5732,10044,bus,16,1,1,1,1,1,0,0
442,5733,10044,bus,16,1,1,1,1,1,0,0
482,5734,10044,bus,16,1,1,1,1,1,0,0
525,5735,10044,bus,16,1,1,1,1,1,0,0
565,5736,10044,bus,16,1,1,1,1,1,0,0
595,5737,10044,bus,16,1,1,1,1,1,0,0
633,5738,10044,bus,16,1,1,1,1,1,0,0
691,5739,10044,bus,16,1,1,1,1,1,0,0
720,5740,10044,bus,16,1,1,1,1,1,0,0
765,5741,10044,bus,16,1,1,1,1,1,0,0
791,5742,10044,bus,16,1,1,1,1,1,0,0
841,5743,10044,bus,16,1,1,1,1,1,0,0
871,5744,10044,bus,16,1,1,1,1,1,0,0
915,5745,10044,bus,16,1,1,1,1,1,0,0
945,5746,10044,bus,16,1,1,1,1,1,0,0
972,5747,10044,bus,16,1,1,1,1,1,0,0
989,5748,10044,bus,16,1,1,1,1,1,0,0
1021,5749,10044,bus,16,1,1,1,1,1,0,0
1049,5750,10044,bus,16,1,1,1,1,1,0,0
1070,5751,10044,bus,16,1,1,1,1,1,0,0
1096,5752,10044,bus,16,1,1,1,1,1,0,0
1119,5753,10044,bus,16,1,1,1,1,1,0,0
1168,5754,10044,bus,16,1,1,1,1,1,0,0
1209,5755,10044,bus,16,1,1,1,1,1,0,0
1264,5756,10044,bus,16,1,1,1,1,1,0,0
1307,5757,10044,bus,16,1,1,1,1,1,0,0
1383,5758,10044,bus,16,1,1,1,1,1,0,0
361,5759,10045,bus,16,0,0,0,0,0,1,0
431,5760,10045,bus,16,0,0,0,0,0,1,0
507,5761,10045,bus,16,0,0,0,0,0,1,0
572,5762,10045,bus,16,0,0,0,0,0,1,0
623,5763,10045,bus,16,0,0,0,0,0,1,0
665,5764,10045,bus,16,0,0,0,0,0,1,0
689,5765,10045,bus,16,0,0,0,0,0,1,0
754,5766,10045,bus,16,0,0,0,0,0,1,0
773,5767,10045,bus,16,0,0,0,0,0,1,0
838,5768,10045,bus,16,0,0,0,0,0,1,0
854,5769,10045,bus,16,0,0,0,0,0,1,0
909,5770,10045,bus,16,0,0,0,0,0,1,0
947,5771,10045,bus,16,0,0,0,0,0,1,0
980,5772,10045,bus,16,0,0,0,0,0,1,0
1012,5773,10045,bus,16,0,0,0,0,0,1,0
1045,5774,10045,bus,16,0,0,0,0,0,1,0
1077,5775,10045,bus,16,0,0,0,0,0,1,0
1110,5776,10045,bus,16,0,0,0,0,0,1,0
1203,5777,10045,bus,16,0,0,0,0,0,1,0
1311,5778,10045,bus,16,0,0,0,0,0,1,0
1385,5779,10045,bus,16,0,0,0,0,0,1,0
413,5780,10046,bus,16,0,0,0,0,0,0,1
507,5781,10046,bus,16,0,0,0,0,0,0,1
572,5782,10046,bus,16,0,0,0,0,0,0,1
623,5783,10046,bus,16,0,0,0,0,0,0,1
665,5784,10046,bus,16,0,0,0,0,0,0,1
689,5785,10046,bus,16,0,0,0,0,0,0,1
754,5786,10046,bus,16,0,0,0,0,0,0,1
773,5787,10046,bus,16,0,0,0,0,0,0,1
838,5788,10046,bus,16,0,0,0,0,0,0,1
854,5789,10046,bus,16,0,0,0,0,0,0,1
909,5790,10046,bus,16,0,0,0,0,0,0,1
947,5791,10046,bus,16,0,0,0,0,0,0,1
980,5792,10046,bus,16,0,0,0,0,0,0,1
1012,5793,10046,bus,16,0,0,0,0,0,0,1
1045,5794,10046,bus,16,0,0,0,0,0,0,1
1077,5795,10046,bus,16,0,0,0,0,0,0,1
1110,5796,10046,bus,16,0,0,0,0,0,0,1
1203,5797,10046,bus,16,0,0,0,0,0,0,1
1311,5798,10046,bus,16,0,0,0,0,0,0,1
1385,5799,10046,bus,16,0,0,0,0,0,0,1
458,5878,10044,bus,16,1,1,1,1,1,0,0
324,5893,10044,bus,16,1,1,1,1,1,0,0
