timeInMin,trip_id,service_id,tipas,numeris,pirmadienis,antradienis,treciadienis,ketvirtadienis,penktadienis,sestadienis,sekmadienis 
331,5948,10345,bus,17,1,1,1,1,1,0,0
361,5949,10345,bus,17,1,1,1,1,1,0,0
395,5950,10345,bus,17,1,1,1,1,1,0,0
425,5951,10345,bus,17,1,1,1,1,1,0,0
459,5952,10345,bus,17,1,1,1,1,1,0,0
489,5953,10345,bus,17,1,1,1,1,1,0,0
523,5954,10345,bus,17,1,1,1,1,1,0,0
556,5955,10345,bus,17,1,1,1,1,1,0,0
613,5956,10345,bus,17,1,1,1,1,1,0,0
679,5957,10345,bus,17,1,1,1,1,1,0,0
747,5958,10345,bus,17,1,1,1,1,1,0,0
822,5959,10345,bus,17,1,1,1,1,1,0,0
886,5960,10345,bus,17,1,1,1,1,1,0,0
950,5961,10345,bus,17,1,1,1,1,1,0,0
990,5962,10345,bus,17,1,1,1,1,1,0,0
1014,5963,10345,bus,17,1,1,1,1,1,0,0
1054,5964,10345,bus,17,1,1,1,1,1,0,0
1087,5965,10345,bus,17,1,1,1,1,1,0,0
1118,5966,10345,bus,17,1,1,1,1,1,0,0
1178,5967,10345,bus,17,1,1,1,1,1,0,0
1233,5968,10345,bus,17,1,1,1,1,1,0,0
1289,5969,10345,bus,17,1,1,1,1,1,0,0
1345,5970,10345,bus,17,1,1,1,1,1,0,0
1401,5971,10345,bus,17,1,1,1,1,1,0,0
368,5972,10346,bus,17,0,0,0,0,0,1,0
432,5973,10346,bus,17,0,0,0,0,0,1,0
496,5974,10346,bus,17,0,0,0,0,0,1,0
593,5975,10346,bus,17,0,0,0,0,0,1,0
662,5976,10346,bus,17,0,0,0,0,0,1,0
726,5977,10346,bus,17,0,0,0,0,0,1,0
790,5978,10346,bus,17,0,0,0,0,0,1,0
854,5979,10346,bus,17,0,0,0,0,0,1,0
918,5980,10346,bus,17,0,0,0,0,0,1,0
983,5981,10346,bus,17,0,0,0,0,0,1,0
1047,5982,10346,bus,17,0,0,0,0,0,1,0
1118,5983,10346,bus,17,0,0,0,0,0,1,0
1208,5984,10346,bus,17,0,0,0,0,0,1,0
1290,5985,10346,bus,17,0,0,0,0,0,1,0
1346,5986,10346,bus,17,0,0,0,0,0,1,0
1400,5987,10346,bus,17,0,0,0,0,0,1,0
432,5988,10347,bus,17,0,0,0,0,0,0,1
496,5989,10347,bus,17,0,0,0,0,0,0,1
593,5990,10347,bus,17,0,0,0,0,0,0,1
662,5991,10347,bus,17,0,0,0,0,0,0,1
726,5992,10347,bus,17,0,0,0,0,0,0,1
790,5993,10347,bus,17,0,0,0,0,0,0,1
854,5994,10347,bus,17,0,0,0,0,0,0,1
918,5995,10347,bus,17,0,0,0,0,0,0,1
983,5996,10347,bus,17,0,0,0,0,0,0,1
1047,5997,10347,bus,17,0,0,0,0,0,0,1
1118,5998,10347,bus,17,0,0,0,0,0,0,1
1208,5999,10347,bus,17,0,0,0,0,0,0,1
1290,6000,10347,bus,17,0,0,0,0,0,0,1
1346,6001,10347,bus,17,0,0,0,0,0,0,1
1400,6002,10347,bus,17,0,0,0,0,0,0,1
353,9959,7892,bus,39,1,1,1,1,1,0,0
417,9960,7892,bus,39,1,1,1,1,1,0,0
481,9961,7892,bus,39,1,1,1,1,1,0,0
545,9962,7892,bus,39,1,1,1,1,1,0,0
651,9963,7892,bus,39,1,1,1,1,1,0,0
715,9964,7892,bus,39,1,1,1,1,1,0,0
779,9965,7892,bus,39,1,1,1,1,1,0,0
848,9966,7892,bus,39,1,1,1,1,1,0,0
912,9967,7892,bus,39,1,1,1,1,1,0,0
976,9968,7892,bus,39,1,1,1,1,1,0,0
1046,9969,7892,bus,39,1,1,1,1,1,0,0
1137,9970,7892,bus,39,1,1,1,1,1,0,0
1197,9971,7892,bus,39,1,1,1,1,1,0,0
1256,9972,7892,bus,39,1,1,1,1,1,0,0
1316,9973,7892,bus,39,1,1,1,1,1,0,0
407,9974,7440,bus,39,0,0,0,0,0,1,0
473,9975,7440,bus,39,0,0,0,0,0,1,0
555,9976,7440,bus,39,0,0,0,0,0,1,0
644,9977,7440,bus,39,0,0,0,0,0,1,0
706,9978,7440,bus,39,0,0,0,0,0,1,0
768,9979,7440,bus,39,0,0,0,0,0,1,0
830,9980,7440,bus,39,0,0,0,0,0,1,0
897,9981,7440,bus,39,0,0,0,0,0,1,0
959,9982,7440,bus,39,0,0,0,0,0,1,0
1021,9983,7440,bus,39,0,0,0,0,0,1,0
1083,9984,7440,bus,39,0,0,0,0,0,1,0
1173,9985,7440,bus,39,0,0,0,0,0,1,0
1226,9986,7440,bus,39,0,0,0,0,0,1,0
1281,9987,7440,bus,39,0,0,0,0,0,1,0
1335,9988,7440,bus,39,0,0,0,0,0,1,0
473,9989,7441,bus,39,0,0,0,0,0,0,1
555,9990,7441,bus,39,0,0,0,0,0,0,1
644,9991,7441,bus,39,0,0,0,0,0,0,1
706,9992,7441,bus,39,0,0,0,0,0,0,1
768,9993,7441,bus,39,0,0,0,0,0,0,1
830,9994,7441,bus,39,0,0,0,0,0,0,1
897,9995,7441,bus,39,0,0,0,0,0,0,1
959,9996,7441,bus,39,0,0,0,0,0,0,1
1021,9997,7441,bus,39,0,0,0,0,0,0,1
1083,9998,7441,bus,39,0,0,0,0,0,0,1
1173,9999,7441,bus,39,0,0,0,0,0,0,1
1226,10000,7441,bus,39,0,0,0,0,0,0,1
1281,10001,7441,bus,39,0,0,0,0,0,0,1
1335,10002,7441,bus,39,0,0,0,0,0,0,1
