timeInMin,trip_id,service_id,tipas,numeris,pirmadienis,antradienis,treciadienis,ketvirtadienis,penktadienis,sestadienis,sekmadienis 
346,5894,10345,bus,17,1,1,1,1,1,0,0
380,5895,10345,bus,17,1,1,1,1,1,0,0
410,5896,10345,bus,17,1,1,1,1,1,0,0
444,5897,10345,bus,17,1,1,1,1,1,0,0
474,5898,10345,bus,17,1,1,1,1,1,0,0
508,5899,10345,bus,17,1,1,1,1,1,0,0
541,5900,10345,bus,17,1,1,1,1,1,0,0
598,5901,10345,bus,17,1,1,1,1,1,0,0
664,5902,10345,bus,17,1,1,1,1,1,0,0
732,5903,10345,bus,17,1,1,1,1,1,0,0
807,5904,10345,bus,17,1,1,1,1,1,0,0
871,5905,10345,bus,17,1,1,1,1,1,0,0
935,5906,10345,bus,17,1,1,1,1,1,0,0
975,5907,10345,bus,17,1,1,1,1,1,0,0
999,5908,10345,bus,17,1,1,1,1,1,0,0
1039,5909,10345,bus,17,1,1,1,1,1,0,0
1072,5910,10345,bus,17,1,1,1,1,1,0,0
1103,5911,10345,bus,17,1,1,1,1,1,0,0
1163,5912,10345,bus,17,1,1,1,1,1,0,0
1222,5913,10345,bus,17,1,1,1,1,1,0,0
1278,5914,10345,bus,17,1,1,1,1,1,0,0
1334,5915,10345,bus,17,1,1,1,1,1,0,0
1390,5916,10345,bus,17,1,1,1,1,1,0,0
355,5917,10346,bus,17,0,0,0,0,0,1,0
418,5918,10346,bus,17,0,0,0,0,0,1,0
482,5919,10346,bus,17,0,0,0,0,0,1,0
579,5920,10346,bus,17,0,0,0,0,0,1,0
648,5921,10346,bus,17,0,0,0,0,0,1,0
712,5922,10346,bus,17,0,0,0,0,0,1,0
776,5923,10346,bus,17,0,0,0,0,0,1,0
840,5924,10346,bus,17,0,0,0,0,0,1,0
904,5925,10346,bus,17,0,0,0,0,0,1,0
969,5926,10346,bus,17,0,0,0,0,0,1,0
1033,5927,10346,bus,17,0,0,0,0,0,1,0
1104,5928,10346,bus,17,0,0,0,0,0,1,0
1195,5929,10346,bus,17,0,0,0,0,0,1,0
1277,5930,10346,bus,17,0,0,0,0,0,1,0
1333,5931,10346,bus,17,0,0,0,0,0,1,0
1389,5932,10346,bus,17,0,0,0,0,0,1,0
418,5933,10347,bus,17,0,0,0,0,0,0,1
482,5934,10347,bus,17,0,0,0,0,0,0,1
579,5935,10347,bus,17,0,0,0,0,0,0,1
648,5936,10347,bus,17,0,0,0,0,0,0,1
712,5937,10347,bus,17,0,0,0,0,0,0,1
776,5938,10347,bus,17,0,0,0,0,0,0,1
840,5939,10347,bus,17,0,0,0,0,0,0,1
904,5940,10347,bus,17,0,0,0,0,0,0,1
969,5941,10347,bus,17,0,0,0,0,0,0,1
1033,5942,10347,bus,17,0,0,0,0,0,0,1
1104,5943,10347,bus,17,0,0,0,0,0,0,1
1195,5944,10347,bus,17,0,0,0,0,0,0,1
1277,5945,10347,bus,17,0,0,0,0,0,0,1
1333,5946,10347,bus,17,0,0,0,0,0,0,1
1389,5947,10347,bus,17,0,0,0,0,0,0,1
316,5948,10345,bus,17,1,1,1,1,1,0,0
346,5949,10345,bus,17,1,1,1,1,1,0,0
380,5950,10345,bus,17,1,1,1,1,1,0,0
410,5951,10345,bus,17,1,1,1,1,1,0,0
444,5952,10345,bus,17,1,1,1,1,1,0,0
474,5953,10345,bus,17,1,1,1,1,1,0,0
508,5954,10345,bus,17,1,1,1,1,1,0,0
541,5955,10345,bus,17,1,1,1,1,1,0,0
598,5956,10345,bus,17,1,1,1,1,1,0,0
664,5957,10345,bus,17,1,1,1,1,1,0,0
732,5958,10345,bus,17,1,1,1,1,1,0,0
807,5959,10345,bus,17,1,1,1,1,1,0,0
871,5960,10345,bus,17,1,1,1,1,1,0,0
935,5961,10345,bus,17,1,1,1,1,1,0,0
975,5962,10345,bus,17,1,1,1,1,1,0,0
999,5963,10345,bus,17,1,1,1,1,1,0,0
1039,5964,10345,bus,17,1,1,1,1,1,0,0
1072,5965,10345,bus,17,1,1,1,1,1,0,0
1103,5966,10345,bus,17,1,1,1,1,1,0,0
1163,5967,10345,bus,17,1,1,1,1,1,0,0
1222,5968,10345,bus,17,1,1,1,1,1,0,0
1278,5969,10345,bus,17,1,1,1,1,1,0,0
1334,5970,10345,bus,17,1,1,1,1,1,0,0
1390,5971,10345,bus,17,1,1,1,1,1,0,0
355,5972,10346,bus,17,0,0,0,0,0,1,0
419,5973,10346,bus,17,0,0,0,0,0,1,0
483,5974,10346,bus,17,0,0,0,0,0,1,0
580,5975,10346,bus,17,0,0,0,0,0,1,0
649,5976,10346,bus,17,0,0,0,0,0,1,0
713,5977,10346,bus,17,0,0,0,0,0,1,0
777,5978,10346,bus,17,0,0,0,0,0,1,0
841,5979,10346,bus,17,0,0,0,0,0,1,0
905,5980,10346,bus,17,0,0,0,0,0,1,0
970,5981,10346,bus,17,0,0,0,0,0,1,0
1034,5982,10346,bus,17,0,0,0,0,0,1,0
1105,5983,10346,bus,17,0,0,0,0,0,1,0
1196,5984,10346,bus,17,0,0,0,0,0,1,0
1278,5985,10346,bus,17,0,0,0,0,0,1,0
1334,5986,10346,bus,17,0,0,0,0,0,1,0
1389,5987,10346,bus,17,0,0,0,0,0,1,0
419,5988,10347,bus,17,0,0,0,0,0,0,1
483,5989,10347,bus,17,0,0,0,0,0,0,1
580,5990,10347,bus,17,0,0,0,0,0,0,1
649,5991,10347,bus,17,0,0,0,0,0,0,1
713,5992,10347,bus,17,0,0,0,0,0,0,1
777,5993,10347,bus,17,0,0,0,0,0,0,1
841,5994,10347,bus,17,0,0,0,0,0,0,1
905,5995,10347,bus,17,0,0,0,0,0,0,1
970,5996,10347,bus,17,0,0,0,0,0,0,1
1034,5997,10347,bus,17,0,0,0,0,0,0,1
1105,5998,10347,bus,17,0,0,0,0,0,0,1
1196,5999,10347,bus,17,0,0,0,0,0,0,1
1278,6000,10347,bus,17,0,0,0,0,0,0,1
1334,6001,10347,bus,17,0,0,0,0,0,0,1
1389,6002,10347,bus,17,0,0,0,0,0,0,1
316,6010,10345,bus,17,1,1,1,1,1,0,0
