timeInMin,trip_id,service_id,tipas,numeris,pirmadienis,antradienis,treciadienis,ketvirtadienis,penktadienis,sestadienis,sekmadienis 
354,6113,10348,bus,18,1,1,1,1,1,0,0
377,6114,10348,bus,18,1,1,1,1,1,0,0
408,6115,10348,bus,18,1,1,1,1,1,0,0
431,6116,10348,bus,18,1,1,1,1,1,0,0
447,6117,10348,bus,18,1,1,1,1,1,0,0
471,6118,10348,bus,18,1,1,1,1,1,0,0
487,6119,10348,bus,18,1,1,1,1,1,0,0
507,6120,10348,bus,18,1,1,1,1,1,0,0
525,6121,10348,bus,18,1,1,1,1,1,0,0
540,6122,10348,bus,18,1,1,1,1,1,0,0
564,6123,10348,bus,18,1,1,1,1,1,0,0
581,6124,10348,bus,18,1,1,1,1,1,0,0
602,6125,10348,bus,18,1,1,1,1,1,0,0
630,6126,10348,bus,18,1,1,1,1,1,0,0
661,6127,10348,bus,18,1,1,1,1,1,0,0
689,6128,10348,bus,18,1,1,1,1,1,0,0
725,6129,10348,bus,18,1,1,1,1,1,0,0
754,6130,10348,bus,18,1,1,1,1,1,0,0
782,6131,10348,bus,18,1,1,1,1,1,0,0
819,6132,10348,bus,18,1,1,1,1,1,0,0
851,6133,10348,bus,18,1,1,1,1,1,0,0
884,6134,10348,bus,18,1,1,1,1,1,0,0
920,6135,10348,bus,18,1,1,1,1,1,0,0
948,6136,10348,bus,18,1,1,1,1,1,0,0
982,6137,10348,bus,18,1,1,1,1,1,0,0
1014,6138,10348,bus,18,1,1,1,1,1,0,0
1042,6139,10348,bus,18,1,1,1,1,1,0,0
1058,6140,10348,bus,18,1,1,1,1,1,0,0
1075,6141,10348,bus,18,1,1,1,1,1,0,0
1088,6142,10348,bus,18,1,1,1,1,1,0,0
1110,6143,10348,bus,18,1,1,1,1,1,0,0
1134,6144,10348,bus,18,1,1,1,1,1,0,0
1151,6145,10348,bus,18,1,1,1,1,1,0,0
1181,6146,10348,bus,18,1,1,1,1,1,0,0
1205,6147,10348,bus,18,1,1,1,1,1,0,0
1234,6148,10348,bus,18,1,1,1,1,1,0,0
1265,6149,10348,bus,18,1,1,1,1,1,0,0
1322,6150,10348,bus,18,1,1,1,1,1,0,0
1353,6151,10348,bus,18,1,1,1,1,1,0,0
1381,6152,10348,bus,18,1,1,1,1,1,0,0
1412,6153,10348,bus,18,1,1,1,1,1,0,0
1435,6154,10348,bus,18,1,1,1,1,1,0,0
373,6155,10349,bus,18,0,0,0,0,0,1,0
402,6156,10349,bus,18,0,0,0,0,0,1,0
435,6157,10349,bus,18,0,0,0,0,0,1,0
467,6158,10349,bus,18,0,0,0,0,0,1,0
498,6159,10349,bus,18,0,0,0,0,0,1,0
529,6160,10349,bus,18,0,0,0,0,0,1,0
561,6161,10349,bus,18,0,0,0,0,0,1,0
592,6162,10349,bus,18,0,0,0,0,0,1,0
650,6163,10349,bus,18,0,0,0,0,0,1,0
682,6164,10349,bus,18,0,0,0,0,0,1,0
713,6165,10349,bus,18,0,0,0,0,0,1,0
771,6166,10349,bus,18,0,0,0,0,0,1,0
803,6167,10349,bus,18,0,0,0,0,0,1,0
834,6168,10349,bus,18,0,0,0,0,0,1,0
865,6169,10349,bus,18,0,0,0,0,0,1,0
902,6170,10349,bus,18,0,0,0,0,0,1,0
933,6171,10349,bus,18,0,0,0,0,0,1,0
964,6172,10349,bus,18,0,0,0,0,0,1,0
996,6173,10349,bus,18,0,0,0,0,0,1,0
1027,6174,10349,bus,18,0,0,0,0,0,1,0
1058,6175,10349,bus,18,0,0,0,0,0,1,0
1090,6176,10349,bus,18,0,0,0,0,0,1,0
1121,6177,10349,bus,18,0,0,0,0,0,1,0
1152,6178,10349,bus,18,0,0,0,0,0,1,0
1211,6179,10349,bus,18,0,0,0,0,0,1,0
1242,6180,10349,bus,18,0,0,0,0,0,1,0
1273,6181,10349,bus,18,0,0,0,0,0,1,0
1330,6182,10349,bus,18,0,0,0,0,0,1,0
1361,6183,10349,bus,18,0,0,0,0,0,1,0
1392,6184,10349,bus,18,0,0,0,0,0,1,0
1422,6185,10349,bus,18,0,0,0,0,0,1,0
402,6186,10350,bus,18,0,0,0,0,0,0,1
435,6187,10350,bus,18,0,0,0,0,0,0,1
467,6188,10350,bus,18,0,0,0,0,0,0,1
498,6189,10350,bus,18,0,0,0,0,0,0,1
529,6190,10350,bus,18,0,0,0,0,0,0,1
561,6191,10350,bus,18,0,0,0,0,0,0,1
592,6192,10350,bus,18,0,0,0,0,0,0,1
650,6193,10350,bus,18,0,0,0,0,0,0,1
682,6194,10350,bus,18,0,0,0,0,0,0,1
713,6195,10350,bus,18,0,0,0,0,0,0,1
771,6196,10350,bus,18,0,0,0,0,0,0,1
803,6197,10350,bus,18,0,0,0,0,0,0,1
834,6198,10350,bus,18,0,0,0,0,0,0,1
865,6199,10350,bus,18,0,0,0,0,0,0,1
902,6200,10350,bus,18,0,0,0,0,0,0,1
933,6201,10350,bus,18,0,0,0,0,0,0,1
964,6202,10350,bus,18,0,0,0,0,0,0,1
996,6203,10350,bus,18,0,0,0,0,0,0,1
1027,6204,10350,bus,18,0,0,0,0,0,0,1
1058,6205,10350,bus,18,0,0,0,0,0,0,1
1090,6206,10350,bus,18,0,0,0,0,0,0,1
1121,6207,10350,bus,18,0,0,0,0,0,0,1
1152,6208,10350,bus,18,0,0,0,0,0,0,1
1211,6209,10350,bus,18,0,0,0,0,0,0,1
1242,6210,10350,bus,18,0,0,0,0,0,0,1
1273,6211,10350,bus,18,0,0,0,0,0,0,1
1330,6212,10350,bus,18,0,0,0,0,0,0,1
1361,6213,10350,bus,18,0,0,0,0,0,0,1
1392,6214,10350,bus,18,0,0,0,0,0,0,1
1422,6215,10350,bus,18,0,0,0,0,0,0,1
321,6216,10348,bus,18,1,1,1,1,1,0,0
321,6217,10349,bus,18,0,0,0,0,0,1,0
334,9847,10375,bus,38,1,1,1,1,1,0,0
366,9848,10375,bus,38,1,1,1,1,1,0,0
396,9849,10375,bus,38,1,1,1,1,1,0,0
428,9850,10375,bus,38,1,1,1,1,1,0,0
464,9851,10375,bus,38,1,1,1,1,1,0,0
493,9852,10375,bus,38,1,1,1,1,1,0,0
529,9853,10375,bus,38,1,1,1,1,1,0,0
555,9854,10375,bus,38,1,1,1,1,1,0,0
620,9855,10375,bus,38,1,1,1,1,1,0,0
650,9856,10375,bus,38,1,1,1,1,1,0,0
682,9857,10375,bus,38,1,1,1,1,1,0,0
712,9858,10375,bus,38,1,1,1,1,1,0,0
746,9859,10375,bus,38,1,1,1,1,1,0,0
774,9860,10375,bus,38,1,1,1,1,1,0,0
808,9861,10375,bus,38,1,1,1,1,1,0,0
840,9862,10375,bus,38,1,1,1,1,1,0,0
875,9863,10375,bus,38,1,1,1,1,1,0,0
907,9864,10375,bus,38,1,1,1,1,1,0,0
937,9865,10375,bus,38,1,1,1,1,1,0,0
969,9866,10375,bus,38,1,1,1,1,1,0,0
999,9867,10375,bus,38,1,1,1,1,1,0,0
1031,9868,10375,bus,38,1,1,1,1,1,0,0
1067,9869,10375,bus,38,1,1,1,1,1,0,0
1099,9870,10375,bus,38,1,1,1,1,1,0,0
1156,9871,10375,bus,38,1,1,1,1,1,0,0
1188,9872,10375,bus,38,1,1,1,1,1,0,0
1221,9873,10375,bus,38,1,1,1,1,1,0,0
1250,9874,10375,bus,38,1,1,1,1,1,0,0
1283,9875,10375,bus,38,1,1,1,1,1,0,0
1313,9876,10375,bus,38,1,1,1,1,1,0,0
1345,9877,10375,bus,38,1,1,1,1,1,0,0
1375,9878,10375,bus,38,1,1,1,1,1,0,0
332,9879,10376,bus,38,0,0,0,0,0,1,0
393,9880,10376,bus,38,0,0,0,0,0,1,0
454,9881,10376,bus,38,0,0,0,0,0,1,0
516,9882,10376,bus,38,0,0,0,0,0,1,0
604,9883,10376,bus,38,0,0,0,0,0,1,0
665,9884,10376,bus,38,0,0,0,0,0,1,0
726,9885,10376,bus,38,0,0,0,0,0,1,0
787,9886,10376,bus,38,0,0,0,0,0,1,0
853,9887,10376,bus,38,0,0,0,0,0,1,0
914,9888,10376,bus,38,0,0,0,0,0,1,0
975,9889,10376,bus,38,0,0,0,0,0,1,0
1036,9890,10376,bus,38,0,0,0,0,0,1,0
1097,9891,10376,bus,38,0,0,0,0,0,1,0
1185,9892,10376,bus,38,0,0,0,0,0,1,0
1246,9893,10376,bus,38,0,0,0,0,0,1,0
1335,9894,10376,bus,38,0,0,0,0,0,1,0
1396,9895,10376,bus,38,0,0,0,0,0,1,0
393,9896,10377,bus,38,0,0,0,0,0,0,1
454,9897,10377,bus,38,0,0,0,0,0,0,1
516,9898,10377,bus,38,0,0,0,0,0,0,1
604,9899,10377,bus,38,0,0,0,0,0,0,1
665,9900,10377,bus,38,0,0,0,0,0,0,1
726,9901,10377,bus,38,0,0,0,0,0,0,1
787,9902,10377,bus,38,0,0,0,0,0,0,1
853,9903,10377,bus,38,0,0,0,0,0,0,1
914,9904,10377,bus,38,0,0,0,0,0,0,1
975,9905,10377,bus,38,0,0,0,0,0,0,1
1036,9906,10377,bus,38,0,0,0,0,0,0,1
1097,9907,10377,bus,38,0,0,0,0,0,0,1
1185,9908,10377,bus,38,0,0,0,0,0,0,1
1246,9909,10377,bus,38,0,0,0,0,0,0,1
1335,9910,10377,bus,38,0,0,0,0,0,0,1
1396,9911,10377,bus,38,0,0,0,0,0,0,1
