timeInMin,trip_id,service_id,tipas,numeris,pirmadienis,antradienis,treciadienis,ketvirtadienis,penktadienis,sestadienis,sekmadienis 
316,6011,10348,bus,18,1,1,1,1,1,0,0
354,6012,10348,bus,18,1,1,1,1,1,0,0
375,6013,10348,bus,18,1,1,1,1,1,0,0
391,6014,10348,bus,18,1,1,1,1,1,0,0
415,6015,10348,bus,18,1,1,1,1,1,0,0
431,6016,10348,bus,18,1,1,1,1,1,0,0
450,6017,10348,bus,18,1,1,1,1,1,0,0
469,6018,10348,bus,18,1,1,1,1,1,0,0
484,6019,10348,bus,18,1,1,1,1,1,0,0
508,6020,10348,bus,18,1,1,1,1,1,0,0
525,6021,10348,bus,18,1,1,1,1,1,0,0
547,6022,10348,bus,18,1,1,1,1,1,0,0
570,6023,10348,bus,18,1,1,1,1,1,0,0
604,6024,10348,bus,18,1,1,1,1,1,0,0
633,6025,10348,bus,18,1,1,1,1,1,0,0
669,6026,10348,bus,18,1,1,1,1,1,0,0
698,6027,10348,bus,18,1,1,1,1,1,0,0
726,6028,10348,bus,18,1,1,1,1,1,0,0
762,6029,10348,bus,18,1,1,1,1,1,0,0
791,6030,10348,bus,18,1,1,1,1,1,0,0
824,6031,10348,bus,18,1,1,1,1,1,0,0
864,6032,10348,bus,18,1,1,1,1,1,0,0
892,6033,10348,bus,18,1,1,1,1,1,0,0
926,6034,10348,bus,18,1,1,1,1,1,0,0
958,6035,10348,bus,18,1,1,1,1,1,0,0
986,6036,10348,bus,18,1,1,1,1,1,0,0
1002,6037,10348,bus,18,1,1,1,1,1,0,0
1019,6038,10348,bus,18,1,1,1,1,1,0,0
1032,6039,10348,bus,18,1,1,1,1,1,0,0
1054,6040,10348,bus,18,1,1,1,1,1,0,0
1079,6041,10348,bus,18,1,1,1,1,1,0,0
1095,6042,10348,bus,18,1,1,1,1,1,0,0
1125,6043,10348,bus,18,1,1,1,1,1,0,0
1149,6044,10348,bus,18,1,1,1,1,1,0,0
1178,6045,10348,bus,18,1,1,1,1,1,0,0
1209,6046,10348,bus,18,1,1,1,1,1,0,0
1268,6047,10348,bus,18,1,1,1,1,1,0,0
1300,6048,10348,bus,18,1,1,1,1,1,0,0
1328,6049,10348,bus,18,1,1,1,1,1,0,0
1359,6050,10348,bus,18,1,1,1,1,1,0,0
1389,6051,10348,bus,18,1,1,1,1,1,0,0
346,6052,10349,bus,18,0,0,0,0,0,1,0
378,6053,10349,bus,18,0,0,0,0,0,1,0
410,6054,10349,bus,18,0,0,0,0,0,1,0
441,6055,10349,bus,18,0,0,0,0,0,1,0
472,6056,10349,bus,18,0,0,0,0,0,1,0
504,6057,10349,bus,18,0,0,0,0,0,1,0
535,6058,10349,bus,18,0,0,0,0,0,1,0
593,6059,10349,bus,18,0,0,0,0,0,1,0
625,6060,10349,bus,18,0,0,0,0,0,1,0
656,6061,10349,bus,18,0,0,0,0,0,1,0
714,6062,10349,bus,18,0,0,0,0,0,1,0
746,6063,10349,bus,18,0,0,0,0,0,1,0
777,6064,10349,bus,18,0,0,0,0,0,1,0
808,6065,10349,bus,18,0,0,0,0,0,1,0
840,6066,10349,bus,18,0,0,0,0,0,1,0
871,6067,10349,bus,18,0,0,0,0,0,1,0
907,6068,10349,bus,18,0,0,0,0,0,1,0
939,6069,10349,bus,18,0,0,0,0,0,1,0
970,6070,10349,bus,18,0,0,0,0,0,1,0
1001,6071,10349,bus,18,0,0,0,0,0,1,0
1033,6072,10349,bus,18,0,0,0,0,0,1,0
1064,6073,10349,bus,18,0,0,0,0,0,1,0
1095,6074,10349,bus,18,0,0,0,0,0,1,0
1154,6075,10349,bus,18,0,0,0,0,0,1,0
1185,6076,10349,bus,18,0,0,0,0,0,1,0
1216,6077,10349,bus,18,0,0,0,0,0,1,0
1274,6078,10349,bus,18,0,0,0,0,0,1,0
1305,6079,10349,bus,18,0,0,0,0,0,1,0
1336,6080,10349,bus,18,0,0,0,0,0,1,0
1366,6081,10349,bus,18,0,0,0,0,0,1,0
1397,6082,10349,bus,18,0,0,0,0,0,1,0
378,6083,10350,bus,18,0,0,0,0,0,0,1
410,6084,10350,bus,18,0,0,0,0,0,0,1
441,6085,10350,bus,18,0,0,0,0,0,0,1
472,6086,10350,bus,18,0,0,0,0,0,0,1
504,6087,10350,bus,18,0,0,0,0,0,0,1
535,6088,10350,bus,18,0,0,0,0,0,0,1
593,6089,10350,bus,18,0,0,0,0,0,0,1
625,6090,10350,bus,18,0,0,0,0,0,0,1
656,6091,10350,bus,18,0,0,0,0,0,0,1
714,6092,10350,bus,18,0,0,0,0,0,0,1
746,6093,10350,bus,18,0,0,0,0,0,0,1
777,6094,10350,bus,18,0,0,0,0,0,0,1
808,6095,10350,bus,18,0,0,0,0,0,0,1
840,6096,10350,bus,18,0,0,0,0,0,0,1
871,6097,10350,bus,18,0,0,0,0,0,0,1
907,6098,10350,bus,18,0,0,0,0,0,0,1
939,6099,10350,bus,18,0,0,0,0,0,0,1
970,6100,10350,bus,18,0,0,0,0,0,0,1
1001,6101,10350,bus,18,0,0,0,0,0,0,1
1033,6102,10350,bus,18,0,0,0,0,0,0,1
1064,6103,10350,bus,18,0,0,0,0,0,0,1
1095,6104,10350,bus,18,0,0,0,0,0,0,1
1154,6105,10350,bus,18,0,0,0,0,0,0,1
1185,6106,10350,bus,18,0,0,0,0,0,0,1
1216,6107,10350,bus,18,0,0,0,0,0,0,1
1274,6108,10350,bus,18,0,0,0,0,0,0,1
1305,6109,10350,bus,18,0,0,0,0,0,0,1
1336,6110,10350,bus,18,0,0,0,0,0,0,1
1366,6111,10350,bus,18,0,0,0,0,0,0,1
1397,6112,10350,bus,18,0,0,0,0,0,0,1
324,6236,10349,bus,18,0,0,0,0,0,1,0
353,6237,10350,bus,18,0,0,0,0,0,0,1
