timeInMin,trip_id,service_id,tipas,numeris,pirmadienis,antradienis,treciadienis,ketvirtadienis,penktadienis,sestadienis,sekmadienis 
320,6011,10348,bus,18,1,1,1,1,1,0,0
358,6012,10348,bus,18,1,1,1,1,1,0,0
379,6013,10348,bus,18,1,1,1,1,1,0,0
395,6014,10348,bus,18,1,1,1,1,1,0,0
419,6015,10348,bus,18,1,1,1,1,1,0,0
435,6016,10348,bus,18,1,1,1,1,1,0,0
454,6017,10348,bus,18,1,1,1,1,1,0,0
473,6018,10348,bus,18,1,1,1,1,1,0,0
488,6019,10348,bus,18,1,1,1,1,1,0,0
512,6020,10348,bus,18,1,1,1,1,1,0,0
529,6021,10348,bus,18,1,1,1,1,1,0,0
551,6022,10348,bus,18,1,1,1,1,1,0,0
574,6023,10348,bus,18,1,1,1,1,1,0,0
608,6024,10348,bus,18,1,1,1,1,1,0,0
637,6025,10348,bus,18,1,1,1,1,1,0,0
673,6026,10348,bus,18,1,1,1,1,1,0,0
702,6027,10348,bus,18,1,1,1,1,1,0,0
730,6028,10348,bus,18,1,1,1,1,1,0,0
766,6029,10348,bus,18,1,1,1,1,1,0,0
795,6030,10348,bus,18,1,1,1,1,1,0,0
828,6031,10348,bus,18,1,1,1,1,1,0,0
868,6032,10348,bus,18,1,1,1,1,1,0,0
896,6033,10348,bus,18,1,1,1,1,1,0,0
930,6034,10348,bus,18,1,1,1,1,1,0,0
962,6035,10348,bus,18,1,1,1,1,1,0,0
990,6036,10348,bus,18,1,1,1,1,1,0,0
1006,6037,10348,bus,18,1,1,1,1,1,0,0
1023,6038,10348,bus,18,1,1,1,1,1,0,0
1036,6039,10348,bus,18,1,1,1,1,1,0,0
1058,6040,10348,bus,18,1,1,1,1,1,0,0
1083,6041,10348,bus,18,1,1,1,1,1,0,0
1099,6042,10348,bus,18,1,1,1,1,1,0,0
1129,6043,10348,bus,18,1,1,1,1,1,0,0
1153,6044,10348,bus,18,1,1,1,1,1,0,0
1182,6045,10348,bus,18,1,1,1,1,1,0,0
1213,6046,10348,bus,18,1,1,1,1,1,0,0
1272,6047,10348,bus,18,1,1,1,1,1,0,0
1304,6048,10348,bus,18,1,1,1,1,1,0,0
1332,6049,10348,bus,18,1,1,1,1,1,0,0
1363,6050,10348,bus,18,1,1,1,1,1,0,0
1393,6051,10348,bus,18,1,1,1,1,1,0,0
350,6052,10349,bus,18,0,0,0,0,0,1,0
382,6053,10349,bus,18,0,0,0,0,0,1,0
414,6054,10349,bus,18,0,0,0,0,0,1,0
445,6055,10349,bus,18,0,0,0,0,0,1,0
476,6056,10349,bus,18,0,0,0,0,0,1,0
508,6057,10349,bus,18,0,0,0,0,0,1,0
539,6058,10349,bus,18,0,0,0,0,0,1,0
597,6059,10349,bus,18,0,0,0,0,0,1,0
629,6060,10349,bus,18,0,0,0,0,0,1,0
660,6061,10349,bus,18,0,0,0,0,0,1,0
718,6062,10349,bus,18,0,0,0,0,0,1,0
750,6063,10349,bus,18,0,0,0,0,0,1,0
781,6064,10349,bus,18,0,0,0,0,0,1,0
812,6065,10349,bus,18,0,0,0,0,0,1,0
844,6066,10349,bus,18,0,0,0,0,0,1,0
875,6067,10349,bus,18,0,0,0,0,0,1,0
911,6068,10349,bus,18,0,0,0,0,0,1,0
943,6069,10349,bus,18,0,0,0,0,0,1,0
974,6070,10349,bus,18,0,0,0,0,0,1,0
1005,6071,10349,bus,18,0,0,0,0,0,1,0
1037,6072,10349,bus,18,0,0,0,0,0,1,0
1068,6073,10349,bus,18,0,0,0,0,0,1,0
1099,6074,10349,bus,18,0,0,0,0,0,1,0
1158,6075,10349,bus,18,0,0,0,0,0,1,0
1189,6076,10349,bus,18,0,0,0,0,0,1,0
1220,6077,10349,bus,18,0,0,0,0,0,1,0
1278,6078,10349,bus,18,0,0,0,0,0,1,0
1309,6079,10349,bus,18,0,0,0,0,0,1,0
1340,6080,10349,bus,18,0,0,0,0,0,1,0
1370,6081,10349,bus,18,0,0,0,0,0,1,0
1401,6082,10349,bus,18,0,0,0,0,0,1,0
382,6083,10350,bus,18,0,0,0,0,0,0,1
414,6084,10350,bus,18,0,0,0,0,0,0,1
445,6085,10350,bus,18,0,0,0,0,0,0,1
476,6086,10350,bus,18,0,0,0,0,0,0,1
508,6087,10350,bus,18,0,0,0,0,0,0,1
539,6088,10350,bus,18,0,0,0,0,0,0,1
597,6089,10350,bus,18,0,0,0,0,0,0,1
629,6090,10350,bus,18,0,0,0,0,0,0,1
660,6091,10350,bus,18,0,0,0,0,0,0,1
718,6092,10350,bus,18,0,0,0,0,0,0,1
750,6093,10350,bus,18,0,0,0,0,0,0,1
781,6094,10350,bus,18,0,0,0,0,0,0,1
812,6095,10350,bus,18,0,0,0,0,0,0,1
844,6096,10350,bus,18,0,0,0,0,0,0,1
875,6097,10350,bus,18,0,0,0,0,0,0,1
911,6098,10350,bus,18,0,0,0,0,0,0,1
943,6099,10350,bus,18,0,0,0,0,0,0,1
974,6100,10350,bus,18,0,0,0,0,0,0,1
1005,6101,10350,bus,18,0,0,0,0,0,0,1
1037,6102,10350,bus,18,0,0,0,0,0,0,1
1068,6103,10350,bus,18,0,0,0,0,0,0,1
1099,6104,10350,bus,18,0,0,0,0,0,0,1
1158,6105,10350,bus,18,0,0,0,0,0,0,1
1189,6106,10350,bus,18,0,0,0,0,0,0,1
1220,6107,10350,bus,18,0,0,0,0,0,0,1
1278,6108,10350,bus,18,0,0,0,0,0,0,1
1309,6109,10350,bus,18,0,0,0,0,0,0,1
1340,6110,10350,bus,18,0,0,0,0,0,0,1
1370,6111,10350,bus,18,0,0,0,0,0,0,1
1401,6112,10350,bus,18,0,0,0,0,0,0,1
328,6236,10349,bus,18,0,0,0,0,0,1,0
356,6237,10350,bus,18,0,0,0,0,0,0,1
