timeInMin,trip_id,service_id,tipas,numeris,pirmadienis,antradienis,treciadienis,ketvirtadienis,penktadienis,sestadienis,sekmadienis 
336,6113,10348,bus,18,1,1,1,1,1,0,0
359,6114,10348,bus,18,1,1,1,1,1,0,0
390,6115,10348,bus,18,1,1,1,1,1,0,0
411,6116,10348,bus,18,1,1,1,1,1,0,0
427,6117,10348,bus,18,1,1,1,1,1,0,0
451,6118,10348,bus,18,1,1,1,1,1,0,0
467,6119,10348,bus,18,1,1,1,1,1,0,0
487,6120,10348,bus,18,1,1,1,1,1,0,0
505,6121,10348,bus,18,1,1,1,1,1,0,0
520,6122,10348,bus,18,1,1,1,1,1,0,0
544,6123,10348,bus,18,1,1,1,1,1,0,0
561,6124,10348,bus,18,1,1,1,1,1,0,0
582,6125,10348,bus,18,1,1,1,1,1,0,0
610,6126,10348,bus,18,1,1,1,1,1,0,0
641,6127,10348,bus,18,1,1,1,1,1,0,0
669,6128,10348,bus,18,1,1,1,1,1,0,0
705,6129,10348,bus,18,1,1,1,1,1,0,0
734,6130,10348,bus,18,1,1,1,1,1,0,0
762,6131,10348,bus,18,1,1,1,1,1,0,0
799,6132,10348,bus,18,1,1,1,1,1,0,0
831,6133,10348,bus,18,1,1,1,1,1,0,0
864,6134,10348,bus,18,1,1,1,1,1,0,0
900,6135,10348,bus,18,1,1,1,1,1,0,0
928,6136,10348,bus,18,1,1,1,1,1,0,0
962,6137,10348,bus,18,1,1,1,1,1,0,0
994,6138,10348,bus,18,1,1,1,1,1,0,0
1022,6139,10348,bus,18,1,1,1,1,1,0,0
1038,6140,10348,bus,18,1,1,1,1,1,0,0
1055,6141,10348,bus,18,1,1,1,1,1,0,0
1068,6142,10348,bus,18,1,1,1,1,1,0,0
1090,6143,10348,bus,18,1,1,1,1,1,0,0
1114,6144,10348,bus,18,1,1,1,1,1,0,0
1131,6145,10348,bus,18,1,1,1,1,1,0,0
1161,6146,10348,bus,18,1,1,1,1,1,0,0
1185,6147,10348,bus,18,1,1,1,1,1,0,0
1214,6148,10348,bus,18,1,1,1,1,1,0,0
1245,6149,10348,bus,18,1,1,1,1,1,0,0
1304,6150,10348,bus,18,1,1,1,1,1,0,0
1335,6151,10348,bus,18,1,1,1,1,1,0,0
1363,6152,10348,bus,18,1,1,1,1,1,0,0
1394,6153,10348,bus,18,1,1,1,1,1,0,0
1418,6154,10348,bus,18,1,1,1,1,1,0,0
353,6155,10349,bus,18,0,0,0,0,0,1,0
382,6156,10349,bus,18,0,0,0,0,0,1,0
415,6157,10349,bus,18,0,0,0,0,0,1,0
447,6158,10349,bus,18,0,0,0,0,0,1,0
478,6159,10349,bus,18,0,0,0,0,0,1,0
509,6160,10349,bus,18,0,0,0,0,0,1,0
541,6161,10349,bus,18,0,0,0,0,0,1,0
572,6162,10349,bus,18,0,0,0,0,0,1,0
630,6163,10349,bus,18,0,0,0,0,0,1,0
662,6164,10349,bus,18,0,0,0,0,0,1,0
693,6165,10349,bus,18,0,0,0,0,0,1,0
751,6166,10349,bus,18,0,0,0,0,0,1,0
783,6167,10349,bus,18,0,0,0,0,0,1,0
814,6168,10349,bus,18,0,0,0,0,0,1,0
845,6169,10349,bus,18,0,0,0,0,0,1,0
882,6170,10349,bus,18,0,0,0,0,0,1,0
913,6171,10349,bus,18,0,0,0,0,0,1,0
944,6172,10349,bus,18,0,0,0,0,0,1,0
976,6173,10349,bus,18,0,0,0,0,0,1,0
1007,6174,10349,bus,18,0,0,0,0,0,1,0
1038,6175,10349,bus,18,0,0,0,0,0,1,0
1070,6176,10349,bus,18,0,0,0,0,0,1,0
1101,6177,10349,bus,18,0,0,0,0,0,1,0
1132,6178,10349,bus,18,0,0,0,0,0,1,0
1191,6179,10349,bus,18,0,0,0,0,0,1,0
1222,6180,10349,bus,18,0,0,0,0,0,1,0
1253,6181,10349,bus,18,0,0,0,0,0,1,0
1310,6182,10349,bus,18,0,0,0,0,0,1,0
1341,6183,10349,bus,18,0,0,0,0,0,1,0
1372,6184,10349,bus,18,0,0,0,0,0,1,0
1402,6185,10349,bus,18,0,0,0,0,0,1,0
382,6186,10350,bus,18,0,0,0,0,0,0,1
415,6187,10350,bus,18,0,0,0,0,0,0,1
447,6188,10350,bus,18,0,0,0,0,0,0,1
478,6189,10350,bus,18,0,0,0,0,0,0,1
509,6190,10350,bus,18,0,0,0,0,0,0,1
541,6191,10350,bus,18,0,0,0,0,0,0,1
572,6192,10350,bus,18,0,0,0,0,0,0,1
630,6193,10350,bus,18,0,0,0,0,0,0,1
662,6194,10350,bus,18,0,0,0,0,0,0,1
693,6195,10350,bus,18,0,0,0,0,0,0,1
751,6196,10350,bus,18,0,0,0,0,0,0,1
783,6197,10350,bus,18,0,0,0,0,0,0,1
814,6198,10350,bus,18,0,0,0,0,0,0,1
845,6199,10350,bus,18,0,0,0,0,0,0,1
882,6200,10350,bus,18,0,0,0,0,0,0,1
913,6201,10350,bus,18,0,0,0,0,0,0,1
944,6202,10350,bus,18,0,0,0,0,0,0,1
976,6203,10350,bus,18,0,0,0,0,0,0,1
1007,6204,10350,bus,18,0,0,0,0,0,0,1
1038,6205,10350,bus,18,0,0,0,0,0,0,1
1070,6206,10350,bus,18,0,0,0,0,0,0,1
1101,6207,10350,bus,18,0,0,0,0,0,0,1
1132,6208,10350,bus,18,0,0,0,0,0,0,1
1191,6209,10350,bus,18,0,0,0,0,0,0,1
1222,6210,10350,bus,18,0,0,0,0,0,0,1
1253,6211,10350,bus,18,0,0,0,0,0,0,1
1310,6212,10350,bus,18,0,0,0,0,0,0,1
1341,6213,10350,bus,18,0,0,0,0,0,0,1
1372,6214,10350,bus,18,0,0,0,0,0,0,1
1402,6215,10350,bus,18,0,0,0,0,0,0,1
