timeInMin,trip_id,service_id,tipas,numeris,pirmadienis,antradienis,treciadienis,ketvirtadienis,penktadienis,sestadienis,sekmadienis 
336,6240,10047,bus,19,1,1,1,1,1,0,0
367,6241,10047,bus,19,1,1,1,1,1,0,0
385,6242,10047,bus,19,1,1,1,1,1,0,0
406,6243,10047,bus,19,1,1,1,1,1,0,0
437,6244,10047,bus,19,1,1,1,1,1,0,0
457,6245,10047,bus,19,1,1,1,1,1,0,0
483,6246,10047,bus,19,1,1,1,1,1,0,0
505,6247,10047,bus,19,1,1,1,1,1,0,0
536,6248,10047,bus,19,1,1,1,1,1,0,0
580,6249,10047,bus,19,1,1,1,1,1,0,0
603,6250,10047,bus,19,1,1,1,1,1,0,0
634,6251,10047,bus,19,1,1,1,1,1,0,0
656,6252,10047,bus,19,1,1,1,1,1,0,0
679,6253,10047,bus,19,1,1,1,1,1,0,0
702,6254,10047,bus,19,1,1,1,1,1,0,0
728,6255,10047,bus,19,1,1,1,1,1,0,0
748,6256,10047,bus,19,1,1,1,1,1,0,0
774,6257,10047,bus,19,1,1,1,1,1,0,0
803,6258,10047,bus,19,1,1,1,1,1,0,0
821,6259,10047,bus,19,1,1,1,1,1,0,0
846,6260,10047,bus,19,1,1,1,1,1,0,0
878,6261,10047,bus,19,1,1,1,1,1,0,0
896,6262,10047,bus,19,1,1,1,1,1,0,0
923,6263,10047,bus,19,1,1,1,1,1,0,0
949,6264,10047,bus,19,1,1,1,1,1,0,0
967,6265,10047,bus,19,1,1,1,1,1,0,0
999,6266,10047,bus,19,1,1,1,1,1,0,0
1025,6267,10047,bus,19,1,1,1,1,1,0,0
1042,6268,10047,bus,19,1,1,1,1,1,0,0
1074,6269,10047,bus,19,1,1,1,1,1,0,0
1096,6270,10047,bus,19,1,1,1,1,1,0,0
1124,6271,10047,bus,19,1,1,1,1,1,0,0
1178,6272,10047,bus,19,1,1,1,1,1,0,0
1205,6273,10047,bus,19,1,1,1,1,1,0,0
1237,6274,10047,bus,19,1,1,1,1,1,0,0
1255,6275,10047,bus,19,1,1,1,1,1,0,0
1281,6276,10047,bus,19,1,1,1,1,1,0,0
1310,6277,10047,bus,19,1,1,1,1,1,0,0
1329,6278,10047,bus,19,1,1,1,1,1,0,0
1354,6279,10047,bus,19,1,1,1,1,1,0,0
1384,6280,10047,bus,19,1,1,1,1,1,0,0
387,6281,10048,bus,19,0,0,0,0,0,1,0
420,6282,10048,bus,19,0,0,0,0,0,1,0
453,6283,10048,bus,19,0,0,0,0,0,1,0
486,6284,10048,bus,19,0,0,0,0,0,1,0
523,6285,10048,bus,19,0,0,0,0,0,1,0
552,6286,10048,bus,19,0,0,0,0,0,1,0
597,6287,10048,bus,19,0,0,0,0,0,1,0
627,6288,10048,bus,19,0,0,0,0,0,1,0
653,6289,10048,bus,19,0,0,0,0,0,1,0
669,6290,10048,bus,19,0,0,0,0,0,1,0
698,6291,10048,bus,19,0,0,0,0,0,1,0
735,6292,10048,bus,19,0,0,0,0,0,1,0
750,6293,10048,bus,19,0,0,0,0,0,1,0
773,6294,10048,bus,19,0,0,0,0,0,1,0
816,6295,10048,bus,19,0,0,0,0,0,1,0
840,6296,10048,bus,19,0,0,0,0,0,1,0
853,6297,10048,bus,19,0,0,0,0,0,1,0
891,6298,10048,bus,19,0,0,0,0,0,1,0
922,6299,10048,bus,19,0,0,0,0,0,1,0
948,6300,10048,bus,19,0,0,0,0,0,1,0
966,6301,10048,bus,19,0,0,0,0,0,1,0
994,6302,10048,bus,19,0,0,0,0,0,1,0
1021,6303,10048,bus,19,0,0,0,0,0,1,0
1040,6304,10048,bus,19,0,0,0,0,0,1,0
1070,6305,10048,bus,19,0,0,0,0,0,1,0
1106,6306,10048,bus,19,0,0,0,0,0,1,0
1161,6307,10048,bus,19,0,0,0,0,0,1,0
1203,6308,10048,bus,19,0,0,0,0,0,1,0
1236,6309,10048,bus,19,0,0,0,0,0,1,0
1274,6310,10048,bus,19,0,0,0,0,0,1,0
1305,6311,10048,bus,19,0,0,0,0,0,1,0
1346,6312,10048,bus,19,0,0,0,0,0,1,0
420,6313,10049,bus,19,0,0,0,0,0,0,1
453,6314,10049,bus,19,0,0,0,0,0,0,1
486,6315,10049,bus,19,0,0,0,0,0,0,1
523,6316,10049,bus,19,0,0,0,0,0,0,1
552,6317,10049,bus,19,0,0,0,0,0,0,1
597,6318,10049,bus,19,0,0,0,0,0,0,1
627,6319,10049,bus,19,0,0,0,0,0,0,1
653,6320,10049,bus,19,0,0,0,0,0,0,1
669,6321,10049,bus,19,0,0,0,0,0,0,1
698,6322,10049,bus,19,0,0,0,0,0,0,1
735,6323,10049,bus,19,0,0,0,0,0,0,1
750,6324,10049,bus,19,0,0,0,0,0,0,1
773,6325,10049,bus,19,0,0,0,0,0,0,1
816,6326,10049,bus,19,0,0,0,0,0,0,1
840,6327,10049,bus,19,0,0,0,0,0,0,1
853,6328,10049,bus,19,0,0,0,0,0,0,1
891,6329,10049,bus,19,0,0,0,0,0,0,1
922,6330,10049,bus,19,0,0,0,0,0,0,1
948,6331,10049,bus,19,0,0,0,0,0,0,1
966,6332,10049,bus,19,0,0,0,0,0,0,1
994,6333,10049,bus,19,0,0,0,0,0,0,1
1021,6334,10049,bus,19,0,0,0,0,0,0,1
1040,6335,10049,bus,19,0,0,0,0,0,0,1
1070,6336,10049,bus,19,0,0,0,0,0,0,1
1106,6337,10049,bus,19,0,0,0,0,0,0,1
1161,6338,10049,bus,19,0,0,0,0,0,0,1
1203,6339,10049,bus,19,0,0,0,0,0,0,1
1236,6340,10049,bus,19,0,0,0,0,0,0,1
1274,6341,10049,bus,19,0,0,0,0,0,0,1
1305,6342,10049,bus,19,0,0,0,0,0,0,1
1346,6343,10049,bus,19,0,0,0,0,0,0,1
320,6466,10047,bus,19,1,1,1,1,1,0,0
326,6467,10048,bus,19,0,0,0,0,0,1,0
380,6468,10049,bus,19,0,0,0,0,0,0,1
312,10801,9629,bus,42,1,1,1,1,1,0,0
326,15412,10053,bus,82,1,1,1,1,1,0,0
400,15413,10053,bus,82,1,1,1,1,1,0,0
472,15414,10053,bus,82,1,1,1,1,1,0,0
571,15415,10053,bus,82,1,1,1,1,1,0,0
646,15416,10053,bus,82,1,1,1,1,1,0,0
721,15417,10053,bus,82,1,1,1,1,1,0,0
793,15418,10053,bus,82,1,1,1,1,1,0,0
869,15419,10053,bus,82,1,1,1,1,1,0,0
943,15420,10053,bus,82,1,1,1,1,1,0,0
1017,15421,10053,bus,82,1,1,1,1,1,0,0
1117,15422,10053,bus,82,1,1,1,1,1,0,0
1191,15423,10053,bus,82,1,1,1,1,1,0,0
1269,15424,10053,bus,82,1,1,1,1,1,0,0
1343,15425,10053,bus,82,1,1,1,1,1,0,0
326,15426,10054,bus,82,0,0,0,0,0,1,0
403,15427,10054,bus,82,0,0,0,0,0,1,0
476,15428,10054,bus,82,0,0,0,0,0,1,0
572,15429,10054,bus,82,0,0,0,0,0,1,0
645,15430,10054,bus,82,0,0,0,0,0,1,0
718,15431,10054,bus,82,0,0,0,0,0,1,0
793,15432,10054,bus,82,0,0,0,0,0,1,0
866,15433,10054,bus,82,0,0,0,0,0,1,0
939,15434,10054,bus,82,0,0,0,0,0,1,0
1012,15435,10054,bus,82,0,0,0,0,0,1,0
1085,15436,10054,bus,82,0,0,0,0,0,1,0
1181,15437,10054,bus,82,0,0,0,0,0,1,0
1254,15438,10054,bus,82,0,0,0,0,0,1,0
1328,15439,10054,bus,82,0,0,0,0,0,1,0
403,15440,10055,bus,82,0,0,0,0,0,0,1
476,15441,10055,bus,82,0,0,0,0,0,0,1
572,15442,10055,bus,82,0,0,0,0,0,0,1
645,15443,10055,bus,82,0,0,0,0,0,0,1
718,15444,10055,bus,82,0,0,0,0,0,0,1
793,15445,10055,bus,82,0,0,0,0,0,0,1
866,15446,10055,bus,82,0,0,0,0,0,0,1
939,15447,10055,bus,82,0,0,0,0,0,0,1
1012,15448,10055,bus,82,0,0,0,0,0,0,1
1085,15449,10055,bus,82,0,0,0,0,0,0,1
1181,15450,10055,bus,82,0,0,0,0,0,0,1
1254,15451,10055,bus,82,0,0,0,0,0,0,1
1328,15452,10055,bus,82,0,0,0,0,0,0,1
361,15453,10053,bus,82,1,1,1,1,1,0,0
432,15454,10053,bus,82,1,1,1,1,1,0,0
514,15455,10053,bus,82,1,1,1,1,1,0,0
618,15456,10053,bus,82,1,1,1,1,1,0,0
691,15457,10053,bus,82,1,1,1,1,1,0,0
762,15458,10053,bus,82,1,1,1,1,1,0,0
835,15459,10053,bus,82,1,1,1,1,1,0,0
907,15460,10053,bus,82,1,1,1,1,1,0,0
983,15461,10053,bus,82,1,1,1,1,1,0,0
1057,15462,10053,bus,82,1,1,1,1,1,0,0
1154,15463,10053,bus,82,1,1,1,1,1,0,0
1225,15464,10053,bus,82,1,1,1,1,1,0,0
1299,15465,10053,bus,82,1,1,1,1,1,0,0
367,15466,10054,bus,82,0,0,0,0,0,1,0
441,15467,10054,bus,82,0,0,0,0,0,1,0
513,15468,10054,bus,82,0,0,0,0,0,1,0
613,15469,10054,bus,82,0,0,0,0,0,1,0
688,15470,10054,bus,82,0,0,0,0,0,1,0
760,15471,10054,bus,82,0,0,0,0,0,1,0
832,15472,10054,bus,82,0,0,0,0,0,1,0
907,15473,10054,bus,82,0,0,0,0,0,1,0
980,15474,10054,bus,82,0,0,0,0,0,1,0
1051,15475,10054,bus,82,0,0,0,0,0,1,0
1122,15476,10054,bus,82,0,0,0,0,0,1,0
1219,15477,10054,bus,82,0,0,0,0,0,1,0
1290,15478,10054,bus,82,0,0,0,0,0,1,0
1367,15479,10054,bus,82,0,0,0,0,0,1,0
367,15480,10055,bus,82,0,0,0,0,0,0,1
441,15481,10055,bus,82,0,0,0,0,0,0,1
513,15482,10055,bus,82,0,0,0,0,0,0,1
613,15483,10055,bus,82,0,0,0,0,0,0,1
688,15484,10055,bus,82,0,0,0,0,0,0,1
760,15485,10055,bus,82,0,0,0,0,0,0,1
832,15486,10055,bus,82,0,0,0,0,0,0,1
907,15487,10055,bus,82,0,0,0,0,0,0,1
980,15488,10055,bus,82,0,0,0,0,0,0,1
1051,15489,10055,bus,82,0,0,0,0,0,0,1
1122,15490,10055,bus,82,0,0,0,0,0,0,1
1219,15491,10055,bus,82,0,0,0,0,0,0,1
1290,15492,10055,bus,82,0,0,0,0,0,0,1
1367,15493,10055,bus,82,0,0,0,0,0,0,1
