timeInMin,trip_id,service_id,tipas,numeris,pirmadienis,antradienis,treciadienis,ketvirtadienis,penktadienis,sestadienis,sekmadienis 
337,6240,10047,bus,19,1,1,1,1,1,0,0
368,6241,10047,bus,19,1,1,1,1,1,0,0
386,6242,10047,bus,19,1,1,1,1,1,0,0
407,6243,10047,bus,19,1,1,1,1,1,0,0
438,6244,10047,bus,19,1,1,1,1,1,0,0
458,6245,10047,bus,19,1,1,1,1,1,0,0
484,6246,10047,bus,19,1,1,1,1,1,0,0
506,6247,10047,bus,19,1,1,1,1,1,0,0
537,6248,10047,bus,19,1,1,1,1,1,0,0
581,6249,10047,bus,19,1,1,1,1,1,0,0
604,6250,10047,bus,19,1,1,1,1,1,0,0
635,6251,10047,bus,19,1,1,1,1,1,0,0
657,6252,10047,bus,19,1,1,1,1,1,0,0
680,6253,10047,bus,19,1,1,1,1,1,0,0
703,6254,10047,bus,19,1,1,1,1,1,0,0
729,6255,10047,bus,19,1,1,1,1,1,0,0
749,6256,10047,bus,19,1,1,1,1,1,0,0
775,6257,10047,bus,19,1,1,1,1,1,0,0
804,6258,10047,bus,19,1,1,1,1,1,0,0
822,6259,10047,bus,19,1,1,1,1,1,0,0
847,6260,10047,bus,19,1,1,1,1,1,0,0
879,6261,10047,bus,19,1,1,1,1,1,0,0
897,6262,10047,bus,19,1,1,1,1,1,0,0
924,6263,10047,bus,19,1,1,1,1,1,0,0
950,6264,10047,bus,19,1,1,1,1,1,0,0
968,6265,10047,bus,19,1,1,1,1,1,0,0
1000,6266,10047,bus,19,1,1,1,1,1,0,0
1026,6267,10047,bus,19,1,1,1,1,1,0,0
1043,6268,10047,bus,19,1,1,1,1,1,0,0
1075,6269,10047,bus,19,1,1,1,1,1,0,0
1097,6270,10047,bus,19,1,1,1,1,1,0,0
1125,6271,10047,bus,19,1,1,1,1,1,0,0
1179,6272,10047,bus,19,1,1,1,1,1,0,0
1206,6273,10047,bus,19,1,1,1,1,1,0,0
1238,6274,10047,bus,19,1,1,1,1,1,0,0
1256,6275,10047,bus,19,1,1,1,1,1,0,0
1282,6276,10047,bus,19,1,1,1,1,1,0,0
1311,6277,10047,bus,19,1,1,1,1,1,0,0
1330,6278,10047,bus,19,1,1,1,1,1,0,0
1355,6279,10047,bus,19,1,1,1,1,1,0,0
1385,6280,10047,bus,19,1,1,1,1,1,0,0
388,6281,10048,bus,19,0,0,0,0,0,1,0
421,6282,10048,bus,19,0,0,0,0,0,1,0
454,6283,10048,bus,19,0,0,0,0,0,1,0
487,6284,10048,bus,19,0,0,0,0,0,1,0
524,6285,10048,bus,19,0,0,0,0,0,1,0
553,6286,10048,bus,19,0,0,0,0,0,1,0
598,6287,10048,bus,19,0,0,0,0,0,1,0
628,6288,10048,bus,19,0,0,0,0,0,1,0
654,6289,10048,bus,19,0,0,0,0,0,1,0
670,6290,10048,bus,19,0,0,0,0,0,1,0
699,6291,10048,bus,19,0,0,0,0,0,1,0
736,6292,10048,bus,19,0,0,0,0,0,1,0
751,6293,10048,bus,19,0,0,0,0,0,1,0
774,6294,10048,bus,19,0,0,0,0,0,1,0
817,6295,10048,bus,19,0,0,0,0,0,1,0
841,6296,10048,bus,19,0,0,0,0,0,1,0
854,6297,10048,bus,19,0,0,0,0,0,1,0
892,6298,10048,bus,19,0,0,0,0,0,1,0
923,6299,10048,bus,19,0,0,0,0,0,1,0
949,6300,10048,bus,19,0,0,0,0,0,1,0
967,6301,10048,bus,19,0,0,0,0,0,1,0
995,6302,10048,bus,19,0,0,0,0,0,1,0
1022,6303,10048,bus,19,0,0,0,0,0,1,0
1041,6304,10048,bus,19,0,0,0,0,0,1,0
1071,6305,10048,bus,19,0,0,0,0,0,1,0
1107,6306,10048,bus,19,0,0,0,0,0,1,0
1162,6307,10048,bus,19,0,0,0,0,0,1,0
1204,6308,10048,bus,19,0,0,0,0,0,1,0
1237,6309,10048,bus,19,0,0,0,0,0,1,0
1275,6310,10048,bus,19,0,0,0,0,0,1,0
1306,6311,10048,bus,19,0,0,0,0,0,1,0
1347,6312,10048,bus,19,0,0,0,0,0,1,0
421,6313,10049,bus,19,0,0,0,0,0,0,1
454,6314,10049,bus,19,0,0,0,0,0,0,1
487,6315,10049,bus,19,0,0,0,0,0,0,1
524,6316,10049,bus,19,0,0,0,0,0,0,1
553,6317,10049,bus,19,0,0,0,0,0,0,1
598,6318,10049,bus,19,0,0,0,0,0,0,1
628,6319,10049,bus,19,0,0,0,0,0,0,1
654,6320,10049,bus,19,0,0,0,0,0,0,1
670,6321,10049,bus,19,0,0,0,0,0,0,1
699,6322,10049,bus,19,0,0,0,0,0,0,1
736,6323,10049,bus,19,0,0,0,0,0,0,1
751,6324,10049,bus,19,0,0,0,0,0,0,1
774,6325,10049,bus,19,0,0,0,0,0,0,1
817,6326,10049,bus,19,0,0,0,0,0,0,1
841,6327,10049,bus,19,0,0,0,0,0,0,1
854,6328,10049,bus,19,0,0,0,0,0,0,1
892,6329,10049,bus,19,0,0,0,0,0,0,1
923,6330,10049,bus,19,0,0,0,0,0,0,1
949,6331,10049,bus,19,0,0,0,0,0,0,1
967,6332,10049,bus,19,0,0,0,0,0,0,1
995,6333,10049,bus,19,0,0,0,0,0,0,1
1022,6334,10049,bus,19,0,0,0,0,0,0,1
1041,6335,10049,bus,19,0,0,0,0,0,0,1
1071,6336,10049,bus,19,0,0,0,0,0,0,1
1107,6337,10049,bus,19,0,0,0,0,0,0,1
1162,6338,10049,bus,19,0,0,0,0,0,0,1
1204,6339,10049,bus,19,0,0,0,0,0,0,1
1237,6340,10049,bus,19,0,0,0,0,0,0,1
1275,6341,10049,bus,19,0,0,0,0,0,0,1
1306,6342,10049,bus,19,0,0,0,0,0,0,1
1347,6343,10049,bus,19,0,0,0,0,0,0,1
321,6466,10047,bus,19,1,1,1,1,1,0,0
327,6467,10048,bus,19,0,0,0,0,0,1,0
381,6468,10049,bus,19,0,0,0,0,0,0,1
313,10801,9629,bus,42,1,1,1,1,1,0,0
327,15412,10053,bus,82,1,1,1,1,1,0,0
401,15413,10053,bus,82,1,1,1,1,1,0,0
473,15414,10053,bus,82,1,1,1,1,1,0,0
572,15415,10053,bus,82,1,1,1,1,1,0,0
647,15416,10053,bus,82,1,1,1,1,1,0,0
722,15417,10053,bus,82,1,1,1,1,1,0,0
794,15418,10053,bus,82,1,1,1,1,1,0,0
870,15419,10053,bus,82,1,1,1,1,1,0,0
944,15420,10053,bus,82,1,1,1,1,1,0,0
1018,15421,10053,bus,82,1,1,1,1,1,0,0
1118,15422,10053,bus,82,1,1,1,1,1,0,0
1192,15423,10053,bus,82,1,1,1,1,1,0,0
1270,15424,10053,bus,82,1,1,1,1,1,0,0
1344,15425,10053,bus,82,1,1,1,1,1,0,0
327,15426,10054,bus,82,0,0,0,0,0,1,0
404,15427,10054,bus,82,0,0,0,0,0,1,0
477,15428,10054,bus,82,0,0,0,0,0,1,0
573,15429,10054,bus,82,0,0,0,0,0,1,0
646,15430,10054,bus,82,0,0,0,0,0,1,0
719,15431,10054,bus,82,0,0,0,0,0,1,0
794,15432,10054,bus,82,0,0,0,0,0,1,0
867,15433,10054,bus,82,0,0,0,0,0,1,0
940,15434,10054,bus,82,0,0,0,0,0,1,0
1013,15435,10054,bus,82,0,0,0,0,0,1,0
1086,15436,10054,bus,82,0,0,0,0,0,1,0
1182,15437,10054,bus,82,0,0,0,0,0,1,0
1255,15438,10054,bus,82,0,0,0,0,0,1,0
1329,15439,10054,bus,82,0,0,0,0,0,1,0
404,15440,10055,bus,82,0,0,0,0,0,0,1
477,15441,10055,bus,82,0,0,0,0,0,0,1
573,15442,10055,bus,82,0,0,0,0,0,0,1
646,15443,10055,bus,82,0,0,0,0,0,0,1
719,15444,10055,bus,82,0,0,0,0,0,0,1
794,15445,10055,bus,82,0,0,0,0,0,0,1
867,15446,10055,bus,82,0,0,0,0,0,0,1
940,15447,10055,bus,82,0,0,0,0,0,0,1
1013,15448,10055,bus,82,0,0,0,0,0,0,1
1086,15449,10055,bus,82,0,0,0,0,0,0,1
1182,15450,10055,bus,82,0,0,0,0,0,0,1
1255,15451,10055,bus,82,0,0,0,0,0,0,1
1329,15452,10055,bus,82,0,0,0,0,0,0,1
362,15453,10053,bus,82,1,1,1,1,1,0,0
433,15454,10053,bus,82,1,1,1,1,1,0,0
515,15455,10053,bus,82,1,1,1,1,1,0,0
619,15456,10053,bus,82,1,1,1,1,1,0,0
692,15457,10053,bus,82,1,1,1,1,1,0,0
763,15458,10053,bus,82,1,1,1,1,1,0,0
836,15459,10053,bus,82,1,1,1,1,1,0,0
908,15460,10053,bus,82,1,1,1,1,1,0,0
984,15461,10053,bus,82,1,1,1,1,1,0,0
1058,15462,10053,bus,82,1,1,1,1,1,0,0
1155,15463,10053,bus,82,1,1,1,1,1,0,0
1226,15464,10053,bus,82,1,1,1,1,1,0,0
1300,15465,10053,bus,82,1,1,1,1,1,0,0
368,15466,10054,bus,82,0,0,0,0,0,1,0
442,15467,10054,bus,82,0,0,0,0,0,1,0
514,15468,10054,bus,82,0,0,0,0,0,1,0
614,15469,10054,bus,82,0,0,0,0,0,1,0
689,15470,10054,bus,82,0,0,0,0,0,1,0
761,15471,10054,bus,82,0,0,0,0,0,1,0
833,15472,10054,bus,82,0,0,0,0,0,1,0
908,15473,10054,bus,82,0,0,0,0,0,1,0
981,15474,10054,bus,82,0,0,0,0,0,1,0
1052,15475,10054,bus,82,0,0,0,0,0,1,0
1123,15476,10054,bus,82,0,0,0,0,0,1,0
1220,15477,10054,bus,82,0,0,0,0,0,1,0
1291,15478,10054,bus,82,0,0,0,0,0,1,0
1368,15479,10054,bus,82,0,0,0,0,0,1,0
368,15480,10055,bus,82,0,0,0,0,0,0,1
442,15481,10055,bus,82,0,0,0,0,0,0,1
514,15482,10055,bus,82,0,0,0,0,0,0,1
614,15483,10055,bus,82,0,0,0,0,0,0,1
689,15484,10055,bus,82,0,0,0,0,0,0,1
761,15485,10055,bus,82,0,0,0,0,0,0,1
833,15486,10055,bus,82,0,0,0,0,0,0,1
908,15487,10055,bus,82,0,0,0,0,0,0,1
981,15488,10055,bus,82,0,0,0,0,0,0,1
1052,15489,10055,bus,82,0,0,0,0,0,0,1
1123,15490,10055,bus,82,0,0,0,0,0,0,1
1220,15491,10055,bus,82,0,0,0,0,0,0,1
1291,15492,10055,bus,82,0,0,0,0,0,0,1
1368,15493,10055,bus,82,0,0,0,0,0,0,1
