timeInMin,trip_id,service_id,tipas,numeris,pirmadienis,antradienis,treciadienis,ketvirtadienis,penktadienis,sestadienis,sekmadienis 
335,1585,8395,bus,3,1,1,1,1,1,0,0
365,1586,8395,bus,3,1,1,1,1,1,0,0
413,1587,8395,bus,3,1,1,1,1,1,0,0
448,1588,8395,bus,3,1,1,1,1,1,0,0
478,1589,8395,bus,3,1,1,1,1,1,0,0
515,1590,8395,bus,3,1,1,1,1,1,0,0
543,1591,8395,bus,3,1,1,1,1,1,0,0
584,1592,8395,bus,3,1,1,1,1,1,0,0
666,1593,8395,bus,3,1,1,1,1,1,0,0
722,1594,8395,bus,3,1,1,1,1,1,0,0
765,1595,8395,bus,3,1,1,1,1,1,0,0
828,1596,8395,bus,3,1,1,1,1,1,0,0
865,1597,8395,bus,3,1,1,1,1,1,0,0
931,1598,8395,bus,3,1,1,1,1,1,0,0
953,1599,8395,bus,3,1,1,1,1,1,0,0
984,1600,8395,bus,3,1,1,1,1,1,0,0
1038,1601,8395,bus,3,1,1,1,1,1,0,0
1067,1602,8395,bus,3,1,1,1,1,1,0,0
1096,1603,8395,bus,3,1,1,1,1,1,0,0
1167,1604,8395,bus,3,1,1,1,1,1,0,0
638,1605,8396,bus,3,0,0,0,0,0,1,0
741,1606,8396,bus,3,0,0,0,0,0,1,0
842,1607,8396,bus,3,0,0,0,0,0,1,0
949,1608,8396,bus,3,0,0,0,0,0,1,0
1098,1609,8396,bus,3,0,0,0,0,0,1,0
672,1610,8397,bus,3,0,0,0,0,0,0,1
771,1611,8397,bus,3,0,0,0,0,0,0,1
878,1612,8397,bus,3,0,0,0,0,0,0,1
986,1613,8397,bus,3,0,0,0,0,0,0,1
1118,1614,8397,bus,3,0,0,0,0,0,0,1
1226,1615,8395,bus,3,1,1,1,1,1,0,0
1267,1616,8395,bus,3,1,1,1,1,1,0,0
1329,1617,8395,bus,3,1,1,1,1,1,0,0
330,1618,8396,bus,3,0,0,0,0,0,1,0
420,1619,8396,bus,3,0,0,0,0,0,1,0
506,1620,8396,bus,3,0,0,0,0,0,1,0
1199,1621,8396,bus,3,0,0,0,0,0,1,0
459,1622,8397,bus,3,0,0,0,0,0,0,1
556,1623,8397,bus,3,0,0,0,0,0,0,1
1221,1624,8397,bus,3,0,0,0,0,0,0,1
329,6344,10047,bus,19,1,1,1,1,1,0,0
348,6345,10047,bus,19,1,1,1,1,1,0,0
379,6346,10047,bus,19,1,1,1,1,1,0,0
397,6347,10047,bus,19,1,1,1,1,1,0,0
418,6348,10047,bus,19,1,1,1,1,1,0,0
449,6349,10047,bus,19,1,1,1,1,1,0,0
469,6350,10047,bus,19,1,1,1,1,1,0,0
495,6351,10047,bus,19,1,1,1,1,1,0,0
517,6352,10047,bus,19,1,1,1,1,1,0,0
548,6353,10047,bus,19,1,1,1,1,1,0,0
592,6354,10047,bus,19,1,1,1,1,1,0,0
615,6355,10047,bus,19,1,1,1,1,1,0,0
646,6356,10047,bus,19,1,1,1,1,1,0,0
668,6357,10047,bus,19,1,1,1,1,1,0,0
691,6358,10047,bus,19,1,1,1,1,1,0,0
714,6359,10047,bus,19,1,1,1,1,1,0,0
740,6360,10047,bus,19,1,1,1,1,1,0,0
760,6361,10047,bus,19,1,1,1,1,1,0,0
786,6362,10047,bus,19,1,1,1,1,1,0,0
815,6363,10047,bus,19,1,1,1,1,1,0,0
833,6364,10047,bus,19,1,1,1,1,1,0,0
858,6365,10047,bus,19,1,1,1,1,1,0,0
890,6366,10047,bus,19,1,1,1,1,1,0,0
908,6367,10047,bus,19,1,1,1,1,1,0,0
935,6368,10047,bus,19,1,1,1,1,1,0,0
961,6369,10047,bus,19,1,1,1,1,1,0,0
979,6370,10047,bus,19,1,1,1,1,1,0,0
1011,6371,10047,bus,19,1,1,1,1,1,0,0
1037,6372,10047,bus,19,1,1,1,1,1,0,0
1054,6373,10047,bus,19,1,1,1,1,1,0,0
1086,6374,10047,bus,19,1,1,1,1,1,0,0
1108,6375,10047,bus,19,1,1,1,1,1,0,0
1136,6376,10047,bus,19,1,1,1,1,1,0,0
1190,6377,10047,bus,19,1,1,1,1,1,0,0
1217,6378,10047,bus,19,1,1,1,1,1,0,0
1249,6379,10047,bus,19,1,1,1,1,1,0,0
1267,6380,10047,bus,19,1,1,1,1,1,0,0
1293,6381,10047,bus,19,1,1,1,1,1,0,0
1322,6382,10047,bus,19,1,1,1,1,1,0,0
1341,6383,10047,bus,19,1,1,1,1,1,0,0
1366,6384,10047,bus,19,1,1,1,1,1,0,0
1396,6385,10047,bus,19,1,1,1,1,1,0,0
335,6386,10048,bus,19,0,0,0,0,0,1,0
399,6387,10048,bus,19,0,0,0,0,0,1,0
432,6388,10048,bus,19,0,0,0,0,0,1,0
465,6389,10048,bus,19,0,0,0,0,0,1,0
498,6390,10048,bus,19,0,0,0,0,0,1,0
535,6391,10048,bus,19,0,0,0,0,0,1,0
564,6392,10048,bus,19,0,0,0,0,0,1,0
609,6393,10048,bus,19,0,0,0,0,0,1,0
639,6394,10048,bus,19,0,0,0,0,0,1,0
665,6395,10048,bus,19,0,0,0,0,0,1,0
681,6396,10048,bus,19,0,0,0,0,0,1,0
710,6397,10048,bus,19,0,0,0,0,0,1,0
747,6398,10048,bus,19,0,0,0,0,0,1,0
762,6399,10048,bus,19,0,0,0,0,0,1,0
785,6400,10048,bus,19,0,0,0,0,0,1,0
828,6401,10048,bus,19,0,0,0,0,0,1,0
852,6402,10048,bus,19,0,0,0,0,0,1,0
865,6403,10048,bus,19,0,0,0,0,0,1,0
903,6404,10048,bus,19,0,0,0,0,0,1,0
934,6405,10048,bus,19,0,0,0,0,0,1,0
960,6406,10048,bus,19,0,0,0,0,0,1,0
978,6407,10048,bus,19,0,0,0,0,0,1,0
1006,6408,10048,bus,19,0,0,0,0,0,1,0
1033,6409,10048,bus,19,0,0,0,0,0,1,0
1052,6410,10048,bus,19,0,0,0,0,0,1,0
1082,6411,10048,bus,19,0,0,0,0,0,1,0
1118,6412,10048,bus,19,0,0,0,0,0,1,0
1173,6413,10048,bus,19,0,0,0,0,0,1,0
1215,6414,10048,bus,19,0,0,0,0,0,1,0
1248,6415,10048,bus,19,0,0,0,0,0,1,0
1286,6416,10048,bus,19,0,0,0,0,0,1,0
1317,6417,10048,bus,19,0,0,0,0,0,1,0
1358,6418,10048,bus,19,0,0,0,0,0,1,0
389,6419,10049,bus,19,0,0,0,0,0,0,1
432,6420,10049,bus,19,0,0,0,0,0,0,1
465,6421,10049,bus,19,0,0,0,0,0,0,1
498,6422,10049,bus,19,0,0,0,0,0,0,1
535,6423,10049,bus,19,0,0,0,0,0,0,1
564,6424,10049,bus,19,0,0,0,0,0,0,1
609,6425,10049,bus,19,0,0,0,0,0,0,1
639,6426,10049,bus,19,0,0,0,0,0,0,1
665,6427,10049,bus,19,0,0,0,0,0,0,1
681,6428,10049,bus,19,0,0,0,0,0,0,1
710,6429,10049,bus,19,0,0,0,0,0,0,1
747,6430,10049,bus,19,0,0,0,0,0,0,1
762,6431,10049,bus,19,0,0,0,0,0,0,1
785,6432,10049,bus,19,0,0,0,0,0,0,1
828,6433,10049,bus,19,0,0,0,0,0,0,1
852,6434,10049,bus,19,0,0,0,0,0,0,1
865,6435,10049,bus,19,0,0,0,0,0,0,1
903,6436,10049,bus,19,0,0,0,0,0,0,1
934,6437,10049,bus,19,0,0,0,0,0,0,1
960,6438,10049,bus,19,0,0,0,0,0,0,1
978,6439,10049,bus,19,0,0,0,0,0,0,1
1006,6440,10049,bus,19,0,0,0,0,0,0,1
1033,6441,10049,bus,19,0,0,0,0,0,0,1
1052,6442,10049,bus,19,0,0,0,0,0,0,1
1082,6443,10049,bus,19,0,0,0,0,0,0,1
1118,6444,10049,bus,19,0,0,0,0,0,0,1
1173,6445,10049,bus,19,0,0,0,0,0,0,1
1215,6446,10049,bus,19,0,0,0,0,0,0,1
1248,6447,10049,bus,19,0,0,0,0,0,0,1
1286,6448,10049,bus,19,0,0,0,0,0,0,1
1317,6449,10049,bus,19,0,0,0,0,0,0,1
1358,6450,10049,bus,19,0,0,0,0,0,0,1
350,10613,9629,bus,42,1,1,1,1,1,0,0
369,10614,9629,bus,42,1,1,1,1,1,0,0
389,10615,9629,bus,42,1,1,1,1,1,0,0
421,10616,9629,bus,42,1,1,1,1,1,0,0
439,10617,9629,bus,42,1,1,1,1,1,0,0
466,10618,9629,bus,42,1,1,1,1,1,0,0
493,10619,9629,bus,42,1,1,1,1,1,0,0
514,10620,9629,bus,42,1,1,1,1,1,0,0
545,10621,9629,bus,42,1,1,1,1,1,0,0
593,10622,9629,bus,42,1,1,1,1,1,0,0
624,10623,9629,bus,42,1,1,1,1,1,0,0
669,10624,9629,bus,42,1,1,1,1,1,0,0
702,10625,9629,bus,42,1,1,1,1,1,0,0
740,10626,9629,bus,42,1,1,1,1,1,0,0
776,10627,9629,bus,42,1,1,1,1,1,0,0
810,10628,9629,bus,42,1,1,1,1,1,0,0
849,10629,9629,bus,42,1,1,1,1,1,0,0
881,10630,9629,bus,42,1,1,1,1,1,0,0
921,10631,9629,bus,42,1,1,1,1,1,0,0
957,10632,9629,bus,42,1,1,1,1,1,0,0
972,10633,9629,bus,42,1,1,1,1,1,0,0
998,10634,9629,bus,42,1,1,1,1,1,0,0
1027,10635,9629,bus,42,1,1,1,1,1,0,0
1052,10636,9629,bus,42,1,1,1,1,1,0,0
1075,10637,9629,bus,42,1,1,1,1,1,0,0
1099,10638,9629,bus,42,1,1,1,1,1,0,0
1126,10639,9629,bus,42,1,1,1,1,1,0,0
1177,10640,9629,bus,42,1,1,1,1,1,0,0
1212,10641,9629,bus,42,1,1,1,1,1,0,0
1253,10642,9629,bus,42,1,1,1,1,1,0,0
1282,10643,9629,bus,42,1,1,1,1,1,0,0
1324,10644,9629,bus,42,1,1,1,1,1,0,0
1360,10645,9629,bus,42,1,1,1,1,1,0,0
335,10646,9630,bus,42,0,0,0,0,0,1,0
368,10647,9630,bus,42,0,0,0,0,0,1,0
403,10648,9630,bus,42,0,0,0,0,0,1,0
442,10649,9630,bus,42,0,0,0,0,0,1,0
475,10650,9630,bus,42,0,0,0,0,0,1,0
516,10651,9630,bus,42,0,0,0,0,0,1,0
543,10652,9630,bus,42,0,0,0,0,0,1,0
612,10653,9630,bus,42,0,0,0,0,0,1,0
643,10654,9630,bus,42,0,0,0,0,0,1,0
680,10655,9630,bus,42,0,0,0,0,0,1,0
714,10656,9630,bus,42,0,0,0,0,0,1,0
748,10657,9630,bus,42,0,0,0,0,0,1,0
784,10658,9630,bus,42,0,0,0,0,0,1,0
817,10659,9630,bus,42,0,0,0,0,0,1,0
857,10660,9630,bus,42,0,0,0,0,0,1,0
890,10661,9630,bus,42,0,0,0,0,0,1,0
925,10662,9630,bus,42,0,0,0,0,0,1,0
958,10663,9630,bus,42,0,0,0,0,0,1,0
994,10664,9630,bus,42,0,0,0,0,0,1,0
1040,10665,9630,bus,42,0,0,0,0,0,1,0
1065,10666,9630,bus,42,0,0,0,0,0,1,0
1144,10667,9630,bus,42,0,0,0,0,0,1,0
1164,10668,9630,bus,42,0,0,0,0,0,1,0
1212,10669,9630,bus,42,0,0,0,0,0,1,0
1237,10670,9630,bus,42,0,0,0,0,0,1,0
1282,10671,9630,bus,42,0,0,0,0,0,1,0
1323,10672,9630,bus,42,0,0,0,0,0,1,0
1351,10673,9630,bus,42,0,0,0,0,0,1,0
403,10674,9631,bus,42,0,0,0,0,0,0,1
442,10675,9631,bus,42,0,0,0,0,0,0,1
475,10676,9631,bus,42,0,0,0,0,0,0,1
516,10677,9631,bus,42,0,0,0,0,0,0,1
543,10678,9631,bus,42,0,0,0,0,0,0,1
612,10679,9631,bus,42,0,0,0,0,0,0,1
643,10680,9631,bus,42,0,0,0,0,0,0,1
680,10681,9631,bus,42,0,0,0,0,0,0,1
714,10682,9631,bus,42,0,0,0,0,0,0,1
748,10683,9631,bus,42,0,0,0,0,0,0,1
784,10684,9631,bus,42,0,0,0,0,0,0,1
817,10685,9631,bus,42,0,0,0,0,0,0,1
857,10686,9631,bus,42,0,0,0,0,0,0,1
890,10687,9631,bus,42,0,0,0,0,0,0,1
925,10688,9631,bus,42,0,0,0,0,0,0,1
958,10689,9631,bus,42,0,0,0,0,0,0,1
994,10690,9631,bus,42,0,0,0,0,0,0,1
1040,10691,9631,bus,42,0,0,0,0,0,0,1
1065,10692,9631,bus,42,0,0,0,0,0,0,1
1144,10693,9631,bus,42,0,0,0,0,0,0,1
1164,10694,9631,bus,42,0,0,0,0,0,0,1
1212,10695,9631,bus,42,0,0,0,0,0,0,1
1237,10696,9631,bus,42,0,0,0,0,0,0,1
1282,10697,9631,bus,42,0,0,0,0,0,0,1
1323,10698,9631,bus,42,0,0,0,0,0,0,1
1351,10699,9631,bus,42,0,0,0,0,0,0,1
