timeInMin,trip_id,service_id,tipas,numeris,pirmadienis,antradienis,treciadienis,ketvirtadienis,penktadienis,sestadienis,sekmadienis 
339,6577,10603,bus,20,1,1,1,1,1,0,0
350,6578,10603,bus,20,1,1,1,1,1,0,0
378,6579,10603,bus,20,1,1,1,1,1,0,0
390,6580,10603,bus,20,1,1,1,1,1,0,0
426,6581,10603,bus,20,1,1,1,1,1,0,0
441,6582,10603,bus,20,1,1,1,1,1,0,0
458,6583,10603,bus,20,1,1,1,1,1,0,0
477,6584,10603,bus,20,1,1,1,1,1,0,0
501,6585,10603,bus,20,1,1,1,1,1,0,0
519,6586,10603,bus,20,1,1,1,1,1,0,0
535,6587,10603,bus,20,1,1,1,1,1,0,0
551,6588,10603,bus,20,1,1,1,1,1,0,0
568,6589,10603,bus,20,1,1,1,1,1,0,0
589,6590,10603,bus,20,1,1,1,1,1,0,0
606,6591,10603,bus,20,1,1,1,1,1,0,0
633,6592,10603,bus,20,1,1,1,1,1,0,0
652,6593,10603,bus,20,1,1,1,1,1,0,0
669,6594,10603,bus,20,1,1,1,1,1,0,0
687,6595,10603,bus,20,1,1,1,1,1,0,0
703,6596,10603,bus,20,1,1,1,1,1,0,0
720,6597,10603,bus,20,1,1,1,1,1,0,0
739,6598,10603,bus,20,1,1,1,1,1,0,0
754,6599,10603,bus,20,1,1,1,1,1,0,0
765,6600,10603,bus,20,1,1,1,1,1,0,0
775,6601,10603,bus,20,1,1,1,1,1,0,0
791,6602,10603,bus,20,1,1,1,1,1,0,0
811,6603,10603,bus,20,1,1,1,1,1,0,0
828,6604,10603,bus,20,1,1,1,1,1,0,0
842,6605,10603,bus,20,1,1,1,1,1,0,0
871,6606,10603,bus,20,1,1,1,1,1,0,0
891,6607,10603,bus,20,1,1,1,1,1,0,0
902,6608,10603,bus,20,1,1,1,1,1,0,0
922,6609,10603,bus,20,1,1,1,1,1,0,0
955,6610,10603,bus,20,1,1,1,1,1,0,0
978,6611,10603,bus,20,1,1,1,1,1,0,0
988,6612,10603,bus,20,1,1,1,1,1,0,0
1008,6613,10603,bus,20,1,1,1,1,1,0,0
1035,6614,10603,bus,20,1,1,1,1,1,0,0
1054,6615,10603,bus,20,1,1,1,1,1,0,0
1070,6616,10603,bus,20,1,1,1,1,1,0,0
1090,6617,10603,bus,20,1,1,1,1,1,0,0
1131,6618,10603,bus,20,1,1,1,1,1,0,0
1154,6619,10603,bus,20,1,1,1,1,1,0,0
1171,6620,10603,bus,20,1,1,1,1,1,0,0
1190,6621,10603,bus,20,1,1,1,1,1,0,0
1204,6622,10603,bus,20,1,1,1,1,1,0,0
1217,6623,10603,bus,20,1,1,1,1,1,0,0
1236,6624,10603,bus,20,1,1,1,1,1,0,0
1248,6625,10603,bus,20,1,1,1,1,1,0,0
1263,6626,10603,bus,20,1,1,1,1,1,0,0
1275,6627,10603,bus,20,1,1,1,1,1,0,0
1292,6628,10603,bus,20,1,1,1,1,1,0,0
1312,6629,10603,bus,20,1,1,1,1,1,0,0
1322,6630,10603,bus,20,1,1,1,1,1,0,0
1338,6631,10603,bus,20,1,1,1,1,1,0,0
1355,6632,10603,bus,20,1,1,1,1,1,0,0
1369,6633,10603,bus,20,1,1,1,1,1,0,0
1393,6634,10603,bus,20,1,1,1,1,1,0,0
1406,6635,10603,bus,20,1,1,1,1,1,0,0
1429,6636,10603,bus,20,1,1,1,1,1,0,0
334,6637,10352,bus,20,0,0,0,0,0,1,0
373,6638,10352,bus,20,0,0,0,0,0,1,0
400,6639,10352,bus,20,0,0,0,0,0,1,0
438,6640,10352,bus,20,0,0,0,0,0,1,0
474,6641,10352,bus,20,0,0,0,0,0,1,0
509,6642,10352,bus,20,0,0,0,0,0,1,0
548,6643,10352,bus,20,0,0,0,0,0,1,0
581,6644,10352,bus,20,0,0,0,0,0,1,0
643,6645,10352,bus,20,0,0,0,0,0,1,0
674,6646,10352,bus,20,0,0,0,0,0,1,0
718,6647,10352,bus,20,0,0,0,0,0,1,0
749,6648,10352,bus,20,0,0,0,0,0,1,0
792,6649,10352,bus,20,0,0,0,0,0,1,0
843,6650,10352,bus,20,0,0,0,0,0,1,0
870,6651,10352,bus,20,0,0,0,0,0,1,0
914,6652,10352,bus,20,0,0,0,0,0,1,0
947,6653,10352,bus,20,0,0,0,0,0,1,0
986,6654,10352,bus,20,0,0,0,0,0,1,0
1024,6655,10352,bus,20,0,0,0,0,0,1,0
1098,6656,10352,bus,20,0,0,0,0,0,1,0
1192,6657,10352,bus,20,0,0,0,0,0,1,0
1266,6658,10352,bus,20,0,0,0,0,0,1,0
1334,6659,10352,bus,20,0,0,0,0,0,1,0
1404,6660,10352,bus,20,0,0,0,0,0,1,0
400,6661,10353,bus,20,0,0,0,0,0,0,1
438,6662,10353,bus,20,0,0,0,0,0,0,1
474,6663,10353,bus,20,0,0,0,0,0,0,1
509,6664,10353,bus,20,0,0,0,0,0,0,1
548,6665,10353,bus,20,0,0,0,0,0,0,1
581,6666,10353,bus,20,0,0,0,0,0,0,1
643,6667,10353,bus,20,0,0,0,0,0,0,1
674,6668,10353,bus,20,0,0,0,0,0,0,1
718,6669,10353,bus,20,0,0,0,0,0,0,1
749,6670,10353,bus,20,0,0,0,0,0,0,1
792,6671,10353,bus,20,0,0,0,0,0,0,1
843,6672,10353,bus,20,0,0,0,0,0,0,1
870,6673,10353,bus,20,0,0,0,0,0,0,1
914,6674,10353,bus,20,0,0,0,0,0,0,1
947,6675,10353,bus,20,0,0,0,0,0,0,1
986,6676,10353,bus,20,0,0,0,0,0,0,1
1024,6677,10353,bus,20,0,0,0,0,0,0,1
1098,6678,10353,bus,20,0,0,0,0,0,0,1
1192,6679,10353,bus,20,0,0,0,0,0,0,1
1266,6680,10353,bus,20,0,0,0,0,0,0,1
1334,6681,10353,bus,20,0,0,0,0,0,0,1
1404,6682,10353,bus,20,0,0,0,0,0,0,1
401,6683,10603,bus,20,1,1,1,1,1,0,0
489,6684,10603,bus,20,1,1,1,1,1,0,0
857,6685,10603,bus,20,1,1,1,1,1,0,0
940,6686,10603,bus,20,1,1,1,1,1,0,0
1025,6687,10603,bus,20,1,1,1,1,1,0,0
1111,6688,10603,bus,20,1,1,1,1,1,0,0
