timeInMin,trip_id,service_id,tipas,numeris,pirmadienis,antradienis,treciadienis,ketvirtadienis,penktadienis,sestadienis,sekmadienis 
330,6577,10603,bus,20,1,1,1,1,1,0,0
342,6578,10603,bus,20,1,1,1,1,1,0,0
367,6579,10603,bus,20,1,1,1,1,1,0,0
379,6580,10603,bus,20,1,1,1,1,1,0,0
415,6581,10603,bus,20,1,1,1,1,1,0,0
430,6582,10603,bus,20,1,1,1,1,1,0,0
447,6583,10603,bus,20,1,1,1,1,1,0,0
466,6584,10603,bus,20,1,1,1,1,1,0,0
490,6585,10603,bus,20,1,1,1,1,1,0,0
508,6586,10603,bus,20,1,1,1,1,1,0,0
525,6587,10603,bus,20,1,1,1,1,1,0,0
543,6588,10603,bus,20,1,1,1,1,1,0,0
560,6589,10603,bus,20,1,1,1,1,1,0,0
581,6590,10603,bus,20,1,1,1,1,1,0,0
598,6591,10603,bus,20,1,1,1,1,1,0,0
625,6592,10603,bus,20,1,1,1,1,1,0,0
644,6593,10603,bus,20,1,1,1,1,1,0,0
661,6594,10603,bus,20,1,1,1,1,1,0,0
679,6595,10603,bus,20,1,1,1,1,1,0,0
695,6596,10603,bus,20,1,1,1,1,1,0,0
712,6597,10603,bus,20,1,1,1,1,1,0,0
731,6598,10603,bus,20,1,1,1,1,1,0,0
746,6599,10603,bus,20,1,1,1,1,1,0,0
757,6600,10603,bus,20,1,1,1,1,1,0,0
767,6601,10603,bus,20,1,1,1,1,1,0,0
783,6602,10603,bus,20,1,1,1,1,1,0,0
803,6603,10603,bus,20,1,1,1,1,1,0,0
820,6604,10603,bus,20,1,1,1,1,1,0,0
834,6605,10603,bus,20,1,1,1,1,1,0,0
863,6606,10603,bus,20,1,1,1,1,1,0,0
883,6607,10603,bus,20,1,1,1,1,1,0,0
893,6608,10603,bus,20,1,1,1,1,1,0,0
911,6609,10603,bus,20,1,1,1,1,1,0,0
944,6610,10603,bus,20,1,1,1,1,1,0,0
967,6611,10603,bus,20,1,1,1,1,1,0,0
977,6612,10603,bus,20,1,1,1,1,1,0,0
997,6613,10603,bus,20,1,1,1,1,1,0,0
1024,6614,10603,bus,20,1,1,1,1,1,0,0
1043,6615,10603,bus,20,1,1,1,1,1,0,0
1059,6616,10603,bus,20,1,1,1,1,1,0,0
1079,6617,10603,bus,20,1,1,1,1,1,0,0
1123,6618,10603,bus,20,1,1,1,1,1,0,0
1146,6619,10603,bus,20,1,1,1,1,1,0,0
1163,6620,10603,bus,20,1,1,1,1,1,0,0
1182,6621,10603,bus,20,1,1,1,1,1,0,0
1196,6622,10603,bus,20,1,1,1,1,1,0,0
1209,6623,10603,bus,20,1,1,1,1,1,0,0
1228,6624,10603,bus,20,1,1,1,1,1,0,0
1240,6625,10603,bus,20,1,1,1,1,1,0,0
1255,6626,10603,bus,20,1,1,1,1,1,0,0
1267,6627,10603,bus,20,1,1,1,1,1,0,0
1284,6628,10603,bus,20,1,1,1,1,1,0,0
1304,6629,10603,bus,20,1,1,1,1,1,0,0
1314,6630,10603,bus,20,1,1,1,1,1,0,0
1330,6631,10603,bus,20,1,1,1,1,1,0,0
1347,6632,10603,bus,20,1,1,1,1,1,0,0
1361,6633,10603,bus,20,1,1,1,1,1,0,0
1385,6634,10603,bus,20,1,1,1,1,1,0,0
1398,6635,10603,bus,20,1,1,1,1,1,0,0
1421,6636,10603,bus,20,1,1,1,1,1,0,0
326,6637,10352,bus,20,0,0,0,0,0,1,0
365,6638,10352,bus,20,0,0,0,0,0,1,0
392,6639,10352,bus,20,0,0,0,0,0,1,0
430,6640,10352,bus,20,0,0,0,0,0,1,0
466,6641,10352,bus,20,0,0,0,0,0,1,0
501,6642,10352,bus,20,0,0,0,0,0,1,0
540,6643,10352,bus,20,0,0,0,0,0,1,0
573,6644,10352,bus,20,0,0,0,0,0,1,0
635,6645,10352,bus,20,0,0,0,0,0,1,0
666,6646,10352,bus,20,0,0,0,0,0,1,0
710,6647,10352,bus,20,0,0,0,0,0,1,0
741,6648,10352,bus,20,0,0,0,0,0,1,0
784,6649,10352,bus,20,0,0,0,0,0,1,0
835,6650,10352,bus,20,0,0,0,0,0,1,0
862,6651,10352,bus,20,0,0,0,0,0,1,0
906,6652,10352,bus,20,0,0,0,0,0,1,0
939,6653,10352,bus,20,0,0,0,0,0,1,0
978,6654,10352,bus,20,0,0,0,0,0,1,0
1016,6655,10352,bus,20,0,0,0,0,0,1,0
1090,6656,10352,bus,20,0,0,0,0,0,1,0
1184,6657,10352,bus,20,0,0,0,0,0,1,0
1258,6658,10352,bus,20,0,0,0,0,0,1,0
1326,6659,10352,bus,20,0,0,0,0,0,1,0
1396,6660,10352,bus,20,0,0,0,0,0,1,0
392,6661,10353,bus,20,0,0,0,0,0,0,1
430,6662,10353,bus,20,0,0,0,0,0,0,1
466,6663,10353,bus,20,0,0,0,0,0,0,1
501,6664,10353,bus,20,0,0,0,0,0,0,1
540,6665,10353,bus,20,0,0,0,0,0,0,1
573,6666,10353,bus,20,0,0,0,0,0,0,1
635,6667,10353,bus,20,0,0,0,0,0,0,1
666,6668,10353,bus,20,0,0,0,0,0,0,1
710,6669,10353,bus,20,0,0,0,0,0,0,1
741,6670,10353,bus,20,0,0,0,0,0,0,1
784,6671,10353,bus,20,0,0,0,0,0,0,1
835,6672,10353,bus,20,0,0,0,0,0,0,1
862,6673,10353,bus,20,0,0,0,0,0,0,1
906,6674,10353,bus,20,0,0,0,0,0,0,1
939,6675,10353,bus,20,0,0,0,0,0,0,1
978,6676,10353,bus,20,0,0,0,0,0,0,1
1016,6677,10353,bus,20,0,0,0,0,0,0,1
1090,6678,10353,bus,20,0,0,0,0,0,0,1
1184,6679,10353,bus,20,0,0,0,0,0,0,1
1258,6680,10353,bus,20,0,0,0,0,0,0,1
1326,6681,10353,bus,20,0,0,0,0,0,0,1
1396,6682,10353,bus,20,0,0,0,0,0,0,1
390,6683,10603,bus,20,1,1,1,1,1,0,0
478,6684,10603,bus,20,1,1,1,1,1,0,0
850,6685,10603,bus,20,1,1,1,1,1,0,0
929,6686,10603,bus,20,1,1,1,1,1,0,0
1014,6687,10603,bus,20,1,1,1,1,1,0,0
1102,6688,10603,bus,20,1,1,1,1,1,0,0
368,8161,10607,bus,29,1,1,1,1,1,0,0
385,8162,10607,bus,29,1,1,1,1,1,0,0
405,8163,10607,bus,29,1,1,1,1,1,0,0
419,8164,10607,bus,29,1,1,1,1,1,0,0
439,8165,10607,bus,29,1,1,1,1,1,0,0
459,8166,10607,bus,29,1,1,1,1,1,0,0
479,8167,10607,bus,29,1,1,1,1,1,0,0
493,8168,10607,bus,29,1,1,1,1,1,0,0
512,8169,10607,bus,29,1,1,1,1,1,0,0
529,8170,10607,bus,29,1,1,1,1,1,0,0
551,8171,10607,bus,29,1,1,1,1,1,0,0
588,8172,10607,bus,29,1,1,1,1,1,0,0
619,8173,10607,bus,29,1,1,1,1,1,0,0
645,8174,10607,bus,29,1,1,1,1,1,0,0
678,8175,10607,bus,29,1,1,1,1,1,0,0
709,8176,10607,bus,29,1,1,1,1,1,0,0
735,8177,10607,bus,29,1,1,1,1,1,0,0
757,8178,10607,bus,29,1,1,1,1,1,0,0
779,8179,10607,bus,29,1,1,1,1,1,0,0
807,8180,10607,bus,29,1,1,1,1,1,0,0
831,8181,10607,bus,29,1,1,1,1,1,0,0
853,8182,10607,bus,29,1,1,1,1,1,0,0
877,8183,10607,bus,29,1,1,1,1,1,0,0
903,8184,10607,bus,29,1,1,1,1,1,0,0
924,8185,10607,bus,29,1,1,1,1,1,0,0
947,8186,10607,bus,29,1,1,1,1,1,0,0
966,8187,10607,bus,29,1,1,1,1,1,0,0
982,8188,10607,bus,29,1,1,1,1,1,0,0
998,8189,10607,bus,29,1,1,1,1,1,0,0
1019,8190,10607,bus,29,1,1,1,1,1,0,0
1039,8191,10607,bus,29,1,1,1,1,1,0,0
1056,8192,10607,bus,29,1,1,1,1,1,0,0
1070,8193,10607,bus,29,1,1,1,1,1,0,0
1094,8194,10607,bus,29,1,1,1,1,1,0,0
1123,8195,10607,bus,29,1,1,1,1,1,0,0
1148,8196,10607,bus,29,1,1,1,1,1,0,0
1168,8197,10607,bus,29,1,1,1,1,1,0,0
1195,8198,10607,bus,29,1,1,1,1,1,0,0
1238,8199,10607,bus,29,1,1,1,1,1,0,0
1261,8200,10607,bus,29,1,1,1,1,1,0,0
1284,8201,10607,bus,29,1,1,1,1,1,0,0
1307,8202,10607,bus,29,1,1,1,1,1,0,0
1330,8203,10607,bus,29,1,1,1,1,1,0,0
1358,8204,10607,bus,29,1,1,1,1,1,0,0
1383,8205,10607,bus,29,1,1,1,1,1,0,0
1399,8206,10607,bus,29,1,1,1,1,1,0,0
411,8207,10172,bus,29,0,0,0,0,0,1,0
481,8208,10172,bus,29,0,0,0,0,0,1,0
550,8209,10172,bus,29,0,0,0,0,0,1,0
600,8210,10172,bus,29,0,0,0,0,0,1,0
638,8211,10172,bus,29,0,0,0,0,0,1,0
670,8212,10172,bus,29,0,0,0,0,0,1,0
709,8213,10172,bus,29,0,0,0,0,0,1,0
743,8214,10172,bus,29,0,0,0,0,0,1,0
799,8215,10172,bus,29,0,0,0,0,0,1,0
835,8216,10172,bus,29,0,0,0,0,0,1,0
873,8217,10172,bus,29,0,0,0,0,0,1,0
927,8218,10172,bus,29,0,0,0,0,0,1,0
951,8219,10172,bus,29,0,0,0,0,0,1,0
996,8220,10172,bus,29,0,0,0,0,0,1,0
1021,8221,10172,bus,29,0,0,0,0,0,1,0
1069,8222,10172,bus,29,0,0,0,0,0,1,0
1111,8223,10172,bus,29,0,0,0,0,0,1,0
1201,8224,10172,bus,29,0,0,0,0,0,1,0
1268,8225,10172,bus,29,0,0,0,0,0,1,0
1335,8226,10172,bus,29,0,0,0,0,0,1,0
1402,8227,10172,bus,29,0,0,0,0,0,1,0
402,8228,10173,bus,29,0,0,0,0,0,0,1
481,8229,10173,bus,29,0,0,0,0,0,0,1
550,8230,10173,bus,29,0,0,0,0,0,0,1
600,8231,10173,bus,29,0,0,0,0,0,0,1
638,8232,10173,bus,29,0,0,0,0,0,0,1
670,8233,10173,bus,29,0,0,0,0,0,0,1
709,8234,10173,bus,29,0,0,0,0,0,0,1
743,8235,10173,bus,29,0,0,0,0,0,0,1
799,8236,10173,bus,29,0,0,0,0,0,0,1
835,8237,10173,bus,29,0,0,0,0,0,0,1
873,8238,10173,bus,29,0,0,0,0,0,0,1
927,8239,10173,bus,29,0,0,0,0,0,0,1
951,8240,10173,bus,29,0,0,0,0,0,0,1
996,8241,10173,bus,29,0,0,0,0,0,0,1
1021,8242,10173,bus,29,0,0,0,0,0,0,1
1069,8243,10173,bus,29,0,0,0,0,0,0,1
1111,8244,10173,bus,29,0,0,0,0,0,0,1
1201,8245,10173,bus,29,0,0,0,0,0,0,1
1268,8246,10173,bus,29,0,0,0,0,0,0,1
1335,8247,10173,bus,29,0,0,0,0,0,0,1
1402,8248,10173,bus,29,0,0,0,0,0,0,1
316,8349,10607,bus,29,1,1,1,1,1,0,0
341,8350,10607,bus,29,1,1,1,1,1,0,0
342,8351,10172,bus,29,0,0,0,0,0,1,0
349,13640,10625,bus,59,1,1,1,1,1,0,0
401,13641,10625,bus,59,1,1,1,1,1,0,0
426,13642,10625,bus,59,1,1,1,1,1,0,0
453,13643,10625,bus,59,1,1,1,1,1,0,0
484,13644,10625,bus,59,1,1,1,1,1,0,0
505,13645,10625,bus,59,1,1,1,1,1,0,0
537,13646,10625,bus,59,1,1,1,1,1,0,0
567,13647,10625,bus,59,1,1,1,1,1,0,0
612,13648,10625,bus,59,1,1,1,1,1,0,0
669,13649,10625,bus,59,1,1,1,1,1,0,0
696,13650,10625,bus,59,1,1,1,1,1,0,0
746,13651,10625,bus,59,1,1,1,1,1,0,0
774,13652,10625,bus,59,1,1,1,1,1,0,0
824,13653,10625,bus,59,1,1,1,1,1,0,0
859,13654,10625,bus,59,1,1,1,1,1,0,0
914,13655,10625,bus,59,1,1,1,1,1,0,0
936,13656,10625,bus,59,1,1,1,1,1,0,0
958,13657,10625,bus,59,1,1,1,1,1,0,0
994,13658,10625,bus,59,1,1,1,1,1,0,0
1014,13659,10625,bus,59,1,1,1,1,1,0,0
1044,13660,10625,bus,59,1,1,1,1,1,0,0
1078,13661,10625,bus,59,1,1,1,1,1,0,0
1111,13662,10625,bus,59,1,1,1,1,1,0,0
1131,13663,10625,bus,59,1,1,1,1,1,0,0
1177,13664,10625,bus,59,1,1,1,1,1,0,0
1208,13665,10625,bus,59,1,1,1,1,1,0,0
1254,13666,10625,bus,59,1,1,1,1,1,0,0
1293,13667,10625,bus,59,1,1,1,1,1,0,0
1338,13668,10625,bus,59,1,1,1,1,1,0,0
1374,13669,10625,bus,59,1,1,1,1,1,0,0
429,13670,10133,bus,59,0,0,0,0,0,1,1
500,13671,10133,bus,59,0,0,0,0,0,1,1
569,13672,10133,bus,59,0,0,0,0,0,1,1
610,13673,10133,bus,59,0,0,0,0,0,1,1
653,13674,10133,bus,59,0,0,0,0,0,1,1
691,13675,10133,bus,59,0,0,0,0,0,1,1
749,13676,10133,bus,59,0,0,0,0,0,1,1
774,13677,10133,bus,59,0,0,0,0,0,1,1
823,13678,10133,bus,59,0,0,0,0,0,1,1
854,13679,10133,bus,59,0,0,0,0,0,1,1
917,13680,10133,bus,59,0,0,0,0,0,1,1
942,13681,10133,bus,59,0,0,0,0,0,1,1
991,13682,10133,bus,59,0,0,0,0,0,1,1
1029,13683,10133,bus,59,0,0,0,0,0,1,1
1064,13684,10133,bus,59,0,0,0,0,0,1,1
1134,13685,10133,bus,59,0,0,0,0,0,1,1
1208,13686,10133,bus,59,0,0,0,0,0,1,1
1282,13687,10133,bus,59,0,0,0,0,0,1,1
1357,13688,10133,bus,59,0,0,0,0,0,1,1
326,13694,10625,bus,59,1,1,1,1,1,0,0
373,13695,10625,bus,59,1,1,1,1,1,0,0
359,13696,10133,bus,59,0,0,0,0,0,1,1
315,14195,10616,bus,68,1,1,1,1,1,0,0
341,14196,10616,bus,68,1,1,1,1,1,0,0
372,14197,10616,bus,68,1,1,1,1,1,0,0
400,14198,10616,bus,68,1,1,1,1,1,0,0
428,14199,10616,bus,68,1,1,1,1,1,0,0
458,14200,10616,bus,68,1,1,1,1,1,0,0
485,14201,10616,bus,68,1,1,1,1,1,0,0
514,14202,10616,bus,68,1,1,1,1,1,0,0
544,14203,10616,bus,68,1,1,1,1,1,0,0
594,14204,10616,bus,68,1,1,1,1,1,0,0
634,14205,10616,bus,68,1,1,1,1,1,0,0
677,14206,10616,bus,68,1,1,1,1,1,0,0
718,14207,10616,bus,68,1,1,1,1,1,0,0
762,14208,10616,bus,68,1,1,1,1,1,0,0
803,14209,10616,bus,68,1,1,1,1,1,0,0
851,14210,10616,bus,68,1,1,1,1,1,0,0
892,14211,10616,bus,68,1,1,1,1,1,0,0
935,14212,10616,bus,68,1,1,1,1,1,0,0
976,14213,10616,bus,68,1,1,1,1,1,0,0
1003,14214,10616,bus,68,1,1,1,1,1,0,0
1029,14215,10616,bus,68,1,1,1,1,1,0,0
1066,14216,10616,bus,68,1,1,1,1,1,0,0
1094,14217,10616,bus,68,1,1,1,1,1,0,0
1138,14218,10616,bus,68,1,1,1,1,1,0,0
1173,14219,10616,bus,68,1,1,1,1,1,0,0
1220,14220,10616,bus,68,1,1,1,1,1,0,0
1259,14221,10616,bus,68,1,1,1,1,1,0,0
1302,14222,10616,bus,68,1,1,1,1,1,0,0
1340,14223,10616,bus,68,1,1,1,1,1,0,0
321,14224,9989,bus,68,0,0,0,0,0,1,0
405,14225,9989,bus,68,0,0,0,0,0,1,0
488,14226,9989,bus,68,0,0,0,0,0,1,0
541,14227,9989,bus,68,0,0,0,0,0,1,0
597,14228,9989,bus,68,0,0,0,0,0,1,0
625,14229,9989,bus,68,0,0,0,0,0,1,0
681,14230,9989,bus,68,0,0,0,0,0,1,0
734,14231,9989,bus,68,0,0,0,0,0,1,0
792,14232,9989,bus,68,0,0,0,0,0,1,0
842,14233,9989,bus,68,0,0,0,0,0,1,0
885,14234,9989,bus,68,0,0,0,0,0,1,0
926,14235,9989,bus,68,0,0,0,0,0,1,0
968,14236,9989,bus,68,0,0,0,0,0,1,0
1010,14237,9989,bus,68,0,0,0,0,0,1,0
1062,14238,9989,bus,68,0,0,0,0,0,1,0
1171,14239,9989,bus,68,0,0,0,0,0,1,0
1252,14240,9989,bus,68,0,0,0,0,0,1,0
1334,14241,9989,bus,68,0,0,0,0,0,1,0
405,14242,9990,bus,68,0,0,0,0,0,0,1
488,14243,9990,bus,68,0,0,0,0,0,0,1
541,14244,9990,bus,68,0,0,0,0,0,0,1
597,14245,9990,bus,68,0,0,0,0,0,0,1
625,14246,9990,bus,68,0,0,0,0,0,0,1
681,14247,9990,bus,68,0,0,0,0,0,0,1
734,14248,9990,bus,68,0,0,0,0,0,0,1
792,14249,9990,bus,68,0,0,0,0,0,0,1
842,14250,9990,bus,68,0,0,0,0,0,0,1
885,14251,9990,bus,68,0,0,0,0,0,0,1
926,14252,9990,bus,68,0,0,0,0,0,0,1
968,14253,9990,bus,68,0,0,0,0,0,0,1
1010,14254,9990,bus,68,0,0,0,0,0,0,1
1062,14255,9990,bus,68,0,0,0,0,0,0,1
1171,14256,9990,bus,68,0,0,0,0,0,0,1
1252,14257,9990,bus,68,0,0,0,0,0,0,1
1334,14258,9990,bus,68,0,0,0,0,0,0,1
