timeInMin,trip_id,service_id,tipas,numeris,pirmadienis,antradienis,treciadienis,ketvirtadienis,penktadienis,sestadienis,sekmadienis 
371,6752,10354,bus,21,1,1,1,1,1,0,0
398,6753,10354,bus,21,1,1,1,1,1,0,0
420,6754,10354,bus,21,1,1,1,1,1,0,0
445,6755,10354,bus,21,1,1,1,1,1,0,0
473,6756,10354,bus,21,1,1,1,1,1,0,0
494,6757,10354,bus,21,1,1,1,1,1,0,0
519,6758,10354,bus,21,1,1,1,1,1,0,0
547,6759,10354,bus,21,1,1,1,1,1,0,0
610,6760,10354,bus,21,1,1,1,1,1,0,0
649,6761,10354,bus,21,1,1,1,1,1,0,0
700,6762,10354,bus,21,1,1,1,1,1,0,0
739,6763,10354,bus,21,1,1,1,1,1,0,0
776,6764,10354,bus,21,1,1,1,1,1,0,0
815,6765,10354,bus,21,1,1,1,1,1,0,0
851,6766,10354,bus,21,1,1,1,1,1,0,0
888,6767,10354,bus,21,1,1,1,1,1,0,0
925,6768,10354,bus,21,1,1,1,1,1,0,0
964,6769,10354,bus,21,1,1,1,1,1,0,0
998,6770,10354,bus,21,1,1,1,1,1,0,0
1021,6771,10354,bus,21,1,1,1,1,1,0,0
1045,6772,10354,bus,21,1,1,1,1,1,0,0
1072,6773,10354,bus,21,1,1,1,1,1,0,0
1098,6774,10354,bus,21,1,1,1,1,1,0,0
1121,6775,10354,bus,21,1,1,1,1,1,0,0
1166,6776,10354,bus,21,1,1,1,1,1,0,0
1215,6777,10354,bus,21,1,1,1,1,1,0,0
1268,6778,10354,bus,21,1,1,1,1,1,0,0
1307,6779,10354,bus,21,1,1,1,1,1,0,0
1340,6780,10354,bus,21,1,1,1,1,1,0,0
1379,6781,10354,bus,21,1,1,1,1,1,0,0
395,6782,9374,bus,21,0,0,0,0,0,1,0
467,6783,9374,bus,21,0,0,0,0,0,1,0
541,6784,9374,bus,21,0,0,0,0,0,1,0
627,6785,9374,bus,21,0,0,0,0,0,1,0
717,6786,9374,bus,21,0,0,0,0,0,1,0
783,6787,9374,bus,21,0,0,0,0,0,1,0
855,6788,9374,bus,21,0,0,0,0,0,1,0
926,6789,9374,bus,21,0,0,0,0,0,1,0
996,6790,9374,bus,21,0,0,0,0,0,1,0
1067,6791,9374,bus,21,0,0,0,0,0,1,0
1153,6792,9374,bus,21,0,0,0,0,0,1,0
1239,6793,9374,bus,21,0,0,0,0,0,1,0
1305,6794,9374,bus,21,0,0,0,0,0,1,0
1371,6795,9374,bus,21,0,0,0,0,0,1,0
434,6796,9375,bus,21,0,0,0,0,0,0,1
508,6797,9375,bus,21,0,0,0,0,0,0,1
609,6798,9375,bus,21,0,0,0,0,0,0,1
681,6799,9375,bus,21,0,0,0,0,0,0,1
758,6800,9375,bus,21,0,0,0,0,0,0,1
829,6801,9375,bus,21,0,0,0,0,0,0,1
900,6802,9375,bus,21,0,0,0,0,0,0,1
971,6803,9375,bus,21,0,0,0,0,0,0,1
1042,6804,9375,bus,21,0,0,0,0,0,0,1
1143,6805,9375,bus,21,0,0,0,0,0,0,1
1214,6806,9375,bus,21,0,0,0,0,0,0,1
1285,6807,9375,bus,21,0,0,0,0,0,0,1
1356,6808,9375,bus,21,0,0,0,0,0,0,1
944,6809,10354,bus,21,1,1,1,1,1,0,0
380,6956,9979,bus,22,0,0,0,0,0,0,1
411,6957,9979,bus,22,0,0,0,0,0,0,1
441,6958,9979,bus,22,0,0,0,0,0,0,1
471,6959,9979,bus,22,0,0,0,0,0,0,1
500,6960,9979,bus,22,0,0,0,0,0,0,1
527,6961,9979,bus,22,0,0,0,0,0,0,1
549,6962,9979,bus,22,0,0,0,0,0,0,1
578,6963,9979,bus,22,0,0,0,0,0,0,1
593,6964,9979,bus,22,0,0,0,0,0,0,1
627,6965,9979,bus,22,0,0,0,0,0,0,1
656,6966,9979,bus,22,0,0,0,0,0,0,1
675,6967,9979,bus,22,0,0,0,0,0,0,1
690,6968,9979,bus,22,0,0,0,0,0,0,1
714,6969,9979,bus,22,0,0,0,0,0,0,1
732,6970,9979,bus,22,0,0,0,0,0,0,1
748,6971,9979,bus,22,0,0,0,0,0,0,1
774,6972,9979,bus,22,0,0,0,0,0,0,1
806,6973,9979,bus,22,0,0,0,0,0,0,1
823,6974,9979,bus,22,0,0,0,0,0,0,1
841,6975,9979,bus,22,0,0,0,0,0,0,1
864,6976,9979,bus,22,0,0,0,0,0,0,1
883,6977,9979,bus,22,0,0,0,0,0,0,1
901,6978,9979,bus,22,0,0,0,0,0,0,1
923,6979,9979,bus,22,0,0,0,0,0,0,1
941,6980,9979,bus,22,0,0,0,0,0,0,1
960,6981,9979,bus,22,0,0,0,0,0,0,1
981,6982,9979,bus,22,0,0,0,0,0,0,1
999,6983,9979,bus,22,0,0,0,0,0,0,1
1018,6984,9979,bus,22,0,0,0,0,0,0,1
1039,6985,9979,bus,22,0,0,0,0,0,0,1
1076,6986,9979,bus,22,0,0,0,0,0,0,1
1117,6987,9979,bus,22,0,0,0,0,0,0,1
1154,6988,9979,bus,22,0,0,0,0,0,0,1
1185,6989,9979,bus,22,0,0,0,0,0,0,1
1211,6990,9979,bus,22,0,0,0,0,0,0,1
1241,6991,9979,bus,22,0,0,0,0,0,0,1
1267,6992,9979,bus,22,0,0,0,0,0,0,1
1299,6993,9979,bus,22,0,0,0,0,0,0,1
1323,6994,9979,bus,22,0,0,0,0,0,0,1
1352,6995,9979,bus,22,0,0,0,0,0,0,1
1379,6996,9979,bus,22,0,0,0,0,0,0,1
1408,6997,9979,bus,22,0,0,0,0,0,0,1
343,6998,10355,bus,22,1,1,1,1,1,0,0
380,6999,10355,bus,22,1,1,1,1,1,0,0
401,7000,10355,bus,22,1,1,1,1,1,0,0
415,7001,10355,bus,22,1,1,1,1,1,0,0
429,7002,10355,bus,22,1,1,1,1,1,0,0
443,7003,10355,bus,22,1,1,1,1,1,0,0
461,7004,10355,bus,22,1,1,1,1,1,0,0
477,7005,10355,bus,22,1,1,1,1,1,0,0
493,7006,10355,bus,22,1,1,1,1,1,0,0
507,7007,10355,bus,22,1,1,1,1,1,0,0
523,7008,10355,bus,22,1,1,1,1,1,0,0
538,7009,10355,bus,22,1,1,1,1,1,0,0
559,7010,10355,bus,22,1,1,1,1,1,0,0
587,7011,10355,bus,22,1,1,1,1,1,0,0
618,7012,10355,bus,22,1,1,1,1,1,0,0
646,7013,10355,bus,22,1,1,1,1,1,0,0
678,7014,10355,bus,22,1,1,1,1,1,0,0
705,7015,10355,bus,22,1,1,1,1,1,0,0
738,7016,10355,bus,22,1,1,1,1,1,0,0
764,7017,10355,bus,22,1,1,1,1,1,0,0
797,7018,10355,bus,22,1,1,1,1,1,0,0
823,7019,10355,bus,22,1,1,1,1,1,0,0
858,7020,10355,bus,22,1,1,1,1,1,0,0
883,7021,10355,bus,22,1,1,1,1,1,0,0
917,7022,10355,bus,22,1,1,1,1,1,0,0
942,7023,10355,bus,22,1,1,1,1,1,0,0
959,7024,10355,bus,22,1,1,1,1,1,0,0
976,7025,10355,bus,22,1,1,1,1,1,0,0
991,7026,10355,bus,22,1,1,1,1,1,0,0
1005,7027,10355,bus,22,1,1,1,1,1,0,0
1021,7028,10355,bus,22,1,1,1,1,1,0,0
1037,7029,10355,bus,22,1,1,1,1,1,0,0
1052,7030,10355,bus,22,1,1,1,1,1,0,0
1066,7031,10355,bus,22,1,1,1,1,1,0,0
1083,7032,10355,bus,22,1,1,1,1,1,0,0
1099,7033,10355,bus,22,1,1,1,1,1,0,0
1115,7034,10355,bus,22,1,1,1,1,1,0,0
1146,7035,10355,bus,22,1,1,1,1,1,0,0
1179,7036,10355,bus,22,1,1,1,1,1,0,0
1225,7037,10355,bus,22,1,1,1,1,1,0,0
1256,7038,10355,bus,22,1,1,1,1,1,0,0
1284,7039,10355,bus,22,1,1,1,1,1,0,0
1315,7040,10355,bus,22,1,1,1,1,1,0,0
1344,7041,10355,bus,22,1,1,1,1,1,0,0
1380,7042,10355,bus,22,1,1,1,1,1,0,0
1415,7043,10355,bus,22,1,1,1,1,1,0,0
380,7044,9978,bus,22,0,0,0,0,0,1,0
411,7045,9978,bus,22,0,0,0,0,0,1,0
441,7046,9978,bus,22,0,0,0,0,0,1,0
471,7047,9978,bus,22,0,0,0,0,0,1,0
500,7048,9978,bus,22,0,0,0,0,0,1,0
527,7049,9978,bus,22,0,0,0,0,0,1,0
549,7050,9978,bus,22,0,0,0,0,0,1,0
578,7051,9978,bus,22,0,0,0,0,0,1,0
593,7052,9978,bus,22,0,0,0,0,0,1,0
627,7053,9978,bus,22,0,0,0,0,0,1,0
656,7054,9978,bus,22,0,0,0,0,0,1,0
675,7055,9978,bus,22,0,0,0,0,0,1,0
690,7056,9978,bus,22,0,0,0,0,0,1,0
714,7057,9978,bus,22,0,0,0,0,0,1,0
732,7058,9978,bus,22,0,0,0,0,0,1,0
748,7059,9978,bus,22,0,0,0,0,0,1,0
774,7060,9978,bus,22,0,0,0,0,0,1,0
806,7061,9978,bus,22,0,0,0,0,0,1,0
823,7062,9978,bus,22,0,0,0,0,0,1,0
841,7063,9978,bus,22,0,0,0,0,0,1,0
864,7064,9978,bus,22,0,0,0,0,0,1,0
883,7065,9978,bus,22,0,0,0,0,0,1,0
901,7066,9978,bus,22,0,0,0,0,0,1,0
923,7067,9978,bus,22,0,0,0,0,0,1,0
941,7068,9978,bus,22,0,0,0,0,0,1,0
960,7069,9978,bus,22,0,0,0,0,0,1,0
981,7070,9978,bus,22,0,0,0,0,0,1,0
999,7071,9978,bus,22,0,0,0,0,0,1,0
1018,7072,9978,bus,22,0,0,0,0,0,1,0
1039,7073,9978,bus,22,0,0,0,0,0,1,0
1076,7074,9978,bus,22,0,0,0,0,0,1,0
1117,7075,9978,bus,22,0,0,0,0,0,1,0
1154,7076,9978,bus,22,0,0,0,0,0,1,0
1185,7077,9978,bus,22,0,0,0,0,0,1,0
1211,7078,9978,bus,22,0,0,0,0,0,1,0
1241,7079,9978,bus,22,0,0,0,0,0,1,0
1267,7080,9978,bus,22,0,0,0,0,0,1,0
1299,7081,9978,bus,22,0,0,0,0,0,1,0
1323,7082,9978,bus,22,0,0,0,0,0,1,0
1352,7083,9978,bus,22,0,0,0,0,0,1,0
1379,7084,9978,bus,22,0,0,0,0,0,1,0
1408,7085,9978,bus,22,0,0,0,0,0,1,0
347,7106,9980,bus,23,1,1,1,1,1,0,0
393,7107,9980,bus,23,1,1,1,1,1,0,0
427,7108,9980,bus,23,1,1,1,1,1,0,0
473,7109,9980,bus,23,1,1,1,1,1,0,0
508,7110,9980,bus,23,1,1,1,1,1,0,0
551,7111,9980,bus,23,1,1,1,1,1,0,0
608,7112,9980,bus,23,1,1,1,1,1,0,0
651,7113,9980,bus,23,1,1,1,1,1,0,0
686,7114,9980,bus,23,1,1,1,1,1,0,0
729,7115,9980,bus,23,1,1,1,1,1,0,0
765,7116,9980,bus,23,1,1,1,1,1,0,0
802,7117,9980,bus,23,1,1,1,1,1,0,0
838,7118,9980,bus,23,1,1,1,1,1,0,0
885,7119,9980,bus,23,1,1,1,1,1,0,0
923,7120,9980,bus,23,1,1,1,1,1,0,0
965,7121,9980,bus,23,1,1,1,1,1,0,0
1005,7122,9980,bus,23,1,1,1,1,1,0,0
1047,7123,9980,bus,23,1,1,1,1,1,0,0
1088,7124,9980,bus,23,1,1,1,1,1,0,0
1154,7125,9980,bus,23,1,1,1,1,1,0,0
1197,7126,9980,bus,23,1,1,1,1,1,0,0
1230,7127,9980,bus,23,1,1,1,1,1,0,0
1271,7128,9980,bus,23,1,1,1,1,1,0,0
1306,7129,9980,bus,23,1,1,1,1,1,0,0
1345,7130,9980,bus,23,1,1,1,1,1,0,0
357,7131,9981,bus,23,0,0,0,0,0,1,0
428,7132,9981,bus,23,0,0,0,0,0,1,0
499,7133,9981,bus,23,0,0,0,0,0,1,0
676,7134,9981,bus,23,0,0,0,0,0,1,0
747,7135,9981,bus,23,0,0,0,0,0,1,0
818,7136,9981,bus,23,0,0,0,0,0,1,0
889,7137,9981,bus,23,0,0,0,0,0,1,0
960,7138,9981,bus,23,0,0,0,0,0,1,0
1031,7139,9981,bus,23,0,0,0,0,0,1,0
1202,7140,9981,bus,23,0,0,0,0,0,1,0
1273,7141,9981,bus,23,0,0,0,0,0,1,0
1344,7142,9981,bus,23,0,0,0,0,0,1,0
405,7143,9982,bus,23,0,0,0,0,0,0,1
476,7144,9982,bus,23,0,0,0,0,0,0,1
547,7145,9982,bus,23,0,0,0,0,0,0,1
725,7146,9982,bus,23,0,0,0,0,0,0,1
796,7147,9982,bus,23,0,0,0,0,0,0,1
867,7148,9982,bus,23,0,0,0,0,0,0,1
938,7149,9982,bus,23,0,0,0,0,0,0,1
1012,7150,9982,bus,23,0,0,0,0,0,0,1
1195,7151,9982,bus,23,0,0,0,0,0,0,1
1270,7152,9982,bus,23,0,0,0,0,0,0,1
1344,7153,9982,bus,23,0,0,0,0,0,0,1
605,7207,9981,bus,23,0,0,0,0,0,1,0
1131,7208,9981,bus,23,0,0,0,0,0,1,0
654,7209,9982,bus,23,0,0,0,0,0,0,1
1120,7210,9982,bus,23,0,0,0,0,0,0,1
1390,7618,9328,bus,25,1,1,1,1,1,0,0
1391,7619,9329,bus,25,0,0,0,0,0,1,0
359,8161,10607,bus,29,1,1,1,1,1,0,0
376,8162,10607,bus,29,1,1,1,1,1,0,0
396,8163,10607,bus,29,1,1,1,1,1,0,0
410,8164,10607,bus,29,1,1,1,1,1,0,0
430,8165,10607,bus,29,1,1,1,1,1,0,0
450,8166,10607,bus,29,1,1,1,1,1,0,0
470,8167,10607,bus,29,1,1,1,1,1,0,0
484,8168,10607,bus,29,1,1,1,1,1,0,0
503,8169,10607,bus,29,1,1,1,1,1,0,0
520,8170,10607,bus,29,1,1,1,1,1,0,0
542,8171,10607,bus,29,1,1,1,1,1,0,0
579,8172,10607,bus,29,1,1,1,1,1,0,0
610,8173,10607,bus,29,1,1,1,1,1,0,0
636,8174,10607,bus,29,1,1,1,1,1,0,0
669,8175,10607,bus,29,1,1,1,1,1,0,0
700,8176,10607,bus,29,1,1,1,1,1,0,0
726,8177,10607,bus,29,1,1,1,1,1,0,0
748,8178,10607,bus,29,1,1,1,1,1,0,0
770,8179,10607,bus,29,1,1,1,1,1,0,0
798,8180,10607,bus,29,1,1,1,1,1,0,0
822,8181,10607,bus,29,1,1,1,1,1,0,0
844,8182,10607,bus,29,1,1,1,1,1,0,0
868,8183,10607,bus,29,1,1,1,1,1,0,0
894,8184,10607,bus,29,1,1,1,1,1,0,0
915,8185,10607,bus,29,1,1,1,1,1,0,0
938,8186,10607,bus,29,1,1,1,1,1,0,0
957,8187,10607,bus,29,1,1,1,1,1,0,0
973,8188,10607,bus,29,1,1,1,1,1,0,0
989,8189,10607,bus,29,1,1,1,1,1,0,0
1010,8190,10607,bus,29,1,1,1,1,1,0,0
1030,8191,10607,bus,29,1,1,1,1,1,0,0
1047,8192,10607,bus,29,1,1,1,1,1,0,0
1061,8193,10607,bus,29,1,1,1,1,1,0,0
1085,8194,10607,bus,29,1,1,1,1,1,0,0
1114,8195,10607,bus,29,1,1,1,1,1,0,0
1139,8196,10607,bus,29,1,1,1,1,1,0,0
1159,8197,10607,bus,29,1,1,1,1,1,0,0
1186,8198,10607,bus,29,1,1,1,1,1,0,0
1229,8199,10607,bus,29,1,1,1,1,1,0,0
1252,8200,10607,bus,29,1,1,1,1,1,0,0
1275,8201,10607,bus,29,1,1,1,1,1,0,0
1298,8202,10607,bus,29,1,1,1,1,1,0,0
1321,8203,10607,bus,29,1,1,1,1,1,0,0
1349,8204,10607,bus,29,1,1,1,1,1,0,0
1374,8205,10607,bus,29,1,1,1,1,1,0,0
1390,8206,10607,bus,29,1,1,1,1,1,0,0
402,8207,10172,bus,29,0,0,0,0,0,1,0
472,8208,10172,bus,29,0,0,0,0,0,1,0
541,8209,10172,bus,29,0,0,0,0,0,1,0
591,8210,10172,bus,29,0,0,0,0,0,1,0
629,8211,10172,bus,29,0,0,0,0,0,1,0
661,8212,10172,bus,29,0,0,0,0,0,1,0
700,8213,10172,bus,29,0,0,0,0,0,1,0
734,8214,10172,bus,29,0,0,0,0,0,1,0
790,8215,10172,bus,29,0,0,0,0,0,1,0
826,8216,10172,bus,29,0,0,0,0,0,1,0
864,8217,10172,bus,29,0,0,0,0,0,1,0
918,8218,10172,bus,29,0,0,0,0,0,1,0
942,8219,10172,bus,29,0,0,0,0,0,1,0
987,8220,10172,bus,29,0,0,0,0,0,1,0
1012,8221,10172,bus,29,0,0,0,0,0,1,0
1060,8222,10172,bus,29,0,0,0,0,0,1,0
1102,8223,10172,bus,29,0,0,0,0,0,1,0
1192,8224,10172,bus,29,0,0,0,0,0,1,0
1259,8225,10172,bus,29,0,0,0,0,0,1,0
1326,8226,10172,bus,29,0,0,0,0,0,1,0
1393,8227,10172,bus,29,0,0,0,0,0,1,0
393,8228,10173,bus,29,0,0,0,0,0,0,1
472,8229,10173,bus,29,0,0,0,0,0,0,1
541,8230,10173,bus,29,0,0,0,0,0,0,1
591,8231,10173,bus,29,0,0,0,0,0,0,1
629,8232,10173,bus,29,0,0,0,0,0,0,1
661,8233,10173,bus,29,0,0,0,0,0,0,1
700,8234,10173,bus,29,0,0,0,0,0,0,1
734,8235,10173,bus,29,0,0,0,0,0,0,1
790,8236,10173,bus,29,0,0,0,0,0,0,1
826,8237,10173,bus,29,0,0,0,0,0,0,1
864,8238,10173,bus,29,0,0,0,0,0,0,1
918,8239,10173,bus,29,0,0,0,0,0,0,1
942,8240,10173,bus,29,0,0,0,0,0,0,1
987,8241,10173,bus,29,0,0,0,0,0,0,1
1012,8242,10173,bus,29,0,0,0,0,0,0,1
1060,8243,10173,bus,29,0,0,0,0,0,0,1
1102,8244,10173,bus,29,0,0,0,0,0,0,1
1192,8245,10173,bus,29,0,0,0,0,0,0,1
1259,8246,10173,bus,29,0,0,0,0,0,0,1
1326,8247,10173,bus,29,0,0,0,0,0,0,1
1393,8248,10173,bus,29,0,0,0,0,0,0,1
308,8349,10607,bus,29,1,1,1,1,1,0,0
333,8350,10607,bus,29,1,1,1,1,1,0,0
335,8351,10172,bus,29,0,0,0,0,0,1,0
377,12920,10494,bus,54,1,1,1,1,1,0,0
418,12921,10494,bus,54,1,1,1,1,1,0,0
466,12922,10494,bus,54,1,1,1,1,1,0,0
516,12923,10494,bus,54,1,1,1,1,1,0,0
557,12924,10494,bus,54,1,1,1,1,1,0,0
603,12925,10494,bus,54,1,1,1,1,1,0,0
672,12926,10494,bus,54,1,1,1,1,1,0,0
717,12927,10494,bus,54,1,1,1,1,1,0,0
762,12928,10494,bus,54,1,1,1,1,1,0,0
803,12929,10494,bus,54,1,1,1,1,1,0,0
847,12930,10494,bus,54,1,1,1,1,1,0,0
893,12931,10494,bus,54,1,1,1,1,1,0,0
942,12932,10494,bus,54,1,1,1,1,1,0,0
983,12933,10494,bus,54,1,1,1,1,1,0,0
1031,12934,10494,bus,54,1,1,1,1,1,0,0
1073,12935,10494,bus,54,1,1,1,1,1,0,0
1126,12936,10494,bus,54,1,1,1,1,1,0,0
1186,12937,10494,bus,54,1,1,1,1,1,0,0
1242,12938,10494,bus,54,1,1,1,1,1,0,0
1297,12939,10494,bus,54,1,1,1,1,1,0,0
1340,12940,10494,bus,54,1,1,1,1,1,0,0
377,12941,10495,bus,54,0,0,0,0,0,1,0
415,12942,10495,bus,54,0,0,0,0,0,1,0
470,12943,10495,bus,54,0,0,0,0,0,1,0
506,12944,10495,bus,54,0,0,0,0,0,1,0
556,12945,10495,bus,54,0,0,0,0,0,1,0
618,12946,10495,bus,54,0,0,0,0,0,1,0
674,12947,10495,bus,54,0,0,0,0,0,1,0
712,12948,10495,bus,54,0,0,0,0,0,1,0
759,12949,10495,bus,54,0,0,0,0,0,1,0
801,12950,10495,bus,54,0,0,0,0,0,1,0
847,12951,10495,bus,54,0,0,0,0,0,1,0
896,12952,10495,bus,54,0,0,0,0,0,1,0
939,12953,10495,bus,54,0,0,0,0,0,1,0
984,12954,10495,bus,54,0,0,0,0,0,1,0
1030,12955,10495,bus,54,0,0,0,0,0,1,0
1070,12956,10495,bus,54,0,0,0,0,0,1,0
1123,12957,10495,bus,54,0,0,0,0,0,1,0
1185,12958,10495,bus,54,0,0,0,0,0,1,0
1245,12959,10495,bus,54,0,0,0,0,0,1,0
1295,12960,10495,bus,54,0,0,0,0,0,1,0
1345,12961,10495,bus,54,0,0,0,0,0,1,0
415,12962,10496,bus,54,0,0,0,0,0,0,1
470,12963,10496,bus,54,0,0,0,0,0,0,1
506,12964,10496,bus,54,0,0,0,0,0,0,1
556,12965,10496,bus,54,0,0,0,0,0,0,1
618,12966,10496,bus,54,0,0,0,0,0,0,1
674,12967,10496,bus,54,0,0,0,0,0,0,1
712,12968,10496,bus,54,0,0,0,0,0,0,1
759,12969,10496,bus,54,0,0,0,0,0,0,1
801,12970,10496,bus,54,0,0,0,0,0,0,1
847,12971,10496,bus,54,0,0,0,0,0,0,1
896,12972,10496,bus,54,0,0,0,0,0,0,1
939,12973,10496,bus,54,0,0,0,0,0,0,1
984,12974,10496,bus,54,0,0,0,0,0,0,1
1030,12975,10496,bus,54,0,0,0,0,0,0,1
1070,12976,10496,bus,54,0,0,0,0,0,0,1
1123,12977,10496,bus,54,0,0,0,0,0,0,1
1185,12978,10496,bus,54,0,0,0,0,0,0,1
1245,12979,10496,bus,54,0,0,0,0,0,0,1
1295,12980,10496,bus,54,0,0,0,0,0,0,1
1345,12981,10496,bus,54,0,0,0,0,0,0,1
1376,12982,10494,bus,54,1,1,1,1,1,0,0
1424,12983,10494,bus,54,1,1,1,1,1,0,0
1376,12984,10495,bus,54,0,0,0,0,0,1,0
1432,12985,10495,bus,54,0,0,0,0,0,1,0
1376,12986,10496,bus,54,0,0,0,0,0,0,1
1432,12987,10496,bus,54,0,0,0,0,0,0,1
1469,16330,9969,nightbus,101N,0,0,0,0,1,1,0
1512,16331,9969,nightbus,101N,0,0,0,0,1,1,0
1560,16332,9969,nightbus,101N,0,0,0,0,1,1,0
1612,16333,9969,nightbus,101N,0,0,0,0,1,1,0
348,21215,10656,trol,13,1,1,1,1,1,0,0
379,21216,10656,trol,13,1,1,1,1,1,0,0
404,21217,10656,trol,13,1,1,1,1,1,0,0
425,21218,10656,trol,13,1,1,1,1,1,0,0
440,21219,10656,trol,13,1,1,1,1,1,0,0
458,21220,10656,trol,13,1,1,1,1,1,0,0
482,21221,10656,trol,13,1,1,1,1,1,0,0
503,21222,10656,trol,13,1,1,1,1,1,0,0
523,21223,10656,trol,13,1,1,1,1,1,0,0
543,21224,10656,trol,13,1,1,1,1,1,0,0
822,21225,10656,trol,13,1,1,1,1,1,0,0
841,21226,10656,trol,13,1,1,1,1,1,0,0
856,21227,10656,trol,13,1,1,1,1,1,0,0
877,21228,10656,trol,13,1,1,1,1,1,0,0
898,21229,10656,trol,13,1,1,1,1,1,0,0
908,21230,10656,trol,13,1,1,1,1,1,0,0
922,21231,10656,trol,13,1,1,1,1,1,0,0
939,21232,10656,trol,13,1,1,1,1,1,0,0
957,21233,10656,trol,13,1,1,1,1,1,0,0
977,21234,10656,trol,13,1,1,1,1,1,0,0
990,21235,10656,trol,13,1,1,1,1,1,0,0
1004,21236,10656,trol,13,1,1,1,1,1,0,0
1018,21237,10656,trol,13,1,1,1,1,1,0,0
1037,21238,10656,trol,13,1,1,1,1,1,0,0
1056,21239,10656,trol,13,1,1,1,1,1,0,0
1077,21240,10656,trol,13,1,1,1,1,1,0,0
339,21809,10466,trol,16,1,1,1,1,1,0,0
353,21810,10466,trol,16,1,1,1,1,1,0,0
361,21811,10466,trol,16,1,1,1,1,1,0,0
376,21812,10466,trol,16,1,1,1,1,1,0,0
388,21813,10466,trol,16,1,1,1,1,1,0,0
407,21814,10466,trol,16,1,1,1,1,1,0,0
418,21815,10466,trol,16,1,1,1,1,1,0,0
428,21816,10466,trol,16,1,1,1,1,1,0,0
440,21817,10466,trol,16,1,1,1,1,1,0,0
447,21818,10466,trol,16,1,1,1,1,1,0,0
455,21819,10466,trol,16,1,1,1,1,1,0,0
461,21820,10466,trol,16,1,1,1,1,1,0,0
467,21821,10466,trol,16,1,1,1,1,1,0,0
474,21822,10466,trol,16,1,1,1,1,1,0,0
481,21823,10466,trol,16,1,1,1,1,1,0,0
487,21824,10466,trol,16,1,1,1,1,1,0,0
492,21825,10466,trol,16,1,1,1,1,1,0,0
498,21826,10466,trol,16,1,1,1,1,1,0,0
503,21827,10466,trol,16,1,1,1,1,1,0,0
508,21828,10466,trol,16,1,1,1,1,1,0,0
514,21829,10466,trol,16,1,1,1,1,1,0,0
520,21830,10466,trol,16,1,1,1,1,1,0,0
526,21831,10466,trol,16,1,1,1,1,1,0,0
532,21832,10466,trol,16,1,1,1,1,1,0,0
538,21833,10466,trol,16,1,1,1,1,1,0,0
546,21834,10466,trol,16,1,1,1,1,1,0,0
554,21835,10466,trol,16,1,1,1,1,1,0,0
562,21836,10466,trol,16,1,1,1,1,1,0,0
570,21837,10466,trol,16,1,1,1,1,1,0,0
578,21838,10466,trol,16,1,1,1,1,1,0,0
587,21839,10466,trol,16,1,1,1,1,1,0,0
594,21840,10466,trol,16,1,1,1,1,1,0,0
600,21841,10466,trol,16,1,1,1,1,1,0,0
606,21842,10466,trol,16,1,1,1,1,1,0,0
613,21843,10466,trol,16,1,1,1,1,1,0,0
619,21844,10466,trol,16,1,1,1,1,1,0,0
627,21845,10466,trol,16,1,1,1,1,1,0,0
635,21846,10466,trol,16,1,1,1,1,1,0,0
647,21847,10466,trol,16,1,1,1,1,1,0,0
658,21848,10466,trol,16,1,1,1,1,1,0,0
667,21849,10466,trol,16,1,1,1,1,1,0,0
676,21850,10466,trol,16,1,1,1,1,1,0,0
685,21851,10466,trol,16,1,1,1,1,1,0,0
694,21852,10466,trol,16,1,1,1,1,1,0,0
700,21853,10466,trol,16,1,1,1,1,1,0,0
710,21854,10466,trol,16,1,1,1,1,1,0,0
718,21855,10466,trol,16,1,1,1,1,1,0,0
727,21856,10466,trol,16,1,1,1,1,1,0,0
735,21857,10466,trol,16,1,1,1,1,1,0,0
744,21858,10466,trol,16,1,1,1,1,1,0,0
753,21859,10466,trol,16,1,1,1,1,1,0,0
762,21860,10466,trol,16,1,1,1,1,1,0,0
771,21861,10466,trol,16,1,1,1,1,1,0,0
780,21862,10466,trol,16,1,1,1,1,1,0,0
789,21863,10466,trol,16,1,1,1,1,1,0,0
795,21864,10466,trol,16,1,1,1,1,1,0,0
804,21865,10466,trol,16,1,1,1,1,1,0,0
815,21866,10466,trol,16,1,1,1,1,1,0,0
824,21867,10466,trol,16,1,1,1,1,1,0,0
833,21868,10466,trol,16,1,1,1,1,1,0,0
842,21869,10466,trol,16,1,1,1,1,1,0,0
850,21870,10466,trol,16,1,1,1,1,1,0,0
859,21871,10466,trol,16,1,1,1,1,1,0,0
870,21872,10466,trol,16,1,1,1,1,1,0,0
878,21873,10466,trol,16,1,1,1,1,1,0,0
886,21874,10466,trol,16,1,1,1,1,1,0,0
892,21875,10466,trol,16,1,1,1,1,1,0,0
903,21876,10466,trol,16,1,1,1,1,1,0,0
913,21877,10466,trol,16,1,1,1,1,1,0,0
922,21878,10466,trol,16,1,1,1,1,1,0,0
928,21879,10466,trol,16,1,1,1,1,1,0,0
932,21880,10466,trol,16,1,1,1,1,1,0,0
941,21881,10466,trol,16,1,1,1,1,1,0,0
949,21882,10466,trol,16,1,1,1,1,1,0,0
956,21883,10466,trol,16,1,1,1,1,1,0,0
960,21884,10466,trol,16,1,1,1,1,1,0,0
964,21885,10466,trol,16,1,1,1,1,1,0,0
970,21886,10466,trol,16,1,1,1,1,1,0,0
974,21887,10466,trol,16,1,1,1,1,1,0,0
978,21888,10466,trol,16,1,1,1,1,1,0,0
985,21889,10466,trol,16,1,1,1,1,1,0,0
990,21890,10466,trol,16,1,1,1,1,1,0,0
998,21891,10466,trol,16,1,1,1,1,1,0,0
1007,21892,10466,trol,16,1,1,1,1,1,0,0
1016,21893,10466,trol,16,1,1,1,1,1,0,0
1024,21894,10466,trol,16,1,1,1,1,1,0,0
1030,21895,10466,trol,16,1,1,1,1,1,0,0
1037,21896,10466,trol,16,1,1,1,1,1,0,0
1044,21897,10466,trol,16,1,1,1,1,1,0,0
1051,21898,10466,trol,16,1,1,1,1,1,0,0
1056,21899,10466,trol,16,1,1,1,1,1,0,0
1062,21900,10466,trol,16,1,1,1,1,1,0,0
1067,21901,10466,trol,16,1,1,1,1,1,0,0
1072,21902,10466,trol,16,1,1,1,1,1,0,0
1077,21903,10466,trol,16,1,1,1,1,1,0,0
1083,21904,10466,trol,16,1,1,1,1,1,0,0
1090,21905,10466,trol,16,1,1,1,1,1,0,0
1095,21906,10466,trol,16,1,1,1,1,1,0,0
1103,21907,10466,trol,16,1,1,1,1,1,0,0
1109,21908,10466,trol,16,1,1,1,1,1,0,0
1116,21909,10466,trol,16,1,1,1,1,1,0,0
1124,21910,10466,trol,16,1,1,1,1,1,0,0
1131,21911,10466,trol,16,1,1,1,1,1,0,0
1139,21912,10466,trol,16,1,1,1,1,1,0,0
1146,21913,10466,trol,16,1,1,1,1,1,0,0
1154,21914,10466,trol,16,1,1,1,1,1,0,0
1161,21915,10466,trol,16,1,1,1,1,1,0,0
1167,21916,10466,trol,16,1,1,1,1,1,0,0
1174,21917,10466,trol,16,1,1,1,1,1,0,0
1183,21918,10466,trol,16,1,1,1,1,1,0,0
1194,21919,10466,trol,16,1,1,1,1,1,0,0
1204,21920,10466,trol,16,1,1,1,1,1,0,0
1214,21921,10466,trol,16,1,1,1,1,1,0,0
1221,21922,10466,trol,16,1,1,1,1,1,0,0
1231,21923,10466,trol,16,1,1,1,1,1,0,0
1243,21924,10466,trol,16,1,1,1,1,1,0,0
1252,21925,10466,trol,16,1,1,1,1,1,0,0
1260,21926,10466,trol,16,1,1,1,1,1,0,0
1270,21927,10466,trol,16,1,1,1,1,1,0,0
1277,21928,10466,trol,16,1,1,1,1,1,0,0
1286,21929,10466,trol,16,1,1,1,1,1,0,0
1294,21930,10466,trol,16,1,1,1,1,1,0,0
1303,21931,10466,trol,16,1,1,1,1,1,0,0
1311,21932,10466,trol,16,1,1,1,1,1,0,0
1319,21933,10466,trol,16,1,1,1,1,1,0,0
1325,21934,10466,trol,16,1,1,1,1,1,0,0
1334,21935,10466,trol,16,1,1,1,1,1,0,0
1344,21936,10466,trol,16,1,1,1,1,1,0,0
1355,21937,10466,trol,16,1,1,1,1,1,0,0
1366,21938,10466,trol,16,1,1,1,1,1,0,0
1381,21939,10466,trol,16,1,1,1,1,1,0,0
1400,21940,10466,trol,16,1,1,1,1,1,0,0
1411,21941,10466,trol,16,1,1,1,1,1,0,0
347,21942,10467,trol,16,0,0,0,0,0,1,0
371,21943,10467,trol,16,0,0,0,0,0,1,0
397,21944,10467,trol,16,0,0,0,0,0,1,0
421,21945,10467,trol,16,0,0,0,0,0,1,0
436,21946,10467,trol,16,0,0,0,0,0,1,0
458,21947,10467,trol,16,0,0,0,0,0,1,0
468,21948,10467,trol,16,0,0,0,0,0,1,0
478,21949,10467,trol,16,0,0,0,0,0,1,0
491,21950,10467,trol,16,0,0,0,0,0,1,0
507,21951,10467,trol,16,0,0,0,0,0,1,0
515,21952,10467,trol,16,0,0,0,0,0,1,0
529,21953,10467,trol,16,0,0,0,0,0,1,0
544,21954,10467,trol,16,0,0,0,0,0,1,0
555,21955,10467,trol,16,0,0,0,0,0,1,0
566,21956,10467,trol,16,0,0,0,0,0,1,0
578,21957,10467,trol,16,0,0,0,0,0,1,0
592,21958,10467,trol,16,0,0,0,0,0,1,0
602,21959,10467,trol,16,0,0,0,0,0,1,0
611,21960,10467,trol,16,0,0,0,0,0,1,0
624,21961,10467,trol,16,0,0,0,0,0,1,0
634,21962,10467,trol,16,0,0,0,0,0,1,0
647,21963,10467,trol,16,0,0,0,0,0,1,0
655,21964,10467,trol,16,0,0,0,0,0,1,0
666,21965,10467,trol,16,0,0,0,0,0,1,0
679,21966,10467,trol,16,0,0,0,0,0,1,0
691,21967,10467,trol,16,0,0,0,0,0,1,0
701,21968,10467,trol,16,0,0,0,0,0,1,0
709,21969,10467,trol,16,0,0,0,0,0,1,0
717,21970,10467,trol,16,0,0,0,0,0,1,0
726,21971,10467,trol,16,0,0,0,0,0,1,0
736,21972,10467,trol,16,0,0,0,0,0,1,0
746,21973,10467,trol,16,0,0,0,0,0,1,0
758,21974,10467,trol,16,0,0,0,0,0,1,0
767,21975,10467,trol,16,0,0,0,0,0,1,0
776,21976,10467,trol,16,0,0,0,0,0,1,0
788,21977,10467,trol,16,0,0,0,0,0,1,0
799,21978,10467,trol,16,0,0,0,0,0,1,0
809,21979,10467,trol,16,0,0,0,0,0,1,0
817,21980,10467,trol,16,0,0,0,0,0,1,0
826,21981,10467,trol,16,0,0,0,0,0,1,0
838,21982,10467,trol,16,0,0,0,0,0,1,0
850,21983,10467,trol,16,0,0,0,0,0,1,0
862,21984,10467,trol,16,0,0,0,0,0,1,0
870,21985,10467,trol,16,0,0,0,0,0,1,0
881,21986,10467,trol,16,0,0,0,0,0,1,0
893,21987,10467,trol,16,0,0,0,0,0,1,0
901,21988,10467,trol,16,0,0,0,0,0,1,0
909,21989,10467,trol,16,0,0,0,0,0,1,0
919,21990,10467,trol,16,0,0,0,0,0,1,0
929,21991,10467,trol,16,0,0,0,0,0,1,0
935,21992,10467,trol,16,0,0,0,0,0,1,0
944,21993,10467,trol,16,0,0,0,0,0,1,0
955,21994,10467,trol,16,0,0,0,0,0,1,0
965,21995,10467,trol,16,0,0,0,0,0,1,0
975,21996,10467,trol,16,0,0,0,0,0,1,0
982,21997,10467,trol,16,0,0,0,0,0,1,0
992,21998,10467,trol,16,0,0,0,0,0,1,0
1002,21999,10467,trol,16,0,0,0,0,0,1,0
1013,22000,10467,trol,16,0,0,0,0,0,1,0
1021,22001,10467,trol,16,0,0,0,0,0,1,0
1030,22002,10467,trol,16,0,0,0,0,0,1,0
1045,22003,10467,trol,16,0,0,0,0,0,1,0
1056,22004,10467,trol,16,0,0,0,0,0,1,0
1065,22005,10467,trol,16,0,0,0,0,0,1,0
1078,22006,10467,trol,16,0,0,0,0,0,1,0
1094,22007,10467,trol,16,0,0,0,0,0,1,0
1113,22008,10467,trol,16,0,0,0,0,0,1,0
1123,22009,10467,trol,16,0,0,0,0,0,1,0
1137,22010,10467,trol,16,0,0,0,0,0,1,0
1152,22011,10467,trol,16,0,0,0,0,0,1,0
1171,22012,10467,trol,16,0,0,0,0,0,1,0
1183,22013,10467,trol,16,0,0,0,0,0,1,0
1199,22014,10467,trol,16,0,0,0,0,0,1,0
1211,22015,10467,trol,16,0,0,0,0,0,1,0
1225,22016,10467,trol,16,0,0,0,0,0,1,0
1235,22017,10467,trol,16,0,0,0,0,0,1,0
1248,22018,10467,trol,16,0,0,0,0,0,1,0
1262,22019,10467,trol,16,0,0,0,0,0,1,0
1274,22020,10467,trol,16,0,0,0,0,0,1,0
1288,22021,10467,trol,16,0,0,0,0,0,1,0
1301,22022,10467,trol,16,0,0,0,0,0,1,0
1319,22023,10467,trol,16,0,0,0,0,0,1,0
1333,22024,10467,trol,16,0,0,0,0,0,1,0
1357,22025,10467,trol,16,0,0,0,0,0,1,0
1385,22026,10467,trol,16,0,0,0,0,0,1,0
397,22027,10468,trol,16,0,0,0,0,0,0,1
421,22028,10468,trol,16,0,0,0,0,0,0,1
436,22029,10468,trol,16,0,0,0,0,0,0,1
458,22030,10468,trol,16,0,0,0,0,0,0,1
468,22031,10468,trol,16,0,0,0,0,0,0,1
478,22032,10468,trol,16,0,0,0,0,0,0,1
491,22033,10468,trol,16,0,0,0,0,0,0,1
507,22034,10468,trol,16,0,0,0,0,0,0,1
515,22035,10468,trol,16,0,0,0,0,0,0,1
529,22036,10468,trol,16,0,0,0,0,0,0,1
544,22037,10468,trol,16,0,0,0,0,0,0,1
555,22038,10468,trol,16,0,0,0,0,0,0,1
566,22039,10468,trol,16,0,0,0,0,0,0,1
578,22040,10468,trol,16,0,0,0,0,0,0,1
592,22041,10468,trol,16,0,0,0,0,0,0,1
602,22042,10468,trol,16,0,0,0,0,0,0,1
611,22043,10468,trol,16,0,0,0,0,0,0,1
624,22044,10468,trol,16,0,0,0,0,0,0,1
634,22045,10468,trol,16,0,0,0,0,0,0,1
647,22046,10468,trol,16,0,0,0,0,0,0,1
655,22047,10468,trol,16,0,0,0,0,0,0,1
666,22048,10468,trol,16,0,0,0,0,0,0,1
679,22049,10468,trol,16,0,0,0,0,0,0,1
691,22050,10468,trol,16,0,0,0,0,0,0,1
701,22051,10468,trol,16,0,0,0,0,0,0,1
709,22052,10468,trol,16,0,0,0,0,0,0,1
717,22053,10468,trol,16,0,0,0,0,0,0,1
726,22054,10468,trol,16,0,0,0,0,0,0,1
736,22055,10468,trol,16,0,0,0,0,0,0,1
746,22056,10468,trol,16,0,0,0,0,0,0,1
758,22057,10468,trol,16,0,0,0,0,0,0,1
767,22058,10468,trol,16,0,0,0,0,0,0,1
776,22059,10468,trol,16,0,0,0,0,0,0,1
788,22060,10468,trol,16,0,0,0,0,0,0,1
799,22061,10468,trol,16,0,0,0,0,0,0,1
809,22062,10468,trol,16,0,0,0,0,0,0,1
817,22063,10468,trol,16,0,0,0,0,0,0,1
826,22064,10468,trol,16,0,0,0,0,0,0,1
838,22065,10468,trol,16,0,0,0,0,0,0,1
850,22066,10468,trol,16,0,0,0,0,0,0,1
862,22067,10468,trol,16,0,0,0,0,0,0,1
870,22068,10468,trol,16,0,0,0,0,0,0,1
881,22069,10468,trol,16,0,0,0,0,0,0,1
893,22070,10468,trol,16,0,0,0,0,0,0,1
901,22071,10468,trol,16,0,0,0,0,0,0,1
909,22072,10468,trol,16,0,0,0,0,0,0,1
919,22073,10468,trol,16,0,0,0,0,0,0,1
929,22074,10468,trol,16,0,0,0,0,0,0,1
935,22075,10468,trol,16,0,0,0,0,0,0,1
944,22076,10468,trol,16,0,0,0,0,0,0,1
955,22077,10468,trol,16,0,0,0,0,0,0,1
965,22078,10468,trol,16,0,0,0,0,0,0,1
975,22079,10468,trol,16,0,0,0,0,0,0,1
982,22080,10468,trol,16,0,0,0,0,0,0,1
992,22081,10468,trol,16,0,0,0,0,0,0,1
1002,22082,10468,trol,16,0,0,0,0,0,0,1
1013,22083,10468,trol,16,0,0,0,0,0,0,1
1021,22084,10468,trol,16,0,0,0,0,0,0,1
1030,22085,10468,trol,16,0,0,0,0,0,0,1
1045,22086,10468,trol,16,0,0,0,0,0,0,1
1056,22087,10468,trol,16,0,0,0,0,0,0,1
1065,22088,10468,trol,16,0,0,0,0,0,0,1
1078,22089,10468,trol,16,0,0,0,0,0,0,1
1094,22090,10468,trol,16,0,0,0,0,0,0,1
1113,22091,10468,trol,16,0,0,0,0,0,0,1
1123,22092,10468,trol,16,0,0,0,0,0,0,1
1137,22093,10468,trol,16,0,0,0,0,0,0,1
1152,22094,10468,trol,16,0,0,0,0,0,0,1
1171,22095,10468,trol,16,0,0,0,0,0,0,1
1183,22096,10468,trol,16,0,0,0,0,0,0,1
1199,22097,10468,trol,16,0,0,0,0,0,0,1
1211,22098,10468,trol,16,0,0,0,0,0,0,1
1225,22099,10468,trol,16,0,0,0,0,0,0,1
1235,22100,10468,trol,16,0,0,0,0,0,0,1
1248,22101,10468,trol,16,0,0,0,0,0,0,1
1262,22102,10468,trol,16,0,0,0,0,0,0,1
1274,22103,10468,trol,16,0,0,0,0,0,0,1
1288,22104,10468,trol,16,0,0,0,0,0,0,1
1301,22105,10468,trol,16,0,0,0,0,0,0,1
1319,22106,10468,trol,16,0,0,0,0,0,0,1
1333,22107,10468,trol,16,0,0,0,0,0,0,1
1357,22108,10468,trol,16,0,0,0,0,0,0,1
1385,22109,10468,trol,16,0,0,0,0,0,0,1
1437,22146,10466,trol,16,1,1,1,1,1,0,0
1416,22147,10467,trol,16,0,0,0,0,0,1,0
1416,22148,10468,trol,16,0,0,0,0,0,0,1
357,22866,10655,trol,18,1,1,1,1,1,0,0
384,22867,10655,trol,18,1,1,1,1,1,0,0
401,22868,10654,trol,18,1,1,1,1,1,0,0
418,22869,10655,trol,18,1,1,1,1,1,0,0
436,22870,10656,trol,18,1,1,1,1,1,0,0
454,22871,10655,trol,18,1,1,1,1,1,0,0
471,22872,10655,trol,18,1,1,1,1,1,0,0
490,22873,10655,trol,18,1,1,1,1,1,0,0
510,22874,10654,trol,18,1,1,1,1,1,0,0
527,22875,10655,trol,18,1,1,1,1,1,0,0
546,22876,10656,trol,18,1,1,1,1,1,0,0
554,22877,10655,trol,18,1,1,1,1,1,0,0
572,22878,10655,trol,18,1,1,1,1,1,0,0
590,22879,10655,trol,18,1,1,1,1,1,0,0
622,22880,10655,trol,18,1,1,1,1,1,0,0
674,22881,10655,trol,18,1,1,1,1,1,0,0
709,22882,10655,trol,18,1,1,1,1,1,0,0
741,22883,10655,trol,18,1,1,1,1,1,0,0
770,22884,10655,trol,18,1,1,1,1,1,0,0
803,22885,10655,trol,18,1,1,1,1,1,0,0
834,22886,10655,trol,18,1,1,1,1,1,0,0
872,22887,10655,trol,18,1,1,1,1,1,0,0
903,22888,10655,trol,18,1,1,1,1,1,0,0
933,22889,10655,trol,18,1,1,1,1,1,0,0
952,22890,10655,trol,18,1,1,1,1,1,0,0
967,22891,10655,trol,18,1,1,1,1,1,0,0
998,22892,10655,trol,18,1,1,1,1,1,0,0
1028,22893,10655,trol,18,1,1,1,1,1,0,0
1050,22894,10655,trol,18,1,1,1,1,1,0,0
1069,22895,10655,trol,18,1,1,1,1,1,0,0
1107,22896,10655,trol,18,1,1,1,1,1,0,0
1130,22897,10655,trol,18,1,1,1,1,1,0,0
1164,22898,10655,trol,18,1,1,1,1,1,0,0
1191,22899,10655,trol,18,1,1,1,1,1,0,0
1232,22900,10655,trol,18,1,1,1,1,1,0,0
1263,22901,10655,trol,18,1,1,1,1,1,0,0
1296,22902,10655,trol,18,1,1,1,1,1,0,0
1344,22903,10655,trol,18,1,1,1,1,1,0,0
1398,22904,10655,trol,18,1,1,1,1,1,0,0
350,22905,10651,trol,18,0,0,0,0,0,1,0
427,22906,10652,trol,18,0,0,0,0,0,1,0
464,22907,10652,trol,18,0,0,0,0,0,1,0
518,22908,10652,trol,18,0,0,0,0,0,1,0
555,22909,10652,trol,18,0,0,0,0,0,1,0
609,22910,10652,trol,18,0,0,0,0,0,1,0
652,22911,10652,trol,18,0,0,0,0,0,1,0
685,22912,10652,trol,18,0,0,0,0,0,1,0
727,22913,10652,trol,18,0,0,0,0,0,1,0
758,22914,10652,trol,18,0,0,0,0,0,1,0
778,22915,10652,trol,18,0,0,0,0,0,1,0
822,22916,10652,trol,18,0,0,0,0,0,1,0
867,22917,10652,trol,18,0,0,0,0,0,1,0
891,22918,10652,trol,18,0,0,0,0,0,1,0
924,22919,10652,trol,18,0,0,0,0,0,1,0
962,22920,10652,trol,18,0,0,0,0,0,1,0
984,22921,10652,trol,18,0,0,0,0,0,1,0
1019,22922,10652,trol,18,0,0,0,0,0,1,0
1056,22923,10652,trol,18,0,0,0,0,0,1,0
1098,22924,10652,trol,18,0,0,0,0,0,1,0
1142,22925,10652,trol,18,0,0,0,0,0,1,0
1185,22926,10652,trol,18,0,0,0,0,0,1,0
1235,22927,10652,trol,18,0,0,0,0,0,1,0
1285,22928,10652,trol,18,0,0,0,0,0,1,0
1335,22929,10652,trol,18,0,0,0,0,0,1,0
1395,22930,10652,trol,18,0,0,0,0,0,1,0
405,22931,10474,trol,18,0,0,0,0,0,0,1
464,22932,10474,trol,18,0,0,0,0,0,0,1
513,22933,10474,trol,18,0,0,0,0,0,0,1
555,22934,10474,trol,18,0,0,0,0,0,0,1
609,22935,10474,trol,18,0,0,0,0,0,0,1
652,22936,10474,trol,18,0,0,0,0,0,0,1
685,22937,10474,trol,18,0,0,0,0,0,0,1
727,22938,10474,trol,18,0,0,0,0,0,0,1
758,22939,10474,trol,18,0,0,0,0,0,0,1
778,22940,10474,trol,18,0,0,0,0,0,0,1
822,22941,10474,trol,18,0,0,0,0,0,0,1
867,22942,10474,trol,18,0,0,0,0,0,0,1
891,22943,10474,trol,18,0,0,0,0,0,0,1
924,22944,10474,trol,18,0,0,0,0,0,0,1
962,22945,10474,trol,18,0,0,0,0,0,0,1
984,22946,10474,trol,18,0,0,0,0,0,0,1
1019,22947,10474,trol,18,0,0,0,0,0,0,1
1056,22948,10474,trol,18,0,0,0,0,0,0,1
1098,22949,10474,trol,18,0,0,0,0,0,0,1
1142,22950,10474,trol,18,0,0,0,0,0,0,1
1185,22951,10474,trol,18,0,0,0,0,0,0,1
1235,22952,10474,trol,18,0,0,0,0,0,0,1
1285,22953,10474,trol,18,0,0,0,0,0,0,1
1335,22954,10474,trol,18,0,0,0,0,0,0,1
1395,22955,10474,trol,18,0,0,0,0,0,0,1
