timeInMin,trip_id,service_id,tipas,numeris,pirmadienis,antradienis,treciadienis,ketvirtadienis,penktadienis,sestadienis,sekmadienis 
365,6752,10354,bus,21,1,1,1,1,1,0,0
392,6753,10354,bus,21,1,1,1,1,1,0,0
414,6754,10354,bus,21,1,1,1,1,1,0,0
439,6755,10354,bus,21,1,1,1,1,1,0,0
467,6756,10354,bus,21,1,1,1,1,1,0,0
488,6757,10354,bus,21,1,1,1,1,1,0,0
513,6758,10354,bus,21,1,1,1,1,1,0,0
541,6759,10354,bus,21,1,1,1,1,1,0,0
604,6760,10354,bus,21,1,1,1,1,1,0,0
643,6761,10354,bus,21,1,1,1,1,1,0,0
694,6762,10354,bus,21,1,1,1,1,1,0,0
733,6763,10354,bus,21,1,1,1,1,1,0,0
770,6764,10354,bus,21,1,1,1,1,1,0,0
809,6765,10354,bus,21,1,1,1,1,1,0,0
845,6766,10354,bus,21,1,1,1,1,1,0,0
881,6767,10354,bus,21,1,1,1,1,1,0,0
918,6768,10354,bus,21,1,1,1,1,1,0,0
957,6769,10354,bus,21,1,1,1,1,1,0,0
991,6770,10354,bus,21,1,1,1,1,1,0,0
1014,6771,10354,bus,21,1,1,1,1,1,0,0
1038,6772,10354,bus,21,1,1,1,1,1,0,0
1065,6773,10354,bus,21,1,1,1,1,1,0,0
1091,6774,10354,bus,21,1,1,1,1,1,0,0
1114,6775,10354,bus,21,1,1,1,1,1,0,0
1159,6776,10354,bus,21,1,1,1,1,1,0,0
1208,6777,10354,bus,21,1,1,1,1,1,0,0
1261,6778,10354,bus,21,1,1,1,1,1,0,0
1300,6779,10354,bus,21,1,1,1,1,1,0,0
1333,6780,10354,bus,21,1,1,1,1,1,0,0
1372,6781,10354,bus,21,1,1,1,1,1,0,0
388,6782,9374,bus,21,0,0,0,0,0,1,0
460,6783,9374,bus,21,0,0,0,0,0,1,0
534,6784,9374,bus,21,0,0,0,0,0,1,0
620,6785,9374,bus,21,0,0,0,0,0,1,0
710,6786,9374,bus,21,0,0,0,0,0,1,0
776,6787,9374,bus,21,0,0,0,0,0,1,0
848,6788,9374,bus,21,0,0,0,0,0,1,0
919,6789,9374,bus,21,0,0,0,0,0,1,0
989,6790,9374,bus,21,0,0,0,0,0,1,0
1060,6791,9374,bus,21,0,0,0,0,0,1,0
1146,6792,9374,bus,21,0,0,0,0,0,1,0
1232,6793,9374,bus,21,0,0,0,0,0,1,0
1298,6794,9374,bus,21,0,0,0,0,0,1,0
1364,6795,9374,bus,21,0,0,0,0,0,1,0
427,6796,9375,bus,21,0,0,0,0,0,0,1
501,6797,9375,bus,21,0,0,0,0,0,0,1
602,6798,9375,bus,21,0,0,0,0,0,0,1
674,6799,9375,bus,21,0,0,0,0,0,0,1
751,6800,9375,bus,21,0,0,0,0,0,0,1
822,6801,9375,bus,21,0,0,0,0,0,0,1
893,6802,9375,bus,21,0,0,0,0,0,0,1
964,6803,9375,bus,21,0,0,0,0,0,0,1
1035,6804,9375,bus,21,0,0,0,0,0,0,1
1136,6805,9375,bus,21,0,0,0,0,0,0,1
1207,6806,9375,bus,21,0,0,0,0,0,0,1
1278,6807,9375,bus,21,0,0,0,0,0,0,1
1349,6808,9375,bus,21,0,0,0,0,0,0,1
937,6809,10354,bus,21,1,1,1,1,1,0,0
373,6956,9979,bus,22,0,0,0,0,0,0,1
404,6957,9979,bus,22,0,0,0,0,0,0,1
434,6958,9979,bus,22,0,0,0,0,0,0,1
464,6959,9979,bus,22,0,0,0,0,0,0,1
493,6960,9979,bus,22,0,0,0,0,0,0,1
520,6961,9979,bus,22,0,0,0,0,0,0,1
542,6962,9979,bus,22,0,0,0,0,0,0,1
571,6963,9979,bus,22,0,0,0,0,0,0,1
586,6964,9979,bus,22,0,0,0,0,0,0,1
620,6965,9979,bus,22,0,0,0,0,0,0,1
649,6966,9979,bus,22,0,0,0,0,0,0,1
668,6967,9979,bus,22,0,0,0,0,0,0,1
683,6968,9979,bus,22,0,0,0,0,0,0,1
707,6969,9979,bus,22,0,0,0,0,0,0,1
725,6970,9979,bus,22,0,0,0,0,0,0,1
741,6971,9979,bus,22,0,0,0,0,0,0,1
767,6972,9979,bus,22,0,0,0,0,0,0,1
799,6973,9979,bus,22,0,0,0,0,0,0,1
816,6974,9979,bus,22,0,0,0,0,0,0,1
834,6975,9979,bus,22,0,0,0,0,0,0,1
857,6976,9979,bus,22,0,0,0,0,0,0,1
876,6977,9979,bus,22,0,0,0,0,0,0,1
894,6978,9979,bus,22,0,0,0,0,0,0,1
916,6979,9979,bus,22,0,0,0,0,0,0,1
934,6980,9979,bus,22,0,0,0,0,0,0,1
953,6981,9979,bus,22,0,0,0,0,0,0,1
974,6982,9979,bus,22,0,0,0,0,0,0,1
992,6983,9979,bus,22,0,0,0,0,0,0,1
1011,6984,9979,bus,22,0,0,0,0,0,0,1
1032,6985,9979,bus,22,0,0,0,0,0,0,1
1069,6986,9979,bus,22,0,0,0,0,0,0,1
1110,6987,9979,bus,22,0,0,0,0,0,0,1
1147,6988,9979,bus,22,0,0,0,0,0,0,1
1178,6989,9979,bus,22,0,0,0,0,0,0,1
1205,6990,9979,bus,22,0,0,0,0,0,0,1
1235,6991,9979,bus,22,0,0,0,0,0,0,1
1261,6992,9979,bus,22,0,0,0,0,0,0,1
1293,6993,9979,bus,22,0,0,0,0,0,0,1
1317,6994,9979,bus,22,0,0,0,0,0,0,1
1346,6995,9979,bus,22,0,0,0,0,0,0,1
1373,6996,9979,bus,22,0,0,0,0,0,0,1
1402,6997,9979,bus,22,0,0,0,0,0,0,1
337,6998,10355,bus,22,1,1,1,1,1,0,0
374,6999,10355,bus,22,1,1,1,1,1,0,0
394,7000,10355,bus,22,1,1,1,1,1,0,0
408,7001,10355,bus,22,1,1,1,1,1,0,0
422,7002,10355,bus,22,1,1,1,1,1,0,0
436,7003,10355,bus,22,1,1,1,1,1,0,0
454,7004,10355,bus,22,1,1,1,1,1,0,0
470,7005,10355,bus,22,1,1,1,1,1,0,0
486,7006,10355,bus,22,1,1,1,1,1,0,0
500,7007,10355,bus,22,1,1,1,1,1,0,0
516,7008,10355,bus,22,1,1,1,1,1,0,0
531,7009,10355,bus,22,1,1,1,1,1,0,0
552,7010,10355,bus,22,1,1,1,1,1,0,0
580,7011,10355,bus,22,1,1,1,1,1,0,0
611,7012,10355,bus,22,1,1,1,1,1,0,0
639,7013,10355,bus,22,1,1,1,1,1,0,0
671,7014,10355,bus,22,1,1,1,1,1,0,0
698,7015,10355,bus,22,1,1,1,1,1,0,0
731,7016,10355,bus,22,1,1,1,1,1,0,0
757,7017,10355,bus,22,1,1,1,1,1,0,0
790,7018,10355,bus,22,1,1,1,1,1,0,0
816,7019,10355,bus,22,1,1,1,1,1,0,0
851,7020,10355,bus,22,1,1,1,1,1,0,0
876,7021,10355,bus,22,1,1,1,1,1,0,0
910,7022,10355,bus,22,1,1,1,1,1,0,0
935,7023,10355,bus,22,1,1,1,1,1,0,0
952,7024,10355,bus,22,1,1,1,1,1,0,0
969,7025,10355,bus,22,1,1,1,1,1,0,0
984,7026,10355,bus,22,1,1,1,1,1,0,0
998,7027,10355,bus,22,1,1,1,1,1,0,0
1014,7028,10355,bus,22,1,1,1,1,1,0,0
1030,7029,10355,bus,22,1,1,1,1,1,0,0
1045,7030,10355,bus,22,1,1,1,1,1,0,0
1059,7031,10355,bus,22,1,1,1,1,1,0,0
1076,7032,10355,bus,22,1,1,1,1,1,0,0
1092,7033,10355,bus,22,1,1,1,1,1,0,0
1108,7034,10355,bus,22,1,1,1,1,1,0,0
1139,7035,10355,bus,22,1,1,1,1,1,0,0
1172,7036,10355,bus,22,1,1,1,1,1,0,0
1219,7037,10355,bus,22,1,1,1,1,1,0,0
1250,7038,10355,bus,22,1,1,1,1,1,0,0
1278,7039,10355,bus,22,1,1,1,1,1,0,0
1309,7040,10355,bus,22,1,1,1,1,1,0,0
1338,7041,10355,bus,22,1,1,1,1,1,0,0
1374,7042,10355,bus,22,1,1,1,1,1,0,0
1409,7043,10355,bus,22,1,1,1,1,1,0,0
373,7044,9978,bus,22,0,0,0,0,0,1,0
404,7045,9978,bus,22,0,0,0,0,0,1,0
434,7046,9978,bus,22,0,0,0,0,0,1,0
464,7047,9978,bus,22,0,0,0,0,0,1,0
493,7048,9978,bus,22,0,0,0,0,0,1,0
520,7049,9978,bus,22,0,0,0,0,0,1,0
542,7050,9978,bus,22,0,0,0,0,0,1,0
571,7051,9978,bus,22,0,0,0,0,0,1,0
586,7052,9978,bus,22,0,0,0,0,0,1,0
620,7053,9978,bus,22,0,0,0,0,0,1,0
649,7054,9978,bus,22,0,0,0,0,0,1,0
668,7055,9978,bus,22,0,0,0,0,0,1,0
683,7056,9978,bus,22,0,0,0,0,0,1,0
707,7057,9978,bus,22,0,0,0,0,0,1,0
725,7058,9978,bus,22,0,0,0,0,0,1,0
741,7059,9978,bus,22,0,0,0,0,0,1,0
767,7060,9978,bus,22,0,0,0,0,0,1,0
799,7061,9978,bus,22,0,0,0,0,0,1,0
816,7062,9978,bus,22,0,0,0,0,0,1,0
834,7063,9978,bus,22,0,0,0,0,0,1,0
857,7064,9978,bus,22,0,0,0,0,0,1,0
876,7065,9978,bus,22,0,0,0,0,0,1,0
894,7066,9978,bus,22,0,0,0,0,0,1,0
916,7067,9978,bus,22,0,0,0,0,0,1,0
934,7068,9978,bus,22,0,0,0,0,0,1,0
953,7069,9978,bus,22,0,0,0,0,0,1,0
974,7070,9978,bus,22,0,0,0,0,0,1,0
992,7071,9978,bus,22,0,0,0,0,0,1,0
1011,7072,9978,bus,22,0,0,0,0,0,1,0
1032,7073,9978,bus,22,0,0,0,0,0,1,0
1069,7074,9978,bus,22,0,0,0,0,0,1,0
1110,7075,9978,bus,22,0,0,0,0,0,1,0
1147,7076,9978,bus,22,0,0,0,0,0,1,0
1178,7077,9978,bus,22,0,0,0,0,0,1,0
1205,7078,9978,bus,22,0,0,0,0,0,1,0
1235,7079,9978,bus,22,0,0,0,0,0,1,0
1261,7080,9978,bus,22,0,0,0,0,0,1,0
1293,7081,9978,bus,22,0,0,0,0,0,1,0
1317,7082,9978,bus,22,0,0,0,0,0,1,0
1346,7083,9978,bus,22,0,0,0,0,0,1,0
1373,7084,9978,bus,22,0,0,0,0,0,1,0
1402,7085,9978,bus,22,0,0,0,0,0,1,0
341,7106,9980,bus,23,1,1,1,1,1,0,0
387,7107,9980,bus,23,1,1,1,1,1,0,0
421,7108,9980,bus,23,1,1,1,1,1,0,0
467,7109,9980,bus,23,1,1,1,1,1,0,0
502,7110,9980,bus,23,1,1,1,1,1,0,0
545,7111,9980,bus,23,1,1,1,1,1,0,0
602,7112,9980,bus,23,1,1,1,1,1,0,0
645,7113,9980,bus,23,1,1,1,1,1,0,0
680,7114,9980,bus,23,1,1,1,1,1,0,0
723,7115,9980,bus,23,1,1,1,1,1,0,0
759,7116,9980,bus,23,1,1,1,1,1,0,0
796,7117,9980,bus,23,1,1,1,1,1,0,0
832,7118,9980,bus,23,1,1,1,1,1,0,0
879,7119,9980,bus,23,1,1,1,1,1,0,0
917,7120,9980,bus,23,1,1,1,1,1,0,0
959,7121,9980,bus,23,1,1,1,1,1,0,0
999,7122,9980,bus,23,1,1,1,1,1,0,0
1041,7123,9980,bus,23,1,1,1,1,1,0,0
1082,7124,9980,bus,23,1,1,1,1,1,0,0
1148,7125,9980,bus,23,1,1,1,1,1,0,0
1191,7126,9980,bus,23,1,1,1,1,1,0,0
1224,7127,9980,bus,23,1,1,1,1,1,0,0
1265,7128,9980,bus,23,1,1,1,1,1,0,0
1300,7129,9980,bus,23,1,1,1,1,1,0,0
1339,7130,9980,bus,23,1,1,1,1,1,0,0
351,7131,9981,bus,23,0,0,0,0,0,1,0
422,7132,9981,bus,23,0,0,0,0,0,1,0
493,7133,9981,bus,23,0,0,0,0,0,1,0
670,7134,9981,bus,23,0,0,0,0,0,1,0
741,7135,9981,bus,23,0,0,0,0,0,1,0
812,7136,9981,bus,23,0,0,0,0,0,1,0
883,7137,9981,bus,23,0,0,0,0,0,1,0
954,7138,9981,bus,23,0,0,0,0,0,1,0
1025,7139,9981,bus,23,0,0,0,0,0,1,0
1196,7140,9981,bus,23,0,0,0,0,0,1,0
1267,7141,9981,bus,23,0,0,0,0,0,1,0
1338,7142,9981,bus,23,0,0,0,0,0,1,0
399,7143,9982,bus,23,0,0,0,0,0,0,1
470,7144,9982,bus,23,0,0,0,0,0,0,1
541,7145,9982,bus,23,0,0,0,0,0,0,1
719,7146,9982,bus,23,0,0,0,0,0,0,1
790,7147,9982,bus,23,0,0,0,0,0,0,1
861,7148,9982,bus,23,0,0,0,0,0,0,1
932,7149,9982,bus,23,0,0,0,0,0,0,1
1006,7150,9982,bus,23,0,0,0,0,0,0,1
1189,7151,9982,bus,23,0,0,0,0,0,0,1
1264,7152,9982,bus,23,0,0,0,0,0,0,1
1338,7153,9982,bus,23,0,0,0,0,0,0,1
599,7207,9981,bus,23,0,0,0,0,0,1,0
1125,7208,9981,bus,23,0,0,0,0,0,1,0
648,7209,9982,bus,23,0,0,0,0,0,0,1
1114,7210,9982,bus,23,0,0,0,0,0,0,1
1463,16330,9969,nightbus,101N,0,0,0,0,1,1,0
1506,16331,9969,nightbus,101N,0,0,0,0,1,1,0
1554,16332,9969,nightbus,101N,0,0,0,0,1,1,0
1606,16333,9969,nightbus,101N,0,0,0,0,1,1,0
333,17862,10657,trol,4,1,1,1,1,1,0,0
343,17863,10657,trol,4,1,1,1,1,1,0,0
351,17864,10657,trol,4,1,1,1,1,1,0,0
361,17865,10657,trol,4,1,1,1,1,1,0,0
368,17866,10657,trol,4,1,1,1,1,1,0,0
376,17867,10657,trol,4,1,1,1,1,1,0,0
383,17868,10657,trol,4,1,1,1,1,1,0,0
391,17869,10657,trol,4,1,1,1,1,1,0,0
397,17870,10656,trol,4,1,1,1,1,1,0,0
402,17871,10657,trol,4,1,1,1,1,1,0,0
409,17872,10657,trol,4,1,1,1,1,1,0,0
417,17873,10657,trol,4,1,1,1,1,1,0,0
423,17874,10657,trol,4,1,1,1,1,1,0,0
429,17875,10657,trol,4,1,1,1,1,1,0,0
439,17876,10657,trol,4,1,1,1,1,1,0,0
445,17877,10657,trol,4,1,1,1,1,1,0,0
452,17878,10657,trol,4,1,1,1,1,1,0,0
458,17879,10657,trol,4,1,1,1,1,1,0,0
464,17880,10657,trol,4,1,1,1,1,1,0,0
472,17881,10657,trol,4,1,1,1,1,1,0,0
478,17882,10657,trol,4,1,1,1,1,1,0,0
487,17883,10657,trol,4,1,1,1,1,1,0,0
494,17884,10657,trol,4,1,1,1,1,1,0,0
501,17885,10657,trol,4,1,1,1,1,1,0,0
509,17886,10657,trol,4,1,1,1,1,1,0,0
518,17887,10657,trol,4,1,1,1,1,1,0,0
526,17888,10657,trol,4,1,1,1,1,1,0,0
537,17889,10657,trol,4,1,1,1,1,1,0,0
544,17890,10657,trol,4,1,1,1,1,1,0,0
551,17891,10657,trol,4,1,1,1,1,1,0,0
564,17892,10657,trol,4,1,1,1,1,1,0,0
573,17893,10657,trol,4,1,1,1,1,1,0,0
585,17894,10657,trol,4,1,1,1,1,1,0,0
599,17895,10657,trol,4,1,1,1,1,1,0,0
611,17896,10657,trol,4,1,1,1,1,1,0,0
623,17897,10657,trol,4,1,1,1,1,1,0,0
636,17898,10657,trol,4,1,1,1,1,1,0,0
645,17899,10657,trol,4,1,1,1,1,1,0,0
655,17900,10657,trol,4,1,1,1,1,1,0,0
665,17901,10657,trol,4,1,1,1,1,1,0,0
673,17902,10657,trol,4,1,1,1,1,1,0,0
683,17903,10657,trol,4,1,1,1,1,1,0,0
695,17904,10657,trol,4,1,1,1,1,1,0,0
703,17905,10657,trol,4,1,1,1,1,1,0,0
713,17906,10657,trol,4,1,1,1,1,1,0,0
722,17907,10657,trol,4,1,1,1,1,1,0,0
733,17908,10657,trol,4,1,1,1,1,1,0,0
744,17909,10657,trol,4,1,1,1,1,1,0,0
751,17910,10657,trol,4,1,1,1,1,1,0,0
760,17911,10657,trol,4,1,1,1,1,1,0,0
770,17912,10657,trol,4,1,1,1,1,1,0,0
782,17913,10657,trol,4,1,1,1,1,1,0,0
793,17914,10657,trol,4,1,1,1,1,1,0,0
802,17915,10657,trol,4,1,1,1,1,1,0,0
812,17916,10657,trol,4,1,1,1,1,1,0,0
821,17917,10657,trol,4,1,1,1,1,1,0,0
832,17918,10657,trol,4,1,1,1,1,1,0,0
843,17919,10657,trol,4,1,1,1,1,1,0,0
852,17920,10657,trol,4,1,1,1,1,1,0,0
863,17921,10657,trol,4,1,1,1,1,1,0,0
873,17922,10657,trol,4,1,1,1,1,1,0,0
883,17923,10657,trol,4,1,1,1,1,1,0,0
891,17924,10657,trol,4,1,1,1,1,1,0,0
902,17925,10657,trol,4,1,1,1,1,1,0,0
914,17926,10657,trol,4,1,1,1,1,1,0,0
923,17927,10657,trol,4,1,1,1,1,1,0,0
932,17928,10657,trol,4,1,1,1,1,1,0,0
938,17929,10657,trol,4,1,1,1,1,1,0,0
944,17930,10657,trol,4,1,1,1,1,1,0,0
951,17931,10657,trol,4,1,1,1,1,1,0,0
957,17932,10657,trol,4,1,1,1,1,1,0,0
962,17933,10657,trol,4,1,1,1,1,1,0,0
968,17934,10657,trol,4,1,1,1,1,1,0,0
976,17935,10657,trol,4,1,1,1,1,1,0,0
983,17936,10657,trol,4,1,1,1,1,1,0,0
991,17937,10657,trol,4,1,1,1,1,1,0,0
997,17938,10657,trol,4,1,1,1,1,1,0,0
1002,17939,10657,trol,4,1,1,1,1,1,0,0
1010,17940,10657,trol,4,1,1,1,1,1,0,0
1020,17941,10657,trol,4,1,1,1,1,1,0,0
1030,17942,10657,trol,4,1,1,1,1,1,0,0
1037,17943,10657,trol,4,1,1,1,1,1,0,0
1044,17944,10657,trol,4,1,1,1,1,1,0,0
1053,17945,10657,trol,4,1,1,1,1,1,0,0
1061,17946,10657,trol,4,1,1,1,1,1,0,0
1068,17947,10657,trol,4,1,1,1,1,1,0,0
1077,17948,10657,trol,4,1,1,1,1,1,0,0
1084,17949,10657,trol,4,1,1,1,1,1,0,0
1092,17950,10657,trol,4,1,1,1,1,1,0,0
1101,17951,10657,trol,4,1,1,1,1,1,0,0
1110,17952,10657,trol,4,1,1,1,1,1,0,0
1122,17953,10657,trol,4,1,1,1,1,1,0,0
1135,17954,10657,trol,4,1,1,1,1,1,0,0
1144,17955,10657,trol,4,1,1,1,1,1,0,0
1154,17956,10657,trol,4,1,1,1,1,1,0,0
1161,17957,10657,trol,4,1,1,1,1,1,0,0
1178,17958,10657,trol,4,1,1,1,1,1,0,0
1188,17959,10657,trol,4,1,1,1,1,1,0,0
1203,17960,10657,trol,4,1,1,1,1,1,0,0
1217,17961,10657,trol,4,1,1,1,1,1,0,0
1229,17962,10657,trol,4,1,1,1,1,1,0,0
1242,17963,10657,trol,4,1,1,1,1,1,0,0
1250,17964,10657,trol,4,1,1,1,1,1,0,0
1260,17965,10657,trol,4,1,1,1,1,1,0,0
1269,17966,10657,trol,4,1,1,1,1,1,0,0
1280,17967,10657,trol,4,1,1,1,1,1,0,0
1287,17968,10657,trol,4,1,1,1,1,1,0,0
1294,17969,10657,trol,4,1,1,1,1,1,0,0
1305,17970,10657,trol,4,1,1,1,1,1,0,0
1315,17971,10657,trol,4,1,1,1,1,1,0,0
1324,17972,10657,trol,4,1,1,1,1,1,0,0
1337,17973,10657,trol,4,1,1,1,1,1,0,0
1347,17974,10657,trol,4,1,1,1,1,1,0,0
1363,17975,10657,trol,4,1,1,1,1,1,0,0
1376,17976,10657,trol,4,1,1,1,1,1,0,0
1394,17977,10657,trol,4,1,1,1,1,1,0,0
354,17978,10444,trol,4,0,0,0,0,0,1,0
393,17979,10445,trol,4,0,0,0,0,0,0,1
419,17980,10445,trol,4,0,0,0,0,0,0,1
434,17981,10445,trol,4,0,0,0,0,0,0,1
452,17982,10445,trol,4,0,0,0,0,0,0,1
468,17983,10445,trol,4,0,0,0,0,0,0,1
485,17984,10445,trol,4,0,0,0,0,0,0,1
497,17985,10445,trol,4,0,0,0,0,0,0,1
514,17986,10445,trol,4,0,0,0,0,0,0,1
531,17987,10445,trol,4,0,0,0,0,0,0,1
543,17988,10445,trol,4,0,0,0,0,0,0,1
556,17989,10445,trol,4,0,0,0,0,0,0,1
567,17990,10445,trol,4,0,0,0,0,0,0,1
579,17991,10445,trol,4,0,0,0,0,0,0,1
591,17992,10445,trol,4,0,0,0,0,0,0,1
606,17993,10445,trol,4,0,0,0,0,0,0,1
619,17994,10445,trol,4,0,0,0,0,0,0,1
632,17995,10445,trol,4,0,0,0,0,0,0,1
643,17996,10445,trol,4,0,0,0,0,0,0,1
656,17997,10445,trol,4,0,0,0,0,0,0,1
668,17998,10445,trol,4,0,0,0,0,0,0,1
676,17999,10445,trol,4,0,0,0,0,0,0,1
687,18000,10445,trol,4,0,0,0,0,0,0,1
695,18001,10445,trol,4,0,0,0,0,0,0,1
705,18002,10445,trol,4,0,0,0,0,0,0,1
720,18003,10445,trol,4,0,0,0,0,0,0,1
732,18004,10445,trol,4,0,0,0,0,0,0,1
744,18005,10445,trol,4,0,0,0,0,0,0,1
755,18006,10445,trol,4,0,0,0,0,0,0,1
768,18007,10445,trol,4,0,0,0,0,0,0,1
783,18008,10445,trol,4,0,0,0,0,0,0,1
791,18009,10445,trol,4,0,0,0,0,0,0,1
801,18010,10445,trol,4,0,0,0,0,0,0,1
807,18011,10445,trol,4,0,0,0,0,0,0,1
816,18012,10445,trol,4,0,0,0,0,0,0,1
830,18013,10445,trol,4,0,0,0,0,0,0,1
839,18014,10445,trol,4,0,0,0,0,0,0,1
851,18015,10445,trol,4,0,0,0,0,0,0,1
862,18016,10445,trol,4,0,0,0,0,0,0,1
870,18017,10445,trol,4,0,0,0,0,0,0,1
884,18018,10445,trol,4,0,0,0,0,0,0,1
893,18019,10445,trol,4,0,0,0,0,0,0,1
902,18020,10445,trol,4,0,0,0,0,0,0,1
911,18021,10445,trol,4,0,0,0,0,0,0,1
924,18022,10445,trol,4,0,0,0,0,0,0,1
934,18023,10445,trol,4,0,0,0,0,0,0,1
946,18024,10445,trol,4,0,0,0,0,0,0,1
956,18025,10445,trol,4,0,0,0,0,0,0,1
965,18026,10445,trol,4,0,0,0,0,0,0,1
974,18027,10445,trol,4,0,0,0,0,0,0,1
987,18028,10445,trol,4,0,0,0,0,0,0,1
996,18029,10445,trol,4,0,0,0,0,0,0,1
1005,18030,10445,trol,4,0,0,0,0,0,0,1
1018,18031,10445,trol,4,0,0,0,0,0,0,1
1029,18032,10445,trol,4,0,0,0,0,0,0,1
1038,18033,10445,trol,4,0,0,0,0,0,0,1
1048,18034,10445,trol,4,0,0,0,0,0,0,1
1058,18035,10445,trol,4,0,0,0,0,0,0,1
1073,18036,10445,trol,4,0,0,0,0,0,0,1
1086,18037,10445,trol,4,0,0,0,0,0,0,1
1107,18038,10445,trol,4,0,0,0,0,0,0,1
1131,18039,10445,trol,4,0,0,0,0,0,0,1
1152,18040,10445,trol,4,0,0,0,0,0,0,1
1177,18041,10445,trol,4,0,0,0,0,0,0,1
1192,18042,10445,trol,4,0,0,0,0,0,0,1
1209,18043,10445,trol,4,0,0,0,0,0,0,1
1220,18044,10445,trol,4,0,0,0,0,0,0,1
1238,18045,10445,trol,4,0,0,0,0,0,0,1
1254,18046,10445,trol,4,0,0,0,0,0,0,1
1272,18047,10445,trol,4,0,0,0,0,0,0,1
1289,18048,10445,trol,4,0,0,0,0,0,0,1
1302,18049,10445,trol,4,0,0,0,0,0,0,1
1319,18050,10445,trol,4,0,0,0,0,0,0,1
1337,18051,10445,trol,4,0,0,0,0,0,0,1
1358,18052,10445,trol,4,0,0,0,0,0,0,1
1376,18053,10445,trol,4,0,0,0,0,0,0,1
393,18054,10444,trol,4,0,0,0,0,0,1,0
419,18055,10444,trol,4,0,0,0,0,0,1,0
434,18056,10444,trol,4,0,0,0,0,0,1,0
452,18057,10444,trol,4,0,0,0,0,0,1,0
468,18058,10444,trol,4,0,0,0,0,0,1,0
485,18059,10444,trol,4,0,0,0,0,0,1,0
497,18060,10444,trol,4,0,0,0,0,0,1,0
514,18061,10444,trol,4,0,0,0,0,0,1,0
531,18062,10444,trol,4,0,0,0,0,0,1,0
543,18063,10444,trol,4,0,0,0,0,0,1,0
556,18064,10444,trol,4,0,0,0,0,0,1,0
567,18065,10444,trol,4,0,0,0,0,0,1,0
579,18066,10444,trol,4,0,0,0,0,0,1,0
591,18067,10444,trol,4,0,0,0,0,0,1,0
606,18068,10444,trol,4,0,0,0,0,0,1,0
619,18069,10444,trol,4,0,0,0,0,0,1,0
632,18070,10444,trol,4,0,0,0,0,0,1,0
643,18071,10444,trol,4,0,0,0,0,0,1,0
656,18072,10444,trol,4,0,0,0,0,0,1,0
668,18073,10444,trol,4,0,0,0,0,0,1,0
676,18074,10444,trol,4,0,0,0,0,0,1,0
687,18075,10444,trol,4,0,0,0,0,0,1,0
695,18076,10444,trol,4,0,0,0,0,0,1,0
705,18077,10444,trol,4,0,0,0,0,0,1,0
720,18078,10444,trol,4,0,0,0,0,0,1,0
732,18079,10444,trol,4,0,0,0,0,0,1,0
744,18080,10444,trol,4,0,0,0,0,0,1,0
755,18081,10444,trol,4,0,0,0,0,0,1,0
768,18082,10444,trol,4,0,0,0,0,0,1,0
783,18083,10444,trol,4,0,0,0,0,0,1,0
791,18084,10444,trol,4,0,0,0,0,0,1,0
801,18085,10444,trol,4,0,0,0,0,0,1,0
807,18086,10444,trol,4,0,0,0,0,0,1,0
816,18087,10444,trol,4,0,0,0,0,0,1,0
830,18088,10444,trol,4,0,0,0,0,0,1,0
839,18089,10444,trol,4,0,0,0,0,0,1,0
851,18090,10444,trol,4,0,0,0,0,0,1,0
862,18091,10444,trol,4,0,0,0,0,0,1,0
870,18092,10444,trol,4,0,0,0,0,0,1,0
884,18093,10444,trol,4,0,0,0,0,0,1,0
893,18094,10444,trol,4,0,0,0,0,0,1,0
902,18095,10444,trol,4,0,0,0,0,0,1,0
911,18096,10444,trol,4,0,0,0,0,0,1,0
924,18097,10444,trol,4,0,0,0,0,0,1,0
934,18098,10444,trol,4,0,0,0,0,0,1,0
946,18099,10444,trol,4,0,0,0,0,0,1,0
956,18100,10444,trol,4,0,0,0,0,0,1,0
965,18101,10444,trol,4,0,0,0,0,0,1,0
974,18102,10444,trol,4,0,0,0,0,0,1,0
987,18103,10444,trol,4,0,0,0,0,0,1,0
996,18104,10444,trol,4,0,0,0,0,0,1,0
1005,18105,10444,trol,4,0,0,0,0,0,1,0
1018,18106,10444,trol,4,0,0,0,0,0,1,0
1029,18107,10444,trol,4,0,0,0,0,0,1,0
1038,18108,10444,trol,4,0,0,0,0,0,1,0
1048,18109,10444,trol,4,0,0,0,0,0,1,0
1058,18110,10444,trol,4,0,0,0,0,0,1,0
1073,18111,10444,trol,4,0,0,0,0,0,1,0
1086,18112,10444,trol,4,0,0,0,0,0,1,0
1107,18113,10444,trol,4,0,0,0,0,0,1,0
1131,18114,10444,trol,4,0,0,0,0,0,1,0
1152,18115,10444,trol,4,0,0,0,0,0,1,0
1177,18116,10444,trol,4,0,0,0,0,0,1,0
1192,18117,10444,trol,4,0,0,0,0,0,1,0
1209,18118,10444,trol,4,0,0,0,0,0,1,0
1220,18119,10444,trol,4,0,0,0,0,0,1,0
1238,18120,10444,trol,4,0,0,0,0,0,1,0
1254,18121,10444,trol,4,0,0,0,0,0,1,0
1272,18122,10444,trol,4,0,0,0,0,0,1,0
1289,18123,10444,trol,4,0,0,0,0,0,1,0
1302,18124,10444,trol,4,0,0,0,0,0,1,0
1319,18125,10444,trol,4,0,0,0,0,0,1,0
1337,18126,10444,trol,4,0,0,0,0,0,1,0
1358,18127,10444,trol,4,0,0,0,0,0,1,0
1376,18128,10444,trol,4,0,0,0,0,0,1,0
591,18129,10657,trol,4,1,1,1,1,1,0,0
604,18130,10657,trol,4,1,1,1,1,1,0,0
307,18462,10657,trol,4,1,1,1,1,1,0,0
311,18463,10444,trol,4,0,0,0,0,0,1,0
407,18464,10445,trol,4,0,0,0,0,0,0,1
407,18465,10444,trol,4,0,0,0,0,0,1,0
412,18467,10448,trol,6,0,0,0,0,0,0,1
437,18468,10448,trol,6,0,0,0,0,0,0,1
450,18469,10448,trol,6,0,0,0,0,0,0,1
468,18470,10448,trol,6,0,0,0,0,0,0,1
488,18471,10448,trol,6,0,0,0,0,0,0,1
504,18472,10448,trol,6,0,0,0,0,0,0,1
521,18473,10448,trol,6,0,0,0,0,0,0,1
541,18474,10448,trol,6,0,0,0,0,0,0,1
557,18475,10448,trol,6,0,0,0,0,0,0,1
573,18476,10448,trol,6,0,0,0,0,0,0,1
588,18477,10448,trol,6,0,0,0,0,0,0,1
603,18478,10448,trol,6,0,0,0,0,0,0,1
615,18479,10448,trol,6,0,0,0,0,0,0,1
629,18480,10448,trol,6,0,0,0,0,0,0,1
646,18481,10448,trol,6,0,0,0,0,0,0,1
659,18482,10448,trol,6,0,0,0,0,0,0,1
674,18483,10448,trol,6,0,0,0,0,0,0,1
684,18484,10448,trol,6,0,0,0,0,0,0,1
697,18485,10448,trol,6,0,0,0,0,0,0,1
711,18486,10448,trol,6,0,0,0,0,0,0,1
721,18487,10448,trol,6,0,0,0,0,0,0,1
735,18488,10448,trol,6,0,0,0,0,0,0,1
750,18489,10448,trol,6,0,0,0,0,0,0,1
761,18490,10448,trol,6,0,0,0,0,0,0,1
774,18491,10448,trol,6,0,0,0,0,0,0,1
789,18492,10448,trol,6,0,0,0,0,0,0,1
807,18493,10448,trol,6,0,0,0,0,0,0,1
820,18494,10448,trol,6,0,0,0,0,0,0,1
832,18495,10448,trol,6,0,0,0,0,0,0,1
843,18496,10448,trol,6,0,0,0,0,0,0,1
854,18497,10448,trol,6,0,0,0,0,0,0,1
868,18498,10448,trol,6,0,0,0,0,0,0,1
884,18499,10448,trol,6,0,0,0,0,0,0,1
896,18500,10448,trol,6,0,0,0,0,0,0,1
907,18501,10448,trol,6,0,0,0,0,0,0,1
919,18502,10448,trol,6,0,0,0,0,0,0,1
932,18503,10448,trol,6,0,0,0,0,0,0,1
945,18504,10448,trol,6,0,0,0,0,0,0,1
956,18505,10448,trol,6,0,0,0,0,0,0,1
968,18506,10448,trol,6,0,0,0,0,0,0,1
979,18507,10448,trol,6,0,0,0,0,0,0,1
991,18508,10448,trol,6,0,0,0,0,0,0,1
1007,18509,10448,trol,6,0,0,0,0,0,0,1
1021,18510,10448,trol,6,0,0,0,0,0,0,1
1034,18511,10448,trol,6,0,0,0,0,0,0,1
1054,18512,10448,trol,6,0,0,0,0,0,0,1
1074,18513,10448,trol,6,0,0,0,0,0,0,1
1102,18514,10448,trol,6,0,0,0,0,0,0,1
1123,18515,10448,trol,6,0,0,0,0,0,0,1
1140,18516,10448,trol,6,0,0,0,0,0,0,1
1165,18517,10448,trol,6,0,0,0,0,0,0,1
1188,18518,10448,trol,6,0,0,0,0,0,0,1
1207,18519,10448,trol,6,0,0,0,0,0,0,1
1229,18520,10448,trol,6,0,0,0,0,0,0,1
1243,18521,10448,trol,6,0,0,0,0,0,0,1
1269,18522,10448,trol,6,0,0,0,0,0,0,1
1284,18523,10448,trol,6,0,0,0,0,0,0,1
1303,18524,10448,trol,6,0,0,0,0,0,0,1
1325,18525,10448,trol,6,0,0,0,0,0,0,1
1350,18526,10448,trol,6,0,0,0,0,0,0,1
1372,18527,10448,trol,6,0,0,0,0,0,0,1
1386,18528,10448,trol,6,0,0,0,0,0,0,1
335,18529,10446,trol,6,1,1,1,1,1,0,0
344,18530,10446,trol,6,1,1,1,1,1,0,0
359,18531,10446,trol,6,1,1,1,1,1,0,0
371,18532,10446,trol,6,1,1,1,1,1,0,0
384,18533,10446,trol,6,1,1,1,1,1,0,0
392,18534,10446,trol,6,1,1,1,1,1,0,0
400,18535,10446,trol,6,1,1,1,1,1,0,0
409,18536,10446,trol,6,1,1,1,1,1,0,0
419,18537,10446,trol,6,1,1,1,1,1,0,0
429,18538,10446,trol,6,1,1,1,1,1,0,0
442,18539,10446,trol,6,1,1,1,1,1,0,0
451,18540,10446,trol,6,1,1,1,1,1,0,0
459,18541,10446,trol,6,1,1,1,1,1,0,0
466,18542,10446,trol,6,1,1,1,1,1,0,0
473,18543,10446,trol,6,1,1,1,1,1,0,0
483,18544,10446,trol,6,1,1,1,1,1,0,0
492,18545,10446,trol,6,1,1,1,1,1,0,0
498,18546,10446,trol,6,1,1,1,1,1,0,0
507,18547,10446,trol,6,1,1,1,1,1,0,0
516,18548,10446,trol,6,1,1,1,1,1,0,0
523,18549,10446,trol,6,1,1,1,1,1,0,0
536,18550,10446,trol,6,1,1,1,1,1,0,0
549,18551,10446,trol,6,1,1,1,1,1,0,0
564,18552,10446,trol,6,1,1,1,1,1,0,0
581,18553,10446,trol,6,1,1,1,1,1,0,0
593,18554,10446,trol,6,1,1,1,1,1,0,0
609,18555,10446,trol,6,1,1,1,1,1,0,0
619,18556,10446,trol,6,1,1,1,1,1,0,0
634,18557,10446,trol,6,1,1,1,1,1,0,0
649,18558,10446,trol,6,1,1,1,1,1,0,0
663,18559,10446,trol,6,1,1,1,1,1,0,0
676,18560,10446,trol,6,1,1,1,1,1,0,0
686,18561,10446,trol,6,1,1,1,1,1,0,0
695,18562,10446,trol,6,1,1,1,1,1,0,0
709,18563,10446,trol,6,1,1,1,1,1,0,0
721,18564,10446,trol,6,1,1,1,1,1,0,0
736,18565,10446,trol,6,1,1,1,1,1,0,0
749,18566,10446,trol,6,1,1,1,1,1,0,0
762,18567,10446,trol,6,1,1,1,1,1,0,0
776,18568,10446,trol,6,1,1,1,1,1,0,0
791,18569,10446,trol,6,1,1,1,1,1,0,0
802,18570,10446,trol,6,1,1,1,1,1,0,0
813,18571,10446,trol,6,1,1,1,1,1,0,0
827,18572,10446,trol,6,1,1,1,1,1,0,0
840,18573,10446,trol,6,1,1,1,1,1,0,0
853,18574,10446,trol,6,1,1,1,1,1,0,0
869,18575,10446,trol,6,1,1,1,1,1,0,0
884,18576,10446,trol,6,1,1,1,1,1,0,0
898,18577,10446,trol,6,1,1,1,1,1,0,0
912,18578,10446,trol,6,1,1,1,1,1,0,0
922,18579,10446,trol,6,1,1,1,1,1,0,0
933,18580,10446,trol,6,1,1,1,1,1,0,0
942,18581,10446,trol,6,1,1,1,1,1,0,0
949,18582,10446,trol,6,1,1,1,1,1,0,0
957,18583,10446,trol,6,1,1,1,1,1,0,0
964,18584,10446,trol,6,1,1,1,1,1,0,0
974,18585,10446,trol,6,1,1,1,1,1,0,0
982,18586,10446,trol,6,1,1,1,1,1,0,0
990,18587,10446,trol,6,1,1,1,1,1,0,0
999,18588,10446,trol,6,1,1,1,1,1,0,0
1009,18589,10446,trol,6,1,1,1,1,1,0,0
1018,18590,10446,trol,6,1,1,1,1,1,0,0
1029,18591,10446,trol,6,1,1,1,1,1,0,0
1039,18592,10446,trol,6,1,1,1,1,1,0,0
1048,18593,10446,trol,6,1,1,1,1,1,0,0
1058,18594,10446,trol,6,1,1,1,1,1,0,0
1067,18595,10446,trol,6,1,1,1,1,1,0,0
1077,18596,10446,trol,6,1,1,1,1,1,0,0
1086,18597,10446,trol,6,1,1,1,1,1,0,0
1097,18598,10446,trol,6,1,1,1,1,1,0,0
1108,18599,10446,trol,6,1,1,1,1,1,0,0
1119,18600,10446,trol,6,1,1,1,1,1,0,0
1131,18601,10446,trol,6,1,1,1,1,1,0,0
1143,18602,10446,trol,6,1,1,1,1,1,0,0
1151,18603,10446,trol,6,1,1,1,1,1,0,0
1165,18604,10446,trol,6,1,1,1,1,1,0,0
1179,18605,10446,trol,6,1,1,1,1,1,0,0
1189,18606,10446,trol,6,1,1,1,1,1,0,0
1202,18607,10446,trol,6,1,1,1,1,1,0,0
1209,18608,10446,trol,6,1,1,1,1,1,0,0
1227,18609,10446,trol,6,1,1,1,1,1,0,0
1241,18610,10446,trol,6,1,1,1,1,1,0,0
1252,18611,10446,trol,6,1,1,1,1,1,0,0
1262,18612,10446,trol,6,1,1,1,1,1,0,0
1275,18613,10446,trol,6,1,1,1,1,1,0,0
1287,18614,10446,trol,6,1,1,1,1,1,0,0
1299,18615,10446,trol,6,1,1,1,1,1,0,0
1309,18616,10446,trol,6,1,1,1,1,1,0,0
1320,18617,10446,trol,6,1,1,1,1,1,0,0
1333,18618,10446,trol,6,1,1,1,1,1,0,0
1345,18619,10446,trol,6,1,1,1,1,1,0,0
1359,18620,10446,trol,6,1,1,1,1,1,0,0
1373,18621,10446,trol,6,1,1,1,1,1,0,0
358,18622,10447,trol,6,0,0,0,0,0,1,0
385,18623,10447,trol,6,0,0,0,0,0,1,0
412,18624,10447,trol,6,0,0,0,0,0,1,0
437,18625,10447,trol,6,0,0,0,0,0,1,0
450,18626,10447,trol,6,0,0,0,0,0,1,0
468,18627,10447,trol,6,0,0,0,0,0,1,0
488,18628,10447,trol,6,0,0,0,0,0,1,0
504,18629,10447,trol,6,0,0,0,0,0,1,0
521,18630,10447,trol,6,0,0,0,0,0,1,0
541,18631,10447,trol,6,0,0,0,0,0,1,0
557,18632,10447,trol,6,0,0,0,0,0,1,0
573,18633,10447,trol,6,0,0,0,0,0,1,0
588,18634,10447,trol,6,0,0,0,0,0,1,0
603,18635,10447,trol,6,0,0,0,0,0,1,0
615,18636,10447,trol,6,0,0,0,0,0,1,0
629,18637,10447,trol,6,0,0,0,0,0,1,0
646,18638,10447,trol,6,0,0,0,0,0,1,0
659,18639,10447,trol,6,0,0,0,0,0,1,0
674,18640,10447,trol,6,0,0,0,0,0,1,0
684,18641,10447,trol,6,0,0,0,0,0,1,0
697,18642,10447,trol,6,0,0,0,0,0,1,0
711,18643,10447,trol,6,0,0,0,0,0,1,0
721,18644,10447,trol,6,0,0,0,0,0,1,0
735,18645,10447,trol,6,0,0,0,0,0,1,0
750,18646,10447,trol,6,0,0,0,0,0,1,0
761,18647,10447,trol,6,0,0,0,0,0,1,0
774,18648,10447,trol,6,0,0,0,0,0,1,0
789,18649,10447,trol,6,0,0,0,0,0,1,0
807,18650,10447,trol,6,0,0,0,0,0,1,0
820,18651,10447,trol,6,0,0,0,0,0,1,0
832,18652,10447,trol,6,0,0,0,0,0,1,0
843,18653,10447,trol,6,0,0,0,0,0,1,0
854,18654,10447,trol,6,0,0,0,0,0,1,0
868,18655,10447,trol,6,0,0,0,0,0,1,0
884,18656,10447,trol,6,0,0,0,0,0,1,0
896,18657,10447,trol,6,0,0,0,0,0,1,0
907,18658,10447,trol,6,0,0,0,0,0,1,0
919,18659,10447,trol,6,0,0,0,0,0,1,0
932,18660,10447,trol,6,0,0,0,0,0,1,0
945,18661,10447,trol,6,0,0,0,0,0,1,0
956,18662,10447,trol,6,0,0,0,0,0,1,0
968,18663,10447,trol,6,0,0,0,0,0,1,0
979,18664,10447,trol,6,0,0,0,0,0,1,0
991,18665,10447,trol,6,0,0,0,0,0,1,0
1007,18666,10447,trol,6,0,0,0,0,0,1,0
1021,18667,10447,trol,6,0,0,0,0,0,1,0
1034,18668,10447,trol,6,0,0,0,0,0,1,0
1054,18669,10447,trol,6,0,0,0,0,0,1,0
1074,18670,10447,trol,6,0,0,0,0,0,1,0
1102,18671,10447,trol,6,0,0,0,0,0,1,0
1123,18672,10447,trol,6,0,0,0,0,0,1,0
1140,18673,10447,trol,6,0,0,0,0,0,1,0
1165,18674,10447,trol,6,0,0,0,0,0,1,0
1188,18675,10447,trol,6,0,0,0,0,0,1,0
1207,18676,10447,trol,6,0,0,0,0,0,1,0
1229,18677,10447,trol,6,0,0,0,0,0,1,0
1243,18678,10447,trol,6,0,0,0,0,0,1,0
1269,18679,10447,trol,6,0,0,0,0,0,1,0
1284,18680,10447,trol,6,0,0,0,0,0,1,0
1303,18681,10447,trol,6,0,0,0,0,0,1,0
1325,18682,10447,trol,6,0,0,0,0,0,1,0
1350,18683,10447,trol,6,0,0,0,0,0,1,0
1372,18684,10447,trol,6,0,0,0,0,0,1,0
1386,18685,10447,trol,6,0,0,0,0,0,1,0
571,18686,10446,trol,6,1,1,1,1,1,0,0
601,18687,10446,trol,6,1,1,1,1,1,0,0
358,18970,10448,trol,6,0,0,0,0,0,0,1
385,18971,10448,trol,6,0,0,0,0,0,0,1
378,18972,10446,trol,6,1,1,1,1,1,0,0
337,18973,10447,trol,6,0,0,0,0,0,1,0
312,18974,10446,trol,6,1,1,1,1,1,0,0
311,18975,10447,trol,6,0,0,0,0,0,1,0
421,20818,10460,trol,12,0,0,0,0,0,0,1
442,20819,10460,trol,12,0,0,0,0,0,0,1
458,20820,10460,trol,12,0,0,0,0,0,0,1
479,20821,10460,trol,12,0,0,0,0,0,0,1
501,20822,10460,trol,12,0,0,0,0,0,0,1
529,20823,10460,trol,12,0,0,0,0,0,0,1
551,20824,10460,trol,12,0,0,0,0,0,0,1
569,20825,10460,trol,12,0,0,0,0,0,0,1
592,20826,10460,trol,12,0,0,0,0,0,0,1
619,20827,10460,trol,12,0,0,0,0,0,0,1
639,20828,10460,trol,12,0,0,0,0,0,0,1
665,20829,10460,trol,12,0,0,0,0,0,0,1
690,20830,10460,trol,12,0,0,0,0,0,0,1
704,20831,10460,trol,12,0,0,0,0,0,0,1
726,20832,10460,trol,12,0,0,0,0,0,0,1
741,20833,10460,trol,12,0,0,0,0,0,0,1
758,20834,10460,trol,12,0,0,0,0,0,0,1
783,20835,10460,trol,12,0,0,0,0,0,0,1
800,20836,10460,trol,12,0,0,0,0,0,0,1
827,20837,10460,trol,12,0,0,0,0,0,0,1
849,20838,10460,trol,12,0,0,0,0,0,0,1
860,20839,10460,trol,12,0,0,0,0,0,0,1
876,20840,10460,trol,12,0,0,0,0,0,0,1
901,20841,10460,trol,12,0,0,0,0,0,0,1
914,20842,10460,trol,12,0,0,0,0,0,0,1
940,20843,10460,trol,12,0,0,0,0,0,0,1
960,20844,10460,trol,12,0,0,0,0,0,0,1
983,20845,10460,trol,12,0,0,0,0,0,0,1
998,20846,10460,trol,12,0,0,0,0,0,0,1
1015,20847,10460,trol,12,0,0,0,0,0,0,1
1039,20848,10460,trol,12,0,0,0,0,0,0,1
1063,20849,10460,trol,12,0,0,0,0,0,0,1
1086,20850,10460,trol,12,0,0,0,0,0,0,1
1111,20851,10460,trol,12,0,0,0,0,0,0,1
1148,20852,10460,trol,12,0,0,0,0,0,0,1
1174,20853,10460,trol,12,0,0,0,0,0,0,1
1198,20854,10460,trol,12,0,0,0,0,0,0,1
1222,20855,10460,trol,12,0,0,0,0,0,0,1
1249,20856,10460,trol,12,0,0,0,0,0,0,1
1264,20857,10460,trol,12,0,0,0,0,0,0,1
1292,20858,10460,trol,12,0,0,0,0,0,0,1
1309,20859,10460,trol,12,0,0,0,0,0,0,1
1337,20860,10460,trol,12,0,0,0,0,0,0,1
1363,20861,10460,trol,12,0,0,0,0,0,0,1
1396,20862,10460,trol,12,0,0,0,0,0,0,1
332,20863,10458,trol,12,1,1,1,1,1,0,0
348,20864,10458,trol,12,1,1,1,1,1,0,0
363,20865,10458,trol,12,1,1,1,1,1,0,0
375,20866,10458,trol,12,1,1,1,1,1,0,0
388,20867,10458,trol,12,1,1,1,1,1,0,0
403,20868,10458,trol,12,1,1,1,1,1,0,0
416,20869,10458,trol,12,1,1,1,1,1,0,0
433,20870,10458,trol,12,1,1,1,1,1,0,0
444,20871,10458,trol,12,1,1,1,1,1,0,0
455,20872,10458,trol,12,1,1,1,1,1,0,0
463,20873,10458,trol,12,1,1,1,1,1,0,0
475,20874,10458,trol,12,1,1,1,1,1,0,0
486,20875,10458,trol,12,1,1,1,1,1,0,0
501,20876,10458,trol,12,1,1,1,1,1,0,0
513,20877,10458,trol,12,1,1,1,1,1,0,0
527,20878,10458,trol,12,1,1,1,1,1,0,0
543,20879,10458,trol,12,1,1,1,1,1,0,0
559,20880,10458,trol,12,1,1,1,1,1,0,0
576,20881,10458,trol,12,1,1,1,1,1,0,0
591,20882,10458,trol,12,1,1,1,1,1,0,0
605,20883,10458,trol,12,1,1,1,1,1,0,0
623,20884,10458,trol,12,1,1,1,1,1,0,0
639,20885,10458,trol,12,1,1,1,1,1,0,0
655,20886,10458,trol,12,1,1,1,1,1,0,0
672,20887,10458,trol,12,1,1,1,1,1,0,0
689,20888,10458,trol,12,1,1,1,1,1,0,0
704,20889,10458,trol,12,1,1,1,1,1,0,0
715,20890,10458,trol,12,1,1,1,1,1,0,0
729,20891,10458,trol,12,1,1,1,1,1,0,0
744,20892,10458,trol,12,1,1,1,1,1,0,0
758,20893,10458,trol,12,1,1,1,1,1,0,0
772,20894,10458,trol,12,1,1,1,1,1,0,0
787,20895,10458,trol,12,1,1,1,1,1,0,0
805,20896,10458,trol,12,1,1,1,1,1,0,0
822,20897,10458,trol,12,1,1,1,1,1,0,0
836,20898,10458,trol,12,1,1,1,1,1,0,0
850,20899,10458,trol,12,1,1,1,1,1,0,0
864,20900,10458,trol,12,1,1,1,1,1,0,0
880,20901,10458,trol,12,1,1,1,1,1,0,0
894,20902,10458,trol,12,1,1,1,1,1,0,0
908,20903,10458,trol,12,1,1,1,1,1,0,0
925,20904,10458,trol,12,1,1,1,1,1,0,0
936,20905,10458,trol,12,1,1,1,1,1,0,0
946,20906,10458,trol,12,1,1,1,1,1,0,0
960,20907,10458,trol,12,1,1,1,1,1,0,0
971,20908,10458,trol,12,1,1,1,1,1,0,0
984,20909,10458,trol,12,1,1,1,1,1,0,0
994,20910,10458,trol,12,1,1,1,1,1,0,0
1005,20911,10458,trol,12,1,1,1,1,1,0,0
1021,20912,10458,trol,12,1,1,1,1,1,0,0
1036,20913,10458,trol,12,1,1,1,1,1,0,0
1053,20914,10458,trol,12,1,1,1,1,1,0,0
1071,20915,10458,trol,12,1,1,1,1,1,0,0
1084,20916,10458,trol,12,1,1,1,1,1,0,0
1100,20917,10458,trol,12,1,1,1,1,1,0,0
1113,20918,10458,trol,12,1,1,1,1,1,0,0
1127,20919,10458,trol,12,1,1,1,1,1,0,0
1146,20920,10458,trol,12,1,1,1,1,1,0,0
1161,20921,10458,trol,12,1,1,1,1,1,0,0
1176,20922,10458,trol,12,1,1,1,1,1,0,0
1194,20923,10458,trol,12,1,1,1,1,1,0,0
1213,20924,10458,trol,12,1,1,1,1,1,0,0
1223,20925,10458,trol,12,1,1,1,1,1,0,0
1235,20926,10458,trol,12,1,1,1,1,1,0,0
1248,20927,10458,trol,12,1,1,1,1,1,0,0
1265,20928,10458,trol,12,1,1,1,1,1,0,0
1279,20929,10458,trol,12,1,1,1,1,1,0,0
1295,20930,10458,trol,12,1,1,1,1,1,0,0
1313,20931,10458,trol,12,1,1,1,1,1,0,0
1328,20932,10458,trol,12,1,1,1,1,1,0,0
1351,20933,10458,trol,12,1,1,1,1,1,0,0
1364,20934,10458,trol,12,1,1,1,1,1,0,0
372,20935,10459,trol,12,0,0,0,0,0,1,0
396,20936,10459,trol,12,0,0,0,0,0,1,0
421,20937,10459,trol,12,0,0,0,0,0,1,0
442,20938,10459,trol,12,0,0,0,0,0,1,0
458,20939,10459,trol,12,0,0,0,0,0,1,0
479,20940,10459,trol,12,0,0,0,0,0,1,0
501,20941,10459,trol,12,0,0,0,0,0,1,0
529,20942,10459,trol,12,0,0,0,0,0,1,0
551,20943,10459,trol,12,0,0,0,0,0,1,0
569,20944,10459,trol,12,0,0,0,0,0,1,0
592,20945,10459,trol,12,0,0,0,0,0,1,0
619,20946,10459,trol,12,0,0,0,0,0,1,0
639,20947,10459,trol,12,0,0,0,0,0,1,0
665,20948,10459,trol,12,0,0,0,0,0,1,0
690,20949,10459,trol,12,0,0,0,0,0,1,0
704,20950,10459,trol,12,0,0,0,0,0,1,0
726,20951,10459,trol,12,0,0,0,0,0,1,0
741,20952,10459,trol,12,0,0,0,0,0,1,0
758,20953,10459,trol,12,0,0,0,0,0,1,0
783,20954,10459,trol,12,0,0,0,0,0,1,0
800,20955,10459,trol,12,0,0,0,0,0,1,0
827,20956,10459,trol,12,0,0,0,0,0,1,0
849,20957,10459,trol,12,0,0,0,0,0,1,0
860,20958,10459,trol,12,0,0,0,0,0,1,0
876,20959,10459,trol,12,0,0,0,0,0,1,0
901,20960,10459,trol,12,0,0,0,0,0,1,0
914,20961,10459,trol,12,0,0,0,0,0,1,0
940,20962,10459,trol,12,0,0,0,0,0,1,0
960,20963,10459,trol,12,0,0,0,0,0,1,0
983,20964,10459,trol,12,0,0,0,0,0,1,0
998,20965,10459,trol,12,0,0,0,0,0,1,0
1015,20966,10459,trol,12,0,0,0,0,0,1,0
1039,20967,10459,trol,12,0,0,0,0,0,1,0
1063,20968,10459,trol,12,0,0,0,0,0,1,0
1086,20969,10459,trol,12,0,0,0,0,0,1,0
1111,20970,10459,trol,12,0,0,0,0,0,1,0
1148,20971,10459,trol,12,0,0,0,0,0,1,0
1174,20972,10459,trol,12,0,0,0,0,0,1,0
1198,20973,10459,trol,12,0,0,0,0,0,1,0
1222,20974,10459,trol,12,0,0,0,0,0,1,0
1249,20975,10459,trol,12,0,0,0,0,0,1,0
1264,20976,10459,trol,12,0,0,0,0,0,1,0
1292,20977,10459,trol,12,0,0,0,0,0,1,0
1309,20978,10459,trol,12,0,0,0,0,0,1,0
1337,20979,10459,trol,12,0,0,0,0,0,1,0
1363,20980,10459,trol,12,0,0,0,0,0,1,0
1396,20981,10459,trol,12,0,0,0,0,0,1,0
372,21188,10460,trol,12,0,0,0,0,0,0,1
396,21189,10460,trol,12,0,0,0,0,0,0,1
402,21254,10464,trol,14,0,0,0,0,0,0,1
432,21255,10464,trol,14,0,0,0,0,0,0,1
465,21256,10464,trol,14,0,0,0,0,0,0,1
498,21257,10464,trol,14,0,0,0,0,0,0,1
536,21258,10464,trol,14,0,0,0,0,0,0,1
566,21259,10464,trol,14,0,0,0,0,0,0,1
620,21260,10464,trol,14,0,0,0,0,0,0,1
656,21261,10464,trol,14,0,0,0,0,0,0,1
687,21262,10464,trol,14,0,0,0,0,0,0,1
719,21263,10464,trol,14,0,0,0,0,0,0,1
754,21264,10464,trol,14,0,0,0,0,0,0,1
786,21265,10464,trol,14,0,0,0,0,0,0,1
822,21266,10464,trol,14,0,0,0,0,0,0,1
852,21267,10464,trol,14,0,0,0,0,0,0,1
887,21268,10464,trol,14,0,0,0,0,0,0,1
922,21269,10464,trol,14,0,0,0,0,0,0,1
953,21270,10464,trol,14,0,0,0,0,0,0,1
987,21271,10464,trol,14,0,0,0,0,0,0,1
1024,21272,10464,trol,14,0,0,0,0,0,0,1
1051,21273,10464,trol,14,0,0,0,0,0,0,1
1083,21274,10464,trol,14,0,0,0,0,0,0,1
1120,21275,10464,trol,14,0,0,0,0,0,0,1
1153,21276,10464,trol,14,0,0,0,0,0,0,1
1203,21277,10464,trol,14,0,0,0,0,0,0,1
1239,21278,10464,trol,14,0,0,0,0,0,0,1
1273,21279,10464,trol,14,0,0,0,0,0,0,1
1299,21280,10464,trol,14,0,0,0,0,0,0,1
1333,21281,10464,trol,14,0,0,0,0,0,0,1
1368,21282,10464,trol,14,0,0,0,0,0,0,1
367,21283,10462,trol,14,1,1,1,1,1,0,0
390,21284,10462,trol,14,1,1,1,1,1,0,0
412,21285,10462,trol,14,1,1,1,1,1,0,0
436,21286,10462,trol,14,1,1,1,1,1,0,0
457,21287,10462,trol,14,1,1,1,1,1,0,0
477,21288,10462,trol,14,1,1,1,1,1,0,0
499,21289,10462,trol,14,1,1,1,1,1,0,0
525,21290,10462,trol,14,1,1,1,1,1,0,0
547,21291,10462,trol,14,1,1,1,1,1,0,0
568,21292,10462,trol,14,1,1,1,1,1,0,0
607,21293,10462,trol,14,1,1,1,1,1,0,0
635,21294,10462,trol,14,1,1,1,1,1,0,0
677,21295,10462,trol,14,1,1,1,1,1,0,0
710,21296,10462,trol,14,1,1,1,1,1,0,0
741,21297,10462,trol,14,1,1,1,1,1,0,0
780,21298,10462,trol,14,1,1,1,1,1,0,0
814,21299,10462,trol,14,1,1,1,1,1,0,0
847,21300,10462,trol,14,1,1,1,1,1,0,0
886,21301,10462,trol,14,1,1,1,1,1,0,0
918,21302,10462,trol,14,1,1,1,1,1,0,0
937,21303,10462,trol,14,1,1,1,1,1,0,0
954,21304,10462,trol,14,1,1,1,1,1,0,0
975,21305,10462,trol,14,1,1,1,1,1,0,0
997,21306,10462,trol,14,1,1,1,1,1,0,0
1024,21307,10462,trol,14,1,1,1,1,1,0,0
1046,21308,10462,trol,14,1,1,1,1,1,0,0
1065,21309,10462,trol,14,1,1,1,1,1,0,0
1089,21310,10462,trol,14,1,1,1,1,1,0,0
1111,21311,10462,trol,14,1,1,1,1,1,0,0
1135,21312,10462,trol,14,1,1,1,1,1,0,0
1155,21313,10462,trol,14,1,1,1,1,1,0,0
1173,21314,10462,trol,14,1,1,1,1,1,0,0
1197,21315,10462,trol,14,1,1,1,1,1,0,0
1239,21316,10462,trol,14,1,1,1,1,1,0,0
1268,21317,10462,trol,14,1,1,1,1,1,0,0
1302,21318,10462,trol,14,1,1,1,1,1,0,0
1337,21319,10462,trol,14,1,1,1,1,1,0,0
1368,21320,10462,trol,14,1,1,1,1,1,0,0
1400,21321,10462,trol,14,1,1,1,1,1,0,0
368,21322,10463,trol,14,0,0,0,0,0,1,0
402,21323,10463,trol,14,0,0,0,0,0,1,0
432,21324,10463,trol,14,0,0,0,0,0,1,0
465,21325,10463,trol,14,0,0,0,0,0,1,0
498,21326,10463,trol,14,0,0,0,0,0,1,0
536,21327,10463,trol,14,0,0,0,0,0,1,0
566,21328,10463,trol,14,0,0,0,0,0,1,0
620,21329,10463,trol,14,0,0,0,0,0,1,0
656,21330,10463,trol,14,0,0,0,0,0,1,0
687,21331,10463,trol,14,0,0,0,0,0,1,0
719,21332,10463,trol,14,0,0,0,0,0,1,0
754,21333,10463,trol,14,0,0,0,0,0,1,0
786,21334,10463,trol,14,0,0,0,0,0,1,0
822,21335,10463,trol,14,0,0,0,0,0,1,0
852,21336,10463,trol,14,0,0,0,0,0,1,0
887,21337,10463,trol,14,0,0,0,0,0,1,0
922,21338,10463,trol,14,0,0,0,0,0,1,0
953,21339,10463,trol,14,0,0,0,0,0,1,0
987,21340,10463,trol,14,0,0,0,0,0,1,0
1024,21341,10463,trol,14,0,0,0,0,0,1,0
1051,21342,10463,trol,14,0,0,0,0,0,1,0
1083,21343,10463,trol,14,0,0,0,0,0,1,0
1120,21344,10463,trol,14,0,0,0,0,0,1,0
1153,21345,10463,trol,14,0,0,0,0,0,1,0
1203,21346,10463,trol,14,0,0,0,0,0,1,0
1239,21347,10463,trol,14,0,0,0,0,0,1,0
1273,21348,10463,trol,14,0,0,0,0,0,1,0
1299,21349,10463,trol,14,0,0,0,0,0,1,0
1333,21350,10463,trol,14,0,0,0,0,0,1,0
1368,21351,10463,trol,14,0,0,0,0,0,1,0
328,21467,10462,trol,14,1,1,1,1,1,0,0
