timeInMin,trip_id,service_id,tipas,numeris,pirmadienis,antradienis,treciadienis,ketvirtadienis,penktadienis,sestadienis,sekmadienis 
411,11623,10387,bus,49,1,1,1,1,1,0,0
433,11624,10387,bus,49,1,1,1,1,1,0,0
454,11625,10387,bus,49,1,1,1,1,1,0,0
477,11626,10387,bus,49,1,1,1,1,1,0,0
498,11627,10387,bus,49,1,1,1,1,1,0,0
520,11628,10387,bus,49,1,1,1,1,1,0,0
544,11629,10387,bus,49,1,1,1,1,1,0,0
577,11630,10387,bus,49,1,1,1,1,1,0,0
600,11631,10387,bus,49,1,1,1,1,1,0,0
633,11632,10387,bus,49,1,1,1,1,1,0,0
682,11633,10387,bus,49,1,1,1,1,1,0,0
715,11634,10387,bus,49,1,1,1,1,1,0,0
741,11635,10387,bus,49,1,1,1,1,1,0,0
774,11636,10387,bus,49,1,1,1,1,1,0,0
799,11637,10387,bus,49,1,1,1,1,1,0,0
832,11638,10387,bus,49,1,1,1,1,1,0,0
862,11639,10387,bus,49,1,1,1,1,1,0,0
889,11640,10387,bus,49,1,1,1,1,1,0,0
918,11641,10387,bus,49,1,1,1,1,1,0,0
942,11642,10387,bus,49,1,1,1,1,1,0,0
958,11643,10387,bus,49,1,1,1,1,1,0,0
981,11644,10387,bus,49,1,1,1,1,1,0,0
1006,11645,10387,bus,49,1,1,1,1,1,0,0
1022,11646,10387,bus,49,1,1,1,1,1,0,0
1046,11647,10387,bus,49,1,1,1,1,1,0,0
1077,11648,10387,bus,49,1,1,1,1,1,0,0
1110,11649,10387,bus,49,1,1,1,1,1,0,0
1132,11650,10387,bus,49,1,1,1,1,1,0,0
1146,11651,10387,bus,49,1,1,1,1,1,0,0
1172,11652,10387,bus,49,1,1,1,1,1,0,0
1193,11653,10387,bus,49,1,1,1,1,1,0,0
1223,11654,10387,bus,49,1,1,1,1,1,0,0
1262,11655,10387,bus,49,1,1,1,1,1,0,0
1279,11656,10387,bus,49,1,1,1,1,1,0,0
1303,11657,10387,bus,49,1,1,1,1,1,0,0
1336,11658,10387,bus,49,1,1,1,1,1,0,0
1370,11659,10387,bus,49,1,1,1,1,1,0,0
1394,11660,10387,bus,49,1,1,1,1,1,0,0
383,11661,9637,bus,49,0,0,0,0,0,1,0
439,11662,9637,bus,49,0,0,0,0,0,1,0
490,11663,9637,bus,49,0,0,0,0,0,1,0
553,11664,9637,bus,49,0,0,0,0,0,1,0
591,11665,9637,bus,49,0,0,0,0,0,1,0
626,11666,9637,bus,49,0,0,0,0,0,1,0
689,11667,9637,bus,49,0,0,0,0,0,1,0
713,11668,9637,bus,49,0,0,0,0,0,1,0
748,11669,9637,bus,49,0,0,0,0,0,1,0
797,11670,9637,bus,49,0,0,0,0,0,1,0
845,11671,9637,bus,49,0,0,0,0,0,1,0
871,11672,9637,bus,49,0,0,0,0,0,1,0
916,11673,9637,bus,49,0,0,0,0,0,1,0
953,11674,9637,bus,49,0,0,0,0,0,1,0
985,11675,9637,bus,49,0,0,0,0,0,1,0
1027,11676,9637,bus,49,0,0,0,0,0,1,0
1099,11677,9637,bus,49,0,0,0,0,0,1,0
1164,11678,9637,bus,49,0,0,0,0,0,1,0
1231,11679,9637,bus,49,0,0,0,0,0,1,0
1270,11680,9637,bus,49,0,0,0,0,0,1,0
1332,11681,9637,bus,49,0,0,0,0,0,1,0
1377,11682,9637,bus,49,0,0,0,0,0,1,0
439,11683,9638,bus,49,0,0,0,0,0,0,1
490,11684,9638,bus,49,0,0,0,0,0,0,1
553,11685,9638,bus,49,0,0,0,0,0,0,1
591,11686,9638,bus,49,0,0,0,0,0,0,1
626,11687,9638,bus,49,0,0,0,0,0,0,1
689,11688,9638,bus,49,0,0,0,0,0,0,1
713,11689,9638,bus,49,0,0,0,0,0,0,1
748,11690,9638,bus,49,0,0,0,0,0,0,1
797,11691,9638,bus,49,0,0,0,0,0,0,1
845,11692,9638,bus,49,0,0,0,0,0,0,1
871,11693,9638,bus,49,0,0,0,0,0,0,1
916,11694,9638,bus,49,0,0,0,0,0,0,1
953,11695,9638,bus,49,0,0,0,0,0,0,1
985,11696,9638,bus,49,0,0,0,0,0,0,1
1027,11697,9638,bus,49,0,0,0,0,0,0,1
1099,11698,9638,bus,49,0,0,0,0,0,0,1
1164,11699,9638,bus,49,0,0,0,0,0,0,1
1231,11700,9638,bus,49,0,0,0,0,0,0,1
1270,11701,9638,bus,49,0,0,0,0,0,0,1
1332,11702,9638,bus,49,0,0,0,0,0,0,1
1377,11703,9638,bus,49,0,0,0,0,0,0,1
329,11704,10387,bus,49,1,1,1,1,1,0,0
347,11705,10387,bus,49,1,1,1,1,1,0,0
365,11706,10387,bus,49,1,1,1,1,1,0,0
385,11707,10387,bus,49,1,1,1,1,1,0,0
402,11708,10387,bus,49,1,1,1,1,1,0,0
412,11709,10387,bus,49,1,1,1,1,1,0,0
434,11710,10387,bus,49,1,1,1,1,1,0,0
455,11711,10387,bus,49,1,1,1,1,1,0,0
478,11712,10387,bus,49,1,1,1,1,1,0,0
499,11713,10387,bus,49,1,1,1,1,1,0,0
521,11714,10387,bus,49,1,1,1,1,1,0,0
545,11715,10387,bus,49,1,1,1,1,1,0,0
578,11716,10387,bus,49,1,1,1,1,1,0,0
601,11717,10387,bus,49,1,1,1,1,1,0,0
634,11718,10387,bus,49,1,1,1,1,1,0,0
683,11719,10387,bus,49,1,1,1,1,1,0,0
716,11720,10387,bus,49,1,1,1,1,1,0,0
742,11721,10387,bus,49,1,1,1,1,1,0,0
775,11722,10387,bus,49,1,1,1,1,1,0,0
800,11723,10387,bus,49,1,1,1,1,1,0,0
833,11724,10387,bus,49,1,1,1,1,1,0,0
863,11725,10387,bus,49,1,1,1,1,1,0,0
890,11726,10387,bus,49,1,1,1,1,1,0,0
919,11727,10387,bus,49,1,1,1,1,1,0,0
943,11728,10387,bus,49,1,1,1,1,1,0,0
959,11729,10387,bus,49,1,1,1,1,1,0,0
982,11730,10387,bus,49,1,1,1,1,1,0,0
1007,11731,10387,bus,49,1,1,1,1,1,0,0
1023,11732,10387,bus,49,1,1,1,1,1,0,0
1047,11733,10387,bus,49,1,1,1,1,1,0,0
1078,11734,10387,bus,49,1,1,1,1,1,0,0
1111,11735,10387,bus,49,1,1,1,1,1,0,0
1133,11736,10387,bus,49,1,1,1,1,1,0,0
1147,11737,10387,bus,49,1,1,1,1,1,0,0
1173,11738,10387,bus,49,1,1,1,1,1,0,0
1194,11739,10387,bus,49,1,1,1,1,1,0,0
1224,11740,10387,bus,49,1,1,1,1,1,0,0
1263,11741,10387,bus,49,1,1,1,1,1,0,0
1280,11742,10387,bus,49,1,1,1,1,1,0,0
1304,11743,10387,bus,49,1,1,1,1,1,0,0
1337,11744,10387,bus,49,1,1,1,1,1,0,0
1371,11745,10387,bus,49,1,1,1,1,1,0,0
338,11746,9637,bus,49,0,0,0,0,0,1,0
384,11747,9637,bus,49,0,0,0,0,0,1,0
440,11748,9637,bus,49,0,0,0,0,0,1,0
491,11749,9637,bus,49,0,0,0,0,0,1,0
554,11750,9637,bus,49,0,0,0,0,0,1,0
592,11751,9637,bus,49,0,0,0,0,0,1,0
627,11752,9637,bus,49,0,0,0,0,0,1,0
690,11753,9637,bus,49,0,0,0,0,0,1,0
714,11754,9637,bus,49,0,0,0,0,0,1,0
749,11755,9637,bus,49,0,0,0,0,0,1,0
798,11756,9637,bus,49,0,0,0,0,0,1,0
846,11757,9637,bus,49,0,0,0,0,0,1,0
872,11758,9637,bus,49,0,0,0,0,0,1,0
917,11759,9637,bus,49,0,0,0,0,0,1,0
954,11760,9637,bus,49,0,0,0,0,0,1,0
986,11761,9637,bus,49,0,0,0,0,0,1,0
1028,11762,9637,bus,49,0,0,0,0,0,1,0
1100,11763,9637,bus,49,0,0,0,0,0,1,0
1165,11764,9637,bus,49,0,0,0,0,0,1,0
1232,11765,9637,bus,49,0,0,0,0,0,1,0
1271,11766,9637,bus,49,0,0,0,0,0,1,0
1333,11767,9637,bus,49,0,0,0,0,0,1,0
378,11768,9638,bus,49,0,0,0,0,0,0,1
440,11769,9638,bus,49,0,0,0,0,0,0,1
491,11770,9638,bus,49,0,0,0,0,0,0,1
554,11771,9638,bus,49,0,0,0,0,0,0,1
592,11772,9638,bus,49,0,0,0,0,0,0,1
627,11773,9638,bus,49,0,0,0,0,0,0,1
690,11774,9638,bus,49,0,0,0,0,0,0,1
714,11775,9638,bus,49,0,0,0,0,0,0,1
749,11776,9638,bus,49,0,0,0,0,0,0,1
798,11777,9638,bus,49,0,0,0,0,0,0,1
846,11778,9638,bus,49,0,0,0,0,0,0,1
872,11779,9638,bus,49,0,0,0,0,0,0,1
917,11780,9638,bus,49,0,0,0,0,0,0,1
954,11781,9638,bus,49,0,0,0,0,0,0,1
986,11782,9638,bus,49,0,0,0,0,0,0,1
1028,11783,9638,bus,49,0,0,0,0,0,0,1
1100,11784,9638,bus,49,0,0,0,0,0,0,1
1165,11785,9638,bus,49,0,0,0,0,0,0,1
1232,11786,9638,bus,49,0,0,0,0,0,0,1
1271,11787,9638,bus,49,0,0,0,0,0,0,1
1333,11788,9638,bus,49,0,0,0,0,0,0,1
1395,11798,10387,bus,49,1,1,1,1,1,0,0
1378,11799,9637,bus,49,0,0,0,0,0,1,0
1378,11800,9638,bus,49,0,0,0,0,0,0,1
328,11808,10387,bus,49,1,1,1,1,1,0,0
346,11809,10387,bus,49,1,1,1,1,1,0,0
364,11810,10387,bus,49,1,1,1,1,1,0,0
384,11811,10387,bus,49,1,1,1,1,1,0,0
401,11812,10387,bus,49,1,1,1,1,1,0,0
337,11813,9637,bus,49,0,0,0,0,0,1,0
377,11814,9638,bus,49,0,0,0,0,0,0,1
