timeInMin,trip_id,service_id,tipas,numeris,pirmadienis,antradienis,treciadienis,ketvirtadienis,penktadienis,sestadienis,sekmadienis 
331,2472,10482,expressbus,4G,1,1,1,1,1,0,0
343,2473,10482,expressbus,4G,1,1,1,1,1,0,0
355,2474,10482,expressbus,4G,1,1,1,1,1,0,0
361,2475,10482,expressbus,4G,1,1,1,1,1,0,0
369,2476,10482,expressbus,4G,1,1,1,1,1,0,0
375,2477,10482,expressbus,4G,1,1,1,1,1,0,0
381,2478,10482,expressbus,4G,1,1,1,1,1,0,0
387,2479,10482,expressbus,4G,1,1,1,1,1,0,0
393,2480,10482,expressbus,4G,1,1,1,1,1,0,0
399,2481,10482,expressbus,4G,1,1,1,1,1,0,0
406,2482,10482,expressbus,4G,1,1,1,1,1,0,0
411,2483,10482,expressbus,4G,1,1,1,1,1,0,0
417,2484,10482,expressbus,4G,1,1,1,1,1,0,0
423,2485,10482,expressbus,4G,1,1,1,1,1,0,0
431,2486,10482,expressbus,4G,1,1,1,1,1,0,0
437,2487,10482,expressbus,4G,1,1,1,1,1,0,0
443,2488,10482,expressbus,4G,1,1,1,1,1,0,0
450,2489,10482,expressbus,4G,1,1,1,1,1,0,0
456,2490,10482,expressbus,4G,1,1,1,1,1,0,0
462,2491,10482,expressbus,4G,1,1,1,1,1,0,0
468,2492,10482,expressbus,4G,1,1,1,1,1,0,0
473,2493,10482,expressbus,4G,1,1,1,1,1,0,0
479,2494,10482,expressbus,4G,1,1,1,1,1,0,0
486,2495,10482,expressbus,4G,1,1,1,1,1,0,0
491,2496,10482,expressbus,4G,1,1,1,1,1,0,0
498,2497,10482,expressbus,4G,1,1,1,1,1,0,0
505,2498,10482,expressbus,4G,1,1,1,1,1,0,0
513,2499,10482,expressbus,4G,1,1,1,1,1,0,0
519,2500,10482,expressbus,4G,1,1,1,1,1,0,0
527,2501,10482,expressbus,4G,1,1,1,1,1,0,0
536,2502,10482,expressbus,4G,1,1,1,1,1,0,0
542,2503,10482,expressbus,4G,1,1,1,1,1,0,0
549,2504,10482,expressbus,4G,1,1,1,1,1,0,0
558,2505,10482,expressbus,4G,1,1,1,1,1,0,0
570,2506,10482,expressbus,4G,1,1,1,1,1,0,0
581,2507,10482,expressbus,4G,1,1,1,1,1,0,0
592,2508,10482,expressbus,4G,1,1,1,1,1,0,0
603,2509,10482,expressbus,4G,1,1,1,1,1,0,0
613,2510,10482,expressbus,4G,1,1,1,1,1,0,0
621,2511,10482,expressbus,4G,1,1,1,1,1,0,0
629,2512,10482,expressbus,4G,1,1,1,1,1,0,0
640,2513,10482,expressbus,4G,1,1,1,1,1,0,0
653,2514,10482,expressbus,4G,1,1,1,1,1,0,0
665,2515,10482,expressbus,4G,1,1,1,1,1,0,0
677,2516,10482,expressbus,4G,1,1,1,1,1,0,0
689,2517,10482,expressbus,4G,1,1,1,1,1,0,0
701,2518,10482,expressbus,4G,1,1,1,1,1,0,0
712,2519,10482,expressbus,4G,1,1,1,1,1,0,0
723,2520,10482,expressbus,4G,1,1,1,1,1,0,0
731,2521,10482,expressbus,4G,1,1,1,1,1,0,0
741,2522,10482,expressbus,4G,1,1,1,1,1,0,0
753,2523,10482,expressbus,4G,1,1,1,1,1,0,0
765,2524,10482,expressbus,4G,1,1,1,1,1,0,0
776,2525,10482,expressbus,4G,1,1,1,1,1,0,0
786,2526,10482,expressbus,4G,1,1,1,1,1,0,0
796,2527,10482,expressbus,4G,1,1,1,1,1,0,0
808,2528,10482,expressbus,4G,1,1,1,1,1,0,0
820,2529,10482,expressbus,4G,1,1,1,1,1,0,0
830,2530,10482,expressbus,4G,1,1,1,1,1,0,0
842,2531,10482,expressbus,4G,1,1,1,1,1,0,0
856,2532,10482,expressbus,4G,1,1,1,1,1,0,0
865,2533,10482,expressbus,4G,1,1,1,1,1,0,0
877,2534,10482,expressbus,4G,1,1,1,1,1,0,0
888,2535,10482,expressbus,4G,1,1,1,1,1,0,0
896,2536,10482,expressbus,4G,1,1,1,1,1,0,0
904,2537,10482,expressbus,4G,1,1,1,1,1,0,0
911,2538,10482,expressbus,4G,1,1,1,1,1,0,0
918,2539,10482,expressbus,4G,1,1,1,1,1,0,0
925,2540,10482,expressbus,4G,1,1,1,1,1,0,0
930,2541,10482,expressbus,4G,1,1,1,1,1,0,0
936,2542,10482,expressbus,4G,1,1,1,1,1,0,0
942,2543,10482,expressbus,4G,1,1,1,1,1,0,0
947,2544,10482,expressbus,4G,1,1,1,1,1,0,0
952,2545,10482,expressbus,4G,1,1,1,1,1,0,0
958,2546,10482,expressbus,4G,1,1,1,1,1,0,0
964,2547,10482,expressbus,4G,1,1,1,1,1,0,0
970,2548,10482,expressbus,4G,1,1,1,1,1,0,0
976,2549,10482,expressbus,4G,1,1,1,1,1,0,0
982,2550,10482,expressbus,4G,1,1,1,1,1,0,0
988,2551,10482,expressbus,4G,1,1,1,1,1,0,0
994,2552,10482,expressbus,4G,1,1,1,1,1,0,0
1000,2553,10482,expressbus,4G,1,1,1,1,1,0,0
1007,2554,10482,expressbus,4G,1,1,1,1,1,0,0
1014,2555,10482,expressbus,4G,1,1,1,1,1,0,0
1021,2556,10482,expressbus,4G,1,1,1,1,1,0,0
1029,2557,10482,expressbus,4G,1,1,1,1,1,0,0
1035,2558,10482,expressbus,4G,1,1,1,1,1,0,0
1042,2559,10482,expressbus,4G,1,1,1,1,1,0,0
1049,2560,10482,expressbus,4G,1,1,1,1,1,0,0
1056,2561,10482,expressbus,4G,1,1,1,1,1,0,0
1062,2562,10482,expressbus,4G,1,1,1,1,1,0,0
1069,2563,10482,expressbus,4G,1,1,1,1,1,0,0
1077,2564,10482,expressbus,4G,1,1,1,1,1,0,0
1085,2565,10482,expressbus,4G,1,1,1,1,1,0,0
1094,2566,10482,expressbus,4G,1,1,1,1,1,0,0
1105,2567,10482,expressbus,4G,1,1,1,1,1,0,0
1114,2568,10482,expressbus,4G,1,1,1,1,1,0,0
1125,2569,10482,expressbus,4G,1,1,1,1,1,0,0
1140,2570,10482,expressbus,4G,1,1,1,1,1,0,0
1154,2571,10482,expressbus,4G,1,1,1,1,1,0,0
1167,2572,10482,expressbus,4G,1,1,1,1,1,0,0
1179,2573,10482,expressbus,4G,1,1,1,1,1,0,0
1189,2574,10482,expressbus,4G,1,1,1,1,1,0,0
1203,2575,10482,expressbus,4G,1,1,1,1,1,0,0
1217,2576,10482,expressbus,4G,1,1,1,1,1,0,0
1229,2577,10482,expressbus,4G,1,1,1,1,1,0,0
1240,2578,10482,expressbus,4G,1,1,1,1,1,0,0
1251,2579,10482,expressbus,4G,1,1,1,1,1,0,0
1261,2580,10482,expressbus,4G,1,1,1,1,1,0,0
1272,2581,10482,expressbus,4G,1,1,1,1,1,0,0
1283,2582,10482,expressbus,4G,1,1,1,1,1,0,0
1294,2583,10482,expressbus,4G,1,1,1,1,1,0,0
1304,2584,10482,expressbus,4G,1,1,1,1,1,0,0
1315,2585,10482,expressbus,4G,1,1,1,1,1,0,0
1327,2586,10482,expressbus,4G,1,1,1,1,1,0,0
1340,2587,10482,expressbus,4G,1,1,1,1,1,0,0
1352,2588,10482,expressbus,4G,1,1,1,1,1,0,0
1368,2589,10482,expressbus,4G,1,1,1,1,1,0,0
1390,2590,10482,expressbus,4G,1,1,1,1,1,0,0
331,2591,10483,expressbus,4G,0,0,0,0,0,1,0
351,2592,10483,expressbus,4G,0,0,0,0,0,1,0
375,2593,10483,expressbus,4G,0,0,0,0,0,1,0
390,2594,10483,expressbus,4G,0,0,0,0,0,1,0
406,2595,10483,expressbus,4G,0,0,0,0,0,1,0
421,2596,10483,expressbus,4G,0,0,0,0,0,1,0
439,2597,10483,expressbus,4G,0,0,0,0,0,1,0
453,2598,10483,expressbus,4G,0,0,0,0,0,1,0
469,2599,10483,expressbus,4G,0,0,0,0,0,1,0
484,2600,10483,expressbus,4G,0,0,0,0,0,1,0
500,2601,10483,expressbus,4G,0,0,0,0,0,1,0
513,2602,10483,expressbus,4G,0,0,0,0,0,1,0
530,2603,10483,expressbus,4G,0,0,0,0,0,1,0
545,2604,10483,expressbus,4G,0,0,0,0,0,1,0
562,2605,10483,expressbus,4G,0,0,0,0,0,1,0
576,2606,10483,expressbus,4G,0,0,0,0,0,1,0
592,2607,10483,expressbus,4G,0,0,0,0,0,1,0
606,2608,10483,expressbus,4G,0,0,0,0,0,1,0
620,2609,10483,expressbus,4G,0,0,0,0,0,1,0
634,2610,10483,expressbus,4G,0,0,0,0,0,1,0
646,2611,10483,expressbus,4G,0,0,0,0,0,1,0
661,2612,10483,expressbus,4G,0,0,0,0,0,1,0
673,2613,10483,expressbus,4G,0,0,0,0,0,1,0
688,2614,10483,expressbus,4G,0,0,0,0,0,1,0
700,2615,10483,expressbus,4G,0,0,0,0,0,1,0
712,2616,10483,expressbus,4G,0,0,0,0,0,1,0
724,2617,10483,expressbus,4G,0,0,0,0,0,1,0
736,2618,10483,expressbus,4G,0,0,0,0,0,1,0
751,2619,10483,expressbus,4G,0,0,0,0,0,1,0
767,2620,10483,expressbus,4G,0,0,0,0,0,1,0
780,2621,10483,expressbus,4G,0,0,0,0,0,1,0
791,2622,10483,expressbus,4G,0,0,0,0,0,1,0
804,2623,10483,expressbus,4G,0,0,0,0,0,1,0
817,2624,10483,expressbus,4G,0,0,0,0,0,1,0
831,2625,10483,expressbus,4G,0,0,0,0,0,1,0
843,2626,10483,expressbus,4G,0,0,0,0,0,1,0
853,2627,10483,expressbus,4G,0,0,0,0,0,1,0
867,2628,10483,expressbus,4G,0,0,0,0,0,1,0
880,2629,10483,expressbus,4G,0,0,0,0,0,1,0
891,2630,10483,expressbus,4G,0,0,0,0,0,1,0
903,2631,10483,expressbus,4G,0,0,0,0,0,1,0
915,2632,10483,expressbus,4G,0,0,0,0,0,1,0
928,2633,10483,expressbus,4G,0,0,0,0,0,1,0
942,2634,10483,expressbus,4G,0,0,0,0,0,1,0
953,2635,10483,expressbus,4G,0,0,0,0,0,1,0
965,2636,10483,expressbus,4G,0,0,0,0,0,1,0
977,2637,10483,expressbus,4G,0,0,0,0,0,1,0
987,2638,10483,expressbus,4G,0,0,0,0,0,1,0
999,2639,10483,expressbus,4G,0,0,0,0,0,1,0
1011,2640,10483,expressbus,4G,0,0,0,0,0,1,0
1022,2641,10483,expressbus,4G,0,0,0,0,0,1,0
1037,2642,10483,expressbus,4G,0,0,0,0,0,1,0
1052,2643,10483,expressbus,4G,0,0,0,0,0,1,0
1066,2644,10483,expressbus,4G,0,0,0,0,0,1,0
1080,2645,10483,expressbus,4G,0,0,0,0,0,1,0
1099,2646,10483,expressbus,4G,0,0,0,0,0,1,0
1120,2647,10483,expressbus,4G,0,0,0,0,0,1,0
1139,2648,10483,expressbus,4G,0,0,0,0,0,1,0
1156,2649,10483,expressbus,4G,0,0,0,0,0,1,0
1174,2650,10483,expressbus,4G,0,0,0,0,0,1,0
1198,2651,10483,expressbus,4G,0,0,0,0,0,1,0
1211,2652,10483,expressbus,4G,0,0,0,0,0,1,0
1227,2653,10483,expressbus,4G,0,0,0,0,0,1,0
1240,2654,10483,expressbus,4G,0,0,0,0,0,1,0
1261,2655,10483,expressbus,4G,0,0,0,0,0,1,0
1276,2656,10483,expressbus,4G,0,0,0,0,0,1,0
1293,2657,10483,expressbus,4G,0,0,0,0,0,1,0
1307,2658,10483,expressbus,4G,0,0,0,0,0,1,0
1322,2659,10483,expressbus,4G,0,0,0,0,0,1,0
1337,2660,10483,expressbus,4G,0,0,0,0,0,1,0
1353,2661,10483,expressbus,4G,0,0,0,0,0,1,0
1372,2662,10483,expressbus,4G,0,0,0,0,0,1,0
1393,2663,10483,expressbus,4G,0,0,0,0,0,1,0
375,2664,10484,expressbus,4G,0,0,0,0,0,0,1
390,2665,10484,expressbus,4G,0,0,0,0,0,0,1
406,2666,10484,expressbus,4G,0,0,0,0,0,0,1
421,2667,10484,expressbus,4G,0,0,0,0,0,0,1
439,2668,10484,expressbus,4G,0,0,0,0,0,0,1
453,2669,10484,expressbus,4G,0,0,0,0,0,0,1
469,2670,10484,expressbus,4G,0,0,0,0,0,0,1
484,2671,10484,expressbus,4G,0,0,0,0,0,0,1
500,2672,10484,expressbus,4G,0,0,0,0,0,0,1
513,2673,10484,expressbus,4G,0,0,0,0,0,0,1
530,2674,10484,expressbus,4G,0,0,0,0,0,0,1
545,2675,10484,expressbus,4G,0,0,0,0,0,0,1
562,2676,10484,expressbus,4G,0,0,0,0,0,0,1
576,2677,10484,expressbus,4G,0,0,0,0,0,0,1
592,2678,10484,expressbus,4G,0,0,0,0,0,0,1
606,2679,10484,expressbus,4G,0,0,0,0,0,0,1
620,2680,10484,expressbus,4G,0,0,0,0,0,0,1
634,2681,10484,expressbus,4G,0,0,0,0,0,0,1
646,2682,10484,expressbus,4G,0,0,0,0,0,0,1
661,2683,10484,expressbus,4G,0,0,0,0,0,0,1
673,2684,10484,expressbus,4G,0,0,0,0,0,0,1
688,2685,10484,expressbus,4G,0,0,0,0,0,0,1
700,2686,10484,expressbus,4G,0,0,0,0,0,0,1
712,2687,10484,expressbus,4G,0,0,0,0,0,0,1
724,2688,10484,expressbus,4G,0,0,0,0,0,0,1
736,2689,10484,expressbus,4G,0,0,0,0,0,0,1
751,2690,10484,expressbus,4G,0,0,0,0,0,0,1
767,2691,10484,expressbus,4G,0,0,0,0,0,0,1
780,2692,10484,expressbus,4G,0,0,0,0,0,0,1
791,2693,10484,expressbus,4G,0,0,0,0,0,0,1
804,2694,10484,expressbus,4G,0,0,0,0,0,0,1
817,2695,10484,expressbus,4G,0,0,0,0,0,0,1
831,2696,10484,expressbus,4G,0,0,0,0,0,0,1
843,2697,10484,expressbus,4G,0,0,0,0,0,0,1
853,2698,10484,expressbus,4G,0,0,0,0,0,0,1
867,2699,10484,expressbus,4G,0,0,0,0,0,0,1
880,2700,10484,expressbus,4G,0,0,0,0,0,0,1
891,2701,10484,expressbus,4G,0,0,0,0,0,0,1
903,2702,10484,expressbus,4G,0,0,0,0,0,0,1
915,2703,10484,expressbus,4G,0,0,0,0,0,0,1
928,2704,10484,expressbus,4G,0,0,0,0,0,0,1
942,2705,10484,expressbus,4G,0,0,0,0,0,0,1
953,2706,10484,expressbus,4G,0,0,0,0,0,0,1
965,2707,10484,expressbus,4G,0,0,0,0,0,0,1
977,2708,10484,expressbus,4G,0,0,0,0,0,0,1
987,2709,10484,expressbus,4G,0,0,0,0,0,0,1
999,2710,10484,expressbus,4G,0,0,0,0,0,0,1
1011,2711,10484,expressbus,4G,0,0,0,0,0,0,1
1022,2712,10484,expressbus,4G,0,0,0,0,0,0,1
1037,2713,10484,expressbus,4G,0,0,0,0,0,0,1
1052,2714,10484,expressbus,4G,0,0,0,0,0,0,1
1066,2715,10484,expressbus,4G,0,0,0,0,0,0,1
1080,2716,10484,expressbus,4G,0,0,0,0,0,0,1
1099,2717,10484,expressbus,4G,0,0,0,0,0,0,1
1120,2718,10484,expressbus,4G,0,0,0,0,0,0,1
1139,2719,10484,expressbus,4G,0,0,0,0,0,0,1
1156,2720,10484,expressbus,4G,0,0,0,0,0,0,1
1174,2721,10484,expressbus,4G,0,0,0,0,0,0,1
1198,2722,10484,expressbus,4G,0,0,0,0,0,0,1
1211,2723,10484,expressbus,4G,0,0,0,0,0,0,1
1227,2724,10484,expressbus,4G,0,0,0,0,0,0,1
1240,2725,10484,expressbus,4G,0,0,0,0,0,0,1
1261,2726,10484,expressbus,4G,0,0,0,0,0,0,1
1276,2727,10484,expressbus,4G,0,0,0,0,0,0,1
1293,2728,10484,expressbus,4G,0,0,0,0,0,0,1
1307,2729,10484,expressbus,4G,0,0,0,0,0,0,1
1322,2730,10484,expressbus,4G,0,0,0,0,0,0,1
1337,2731,10484,expressbus,4G,0,0,0,0,0,0,1
1353,2732,10484,expressbus,4G,0,0,0,0,0,0,1
1372,2733,10484,expressbus,4G,0,0,0,0,0,0,1
1393,2734,10484,expressbus,4G,0,0,0,0,0,0,1
299,3061,10482,expressbus,4G,1,1,1,1,1,0,0
317,3062,10482,expressbus,4G,1,1,1,1,1,0,0
306,3063,10483,expressbus,4G,0,0,0,0,0,1,0
351,3064,10484,expressbus,4G,0,0,0,0,0,0,1
1020,5284,10293,bus,11,0,0,0,0,0,0,1
1381,5285,10293,bus,11,0,0,0,0,0,0,1
1308,5286,9750,bus,11,1,1,1,1,1,0,0
1396,5287,9750,bus,11,1,1,1,1,1,0,0
1020,5288,9413,bus,11,0,0,0,0,0,1,0
1381,5289,9413,bus,11,0,0,0,0,0,1,0
357,8352,10485,bus,30,1,1,1,1,1,0,0
382,8353,10485,bus,30,1,1,1,1,1,0,0
399,8354,10485,bus,30,1,1,1,1,1,0,0
419,8355,10485,bus,30,1,1,1,1,1,0,0
439,8356,10485,bus,30,1,1,1,1,1,0,0
454,8357,10485,bus,30,1,1,1,1,1,0,0
473,8358,10485,bus,30,1,1,1,1,1,0,0
489,8359,10485,bus,30,1,1,1,1,1,0,0
511,8360,10485,bus,30,1,1,1,1,1,0,0
529,8361,10485,bus,30,1,1,1,1,1,0,0
542,8362,10485,bus,30,1,1,1,1,1,0,0
560,8363,10485,bus,30,1,1,1,1,1,0,0
575,8364,10485,bus,30,1,1,1,1,1,0,0
595,8365,10485,bus,30,1,1,1,1,1,0,0
622,8366,10485,bus,30,1,1,1,1,1,0,0
643,8367,10485,bus,30,1,1,1,1,1,0,0
671,8368,10485,bus,30,1,1,1,1,1,0,0
697,8369,10485,bus,30,1,1,1,1,1,0,0
723,8370,10485,bus,30,1,1,1,1,1,0,0
752,8371,10485,bus,30,1,1,1,1,1,0,0
778,8372,10485,bus,30,1,1,1,1,1,0,0
803,8373,10485,bus,30,1,1,1,1,1,0,0
834,8374,10485,bus,30,1,1,1,1,1,0,0
858,8375,10485,bus,30,1,1,1,1,1,0,0
890,8376,10485,bus,30,1,1,1,1,1,0,0
922,8377,10485,bus,30,1,1,1,1,1,0,0
943,8378,10485,bus,30,1,1,1,1,1,0,0
956,8379,10485,bus,30,1,1,1,1,1,0,0
971,8380,10485,bus,30,1,1,1,1,1,0,0
986,8381,10485,bus,30,1,1,1,1,1,0,0
1009,8382,10485,bus,30,1,1,1,1,1,0,0
1033,8383,10485,bus,30,1,1,1,1,1,0,0
1046,8384,10485,bus,30,1,1,1,1,1,0,0
1064,8385,10485,bus,30,1,1,1,1,1,0,0
1077,8386,10485,bus,30,1,1,1,1,1,0,0
1099,8387,10485,bus,30,1,1,1,1,1,0,0
1123,8388,10485,bus,30,1,1,1,1,1,0,0
1137,8389,10485,bus,30,1,1,1,1,1,0,0
1163,8390,10485,bus,30,1,1,1,1,1,0,0
1183,8391,10485,bus,30,1,1,1,1,1,0,0
1211,8392,10485,bus,30,1,1,1,1,1,0,0
1238,8393,10485,bus,30,1,1,1,1,1,0,0
1268,8394,10485,bus,30,1,1,1,1,1,0,0
1294,8395,10485,bus,30,1,1,1,1,1,0,0
1320,8396,10485,bus,30,1,1,1,1,1,0,0
1352,8397,10485,bus,30,1,1,1,1,1,0,0
1379,8398,10485,bus,30,1,1,1,1,1,0,0
1408,8399,10485,bus,30,1,1,1,1,1,0,0
356,8400,10486,bus,30,0,0,0,0,0,1,0
394,8401,10486,bus,30,0,0,0,0,0,1,0
435,8402,10486,bus,30,0,0,0,0,0,1,0
472,8403,10486,bus,30,0,0,0,0,0,1,0
510,8404,10486,bus,30,0,0,0,0,0,1,0
547,8405,10486,bus,30,0,0,0,0,0,1,0
588,8406,10486,bus,30,0,0,0,0,0,1,0
620,8407,10486,bus,30,0,0,0,0,0,1,0
653,8408,10486,bus,30,0,0,0,0,0,1,0
683,8409,10486,bus,30,0,0,0,0,0,1,0
705,8410,10486,bus,30,0,0,0,0,0,1,0
733,8411,10486,bus,30,0,0,0,0,0,1,0
764,8412,10486,bus,30,0,0,0,0,0,1,0
782,8413,10486,bus,30,0,0,0,0,0,1,0
824,8414,10486,bus,30,0,0,0,0,0,1,0
862,8415,10486,bus,30,0,0,0,0,0,1,0
884,8416,10486,bus,30,0,0,0,0,0,1,0
910,8417,10486,bus,30,0,0,0,0,0,1,0
937,8418,10486,bus,30,0,0,0,0,0,1,0
966,8419,10486,bus,30,0,0,0,0,0,1,0
993,8420,10486,bus,30,0,0,0,0,0,1,0
1018,8421,10486,bus,30,0,0,0,0,0,1,0
1046,8422,10486,bus,30,0,0,0,0,0,1,0
1072,8423,10486,bus,30,0,0,0,0,0,1,0
1100,8424,10486,bus,30,0,0,0,0,0,1,0
1151,8425,10486,bus,30,0,0,0,0,0,1,0
1198,8426,10486,bus,30,0,0,0,0,0,1,0
1253,8427,10486,bus,30,0,0,0,0,0,1,0
1283,8428,10486,bus,30,0,0,0,0,0,1,0
1328,8429,10486,bus,30,0,0,0,0,0,1,0
1364,8430,10486,bus,30,0,0,0,0,0,1,0
1405,8431,10486,bus,30,0,0,0,0,0,1,0
394,8432,10487,bus,30,0,0,0,0,0,0,1
435,8433,10487,bus,30,0,0,0,0,0,0,1
472,8434,10487,bus,30,0,0,0,0,0,0,1
510,8435,10487,bus,30,0,0,0,0,0,0,1
547,8436,10487,bus,30,0,0,0,0,0,0,1
588,8437,10487,bus,30,0,0,0,0,0,0,1
620,8438,10487,bus,30,0,0,0,0,0,0,1
653,8439,10487,bus,30,0,0,0,0,0,0,1
683,8440,10487,bus,30,0,0,0,0,0,0,1
705,8441,10487,bus,30,0,0,0,0,0,0,1
733,8442,10487,bus,30,0,0,0,0,0,0,1
764,8443,10487,bus,30,0,0,0,0,0,0,1
782,8444,10487,bus,30,0,0,0,0,0,0,1
824,8445,10487,bus,30,0,0,0,0,0,0,1
862,8446,10487,bus,30,0,0,0,0,0,0,1
884,8447,10487,bus,30,0,0,0,0,0,0,1
910,8448,10487,bus,30,0,0,0,0,0,0,1
937,8449,10487,bus,30,0,0,0,0,0,0,1
966,8450,10487,bus,30,0,0,0,0,0,0,1
993,8451,10487,bus,30,0,0,0,0,0,0,1
1018,8452,10487,bus,30,0,0,0,0,0,0,1
1046,8453,10487,bus,30,0,0,0,0,0,0,1
1072,8454,10487,bus,30,0,0,0,0,0,0,1
1100,8455,10487,bus,30,0,0,0,0,0,0,1
1151,8456,10487,bus,30,0,0,0,0,0,0,1
1198,8457,10487,bus,30,0,0,0,0,0,0,1
1253,8458,10487,bus,30,0,0,0,0,0,0,1
1283,8459,10487,bus,30,0,0,0,0,0,0,1
1328,8460,10487,bus,30,0,0,0,0,0,0,1
1364,8461,10487,bus,30,0,0,0,0,0,0,1
1405,8462,10487,bus,30,0,0,0,0,0,0,1
315,11101,10596,bus,43,1,1,1,1,1,0,0
381,11102,10598,bus,43,0,0,0,0,0,0,1
313,11103,10597,bus,43,0,0,0,0,0,1,0
357,11704,10387,bus,49,1,1,1,1,1,0,0
375,11705,10387,bus,49,1,1,1,1,1,0,0
393,11706,10387,bus,49,1,1,1,1,1,0,0
413,11707,10387,bus,49,1,1,1,1,1,0,0
430,11708,10387,bus,49,1,1,1,1,1,0,0
450,11709,10387,bus,49,1,1,1,1,1,0,0
471,11710,10387,bus,49,1,1,1,1,1,0,0
489,11711,10387,bus,49,1,1,1,1,1,0,0
512,11712,10387,bus,49,1,1,1,1,1,0,0
532,11713,10387,bus,49,1,1,1,1,1,0,0
553,11714,10387,bus,49,1,1,1,1,1,0,0
577,11715,10387,bus,49,1,1,1,1,1,0,0
610,11716,10387,bus,49,1,1,1,1,1,0,0
633,11717,10387,bus,49,1,1,1,1,1,0,0
666,11718,10387,bus,49,1,1,1,1,1,0,0
716,11719,10387,bus,49,1,1,1,1,1,0,0
748,11720,10387,bus,49,1,1,1,1,1,0,0
777,11721,10387,bus,49,1,1,1,1,1,0,0
807,11722,10387,bus,49,1,1,1,1,1,0,0
833,11723,10387,bus,49,1,1,1,1,1,0,0
870,11724,10387,bus,49,1,1,1,1,1,0,0
901,11725,10387,bus,49,1,1,1,1,1,0,0
928,11726,10387,bus,49,1,1,1,1,1,0,0
951,11727,10387,bus,49,1,1,1,1,1,0,0
975,11728,10387,bus,49,1,1,1,1,1,0,0
992,11729,10387,bus,49,1,1,1,1,1,0,0
1015,11730,10387,bus,49,1,1,1,1,1,0,0
1039,11731,10387,bus,49,1,1,1,1,1,0,0
1055,11732,10387,bus,49,1,1,1,1,1,0,0
1081,11733,10387,bus,49,1,1,1,1,1,0,0
1110,11734,10387,bus,49,1,1,1,1,1,0,0
1143,11735,10387,bus,49,1,1,1,1,1,0,0
1165,11736,10387,bus,49,1,1,1,1,1,0,0
1182,11737,10387,bus,49,1,1,1,1,1,0,0
1205,11738,10387,bus,49,1,1,1,1,1,0,0
1228,11739,10387,bus,49,1,1,1,1,1,0,0
1260,11740,10387,bus,49,1,1,1,1,1,0,0
1295,11741,10387,bus,49,1,1,1,1,1,0,0
1315,11742,10387,bus,49,1,1,1,1,1,0,0
1343,11743,10387,bus,49,1,1,1,1,1,0,0
1368,11744,10387,bus,49,1,1,1,1,1,0,0
1403,11745,10387,bus,49,1,1,1,1,1,0,0
364,11746,9637,bus,49,0,0,0,0,0,1,0
416,11747,9637,bus,49,0,0,0,0,0,1,0
472,11748,9637,bus,49,0,0,0,0,0,1,0
523,11749,9637,bus,49,0,0,0,0,0,1,0
586,11750,9637,bus,49,0,0,0,0,0,1,0
622,11751,9637,bus,49,0,0,0,0,0,1,0
663,11752,9637,bus,49,0,0,0,0,0,1,0
719,11753,9637,bus,49,0,0,0,0,0,1,0
743,11754,9637,bus,49,0,0,0,0,0,1,0
782,11755,9637,bus,49,0,0,0,0,0,1,0
827,11756,9637,bus,49,0,0,0,0,0,1,0
876,11757,9637,bus,49,0,0,0,0,0,1,0
904,11758,9637,bus,49,0,0,0,0,0,1,0
949,11759,9637,bus,49,0,0,0,0,0,1,0
986,11760,9637,bus,49,0,0,0,0,0,1,0
1018,11761,9637,bus,49,0,0,0,0,0,1,0
1060,11762,9637,bus,49,0,0,0,0,0,1,0
1130,11763,9637,bus,49,0,0,0,0,0,1,0
1197,11764,9637,bus,49,0,0,0,0,0,1,0
1261,11765,9637,bus,49,0,0,0,0,0,1,0
1303,11766,9637,bus,49,0,0,0,0,0,1,0
1363,11767,9637,bus,49,0,0,0,0,0,1,0
405,11768,9638,bus,49,0,0,0,0,0,0,1
472,11769,9638,bus,49,0,0,0,0,0,0,1
523,11770,9638,bus,49,0,0,0,0,0,0,1
586,11771,9638,bus,49,0,0,0,0,0,0,1
622,11772,9638,bus,49,0,0,0,0,0,0,1
663,11773,9638,bus,49,0,0,0,0,0,0,1
719,11774,9638,bus,49,0,0,0,0,0,0,1
743,11775,9638,bus,49,0,0,0,0,0,0,1
782,11776,9638,bus,49,0,0,0,0,0,0,1
827,11777,9638,bus,49,0,0,0,0,0,0,1
876,11778,9638,bus,49,0,0,0,0,0,0,1
904,11779,9638,bus,49,0,0,0,0,0,0,1
949,11780,9638,bus,49,0,0,0,0,0,0,1
986,11781,9638,bus,49,0,0,0,0,0,0,1
1018,11782,9638,bus,49,0,0,0,0,0,0,1
1060,11783,9638,bus,49,0,0,0,0,0,0,1
1130,11784,9638,bus,49,0,0,0,0,0,0,1
1197,11785,9638,bus,49,0,0,0,0,0,0,1
1261,11786,9638,bus,49,0,0,0,0,0,0,1
1303,11787,9638,bus,49,0,0,0,0,0,0,1
1363,11788,9638,bus,49,0,0,0,0,0,0,1
1427,11798,10387,bus,49,1,1,1,1,1,0,0
1402,11799,9637,bus,49,0,0,0,0,0,1,0
1402,11800,9638,bus,49,0,0,0,0,0,0,1
1290,13935,10397,bus,63,1,1,1,1,1,0,0
1220,13936,10398,bus,63,0,0,0,0,0,1,1
386,14395,10403,bus,69,1,1,1,1,1,0,0
419,14396,10403,bus,69,1,1,1,1,1,0,0
438,14397,10403,bus,69,1,1,1,1,1,0,0
460,14398,10403,bus,69,1,1,1,1,1,0,0
498,14399,10403,bus,69,1,1,1,1,1,0,0
541,14400,10403,bus,69,1,1,1,1,1,0,0
564,14401,10403,bus,69,1,1,1,1,1,0,0
592,14402,10403,bus,69,1,1,1,1,1,0,0
642,14403,10403,bus,69,1,1,1,1,1,0,0
682,14404,10403,bus,69,1,1,1,1,1,0,0
703,14405,10403,bus,69,1,1,1,1,1,0,0
759,14406,10403,bus,69,1,1,1,1,1,0,0
817,14407,10403,bus,69,1,1,1,1,1,0,0
845,14408,10403,bus,69,1,1,1,1,1,0,0
882,14409,10403,bus,69,1,1,1,1,1,0,0
939,14410,10403,bus,69,1,1,1,1,1,0,0
965,14411,10403,bus,69,1,1,1,1,1,0,0
1002,14412,10403,bus,69,1,1,1,1,1,0,0
1026,14413,10403,bus,69,1,1,1,1,1,0,0
1064,14414,10403,bus,69,1,1,1,1,1,0,0
1098,14415,10403,bus,69,1,1,1,1,1,0,0
1127,14416,10403,bus,69,1,1,1,1,1,0,0
1152,14417,10403,bus,69,1,1,1,1,1,0,0
1214,14418,10403,bus,69,1,1,1,1,1,0,0
1239,14419,10403,bus,69,1,1,1,1,1,0,0
1276,14420,10403,bus,69,1,1,1,1,1,0,0
1324,14421,10403,bus,69,1,1,1,1,1,0,0
1352,14422,10403,bus,69,1,1,1,1,1,0,0
1383,14423,10403,bus,69,1,1,1,1,1,0,0
398,14424,9660,bus,69,0,0,0,0,0,1,0
501,14425,9660,bus,69,0,0,0,0,0,1,0
631,14426,9660,bus,69,0,0,0,0,0,1,0
688,14427,9660,bus,69,0,0,0,0,0,1,0
760,14428,9660,bus,69,0,0,0,0,0,1,0
799,14429,9660,bus,69,0,0,0,0,0,1,0
863,14430,9660,bus,69,0,0,0,0,0,1,0
930,14431,9660,bus,69,0,0,0,0,0,1,0
974,14432,9660,bus,69,0,0,0,0,0,1,0
1036,14433,9660,bus,69,0,0,0,0,0,1,0
1080,14434,9660,bus,69,0,0,0,0,0,1,0
1167,14435,9660,bus,69,0,0,0,0,0,1,0
1215,14436,9660,bus,69,0,0,0,0,0,1,0
1317,14437,9660,bus,69,0,0,0,0,0,1,0
1419,14438,9660,bus,69,0,0,0,0,0,1,0
501,14439,9661,bus,69,0,0,0,0,0,0,1
631,14440,9661,bus,69,0,0,0,0,0,0,1
688,14441,9661,bus,69,0,0,0,0,0,0,1
760,14442,9661,bus,69,0,0,0,0,0,0,1
799,14443,9661,bus,69,0,0,0,0,0,0,1
863,14444,9661,bus,69,0,0,0,0,0,0,1
930,14445,9661,bus,69,0,0,0,0,0,0,1
974,14446,9661,bus,69,0,0,0,0,0,0,1
1036,14447,9661,bus,69,0,0,0,0,0,0,1
1080,14448,9661,bus,69,0,0,0,0,0,0,1
1167,14449,9661,bus,69,0,0,0,0,0,0,1
1215,14450,9661,bus,69,0,0,0,0,0,0,1
1317,14451,9661,bus,69,0,0,0,0,0,0,1
1419,14452,9661,bus,69,0,0,0,0,0,0,1
350,14683,10499,bus,73,0,0,0,0,0,0,1
311,14684,10497,bus,73,1,1,1,1,1,0,0
310,14685,10498,bus,73,0,0,0,0,0,1,0
347,19938,10452,trol,9,1,1,1,1,1,0,0
368,19939,10452,trol,9,1,1,1,1,1,0,0
380,19940,10452,trol,9,1,1,1,1,1,0,0
398,19941,10452,trol,9,1,1,1,1,1,0,0
414,19942,10452,trol,9,1,1,1,1,1,0,0
428,19943,10452,trol,9,1,1,1,1,1,0,0
437,19944,10452,trol,9,1,1,1,1,1,0,0
445,19945,10452,trol,9,1,1,1,1,1,0,0
455,19946,10452,trol,9,1,1,1,1,1,0,0
462,19947,10452,trol,9,1,1,1,1,1,0,0
472,19948,10452,trol,9,1,1,1,1,1,0,0
478,19949,10452,trol,9,1,1,1,1,1,0,0
488,19950,10452,trol,9,1,1,1,1,1,0,0
497,19951,10452,trol,9,1,1,1,1,1,0,0
504,19952,10452,trol,9,1,1,1,1,1,0,0
513,19953,10452,trol,9,1,1,1,1,1,0,0
522,19954,10452,trol,9,1,1,1,1,1,0,0
530,19955,10452,trol,9,1,1,1,1,1,0,0
540,19956,10452,trol,9,1,1,1,1,1,0,0
549,19957,10452,trol,9,1,1,1,1,1,0,0
559,19958,10452,trol,9,1,1,1,1,1,0,0
568,19959,10452,trol,9,1,1,1,1,1,0,0
581,19960,10452,trol,9,1,1,1,1,1,0,0
589,19961,10452,trol,9,1,1,1,1,1,0,0
602,19962,10452,trol,9,1,1,1,1,1,0,0
613,19963,10452,trol,9,1,1,1,1,1,0,0
627,19964,10452,trol,9,1,1,1,1,1,0,0
642,19965,10452,trol,9,1,1,1,1,1,0,0
659,19966,10452,trol,9,1,1,1,1,1,0,0
674,19967,10452,trol,9,1,1,1,1,1,0,0
686,19968,10452,trol,9,1,1,1,1,1,0,0
704,19969,10452,trol,9,1,1,1,1,1,0,0
722,19970,10452,trol,9,1,1,1,1,1,0,0
739,19971,10452,trol,9,1,1,1,1,1,0,0
754,19972,10452,trol,9,1,1,1,1,1,0,0
769,19973,10452,trol,9,1,1,1,1,1,0,0
786,19974,10452,trol,9,1,1,1,1,1,0,0
803,19975,10452,trol,9,1,1,1,1,1,0,0
819,19976,10452,trol,9,1,1,1,1,1,0,0
832,19977,10452,trol,9,1,1,1,1,1,0,0
849,19978,10452,trol,9,1,1,1,1,1,0,0
868,19979,10452,trol,9,1,1,1,1,1,0,0
887,19980,10452,trol,9,1,1,1,1,1,0,0
904,19981,10452,trol,9,1,1,1,1,1,0,0
913,19982,10452,trol,9,1,1,1,1,1,0,0
926,19983,10452,trol,9,1,1,1,1,1,0,0
935,19984,10452,trol,9,1,1,1,1,1,0,0
945,19985,10452,trol,9,1,1,1,1,1,0,0
955,19986,10452,trol,9,1,1,1,1,1,0,0
965,19987,10452,trol,9,1,1,1,1,1,0,0
972,19988,10452,trol,9,1,1,1,1,1,0,0
979,19989,10452,trol,9,1,1,1,1,1,0,0
987,19990,10452,trol,9,1,1,1,1,1,0,0
996,19991,10452,trol,9,1,1,1,1,1,0,0
1003,19992,10452,trol,9,1,1,1,1,1,0,0
1010,19993,10452,trol,9,1,1,1,1,1,0,0
1018,19994,10452,trol,9,1,1,1,1,1,0,0
1024,19995,10452,trol,9,1,1,1,1,1,0,0
1035,19996,10452,trol,9,1,1,1,1,1,0,0
1043,19997,10452,trol,9,1,1,1,1,1,0,0
1052,19998,10452,trol,9,1,1,1,1,1,0,0
1064,19999,10452,trol,9,1,1,1,1,1,0,0
1071,20000,10452,trol,9,1,1,1,1,1,0,0
1079,20001,10452,trol,9,1,1,1,1,1,0,0
1089,20002,10452,trol,9,1,1,1,1,1,0,0
1097,20003,10452,trol,9,1,1,1,1,1,0,0
1107,20004,10452,trol,9,1,1,1,1,1,0,0
1114,20005,10452,trol,9,1,1,1,1,1,0,0
1124,20006,10452,trol,9,1,1,1,1,1,0,0
1134,20007,10452,trol,9,1,1,1,1,1,0,0
1143,20008,10452,trol,9,1,1,1,1,1,0,0
1151,20009,10452,trol,9,1,1,1,1,1,0,0
1158,20010,10452,trol,9,1,1,1,1,1,0,0
1168,20011,10452,trol,9,1,1,1,1,1,0,0
1178,20012,10452,trol,9,1,1,1,1,1,0,0
1188,20013,10452,trol,9,1,1,1,1,1,0,0
1203,20014,10452,trol,9,1,1,1,1,1,0,0
1221,20015,10452,trol,9,1,1,1,1,1,0,0
1238,20016,10452,trol,9,1,1,1,1,1,0,0
1252,20017,10452,trol,9,1,1,1,1,1,0,0
1269,20018,10452,trol,9,1,1,1,1,1,0,0
1281,20019,10452,trol,9,1,1,1,1,1,0,0
1298,20020,10452,trol,9,1,1,1,1,1,0,0
1313,20021,10452,trol,9,1,1,1,1,1,0,0
1331,20022,10452,trol,9,1,1,1,1,1,0,0
1344,20023,10452,trol,9,1,1,1,1,1,0,0
1362,20024,10452,trol,9,1,1,1,1,1,0,0
1376,20025,10452,trol,9,1,1,1,1,1,0,0
1392,20026,10452,trol,9,1,1,1,1,1,0,0
1408,20027,10452,trol,9,1,1,1,1,1,0,0
357,20028,10453,trol,9,0,0,0,0,0,1,0
391,20029,10453,trol,9,0,0,0,0,0,1,0
414,20030,10453,trol,9,0,0,0,0,0,1,0
436,20031,10453,trol,9,0,0,0,0,0,1,0
464,20032,10453,trol,9,0,0,0,0,0,1,0
481,20033,10453,trol,9,0,0,0,0,0,1,0
503,20034,10453,trol,9,0,0,0,0,0,1,0
513,20035,10453,trol,9,0,0,0,0,0,1,0
538,20036,10453,trol,9,0,0,0,0,0,1,0
559,20037,10453,trol,9,0,0,0,0,0,1,0
579,20038,10453,trol,9,0,0,0,0,0,1,0
603,20039,10453,trol,9,0,0,0,0,0,1,0
617,20040,10453,trol,9,0,0,0,0,0,1,0
636,20041,10453,trol,9,0,0,0,0,0,1,0
647,20042,10453,trol,9,0,0,0,0,0,1,0
658,20043,10453,trol,9,0,0,0,0,0,1,0
677,20044,10453,trol,9,0,0,0,0,0,1,0
693,20045,10453,trol,9,0,0,0,0,0,1,0
707,20046,10453,trol,9,0,0,0,0,0,1,0
724,20047,10453,trol,9,0,0,0,0,0,1,0
740,20048,10453,trol,9,0,0,0,0,0,1,0
749,20049,10453,trol,9,0,0,0,0,0,1,0
767,20050,10453,trol,9,0,0,0,0,0,1,0
782,20051,10453,trol,9,0,0,0,0,0,1,0
791,20052,10453,trol,9,0,0,0,0,0,1,0
814,20053,10453,trol,9,0,0,0,0,0,1,0
825,20054,10453,trol,9,0,0,0,0,0,1,0
836,20055,10453,trol,9,0,0,0,0,0,1,0
852,20056,10453,trol,9,0,0,0,0,0,1,0
863,20057,10453,trol,9,0,0,0,0,0,1,0
874,20058,10453,trol,9,0,0,0,0,0,1,0
889,20059,10453,trol,9,0,0,0,0,0,1,0
906,20060,10453,trol,9,0,0,0,0,0,1,0
919,20061,10453,trol,9,0,0,0,0,0,1,0
936,20062,10453,trol,9,0,0,0,0,0,1,0
953,20063,10453,trol,9,0,0,0,0,0,1,0
966,20064,10453,trol,9,0,0,0,0,0,1,0
978,20065,10453,trol,9,0,0,0,0,0,1,0
997,20066,10453,trol,9,0,0,0,0,0,1,0
1008,20067,10453,trol,9,0,0,0,0,0,1,0
1022,20068,10453,trol,9,0,0,0,0,0,1,0
1032,20069,10453,trol,9,0,0,0,0,0,1,0
1047,20070,10453,trol,9,0,0,0,0,0,1,0
1063,20071,10453,trol,9,0,0,0,0,0,1,0
1075,20072,10453,trol,9,0,0,0,0,0,1,0
1092,20073,10453,trol,9,0,0,0,0,0,1,0
1111,20074,10453,trol,9,0,0,0,0,0,1,0
1139,20075,10453,trol,9,0,0,0,0,0,1,0
1162,20076,10453,trol,9,0,0,0,0,0,1,0
1185,20077,10453,trol,9,0,0,0,0,0,1,0
1211,20078,10453,trol,9,0,0,0,0,0,1,0
1224,20079,10453,trol,9,0,0,0,0,0,1,0
1241,20080,10453,trol,9,0,0,0,0,0,1,0
1264,20081,10453,trol,9,0,0,0,0,0,1,0
1284,20082,10453,trol,9,0,0,0,0,0,1,0
1298,20083,10453,trol,9,0,0,0,0,0,1,0
1322,20084,10453,trol,9,0,0,0,0,0,1,0
1340,20085,10453,trol,9,0,0,0,0,0,1,0
1373,20086,10453,trol,9,0,0,0,0,0,1,0
1398,20087,10453,trol,9,0,0,0,0,0,1,0
1414,20088,10453,trol,9,0,0,0,0,0,1,0
391,20089,10454,trol,9,0,0,0,0,0,0,1
414,20090,10454,trol,9,0,0,0,0,0,0,1
436,20091,10454,trol,9,0,0,0,0,0,0,1
464,20092,10454,trol,9,0,0,0,0,0,0,1
481,20093,10454,trol,9,0,0,0,0,0,0,1
503,20094,10454,trol,9,0,0,0,0,0,0,1
513,20095,10454,trol,9,0,0,0,0,0,0,1
538,20096,10454,trol,9,0,0,0,0,0,0,1
559,20097,10454,trol,9,0,0,0,0,0,0,1
579,20098,10454,trol,9,0,0,0,0,0,0,1
603,20099,10454,trol,9,0,0,0,0,0,0,1
617,20100,10454,trol,9,0,0,0,0,0,0,1
636,20101,10454,trol,9,0,0,0,0,0,0,1
647,20102,10454,trol,9,0,0,0,0,0,0,1
658,20103,10454,trol,9,0,0,0,0,0,0,1
677,20104,10454,trol,9,0,0,0,0,0,0,1
693,20105,10454,trol,9,0,0,0,0,0,0,1
707,20106,10454,trol,9,0,0,0,0,0,0,1
724,20107,10454,trol,9,0,0,0,0,0,0,1
740,20108,10454,trol,9,0,0,0,0,0,0,1
749,20109,10454,trol,9,0,0,0,0,0,0,1
767,20110,10454,trol,9,0,0,0,0,0,0,1
782,20111,10454,trol,9,0,0,0,0,0,0,1
791,20112,10454,trol,9,0,0,0,0,0,0,1
814,20113,10454,trol,9,0,0,0,0,0,0,1
825,20114,10454,trol,9,0,0,0,0,0,0,1
836,20115,10454,trol,9,0,0,0,0,0,0,1
852,20116,10454,trol,9,0,0,0,0,0,0,1
863,20117,10454,trol,9,0,0,0,0,0,0,1
874,20118,10454,trol,9,0,0,0,0,0,0,1
889,20119,10454,trol,9,0,0,0,0,0,0,1
906,20120,10454,trol,9,0,0,0,0,0,0,1
919,20121,10454,trol,9,0,0,0,0,0,0,1
936,20122,10454,trol,9,0,0,0,0,0,0,1
953,20123,10454,trol,9,0,0,0,0,0,0,1
966,20124,10454,trol,9,0,0,0,0,0,0,1
978,20125,10454,trol,9,0,0,0,0,0,0,1
997,20126,10454,trol,9,0,0,0,0,0,0,1
1008,20127,10454,trol,9,0,0,0,0,0,0,1
1022,20128,10454,trol,9,0,0,0,0,0,0,1
1032,20129,10454,trol,9,0,0,0,0,0,0,1
1047,20130,10454,trol,9,0,0,0,0,0,0,1
1063,20131,10454,trol,9,0,0,0,0,0,0,1
1075,20132,10454,trol,9,0,0,0,0,0,0,1
1092,20133,10454,trol,9,0,0,0,0,0,0,1
1111,20134,10454,trol,9,0,0,0,0,0,0,1
1139,20135,10454,trol,9,0,0,0,0,0,0,1
1162,20136,10454,trol,9,0,0,0,0,0,0,1
1185,20137,10454,trol,9,0,0,0,0,0,0,1
1211,20138,10454,trol,9,0,0,0,0,0,0,1
1224,20139,10454,trol,9,0,0,0,0,0,0,1
1241,20140,10454,trol,9,0,0,0,0,0,0,1
1264,20141,10454,trol,9,0,0,0,0,0,0,1
1284,20142,10454,trol,9,0,0,0,0,0,0,1
1298,20143,10454,trol,9,0,0,0,0,0,0,1
1322,20144,10454,trol,9,0,0,0,0,0,0,1
1340,20145,10454,trol,9,0,0,0,0,0,0,1
1373,20146,10454,trol,9,0,0,0,0,0,0,1
1398,20147,10454,trol,9,0,0,0,0,0,0,1
1414,20148,10454,trol,9,0,0,0,0,0,0,1
358,20405,10454,trol,9,0,0,0,0,0,0,1
339,22980,10475,trol,19,1,1,1,1,1,0,0
353,22981,10475,trol,19,1,1,1,1,1,0,0
364,22982,10475,trol,19,1,1,1,1,1,0,0
375,22983,10475,trol,19,1,1,1,1,1,0,0
385,22984,10475,trol,19,1,1,1,1,1,0,0
396,22985,10475,trol,19,1,1,1,1,1,0,0
405,22986,10475,trol,19,1,1,1,1,1,0,0
411,22987,10475,trol,19,1,1,1,1,1,0,0
417,22988,10475,trol,19,1,1,1,1,1,0,0
424,22989,10475,trol,19,1,1,1,1,1,0,0
432,22990,10475,trol,19,1,1,1,1,1,0,0
441,22991,10475,trol,19,1,1,1,1,1,0,0
449,22992,10475,trol,19,1,1,1,1,1,0,0
456,22993,10475,trol,19,1,1,1,1,1,0,0
460,22994,10475,trol,19,1,1,1,1,1,0,0
468,22995,10475,trol,19,1,1,1,1,1,0,0
476,22996,10475,trol,19,1,1,1,1,1,0,0
482,22997,10475,trol,19,1,1,1,1,1,0,0
487,22998,10475,trol,19,1,1,1,1,1,0,0
494,22999,10475,trol,19,1,1,1,1,1,0,0
502,23000,10475,trol,19,1,1,1,1,1,0,0
510,23001,10475,trol,19,1,1,1,1,1,0,0
518,23002,10475,trol,19,1,1,1,1,1,0,0
527,23003,10475,trol,19,1,1,1,1,1,0,0
536,23004,10475,trol,19,1,1,1,1,1,0,0
546,23005,10475,trol,19,1,1,1,1,1,0,0
553,23006,10475,trol,19,1,1,1,1,1,0,0
562,23007,10475,trol,19,1,1,1,1,1,0,0
571,23008,10475,trol,19,1,1,1,1,1,0,0
578,23009,10475,trol,19,1,1,1,1,1,0,0
588,23010,10475,trol,19,1,1,1,1,1,0,0
596,23011,10475,trol,19,1,1,1,1,1,0,0
604,23012,10475,trol,19,1,1,1,1,1,0,0
609,23013,10475,trol,19,1,1,1,1,1,0,0
617,23014,10475,trol,19,1,1,1,1,1,0,0
624,23015,10475,trol,19,1,1,1,1,1,0,0
633,23016,10475,trol,19,1,1,1,1,1,0,0
644,23017,10475,trol,19,1,1,1,1,1,0,0
651,23018,10475,trol,19,1,1,1,1,1,0,0
662,23019,10475,trol,19,1,1,1,1,1,0,0
675,23020,10475,trol,19,1,1,1,1,1,0,0
683,23021,10475,trol,19,1,1,1,1,1,0,0
694,23022,10475,trol,19,1,1,1,1,1,0,0
709,23023,10475,trol,19,1,1,1,1,1,0,0
718,23024,10475,trol,19,1,1,1,1,1,0,0
727,23025,10475,trol,19,1,1,1,1,1,0,0
735,23026,10475,trol,19,1,1,1,1,1,0,0
745,23027,10475,trol,19,1,1,1,1,1,0,0
757,23028,10475,trol,19,1,1,1,1,1,0,0
766,23029,10475,trol,19,1,1,1,1,1,0,0
777,23030,10475,trol,19,1,1,1,1,1,0,0
790,23031,10475,trol,19,1,1,1,1,1,0,0
800,23032,10475,trol,19,1,1,1,1,1,0,0
812,23033,10475,trol,19,1,1,1,1,1,0,0
824,23034,10475,trol,19,1,1,1,1,1,0,0
834,23035,10475,trol,19,1,1,1,1,1,0,0
842,23036,10475,trol,19,1,1,1,1,1,0,0
853,23037,10475,trol,19,1,1,1,1,1,0,0
861,23038,10475,trol,19,1,1,1,1,1,0,0
872,23039,10475,trol,19,1,1,1,1,1,0,0
883,23040,10475,trol,19,1,1,1,1,1,0,0
893,23041,10475,trol,19,1,1,1,1,1,0,0
905,23042,10475,trol,19,1,1,1,1,1,0,0
916,23043,10475,trol,19,1,1,1,1,1,0,0
923,23044,10475,trol,19,1,1,1,1,1,0,0
931,23045,10475,trol,19,1,1,1,1,1,0,0
940,23046,10475,trol,19,1,1,1,1,1,0,0
947,23047,10475,trol,19,1,1,1,1,1,0,0
951,23048,10475,trol,19,1,1,1,1,1,0,0
958,23049,10475,trol,19,1,1,1,1,1,0,0
963,23050,10475,trol,19,1,1,1,1,1,0,0
970,23051,10475,trol,19,1,1,1,1,1,0,0
977,23052,10475,trol,19,1,1,1,1,1,0,0
983,23053,10475,trol,19,1,1,1,1,1,0,0
991,23054,10475,trol,19,1,1,1,1,1,0,0
999,23055,10475,trol,19,1,1,1,1,1,0,0
1006,23056,10475,trol,19,1,1,1,1,1,0,0
1014,23057,10475,trol,19,1,1,1,1,1,0,0
1022,23058,10475,trol,19,1,1,1,1,1,0,0
1029,23059,10475,trol,19,1,1,1,1,1,0,0
1034,23060,10475,trol,19,1,1,1,1,1,0,0
1041,23061,10475,trol,19,1,1,1,1,1,0,0
1048,23062,10475,trol,19,1,1,1,1,1,0,0
1057,23063,10475,trol,19,1,1,1,1,1,0,0
1066,23064,10475,trol,19,1,1,1,1,1,0,0
1074,23065,10475,trol,19,1,1,1,1,1,0,0
1083,23066,10475,trol,19,1,1,1,1,1,0,0
1092,23067,10475,trol,19,1,1,1,1,1,0,0
1099,23068,10475,trol,19,1,1,1,1,1,0,0
1105,23069,10475,trol,19,1,1,1,1,1,0,0
1118,23070,10475,trol,19,1,1,1,1,1,0,0
1130,23071,10475,trol,19,1,1,1,1,1,0,0
1139,23072,10475,trol,19,1,1,1,1,1,0,0
1148,23073,10475,trol,19,1,1,1,1,1,0,0
1154,23074,10475,trol,19,1,1,1,1,1,0,0
1161,23075,10475,trol,19,1,1,1,1,1,0,0
1172,23076,10475,trol,19,1,1,1,1,1,0,0
1183,23077,10475,trol,19,1,1,1,1,1,0,0
1195,23078,10475,trol,19,1,1,1,1,1,0,0
1207,23079,10475,trol,19,1,1,1,1,1,0,0
1215,23080,10475,trol,19,1,1,1,1,1,0,0
1228,23081,10475,trol,19,1,1,1,1,1,0,0
1241,23082,10475,trol,19,1,1,1,1,1,0,0
1248,23083,10475,trol,19,1,1,1,1,1,0,0
1258,23084,10475,trol,19,1,1,1,1,1,0,0
1266,23085,10475,trol,19,1,1,1,1,1,0,0
1276,23086,10475,trol,19,1,1,1,1,1,0,0
1289,23087,10475,trol,19,1,1,1,1,1,0,0
1302,23088,10475,trol,19,1,1,1,1,1,0,0
1310,23089,10475,trol,19,1,1,1,1,1,0,0
1322,23090,10475,trol,19,1,1,1,1,1,0,0
1335,23091,10475,trol,19,1,1,1,1,1,0,0
1348,23092,10475,trol,19,1,1,1,1,1,0,0
1358,23093,10475,trol,19,1,1,1,1,1,0,0
1380,23094,10475,trol,19,1,1,1,1,1,0,0
1397,23095,10475,trol,19,1,1,1,1,1,0,0
334,23096,10476,trol,19,0,0,0,0,0,1,0
361,23097,10476,trol,19,0,0,0,0,0,1,0
386,23098,10476,trol,19,0,0,0,0,0,1,0
401,23099,10476,trol,19,0,0,0,0,0,1,0
418,23100,10476,trol,19,0,0,0,0,0,1,0
433,23101,10476,trol,19,0,0,0,0,0,1,0
449,23102,10476,trol,19,0,0,0,0,0,1,0
461,23103,10476,trol,19,0,0,0,0,0,1,0
475,23104,10476,trol,19,0,0,0,0,0,1,0
487,23105,10476,trol,19,0,0,0,0,0,1,0
497,23106,10476,trol,19,0,0,0,0,0,1,0
508,23107,10476,trol,19,0,0,0,0,0,1,0
522,23108,10476,trol,19,0,0,0,0,0,1,0
534,23109,10476,trol,19,0,0,0,0,0,1,0
551,23110,10476,trol,19,0,0,0,0,0,1,0
567,23111,10476,trol,19,0,0,0,0,0,1,0
583,23112,10476,trol,19,0,0,0,0,0,1,0
597,23113,10476,trol,19,0,0,0,0,0,1,0
614,23114,10476,trol,19,0,0,0,0,0,1,0
631,23115,10476,trol,19,0,0,0,0,0,1,0
643,23116,10476,trol,19,0,0,0,0,0,1,0
656,23117,10476,trol,19,0,0,0,0,0,1,0
670,23118,10476,trol,19,0,0,0,0,0,1,0
681,23119,10476,trol,19,0,0,0,0,0,1,0
690,23120,10476,trol,19,0,0,0,0,0,1,0
704,23121,10476,trol,19,0,0,0,0,0,1,0
718,23122,10476,trol,19,0,0,0,0,0,1,0
732,23123,10476,trol,19,0,0,0,0,0,1,0
744,23124,10476,trol,19,0,0,0,0,0,1,0
755,23125,10476,trol,19,0,0,0,0,0,1,0
764,23126,10476,trol,19,0,0,0,0,0,1,0
777,23127,10476,trol,19,0,0,0,0,0,1,0
785,23128,10476,trol,19,0,0,0,0,0,1,0
799,23129,10476,trol,19,0,0,0,0,0,1,0
809,23130,10476,trol,19,0,0,0,0,0,1,0
822,23131,10476,trol,19,0,0,0,0,0,1,0
838,23132,10476,trol,19,0,0,0,0,0,1,0
848,23133,10476,trol,19,0,0,0,0,0,1,0
860,23134,10476,trol,19,0,0,0,0,0,1,0
877,23135,10476,trol,19,0,0,0,0,0,1,0
885,23136,10476,trol,19,0,0,0,0,0,1,0
897,23137,10476,trol,19,0,0,0,0,0,1,0
909,23138,10476,trol,19,0,0,0,0,0,1,0
923,23139,10476,trol,19,0,0,0,0,0,1,0
933,23140,10476,trol,19,0,0,0,0,0,1,0
947,23141,10476,trol,19,0,0,0,0,0,1,0
962,23142,10476,trol,19,0,0,0,0,0,1,0
973,23143,10476,trol,19,0,0,0,0,0,1,0
985,23144,10476,trol,19,0,0,0,0,0,1,0
994,23145,10476,trol,19,0,0,0,0,0,1,0
1005,23146,10476,trol,19,0,0,0,0,0,1,0
1016,23147,10476,trol,19,0,0,0,0,0,1,0
1029,23148,10476,trol,19,0,0,0,0,0,1,0
1043,23149,10476,trol,19,0,0,0,0,0,1,0
1058,23150,10476,trol,19,0,0,0,0,0,1,0
1072,23151,10476,trol,19,0,0,0,0,0,1,0
1088,23152,10476,trol,19,0,0,0,0,0,1,0
1102,23153,10476,trol,19,0,0,0,0,0,1,0
1117,23154,10476,trol,19,0,0,0,0,0,1,0
1130,23155,10476,trol,19,0,0,0,0,0,1,0
1148,23156,10476,trol,19,0,0,0,0,0,1,0
1166,23157,10476,trol,19,0,0,0,0,0,1,0
1177,23158,10476,trol,19,0,0,0,0,0,1,0
1193,23159,10476,trol,19,0,0,0,0,0,1,0
1207,23160,10476,trol,19,0,0,0,0,0,1,0
1221,23161,10476,trol,19,0,0,0,0,0,1,0
1228,23162,10476,trol,19,0,0,0,0,0,1,0
1244,23163,10476,trol,19,0,0,0,0,0,1,0
1255,23164,10476,trol,19,0,0,0,0,0,1,0
1268,23165,10476,trol,19,0,0,0,0,0,1,0
1278,23166,10476,trol,19,0,0,0,0,0,1,0
1288,23167,10476,trol,19,0,0,0,0,0,1,0
1303,23168,10476,trol,19,0,0,0,0,0,1,0
1316,23169,10476,trol,19,0,0,0,0,0,1,0
1330,23170,10476,trol,19,0,0,0,0,0,1,0
1345,23171,10476,trol,19,0,0,0,0,0,1,0
1356,23172,10476,trol,19,0,0,0,0,0,1,0
1369,23173,10476,trol,19,0,0,0,0,0,1,0
1384,23174,10476,trol,19,0,0,0,0,0,1,0
1403,23175,10476,trol,19,0,0,0,0,0,1,0
386,23176,10477,trol,19,0,0,0,0,0,0,1
401,23177,10477,trol,19,0,0,0,0,0,0,1
418,23178,10477,trol,19,0,0,0,0,0,0,1
433,23179,10477,trol,19,0,0,0,0,0,0,1
449,23180,10477,trol,19,0,0,0,0,0,0,1
461,23181,10477,trol,19,0,0,0,0,0,0,1
475,23182,10477,trol,19,0,0,0,0,0,0,1
487,23183,10477,trol,19,0,0,0,0,0,0,1
497,23184,10477,trol,19,0,0,0,0,0,0,1
508,23185,10477,trol,19,0,0,0,0,0,0,1
522,23186,10477,trol,19,0,0,0,0,0,0,1
534,23187,10477,trol,19,0,0,0,0,0,0,1
551,23188,10477,trol,19,0,0,0,0,0,0,1
567,23189,10477,trol,19,0,0,0,0,0,0,1
583,23190,10477,trol,19,0,0,0,0,0,0,1
597,23191,10477,trol,19,0,0,0,0,0,0,1
614,23192,10477,trol,19,0,0,0,0,0,0,1
631,23193,10477,trol,19,0,0,0,0,0,0,1
643,23194,10477,trol,19,0,0,0,0,0,0,1
656,23195,10477,trol,19,0,0,0,0,0,0,1
670,23196,10477,trol,19,0,0,0,0,0,0,1
681,23197,10477,trol,19,0,0,0,0,0,0,1
690,23198,10477,trol,19,0,0,0,0,0,0,1
704,23199,10477,trol,19,0,0,0,0,0,0,1
718,23200,10477,trol,19,0,0,0,0,0,0,1
732,23201,10477,trol,19,0,0,0,0,0,0,1
744,23202,10477,trol,19,0,0,0,0,0,0,1
755,23203,10477,trol,19,0,0,0,0,0,0,1
764,23204,10477,trol,19,0,0,0,0,0,0,1
777,23205,10477,trol,19,0,0,0,0,0,0,1
785,23206,10477,trol,19,0,0,0,0,0,0,1
799,23207,10477,trol,19,0,0,0,0,0,0,1
809,23208,10477,trol,19,0,0,0,0,0,0,1
822,23209,10477,trol,19,0,0,0,0,0,0,1
838,23210,10477,trol,19,0,0,0,0,0,0,1
848,23211,10477,trol,19,0,0,0,0,0,0,1
860,23212,10477,trol,19,0,0,0,0,0,0,1
877,23213,10477,trol,19,0,0,0,0,0,0,1
885,23214,10477,trol,19,0,0,0,0,0,0,1
897,23215,10477,trol,19,0,0,0,0,0,0,1
909,23216,10477,trol,19,0,0,0,0,0,0,1
923,23217,10477,trol,19,0,0,0,0,0,0,1
933,23218,10477,trol,19,0,0,0,0,0,0,1
947,23219,10477,trol,19,0,0,0,0,0,0,1
962,23220,10477,trol,19,0,0,0,0,0,0,1
973,23221,10477,trol,19,0,0,0,0,0,0,1
985,23222,10477,trol,19,0,0,0,0,0,0,1
994,23223,10477,trol,19,0,0,0,0,0,0,1
1005,23224,10477,trol,19,0,0,0,0,0,0,1
1016,23225,10477,trol,19,0,0,0,0,0,0,1
1029,23226,10477,trol,19,0,0,0,0,0,0,1
1043,23227,10477,trol,19,0,0,0,0,0,0,1
1058,23228,10477,trol,19,0,0,0,0,0,0,1
1072,23229,10477,trol,19,0,0,0,0,0,0,1
1088,23230,10477,trol,19,0,0,0,0,0,0,1
1102,23231,10477,trol,19,0,0,0,0,0,0,1
1117,23232,10477,trol,19,0,0,0,0,0,0,1
1130,23233,10477,trol,19,0,0,0,0,0,0,1
1148,23234,10477,trol,19,0,0,0,0,0,0,1
1166,23235,10477,trol,19,0,0,0,0,0,0,1
1177,23236,10477,trol,19,0,0,0,0,0,0,1
1193,23237,10477,trol,19,0,0,0,0,0,0,1
1207,23238,10477,trol,19,0,0,0,0,0,0,1
1221,23239,10477,trol,19,0,0,0,0,0,0,1
1228,23240,10477,trol,19,0,0,0,0,0,0,1
1244,23241,10477,trol,19,0,0,0,0,0,0,1
1255,23242,10477,trol,19,0,0,0,0,0,0,1
1268,23243,10477,trol,19,0,0,0,0,0,0,1
1278,23244,10477,trol,19,0,0,0,0,0,0,1
1288,23245,10477,trol,19,0,0,0,0,0,0,1
1303,23246,10477,trol,19,0,0,0,0,0,0,1
1316,23247,10477,trol,19,0,0,0,0,0,0,1
1330,23248,10477,trol,19,0,0,0,0,0,0,1
1345,23249,10477,trol,19,0,0,0,0,0,0,1
1356,23250,10477,trol,19,0,0,0,0,0,0,1
1369,23251,10477,trol,19,0,0,0,0,0,0,1
1384,23252,10477,trol,19,0,0,0,0,0,0,1
1403,23253,10477,trol,19,0,0,0,0,0,0,1
1413,23530,10475,trol,19,1,1,1,1,1,0,0
1428,23531,10475,trol,19,1,1,1,1,1,0,0
336,23598,10477,trol,19,0,0,0,0,0,0,1
363,23599,10477,trol,19,0,0,0,0,0,0,1
