timeInMin,trip_id,service_id,tipas,numeris,pirmadienis,antradienis,treciadienis,ketvirtadienis,penktadienis,sestadienis,sekmadienis 
358,4636,9008,bus,8,1,1,1,1,1,0,0
393,4637,9008,bus,8,1,1,1,1,1,0,0
