timeInMin,trip_id,service_id,tipas,numeris,pirmadienis,antradienis,treciadienis,ketvirtadienis,penktadienis,sestadienis,sekmadienis 
1091,7464,10356,bus,24,1,1,1,1,1,0,0
1114,7465,10356,bus,24,1,1,1,1,1,0,0
1136,7466,10356,bus,24,1,1,1,1,1,0,0
1156,7467,10356,bus,24,1,1,1,1,1,0,0
1211,7468,10356,bus,24,1,1,1,1,1,0,0
1397,7469,10356,bus,24,1,1,1,1,1,0,0
1420,7470,10356,bus,24,1,1,1,1,1,0,0
1442,7471,10356,bus,24,1,1,1,1,1,0,0
1113,7472,9984,bus,24,0,0,0,0,0,1,0
1373,7473,9984,bus,24,0,0,0,0,0,1,0
1407,7474,9984,bus,24,0,0,0,0,0,1,0
1113,7475,9985,bus,24,0,0,0,0,0,0,1
1373,7476,9985,bus,24,0,0,0,0,0,0,1
1407,7477,9985,bus,24,0,0,0,0,0,0,1
346,9445,10609,bus,35,1,1,1,1,1,0,0
391,9446,10609,bus,35,1,1,1,1,1,0,0
432,9447,10609,bus,35,1,1,1,1,1,0,0
459,9448,10609,bus,35,1,1,1,1,1,0,0
485,9449,10609,bus,35,1,1,1,1,1,0,0
530,9450,10609,bus,35,1,1,1,1,1,0,0
569,9451,10609,bus,35,1,1,1,1,1,0,0
611,9452,10609,bus,35,1,1,1,1,1,0,0
659,9453,10609,bus,35,1,1,1,1,1,0,0
704,9454,10609,bus,35,1,1,1,1,1,0,0
743,9455,10609,bus,35,1,1,1,1,1,0,0
410,9456,10610,bus,35,0,0,0,0,0,0,1
439,9457,10610,bus,35,0,0,0,0,0,0,1
489,9458,10610,bus,35,0,0,0,0,0,0,1
521,9459,10610,bus,35,0,0,0,0,0,0,1
573,9460,10610,bus,35,0,0,0,0,0,0,1
657,9461,10610,bus,35,0,0,0,0,0,0,1
711,9462,10610,bus,35,0,0,0,0,0,0,1
749,9463,10610,bus,35,0,0,0,0,0,0,1
800,9464,10610,bus,35,0,0,0,0,0,0,1
841,9465,10610,bus,35,0,0,0,0,0,0,1
886,9466,10610,bus,35,0,0,0,0,0,0,1
937,9467,10610,bus,35,0,0,0,0,0,0,1
973,9468,10610,bus,35,0,0,0,0,0,0,1
1023,9469,10610,bus,35,0,0,0,0,0,0,1
1059,9470,10610,bus,35,0,0,0,0,0,0,1
357,9471,10588,bus,35,0,0,0,0,0,1,0
443,9472,10588,bus,35,0,0,0,0,0,1,0
470,9473,10588,bus,35,0,0,0,0,0,1,0
534,9474,10588,bus,35,0,0,0,0,0,1,0
573,9475,10588,bus,35,0,0,0,0,0,1,0
657,9476,10588,bus,35,0,0,0,0,0,1,0
711,9477,10588,bus,35,0,0,0,0,0,1,0
749,9478,10588,bus,35,0,0,0,0,0,1,0
800,9479,10588,bus,35,0,0,0,0,0,1,0
841,9480,10588,bus,35,0,0,0,0,0,1,0
886,9481,10588,bus,35,0,0,0,0,0,1,0
937,9482,10588,bus,35,0,0,0,0,0,1,0
973,9483,10588,bus,35,0,0,0,0,0,1,0
1023,9484,10588,bus,35,0,0,0,0,0,1,0
1059,9485,10588,bus,35,0,0,0,0,0,1,0
794,9486,10609,bus,35,1,1,1,1,1,0,0
829,9487,10609,bus,35,1,1,1,1,1,0,0
890,9488,10609,bus,35,1,1,1,1,1,0,0
920,9489,10609,bus,35,1,1,1,1,1,0,0
946,9490,10609,bus,35,1,1,1,1,1,0,0
977,9491,10609,bus,35,1,1,1,1,1,0,0
1016,9492,10609,bus,35,1,1,1,1,1,0,0
1036,9493,10609,bus,35,1,1,1,1,1,0,0
1072,9494,10609,bus,35,1,1,1,1,1,0,0
1105,9495,10609,bus,35,1,1,1,1,1,0,0
1129,9496,10609,bus,35,1,1,1,1,1,0,0
1167,9497,10609,bus,35,1,1,1,1,1,0,0
1225,9498,10609,bus,35,1,1,1,1,1,0,0
1277,9499,10609,bus,35,1,1,1,1,1,0,0
1308,9500,10609,bus,35,1,1,1,1,1,0,0
1352,9501,10609,bus,35,1,1,1,1,1,0,0
1397,9502,10609,bus,35,1,1,1,1,1,0,0
1149,9503,10610,bus,35,0,0,0,0,0,0,1
1197,9504,10610,bus,35,0,0,0,0,0,0,1
1240,9505,10610,bus,35,0,0,0,0,0,0,1
1287,9506,10610,bus,35,0,0,0,0,0,0,1
1343,9507,10610,bus,35,0,0,0,0,0,0,1
1403,9508,10610,bus,35,0,0,0,0,0,0,1
1149,9509,10588,bus,35,0,0,0,0,0,1,0
1197,9510,10588,bus,35,0,0,0,0,0,1,0
1240,9511,10588,bus,35,0,0,0,0,0,1,0
1287,9512,10588,bus,35,0,0,0,0,0,1,0
1343,9513,10588,bus,35,0,0,0,0,0,1,0
1403,9514,10588,bus,35,0,0,0,0,0,1,0
358,9594,10609,bus,36,1,1,1,1,1,0,0
375,9595,10611,bus,36,1,1,1,1,1,0,0
414,9596,10611,bus,36,1,1,1,1,1,0,0
450,9597,10611,bus,36,1,1,1,1,1,0,0
473,9598,10611,bus,36,1,1,1,1,1,0,0
516,9599,10611,bus,36,1,1,1,1,1,0,0
558,9600,10611,bus,36,1,1,1,1,1,0,0
602,9601,10611,bus,36,1,1,1,1,1,0,0
654,9602,10611,bus,36,1,1,1,1,1,0,0
698,9603,10611,bus,36,1,1,1,1,1,0,0
752,9604,10611,bus,36,1,1,1,1,1,0,0
802,9605,10611,bus,36,1,1,1,1,1,0,0
857,9606,10611,bus,36,1,1,1,1,1,0,0
906,9607,10611,bus,36,1,1,1,1,1,0,0
957,9608,10611,bus,36,1,1,1,1,1,0,0
983,9609,10611,bus,36,1,1,1,1,1,0,0
1010,9610,10611,bus,36,1,1,1,1,1,0,0
1060,9611,10611,bus,36,1,1,1,1,1,0,0
1089,9612,10611,bus,36,1,1,1,1,1,0,0
1109,9613,10611,bus,36,1,1,1,1,1,0,0
1163,9614,10611,bus,36,1,1,1,1,1,0,0
1188,9615,10611,bus,36,1,1,1,1,1,0,0
1231,9616,10611,bus,36,1,1,1,1,1,0,0
1282,9617,10611,bus,36,1,1,1,1,1,0,0
1328,9618,10611,bus,36,1,1,1,1,1,0,0
1381,9619,10611,bus,36,1,1,1,1,1,0,0
1421,9620,10611,bus,36,1,1,1,1,1,0,0
399,9621,10181,bus,36,0,0,0,0,0,1,0
438,9622,10181,bus,36,0,0,0,0,0,1,0
506,9623,10181,bus,36,0,0,0,0,0,1,0
542,9624,10181,bus,36,0,0,0,0,0,1,0
605,9625,10181,bus,36,0,0,0,0,0,1,0
645,9626,10181,bus,36,0,0,0,0,0,1,0
735,9627,10181,bus,36,0,0,0,0,0,1,0
778,9628,10181,bus,36,0,0,0,0,0,1,0
834,9629,10181,bus,36,0,0,0,0,0,1,0
876,9630,10181,bus,36,0,0,0,0,0,1,0
944,9631,10181,bus,36,0,0,0,0,0,1,0
983,9632,10181,bus,36,0,0,0,0,0,1,0
1047,9633,10181,bus,36,0,0,0,0,0,1,0
1084,9634,10181,bus,36,0,0,0,0,0,1,0
1172,9635,10181,bus,36,0,0,0,0,0,1,0
1211,9636,10181,bus,36,0,0,0,0,0,1,0
1274,9637,10181,bus,36,0,0,0,0,0,1,0
1314,9638,10181,bus,36,0,0,0,0,0,1,0
1374,9639,10181,bus,36,0,0,0,0,0,1,0
1437,9640,10181,bus,36,0,0,0,0,0,1,0
399,9641,10182,bus,36,0,0,0,0,0,0,1
438,9642,10182,bus,36,0,0,0,0,0,0,1
506,9643,10182,bus,36,0,0,0,0,0,0,1
542,9644,10182,bus,36,0,0,0,0,0,0,1
605,9645,10182,bus,36,0,0,0,0,0,0,1
645,9646,10182,bus,36,0,0,0,0,0,0,1
735,9647,10182,bus,36,0,0,0,0,0,0,1
778,9648,10182,bus,36,0,0,0,0,0,0,1
834,9649,10182,bus,36,0,0,0,0,0,0,1
876,9650,10182,bus,36,0,0,0,0,0,0,1
944,9651,10182,bus,36,0,0,0,0,0,0,1
983,9652,10182,bus,36,0,0,0,0,0,0,1
1047,9653,10182,bus,36,0,0,0,0,0,0,1
1084,9654,10182,bus,36,0,0,0,0,0,0,1
1172,9655,10182,bus,36,0,0,0,0,0,0,1
1211,9656,10182,bus,36,0,0,0,0,0,0,1
1274,9657,10182,bus,36,0,0,0,0,0,0,1
1314,9658,10182,bus,36,0,0,0,0,0,0,1
1374,9659,10182,bus,36,0,0,0,0,0,0,1
1437,9660,10182,bus,36,0,0,0,0,0,0,1
1219,13141,10395,bus,55,1,1,1,1,1,0,0
1372,13142,10395,bus,55,1,1,1,1,1,0,0
1412,13143,10395,bus,55,1,1,1,1,1,0,0
1001,13144,10193,bus,55,0,0,0,0,0,1,0
1392,13145,10193,bus,55,0,0,0,0,0,1,0
1001,13146,10194,bus,55,0,0,0,0,0,0,1
1392,13147,10194,bus,55,0,0,0,0,0,0,1
1399,13465,10613,bus,57,1,1,1,1,1,0,0
1403,13466,9652,bus,57,0,0,0,0,0,1,0
1403,13467,9653,bus,57,0,0,0,0,0,0,1
1038,13967,10614,bus,65,1,1,1,1,1,0,0
1066,13968,10614,bus,65,1,1,1,1,1,0,0
370,14025,10615,bus,66,1,1,1,1,1,0,0
394,14026,10615,bus,66,1,1,1,1,1,0,0
422,14027,10615,bus,66,1,1,1,1,1,0,0
465,14028,10615,bus,66,1,1,1,1,1,0,0
492,14029,10615,bus,66,1,1,1,1,1,0,0
524,14030,10615,bus,66,1,1,1,1,1,0,0
565,14031,10615,bus,66,1,1,1,1,1,0,0
592,14032,10615,bus,66,1,1,1,1,1,0,0
623,14033,10615,bus,66,1,1,1,1,1,0,0
684,14034,10615,bus,66,1,1,1,1,1,0,0
726,14035,10615,bus,66,1,1,1,1,1,0,0
778,14036,10615,bus,66,1,1,1,1,1,0,0
831,14037,10615,bus,66,1,1,1,1,1,0,0
875,14038,10615,bus,66,1,1,1,1,1,0,0
929,14039,10615,bus,66,1,1,1,1,1,0,0
969,14040,10615,bus,66,1,1,1,1,1,0,0
1023,14041,10615,bus,66,1,1,1,1,1,0,0
1050,14042,10615,bus,66,1,1,1,1,1,0,0
1076,14043,10615,bus,66,1,1,1,1,1,0,0
1126,14044,10615,bus,66,1,1,1,1,1,0,0
1152,14045,10615,bus,66,1,1,1,1,1,0,0
1204,14046,10615,bus,66,1,1,1,1,1,0,0
1249,14047,10615,bus,66,1,1,1,1,1,0,0
1300,14048,10615,bus,66,1,1,1,1,1,0,0
1344,14049,10615,bus,66,1,1,1,1,1,0,0
1393,14050,10615,bus,66,1,1,1,1,1,0,0
370,14051,10401,bus,66,0,0,0,0,0,1,0
468,14052,10401,bus,66,0,0,0,0,0,1,0
568,14053,10401,bus,66,0,0,0,0,0,1,0
627,14054,10401,bus,66,0,0,0,0,0,1,0
691,14055,10401,bus,66,0,0,0,0,0,1,0
721,14056,10401,bus,66,0,0,0,0,0,1,0
792,14057,10401,bus,66,0,0,0,0,0,1,0
844,14058,10401,bus,66,0,0,0,0,0,1,0
894,14059,10401,bus,66,0,0,0,0,0,1,0
955,14060,10401,bus,66,0,0,0,0,0,1,0
996,14061,10401,bus,66,0,0,0,0,0,1,0
1059,14062,10401,bus,66,0,0,0,0,0,1,0
1119,14063,10401,bus,66,0,0,0,0,0,1,0
1238,14064,10401,bus,66,0,0,0,0,0,1,0
1331,14065,10401,bus,66,0,0,0,0,0,1,0
1425,14066,10401,bus,66,0,0,0,0,0,1,0
468,14067,10402,bus,66,0,0,0,0,0,0,1
568,14068,10402,bus,66,0,0,0,0,0,0,1
627,14069,10402,bus,66,0,0,0,0,0,0,1
691,14070,10402,bus,66,0,0,0,0,0,0,1
721,14071,10402,bus,66,0,0,0,0,0,0,1
792,14072,10402,bus,66,0,0,0,0,0,0,1
844,14073,10402,bus,66,0,0,0,0,0,0,1
894,14074,10402,bus,66,0,0,0,0,0,0,1
955,14075,10402,bus,66,0,0,0,0,0,0,1
996,14076,10402,bus,66,0,0,0,0,0,0,1
1059,14077,10402,bus,66,0,0,0,0,0,0,1
1119,14078,10402,bus,66,0,0,0,0,0,0,1
1238,14079,10402,bus,66,0,0,0,0,0,0,1
1331,14080,10402,bus,66,0,0,0,0,0,0,1
1425,14081,10402,bus,66,0,0,0,0,0,0,1
1596,16338,9969,nightbus,101N,0,0,0,0,1,1,0
1648,16339,9969,nightbus,101N,0,0,0,0,1,1,0
1608,16365,9971,nightbus,103N,0,0,0,0,1,1,0
1636,16366,9971,nightbus,103N,0,0,0,0,1,1,0
1604,16378,9972,nightbus,104N,0,0,0,0,1,1,0
1594,16392,9973,nightbus,105N,0,0,0,0,1,1,0
1633,16393,9973,nightbus,105N,0,0,0,0,1,1,0
