timeInMin,trip_id,service_id,tipas,numeris,pirmadienis,antradienis,treciadienis,ketvirtadienis,penktadienis,sestadienis,sekmadienis 
352,8996,10488,bus,32,1,1,1,1,1,0,0
372,8997,10490,bus,32,0,0,0,0,0,0,1
331,15025,10501,bus,75,0,0,0,0,0,1,0
386,15026,10501,bus,75,0,0,0,0,0,1,0
442,15027,10501,bus,75,0,0,0,0,0,1,0
507,15028,10501,bus,75,0,0,0,0,0,1,0
580,15029,10501,bus,75,0,0,0,0,0,1,0
616,15030,10501,bus,75,0,0,0,0,0,1,0
656,15031,10501,bus,75,0,0,0,0,0,1,0
693,15032,10501,bus,75,0,0,0,0,0,1,0
729,15033,10501,bus,75,0,0,0,0,0,1,0
775,15034,10501,bus,75,0,0,0,0,0,1,0
817,15035,10501,bus,75,0,0,0,0,0,1,0
868,15036,10501,bus,75,0,0,0,0,0,1,0
903,15037,10501,bus,75,0,0,0,0,0,1,0
945,15038,10501,bus,75,0,0,0,0,0,1,0
986,15039,10501,bus,75,0,0,0,0,0,1,0
1027,15040,10501,bus,75,0,0,0,0,0,1,0
1095,15041,10501,bus,75,0,0,0,0,0,1,0
1168,15042,10501,bus,75,0,0,0,0,0,1,0
1221,15043,10501,bus,75,0,0,0,0,0,1,0
1290,15044,10501,bus,75,0,0,0,0,0,1,0
1350,15045,10501,bus,75,0,0,0,0,0,1,0
317,15046,10500,bus,75,1,1,1,1,1,0,0
337,15047,10500,bus,75,1,1,1,1,1,0,0
360,15048,10500,bus,75,1,1,1,1,1,0,0
385,15049,10500,bus,75,1,1,1,1,1,0,0
405,15050,10500,bus,75,1,1,1,1,1,0,0
433,15051,10500,bus,75,1,1,1,1,1,0,0
460,15052,10500,bus,75,1,1,1,1,1,0,0
487,15053,10500,bus,75,1,1,1,1,1,0,0
515,15054,10500,bus,75,1,1,1,1,1,0,0
566,15055,10500,bus,75,1,1,1,1,1,0,0
600,15056,10500,bus,75,1,1,1,1,1,0,0
628,15057,10500,bus,75,1,1,1,1,1,0,0
679,15058,10500,bus,75,1,1,1,1,1,0,0
719,15059,10500,bus,75,1,1,1,1,1,0,0
756,15060,10500,bus,75,1,1,1,1,1,0,0
801,15061,10500,bus,75,1,1,1,1,1,0,0
848,15062,10500,bus,75,1,1,1,1,1,0,0
877,15063,10500,bus,75,1,1,1,1,1,0,0
900,15064,10500,bus,75,1,1,1,1,1,0,0
924,15065,10500,bus,75,1,1,1,1,1,0,0
950,15066,10500,bus,75,1,1,1,1,1,0,0
972,15067,10500,bus,75,1,1,1,1,1,0,0
1004,15068,10500,bus,75,1,1,1,1,1,0,0
1029,15069,10500,bus,75,1,1,1,1,1,0,0
1056,15070,10500,bus,75,1,1,1,1,1,0,0
1086,15071,10500,bus,75,1,1,1,1,1,0,0
1136,15072,10500,bus,75,1,1,1,1,1,0,0
1174,15073,10500,bus,75,1,1,1,1,1,0,0
1211,15074,10500,bus,75,1,1,1,1,1,0,0
1251,15075,10500,bus,75,1,1,1,1,1,0,0
1291,15076,10500,bus,75,1,1,1,1,1,0,0
1330,15077,10500,bus,75,1,1,1,1,1,0,0
386,15078,10502,bus,75,0,0,0,0,0,0,1
442,15079,10502,bus,75,0,0,0,0,0,0,1
507,15080,10502,bus,75,0,0,0,0,0,0,1
580,15081,10502,bus,75,0,0,0,0,0,0,1
616,15082,10502,bus,75,0,0,0,0,0,0,1
656,15083,10502,bus,75,0,0,0,0,0,0,1
693,15084,10502,bus,75,0,0,0,0,0,0,1
729,15085,10502,bus,75,0,0,0,0,0,0,1
775,15086,10502,bus,75,0,0,0,0,0,0,1
817,15087,10502,bus,75,0,0,0,0,0,0,1
868,15088,10502,bus,75,0,0,0,0,0,0,1
903,15089,10502,bus,75,0,0,0,0,0,0,1
945,15090,10502,bus,75,0,0,0,0,0,0,1
986,15091,10502,bus,75,0,0,0,0,0,0,1
1027,15092,10502,bus,75,0,0,0,0,0,0,1
1095,15093,10502,bus,75,0,0,0,0,0,0,1
1168,15094,10502,bus,75,0,0,0,0,0,0,1
1221,15095,10502,bus,75,0,0,0,0,0,0,1
1290,15096,10502,bus,75,0,0,0,0,0,0,1
1350,15097,10502,bus,75,0,0,0,0,0,0,1
335,15110,10502,bus,75,0,0,0,0,0,0,1
341,19391,10654,trol,7,1,1,1,1,1,0,0
354,19392,10654,trol,7,1,1,1,1,1,0,0
374,19393,10654,trol,7,1,1,1,1,1,0,0
386,19394,10654,trol,7,1,1,1,1,1,0,0
397,19395,10654,trol,7,1,1,1,1,1,0,0
405,19396,10654,trol,7,1,1,1,1,1,0,0
413,19397,10654,trol,7,1,1,1,1,1,0,0
418,19398,10654,trol,7,1,1,1,1,1,0,0
424,19399,10654,trol,7,1,1,1,1,1,0,0
429,19400,10654,trol,7,1,1,1,1,1,0,0
434,19401,10654,trol,7,1,1,1,1,1,0,0
439,19402,10654,trol,7,1,1,1,1,1,0,0
443,19403,10654,trol,7,1,1,1,1,1,0,0
447,19404,10654,trol,7,1,1,1,1,1,0,0
452,19405,10654,trol,7,1,1,1,1,1,0,0
457,19406,10654,trol,7,1,1,1,1,1,0,0
461,19407,10654,trol,7,1,1,1,1,1,0,0
465,19408,10654,trol,7,1,1,1,1,1,0,0
469,19409,10654,trol,7,1,1,1,1,1,0,0
473,19410,10654,trol,7,1,1,1,1,1,0,0
479,19411,10654,trol,7,1,1,1,1,1,0,0
483,19412,10654,trol,7,1,1,1,1,1,0,0
489,19413,10654,trol,7,1,1,1,1,1,0,0
493,19414,10654,trol,7,1,1,1,1,1,0,0
497,19415,10654,trol,7,1,1,1,1,1,0,0
500,19416,10654,trol,7,1,1,1,1,1,0,0
504,19417,10654,trol,7,1,1,1,1,1,0,0
508,19418,10654,trol,7,1,1,1,1,1,0,0
512,19419,10654,trol,7,1,1,1,1,1,0,0
516,19420,10654,trol,7,1,1,1,1,1,0,0
520,19421,10654,trol,7,1,1,1,1,1,0,0
524,19422,10654,trol,7,1,1,1,1,1,0,0
529,19423,10654,trol,7,1,1,1,1,1,0,0
533,19424,10654,trol,7,1,1,1,1,1,0,0
536,19425,10654,trol,7,1,1,1,1,1,0,0
539,19426,10654,trol,7,1,1,1,1,1,0,0
543,19427,10654,trol,7,1,1,1,1,1,0,0
547,19428,10654,trol,7,1,1,1,1,1,0,0
551,19429,10654,trol,7,1,1,1,1,1,0,0
555,19430,10654,trol,7,1,1,1,1,1,0,0
559,19431,10654,trol,7,1,1,1,1,1,0,0
563,19432,10654,trol,7,1,1,1,1,1,0,0
567,19433,10654,trol,7,1,1,1,1,1,0,0
571,19434,10654,trol,7,1,1,1,1,1,0,0
575,19435,10654,trol,7,1,1,1,1,1,0,0
578,19436,10654,trol,7,1,1,1,1,1,0,0
581,19437,10654,trol,7,1,1,1,1,1,0,0
584,19438,10654,trol,7,1,1,1,1,1,0,0
588,19439,10654,trol,7,1,1,1,1,1,0,0
593,19440,10654,trol,7,1,1,1,1,1,0,0
597,19441,10654,trol,7,1,1,1,1,1,0,0
601,19442,10654,trol,7,1,1,1,1,1,0,0
607,19443,10654,trol,7,1,1,1,1,1,0,0
614,19444,10654,trol,7,1,1,1,1,1,0,0
621,19445,10654,trol,7,1,1,1,1,1,0,0
631,19446,10654,trol,7,1,1,1,1,1,0,0
641,19447,10654,trol,7,1,1,1,1,1,0,0
650,19448,10654,trol,7,1,1,1,1,1,0,0
661,19449,10654,trol,7,1,1,1,1,1,0,0
672,19450,10654,trol,7,1,1,1,1,1,0,0
683,19451,10654,trol,7,1,1,1,1,1,0,0
694,19452,10654,trol,7,1,1,1,1,1,0,0
700,19453,10654,trol,7,1,1,1,1,1,0,0
709,19454,10654,trol,7,1,1,1,1,1,0,0
718,19455,10654,trol,7,1,1,1,1,1,0,0
725,19456,10654,trol,7,1,1,1,1,1,0,0
733,19457,10654,trol,7,1,1,1,1,1,0,0
741,19458,10654,trol,7,1,1,1,1,1,0,0
749,19459,10654,trol,7,1,1,1,1,1,0,0
757,19460,10654,trol,7,1,1,1,1,1,0,0
765,19461,10654,trol,7,1,1,1,1,1,0,0
773,19462,10654,trol,7,1,1,1,1,1,0,0
781,19463,10654,trol,7,1,1,1,1,1,0,0
789,19464,10654,trol,7,1,1,1,1,1,0,0
797,19465,10654,trol,7,1,1,1,1,1,0,0
805,19466,10654,trol,7,1,1,1,1,1,0,0
814,19467,10654,trol,7,1,1,1,1,1,0,0
822,19468,10654,trol,7,1,1,1,1,1,0,0
831,19469,10654,trol,7,1,1,1,1,1,0,0
839,19470,10654,trol,7,1,1,1,1,1,0,0
847,19471,10654,trol,7,1,1,1,1,1,0,0
853,19472,10654,trol,7,1,1,1,1,1,0,0
863,19473,10654,trol,7,1,1,1,1,1,0,0
871,19474,10654,trol,7,1,1,1,1,1,0,0
877,19475,10654,trol,7,1,1,1,1,1,0,0
886,19476,10654,trol,7,1,1,1,1,1,0,0
893,19477,10654,trol,7,1,1,1,1,1,0,0
902,19478,10654,trol,7,1,1,1,1,1,0,0
907,19479,10654,trol,7,1,1,1,1,1,0,0
911,19480,10654,trol,7,1,1,1,1,1,0,0
916,19481,10654,trol,7,1,1,1,1,1,0,0
920,19482,10654,trol,7,1,1,1,1,1,0,0
924,19483,10654,trol,7,1,1,1,1,1,0,0
928,19484,10654,trol,7,1,1,1,1,1,0,0
932,19485,10654,trol,7,1,1,1,1,1,0,0
936,19486,10654,trol,7,1,1,1,1,1,0,0
939,19487,10654,trol,7,1,1,1,1,1,0,0
942,19488,10654,trol,7,1,1,1,1,1,0,0
945,19489,10654,trol,7,1,1,1,1,1,0,0
948,19490,10654,trol,7,1,1,1,1,1,0,0
951,19491,10654,trol,7,1,1,1,1,1,0,0
954,19492,10654,trol,7,1,1,1,1,1,0,0
957,19493,10654,trol,7,1,1,1,1,1,0,0
960,19494,10654,trol,7,1,1,1,1,1,0,0
963,19495,10654,trol,7,1,1,1,1,1,0,0
966,19496,10654,trol,7,1,1,1,1,1,0,0
969,19497,10654,trol,7,1,1,1,1,1,0,0
972,19498,10654,trol,7,1,1,1,1,1,0,0
975,19499,10654,trol,7,1,1,1,1,1,0,0
980,19500,10654,trol,7,1,1,1,1,1,0,0
984,19501,10654,trol,7,1,1,1,1,1,0,0
989,19502,10654,trol,7,1,1,1,1,1,0,0
993,19503,10654,trol,7,1,1,1,1,1,0,0
998,19504,10654,trol,7,1,1,1,1,1,0,0
1004,19505,10654,trol,7,1,1,1,1,1,0,0
1008,19506,10654,trol,7,1,1,1,1,1,0,0
1012,19507,10654,trol,7,1,1,1,1,1,0,0
1016,19508,10654,trol,7,1,1,1,1,1,0,0
1020,19509,10654,trol,7,1,1,1,1,1,0,0
1024,19510,10654,trol,7,1,1,1,1,1,0,0
1028,19511,10654,trol,7,1,1,1,1,1,0,0
1032,19512,10654,trol,7,1,1,1,1,1,0,0
1037,19513,10654,trol,7,1,1,1,1,1,0,0
1041,19514,10654,trol,7,1,1,1,1,1,0,0
1044,19515,10654,trol,7,1,1,1,1,1,0,0
1048,19516,10654,trol,7,1,1,1,1,1,0,0
1051,19517,10654,trol,7,1,1,1,1,1,0,0
1055,19518,10654,trol,7,1,1,1,1,1,0,0
1059,19519,10654,trol,7,1,1,1,1,1,0,0
1062,19520,10654,trol,7,1,1,1,1,1,0,0
1066,19521,10654,trol,7,1,1,1,1,1,0,0
1069,19522,10654,trol,7,1,1,1,1,1,0,0
1072,19523,10654,trol,7,1,1,1,1,1,0,0
1075,19524,10654,trol,7,1,1,1,1,1,0,0
1079,19525,10654,trol,7,1,1,1,1,1,0,0
1083,19526,10654,trol,7,1,1,1,1,1,0,0
1087,19527,10654,trol,7,1,1,1,1,1,0,0
1090,19528,10654,trol,7,1,1,1,1,1,0,0
1094,19529,10654,trol,7,1,1,1,1,1,0,0
1098,19530,10654,trol,7,1,1,1,1,1,0,0
1102,19531,10654,trol,7,1,1,1,1,1,0,0
1106,19532,10654,trol,7,1,1,1,1,1,0,0
1110,19533,10654,trol,7,1,1,1,1,1,0,0
1114,19534,10654,trol,7,1,1,1,1,1,0,0
1119,19535,10654,trol,7,1,1,1,1,1,0,0
1124,19536,10654,trol,7,1,1,1,1,1,0,0
1128,19537,10654,trol,7,1,1,1,1,1,0,0
1133,19538,10654,trol,7,1,1,1,1,1,0,0
1138,19539,10654,trol,7,1,1,1,1,1,0,0
1142,19540,10654,trol,7,1,1,1,1,1,0,0
1146,19541,10654,trol,7,1,1,1,1,1,0,0
1149,19542,10654,trol,7,1,1,1,1,1,0,0
1152,19543,10654,trol,7,1,1,1,1,1,0,0
1155,19544,10654,trol,7,1,1,1,1,1,0,0
1159,19545,10654,trol,7,1,1,1,1,1,0,0
1164,19546,10654,trol,7,1,1,1,1,1,0,0
1169,19547,10654,trol,7,1,1,1,1,1,0,0
1173,19548,10654,trol,7,1,1,1,1,1,0,0
1176,19549,10654,trol,7,1,1,1,1,1,0,0
1180,19550,10654,trol,7,1,1,1,1,1,0,0
1187,19551,10654,trol,7,1,1,1,1,1,0,0
1195,19552,10654,trol,7,1,1,1,1,1,0,0
1205,19553,10654,trol,7,1,1,1,1,1,0,0
1215,19554,10654,trol,7,1,1,1,1,1,0,0
1222,19555,10654,trol,7,1,1,1,1,1,0,0
1231,19556,10654,trol,7,1,1,1,1,1,0,0
1237,19557,10654,trol,7,1,1,1,1,1,0,0
1245,19558,10654,trol,7,1,1,1,1,1,0,0
1256,19559,10654,trol,7,1,1,1,1,1,0,0
1264,19560,10654,trol,7,1,1,1,1,1,0,0
1272,19561,10654,trol,7,1,1,1,1,1,0,0
1280,19562,10654,trol,7,1,1,1,1,1,0,0
1289,19563,10654,trol,7,1,1,1,1,1,0,0
1297,19564,10654,trol,7,1,1,1,1,1,0,0
1303,19565,10654,trol,7,1,1,1,1,1,0,0
1310,19566,10654,trol,7,1,1,1,1,1,0,0
1317,19567,10654,trol,7,1,1,1,1,1,0,0
1328,19568,10654,trol,7,1,1,1,1,1,0,0
1340,19569,10654,trol,7,1,1,1,1,1,0,0
1348,19570,10654,trol,7,1,1,1,1,1,0,0
1358,19571,10654,trol,7,1,1,1,1,1,0,0
1372,19572,10654,trol,7,1,1,1,1,1,0,0
1388,19573,10654,trol,7,1,1,1,1,1,0,0
1400,19574,10654,trol,7,1,1,1,1,1,0,0
1414,19575,10654,trol,7,1,1,1,1,1,0,0
354,19576,10651,trol,7,0,0,0,0,0,1,0
376,19577,10651,trol,7,0,0,0,0,0,1,0
398,19578,10651,trol,7,0,0,0,0,0,1,0
412,19579,10651,trol,7,0,0,0,0,0,1,0
434,19580,10651,trol,7,0,0,0,0,0,1,0
447,19581,10651,trol,7,0,0,0,0,0,1,0
457,19582,10651,trol,7,0,0,0,0,0,1,0
469,19583,10651,trol,7,0,0,0,0,0,1,0
482,19584,10651,trol,7,0,0,0,0,0,1,0
492,19585,10651,trol,7,0,0,0,0,0,1,0
506,19586,10651,trol,7,0,0,0,0,0,1,0
517,19587,10651,trol,7,0,0,0,0,0,1,0
529,19588,10651,trol,7,0,0,0,0,0,1,0
537,19589,10651,trol,7,0,0,0,0,0,1,0
543,19590,10651,trol,7,0,0,0,0,0,1,0
554,19591,10651,trol,7,0,0,0,0,0,1,0
563,19592,10651,trol,7,0,0,0,0,0,1,0
571,19593,10651,trol,7,0,0,0,0,0,1,0
579,19594,10651,trol,7,0,0,0,0,0,1,0
588,19595,10651,trol,7,0,0,0,0,0,1,0
596,19596,10651,trol,7,0,0,0,0,0,1,0
604,19597,10651,trol,7,0,0,0,0,0,1,0
611,19598,10651,trol,7,0,0,0,0,0,1,0
621,19599,10651,trol,7,0,0,0,0,0,1,0
628,19600,10651,trol,7,0,0,0,0,0,1,0
637,19601,10651,trol,7,0,0,0,0,0,1,0
645,19602,10651,trol,7,0,0,0,0,0,1,0
653,19603,10651,trol,7,0,0,0,0,0,1,0
659,19604,10651,trol,7,0,0,0,0,0,1,0
665,19605,10651,trol,7,0,0,0,0,0,1,0
671,19606,10651,trol,7,0,0,0,0,0,1,0
677,19607,10651,trol,7,0,0,0,0,0,1,0
683,19608,10651,trol,7,0,0,0,0,0,1,0
689,19609,10651,trol,7,0,0,0,0,0,1,0
695,19610,10651,trol,7,0,0,0,0,0,1,0
702,19611,10651,trol,7,0,0,0,0,0,1,0
709,19612,10651,trol,7,0,0,0,0,0,1,0
715,19613,10651,trol,7,0,0,0,0,0,1,0
722,19614,10651,trol,7,0,0,0,0,0,1,0
729,19615,10651,trol,7,0,0,0,0,0,1,0
736,19616,10651,trol,7,0,0,0,0,0,1,0
743,19617,10651,trol,7,0,0,0,0,0,1,0
752,19618,10651,trol,7,0,0,0,0,0,1,0
758,19619,10651,trol,7,0,0,0,0,0,1,0
766,19620,10651,trol,7,0,0,0,0,0,1,0
774,19621,10651,trol,7,0,0,0,0,0,1,0
780,19622,10651,trol,7,0,0,0,0,0,1,0
788,19623,10651,trol,7,0,0,0,0,0,1,0
796,19624,10651,trol,7,0,0,0,0,0,1,0
802,19625,10651,trol,7,0,0,0,0,0,1,0
808,19626,10651,trol,7,0,0,0,0,0,1,0
813,19627,10651,trol,7,0,0,0,0,0,1,0
819,19628,10651,trol,7,0,0,0,0,0,1,0
824,19629,10651,trol,7,0,0,0,0,0,1,0
829,19630,10651,trol,7,0,0,0,0,0,1,0
835,19631,10651,trol,7,0,0,0,0,0,1,0
842,19632,10651,trol,7,0,0,0,0,0,1,0
849,19633,10651,trol,7,0,0,0,0,0,1,0
854,19634,10651,trol,7,0,0,0,0,0,1,0
860,19635,10651,trol,7,0,0,0,0,0,1,0
866,19636,10651,trol,7,0,0,0,0,0,1,0
872,19637,10651,trol,7,0,0,0,0,0,1,0
880,19638,10651,trol,7,0,0,0,0,0,1,0
886,19639,10651,trol,7,0,0,0,0,0,1,0
894,19640,10651,trol,7,0,0,0,0,0,1,0
900,19641,10651,trol,7,0,0,0,0,0,1,0
906,19642,10651,trol,7,0,0,0,0,0,1,0
912,19643,10651,trol,7,0,0,0,0,0,1,0
918,19644,10651,trol,7,0,0,0,0,0,1,0
925,19645,10651,trol,7,0,0,0,0,0,1,0
935,19646,10651,trol,7,0,0,0,0,0,1,0
940,19647,10651,trol,7,0,0,0,0,0,1,0
946,19648,10651,trol,7,0,0,0,0,0,1,0
952,19649,10651,trol,7,0,0,0,0,0,1,0
958,19650,10651,trol,7,0,0,0,0,0,1,0
963,19651,10651,trol,7,0,0,0,0,0,1,0
969,19652,10651,trol,7,0,0,0,0,0,1,0
976,19653,10651,trol,7,0,0,0,0,0,1,0
982,19654,10651,trol,7,0,0,0,0,0,1,0
989,19655,10651,trol,7,0,0,0,0,0,1,0
995,19656,10651,trol,7,0,0,0,0,0,1,0
1001,19657,10651,trol,7,0,0,0,0,0,1,0
1011,19658,10651,trol,7,0,0,0,0,0,1,0
1018,19659,10651,trol,7,0,0,0,0,0,1,0
1025,19660,10651,trol,7,0,0,0,0,0,1,0
1032,19661,10651,trol,7,0,0,0,0,0,1,0
1038,19662,10651,trol,7,0,0,0,0,0,1,0
1045,19663,10651,trol,7,0,0,0,0,0,1,0
1054,19664,10651,trol,7,0,0,0,0,0,1,0
1064,19665,10651,trol,7,0,0,0,0,0,1,0
1077,19666,10651,trol,7,0,0,0,0,0,1,0
1085,19667,10651,trol,7,0,0,0,0,0,1,0
1093,19668,10651,trol,7,0,0,0,0,0,1,0
1103,19669,10651,trol,7,0,0,0,0,0,1,0
1112,19670,10651,trol,7,0,0,0,0,0,1,0
1122,19671,10651,trol,7,0,0,0,0,0,1,0
1137,19672,10651,trol,7,0,0,0,0,0,1,0
1150,19673,10651,trol,7,0,0,0,0,0,1,0
1162,19674,10651,trol,7,0,0,0,0,0,1,0
1175,19675,10651,trol,7,0,0,0,0,0,1,0
1185,19676,10651,trol,7,0,0,0,0,0,1,0
1196,19677,10651,trol,7,0,0,0,0,0,1,0
1204,19678,10651,trol,7,0,0,0,0,0,1,0
1217,19679,10651,trol,7,0,0,0,0,0,1,0
1227,19680,10651,trol,7,0,0,0,0,0,1,0
1237,19681,10651,trol,7,0,0,0,0,0,1,0
1248,19682,10651,trol,7,0,0,0,0,0,1,0
1257,19683,10651,trol,7,0,0,0,0,0,1,0
1268,19684,10651,trol,7,0,0,0,0,0,1,0
1277,19685,10651,trol,7,0,0,0,0,0,1,0
1288,19686,10651,trol,7,0,0,0,0,0,1,0
1297,19687,10651,trol,7,0,0,0,0,0,1,0
1307,19688,10651,trol,7,0,0,0,0,0,1,0
1319,19689,10651,trol,7,0,0,0,0,0,1,0
1333,19690,10651,trol,7,0,0,0,0,0,1,0
1349,19691,10651,trol,7,0,0,0,0,0,1,0
1365,19692,10651,trol,7,0,0,0,0,0,1,0
1376,19693,10651,trol,7,0,0,0,0,0,1,0
1386,19694,10651,trol,7,0,0,0,0,0,1,0
1405,19695,10651,trol,7,0,0,0,0,0,1,0
1422,19696,10651,trol,7,0,0,0,0,0,1,0
398,19697,10653,trol,7,0,0,0,0,0,0,1
412,19698,10653,trol,7,0,0,0,0,0,0,1
434,19699,10653,trol,7,0,0,0,0,0,0,1
447,19700,10653,trol,7,0,0,0,0,0,0,1
457,19701,10653,trol,7,0,0,0,0,0,0,1
469,19702,10653,trol,7,0,0,0,0,0,0,1
482,19703,10653,trol,7,0,0,0,0,0,0,1
492,19704,10653,trol,7,0,0,0,0,0,0,1
506,19705,10653,trol,7,0,0,0,0,0,0,1
517,19706,10653,trol,7,0,0,0,0,0,0,1
529,19707,10653,trol,7,0,0,0,0,0,0,1
537,19708,10653,trol,7,0,0,0,0,0,0,1
543,19709,10653,trol,7,0,0,0,0,0,0,1
554,19710,10653,trol,7,0,0,0,0,0,0,1
563,19711,10653,trol,7,0,0,0,0,0,0,1
571,19712,10653,trol,7,0,0,0,0,0,0,1
579,19713,10653,trol,7,0,0,0,0,0,0,1
588,19714,10653,trol,7,0,0,0,0,0,0,1
596,19715,10653,trol,7,0,0,0,0,0,0,1
604,19716,10653,trol,7,0,0,0,0,0,0,1
611,19717,10653,trol,7,0,0,0,0,0,0,1
621,19718,10653,trol,7,0,0,0,0,0,0,1
628,19719,10653,trol,7,0,0,0,0,0,0,1
637,19720,10653,trol,7,0,0,0,0,0,0,1
645,19721,10653,trol,7,0,0,0,0,0,0,1
653,19722,10653,trol,7,0,0,0,0,0,0,1
659,19723,10653,trol,7,0,0,0,0,0,0,1
665,19724,10653,trol,7,0,0,0,0,0,0,1
671,19725,10653,trol,7,0,0,0,0,0,0,1
677,19726,10653,trol,7,0,0,0,0,0,0,1
683,19727,10653,trol,7,0,0,0,0,0,0,1
689,19728,10653,trol,7,0,0,0,0,0,0,1
695,19729,10653,trol,7,0,0,0,0,0,0,1
702,19730,10653,trol,7,0,0,0,0,0,0,1
709,19731,10653,trol,7,0,0,0,0,0,0,1
715,19732,10653,trol,7,0,0,0,0,0,0,1
722,19733,10653,trol,7,0,0,0,0,0,0,1
729,19734,10653,trol,7,0,0,0,0,0,0,1
736,19735,10653,trol,7,0,0,0,0,0,0,1
743,19736,10653,trol,7,0,0,0,0,0,0,1
752,19737,10653,trol,7,0,0,0,0,0,0,1
758,19738,10653,trol,7,0,0,0,0,0,0,1
766,19739,10653,trol,7,0,0,0,0,0,0,1
774,19740,10653,trol,7,0,0,0,0,0,0,1
780,19741,10653,trol,7,0,0,0,0,0,0,1
788,19742,10653,trol,7,0,0,0,0,0,0,1
796,19743,10653,trol,7,0,0,0,0,0,0,1
802,19744,10653,trol,7,0,0,0,0,0,0,1
808,19745,10653,trol,7,0,0,0,0,0,0,1
813,19746,10653,trol,7,0,0,0,0,0,0,1
819,19747,10653,trol,7,0,0,0,0,0,0,1
824,19748,10653,trol,7,0,0,0,0,0,0,1
829,19749,10653,trol,7,0,0,0,0,0,0,1
835,19750,10653,trol,7,0,0,0,0,0,0,1
842,19751,10653,trol,7,0,0,0,0,0,0,1
849,19752,10653,trol,7,0,0,0,0,0,0,1
854,19753,10653,trol,7,0,0,0,0,0,0,1
860,19754,10653,trol,7,0,0,0,0,0,0,1
866,19755,10653,trol,7,0,0,0,0,0,0,1
872,19756,10653,trol,7,0,0,0,0,0,0,1
880,19757,10653,trol,7,0,0,0,0,0,0,1
886,19758,10653,trol,7,0,0,0,0,0,0,1
894,19759,10653,trol,7,0,0,0,0,0,0,1
900,19760,10653,trol,7,0,0,0,0,0,0,1
906,19761,10653,trol,7,0,0,0,0,0,0,1
912,19762,10653,trol,7,0,0,0,0,0,0,1
918,19763,10653,trol,7,0,0,0,0,0,0,1
925,19764,10653,trol,7,0,0,0,0,0,0,1
935,19765,10653,trol,7,0,0,0,0,0,0,1
940,19766,10653,trol,7,0,0,0,0,0,0,1
946,19767,10653,trol,7,0,0,0,0,0,0,1
952,19768,10653,trol,7,0,0,0,0,0,0,1
958,19769,10653,trol,7,0,0,0,0,0,0,1
963,19770,10653,trol,7,0,0,0,0,0,0,1
969,19771,10653,trol,7,0,0,0,0,0,0,1
976,19772,10653,trol,7,0,0,0,0,0,0,1
982,19773,10653,trol,7,0,0,0,0,0,0,1
989,19774,10653,trol,7,0,0,0,0,0,0,1
995,19775,10653,trol,7,0,0,0,0,0,0,1
1001,19776,10653,trol,7,0,0,0,0,0,0,1
1011,19777,10653,trol,7,0,0,0,0,0,0,1
1018,19778,10653,trol,7,0,0,0,0,0,0,1
1025,19779,10653,trol,7,0,0,0,0,0,0,1
1032,19780,10653,trol,7,0,0,0,0,0,0,1
1038,19781,10653,trol,7,0,0,0,0,0,0,1
1045,19782,10653,trol,7,0,0,0,0,0,0,1
1054,19783,10653,trol,7,0,0,0,0,0,0,1
1064,19784,10653,trol,7,0,0,0,0,0,0,1
1077,19785,10653,trol,7,0,0,0,0,0,0,1
1085,19786,10653,trol,7,0,0,0,0,0,0,1
1093,19787,10653,trol,7,0,0,0,0,0,0,1
1103,19788,10653,trol,7,0,0,0,0,0,0,1
1112,19789,10653,trol,7,0,0,0,0,0,0,1
1122,19790,10653,trol,7,0,0,0,0,0,0,1
1137,19791,10653,trol,7,0,0,0,0,0,0,1
1150,19792,10653,trol,7,0,0,0,0,0,0,1
1162,19793,10653,trol,7,0,0,0,0,0,0,1
1175,19794,10653,trol,7,0,0,0,0,0,0,1
1185,19795,10653,trol,7,0,0,0,0,0,0,1
1196,19796,10653,trol,7,0,0,0,0,0,0,1
1204,19797,10653,trol,7,0,0,0,0,0,0,1
1217,19798,10653,trol,7,0,0,0,0,0,0,1
1227,19799,10653,trol,7,0,0,0,0,0,0,1
1237,19800,10653,trol,7,0,0,0,0,0,0,1
1248,19801,10653,trol,7,0,0,0,0,0,0,1
1257,19802,10653,trol,7,0,0,0,0,0,0,1
1268,19803,10653,trol,7,0,0,0,0,0,0,1
1277,19804,10653,trol,7,0,0,0,0,0,0,1
1288,19805,10653,trol,7,0,0,0,0,0,0,1
1297,19806,10653,trol,7,0,0,0,0,0,0,1
1307,19807,10653,trol,7,0,0,0,0,0,0,1
1319,19808,10653,trol,7,0,0,0,0,0,0,1
1333,19809,10653,trol,7,0,0,0,0,0,0,1
1349,19810,10653,trol,7,0,0,0,0,0,0,1
1365,19811,10653,trol,7,0,0,0,0,0,0,1
1376,19812,10653,trol,7,0,0,0,0,0,0,1
1386,19813,10653,trol,7,0,0,0,0,0,0,1
1405,19814,10653,trol,7,0,0,0,0,0,0,1
1422,19815,10653,trol,7,0,0,0,0,0,0,1
293,19878,10654,trol,7,1,1,1,1,1,0,0
305,19879,10654,trol,7,1,1,1,1,1,0,0
316,19880,10654,trol,7,1,1,1,1,1,0,0
324,19881,10654,trol,7,1,1,1,1,1,0,0
332,19882,10654,trol,7,1,1,1,1,1,0,0
336,19883,10654,trol,7,1,1,1,1,1,0,0
346,19884,10654,trol,7,1,1,1,1,1,0,0
351,19885,10654,trol,7,1,1,1,1,1,0,0
358,19886,10654,trol,7,1,1,1,1,1,0,0
361,19887,10654,trol,7,1,1,1,1,1,0,0
365,19888,10654,trol,7,1,1,1,1,1,0,0
369,19889,10654,trol,7,1,1,1,1,1,0,0
380,19890,10654,trol,7,1,1,1,1,1,0,0
383,19891,10654,trol,7,1,1,1,1,1,0,0
389,19892,10654,trol,7,1,1,1,1,1,0,0
392,19893,10654,trol,7,1,1,1,1,1,0,0
395,19894,10654,trol,7,1,1,1,1,1,0,0
402,19895,10654,trol,7,1,1,1,1,1,0,0
410,19896,10654,trol,7,1,1,1,1,1,0,0
416,19897,10654,trol,7,1,1,1,1,1,0,0
422,19898,10654,trol,7,1,1,1,1,1,0,0
432,19899,10654,trol,7,1,1,1,1,1,0,0
298,19900,10651,trol,7,0,0,0,0,0,1,0
320,19901,10651,trol,7,0,0,0,0,0,1,0
334,19902,10651,trol,7,0,0,0,0,0,1,0
391,19903,10651,trol,7,0,0,0,0,0,1,0
428,19904,10651,trol,7,0,0,0,0,0,1,0
465,19905,10651,trol,7,0,0,0,0,0,1,0
489,19906,10651,trol,7,0,0,0,0,0,1,0
510,19907,10651,trol,7,0,0,0,0,0,1,0
526,19908,10651,trol,7,0,0,0,0,0,1,0
533,19909,10651,trol,7,0,0,0,0,0,1,0
540,19910,10651,trol,7,0,0,0,0,0,1,0
584,19911,10651,trol,7,0,0,0,0,0,1,0
356,19912,10653,trol,7,0,0,0,0,0,0,1
369,19913,10653,trol,7,0,0,0,0,0,0,1
379,19914,10653,trol,7,0,0,0,0,0,0,1
391,19915,10653,trol,7,0,0,0,0,0,0,1
428,19916,10653,trol,7,0,0,0,0,0,0,1
465,19917,10653,trol,7,0,0,0,0,0,0,1
489,19918,10653,trol,7,0,0,0,0,0,0,1
510,19919,10653,trol,7,0,0,0,0,0,0,1
526,19920,10653,trol,7,0,0,0,0,0,0,1
533,19921,10653,trol,7,0,0,0,0,0,0,1
540,19922,10653,trol,7,0,0,0,0,0,0,1
584,19923,10653,trol,7,0,0,0,0,0,0,1
367,21215,10656,trol,13,1,1,1,1,1,0,0
397,21216,10656,trol,13,1,1,1,1,1,0,0
422,21217,10656,trol,13,1,1,1,1,1,0,0
443,21218,10656,trol,13,1,1,1,1,1,0,0
458,21219,10656,trol,13,1,1,1,1,1,0,0
476,21220,10656,trol,13,1,1,1,1,1,0,0
500,21221,10656,trol,13,1,1,1,1,1,0,0
521,21222,10656,trol,13,1,1,1,1,1,0,0
541,21223,10656,trol,13,1,1,1,1,1,0,0
561,21224,10656,trol,13,1,1,1,1,1,0,0
840,21225,10656,trol,13,1,1,1,1,1,0,0
859,21226,10656,trol,13,1,1,1,1,1,0,0
874,21227,10656,trol,13,1,1,1,1,1,0,0
895,21228,10656,trol,13,1,1,1,1,1,0,0
917,21229,10656,trol,13,1,1,1,1,1,0,0
927,21230,10656,trol,13,1,1,1,1,1,0,0
942,21231,10656,trol,13,1,1,1,1,1,0,0
959,21232,10656,trol,13,1,1,1,1,1,0,0
977,21233,10656,trol,13,1,1,1,1,1,0,0
998,21234,10656,trol,13,1,1,1,1,1,0,0
1011,21235,10656,trol,13,1,1,1,1,1,0,0
1025,21236,10656,trol,13,1,1,1,1,1,0,0
1039,21237,10656,trol,13,1,1,1,1,1,0,0
1058,21238,10656,trol,13,1,1,1,1,1,0,0
1077,21239,10656,trol,13,1,1,1,1,1,0,0
1098,21240,10656,trol,13,1,1,1,1,1,0,0
283,21250,10656,trol,13,1,1,1,1,1,0,0
312,21251,10656,trol,13,1,1,1,1,1,0,0
335,21252,10656,trol,13,1,1,1,1,1,0,0
355,21253,10656,trol,13,1,1,1,1,1,0,0
375,22866,10655,trol,18,1,1,1,1,1,0,0
402,22867,10655,trol,18,1,1,1,1,1,0,0
419,22868,10654,trol,18,1,1,1,1,1,0,0
436,22869,10655,trol,18,1,1,1,1,1,0,0
454,22870,10656,trol,18,1,1,1,1,1,0,0
472,22871,10655,trol,18,1,1,1,1,1,0,0
489,22872,10655,trol,18,1,1,1,1,1,0,0
508,22873,10655,trol,18,1,1,1,1,1,0,0
528,22874,10654,trol,18,1,1,1,1,1,0,0
545,22875,10655,trol,18,1,1,1,1,1,0,0
564,22876,10656,trol,18,1,1,1,1,1,0,0
572,22877,10655,trol,18,1,1,1,1,1,0,0
590,22878,10655,trol,18,1,1,1,1,1,0,0
608,22879,10655,trol,18,1,1,1,1,1,0,0
640,22880,10655,trol,18,1,1,1,1,1,0,0
692,22881,10655,trol,18,1,1,1,1,1,0,0
727,22882,10655,trol,18,1,1,1,1,1,0,0
759,22883,10655,trol,18,1,1,1,1,1,0,0
788,22884,10655,trol,18,1,1,1,1,1,0,0
821,22885,10655,trol,18,1,1,1,1,1,0,0
852,22886,10655,trol,18,1,1,1,1,1,0,0
890,22887,10655,trol,18,1,1,1,1,1,0,0
922,22888,10655,trol,18,1,1,1,1,1,0,0
953,22889,10655,trol,18,1,1,1,1,1,0,0
972,22890,10655,trol,18,1,1,1,1,1,0,0
987,22891,10655,trol,18,1,1,1,1,1,0,0
1019,22892,10655,trol,18,1,1,1,1,1,0,0
1049,22893,10655,trol,18,1,1,1,1,1,0,0
1071,22894,10655,trol,18,1,1,1,1,1,0,0
1090,22895,10655,trol,18,1,1,1,1,1,0,0
1127,22896,10655,trol,18,1,1,1,1,1,0,0
1149,22897,10655,trol,18,1,1,1,1,1,0,0
1182,22898,10655,trol,18,1,1,1,1,1,0,0
1209,22899,10655,trol,18,1,1,1,1,1,0,0
1250,22900,10655,trol,18,1,1,1,1,1,0,0
1281,22901,10655,trol,18,1,1,1,1,1,0,0
1314,22902,10655,trol,18,1,1,1,1,1,0,0
1362,22903,10655,trol,18,1,1,1,1,1,0,0
1416,22904,10655,trol,18,1,1,1,1,1,0,0
368,22905,10651,trol,18,0,0,0,0,0,1,0
446,22906,10652,trol,18,0,0,0,0,0,1,0
483,22907,10652,trol,18,0,0,0,0,0,1,0
537,22908,10652,trol,18,0,0,0,0,0,1,0
574,22909,10652,trol,18,0,0,0,0,0,1,0
628,22910,10652,trol,18,0,0,0,0,0,1,0
671,22911,10652,trol,18,0,0,0,0,0,1,0
704,22912,10652,trol,18,0,0,0,0,0,1,0
746,22913,10652,trol,18,0,0,0,0,0,1,0
777,22914,10652,trol,18,0,0,0,0,0,1,0
797,22915,10652,trol,18,0,0,0,0,0,1,0
841,22916,10652,trol,18,0,0,0,0,0,1,0
886,22917,10652,trol,18,0,0,0,0,0,1,0
910,22918,10652,trol,18,0,0,0,0,0,1,0
943,22919,10652,trol,18,0,0,0,0,0,1,0
981,22920,10652,trol,18,0,0,0,0,0,1,0
1003,22921,10652,trol,18,0,0,0,0,0,1,0
1038,22922,10652,trol,18,0,0,0,0,0,1,0
1075,22923,10652,trol,18,0,0,0,0,0,1,0
1117,22924,10652,trol,18,0,0,0,0,0,1,0
1160,22925,10652,trol,18,0,0,0,0,0,1,0
1203,22926,10652,trol,18,0,0,0,0,0,1,0
1253,22927,10652,trol,18,0,0,0,0,0,1,0
1303,22928,10652,trol,18,0,0,0,0,0,1,0
1353,22929,10652,trol,18,0,0,0,0,0,1,0
1413,22930,10652,trol,18,0,0,0,0,0,1,0
424,22931,10474,trol,18,0,0,0,0,0,0,1
483,22932,10474,trol,18,0,0,0,0,0,0,1
532,22933,10474,trol,18,0,0,0,0,0,0,1
574,22934,10474,trol,18,0,0,0,0,0,0,1
628,22935,10474,trol,18,0,0,0,0,0,0,1
671,22936,10474,trol,18,0,0,0,0,0,0,1
704,22937,10474,trol,18,0,0,0,0,0,0,1
746,22938,10474,trol,18,0,0,0,0,0,0,1
777,22939,10474,trol,18,0,0,0,0,0,0,1
797,22940,10474,trol,18,0,0,0,0,0,0,1
841,22941,10474,trol,18,0,0,0,0,0,0,1
886,22942,10474,trol,18,0,0,0,0,0,0,1
910,22943,10474,trol,18,0,0,0,0,0,0,1
943,22944,10474,trol,18,0,0,0,0,0,0,1
981,22945,10474,trol,18,0,0,0,0,0,0,1
1003,22946,10474,trol,18,0,0,0,0,0,0,1
1038,22947,10474,trol,18,0,0,0,0,0,0,1
1075,22948,10474,trol,18,0,0,0,0,0,0,1
1117,22949,10474,trol,18,0,0,0,0,0,0,1
1160,22950,10474,trol,18,0,0,0,0,0,0,1
1203,22951,10474,trol,18,0,0,0,0,0,0,1
1253,22952,10474,trol,18,0,0,0,0,0,0,1
1303,22953,10474,trol,18,0,0,0,0,0,0,1
1353,22954,10474,trol,18,0,0,0,0,0,0,1
1413,22955,10474,trol,18,0,0,0,0,0,0,1
307,22967,10655,trol,18,1,1,1,1,1,0,0
327,22968,10654,trol,18,1,1,1,1,1,0,0
345,22969,10655,trol,18,1,1,1,1,1,0,0
361,22970,10656,trol,18,1,1,1,1,1,0,0
394,22971,10655,trol,18,1,1,1,1,1,0,0
284,22972,10651,trol,18,0,0,0,0,0,1,0
359,22973,10652,trol,18,0,0,0,0,0,1,0
392,22974,10652,trol,18,0,0,0,0,0,1,0
583,22975,10652,trol,18,0,0,0,0,0,1,0
332,22976,10474,trol,18,0,0,0,0,0,0,1
392,22977,10474,trol,18,0,0,0,0,0,0,1
583,22978,10474,trol,18,0,0,0,0,0,0,1
