timeInMin,trip_id,service_id,tipas,numeris,pirmadienis,antradienis,treciadienis,ketvirtadienis,penktadienis,sestadienis,sekmadienis 
330,6469,10603,bus,20,1,1,1,1,1,0,0
352,6470,10603,bus,20,1,1,1,1,1,0,0
411,6471,10603,bus,20,1,1,1,1,1,0,0
430,6472,10603,bus,20,1,1,1,1,1,0,0
448,6473,10603,bus,20,1,1,1,1,1,0,0
474,6474,10603,bus,20,1,1,1,1,1,0,0
493,6475,10603,bus,20,1,1,1,1,1,0,0
509,6476,10603,bus,20,1,1,1,1,1,0,0
525,6477,10603,bus,20,1,1,1,1,1,0,0
541,6478,10603,bus,20,1,1,1,1,1,0,0
558,6479,10603,bus,20,1,1,1,1,1,0,0
575,6480,10603,bus,20,1,1,1,1,1,0,0
607,6481,10603,bus,20,1,1,1,1,1,0,0
625,6482,10603,bus,20,1,1,1,1,1,0,0
642,6483,10603,bus,20,1,1,1,1,1,0,0
660,6484,10603,bus,20,1,1,1,1,1,0,0
676,6485,10603,bus,20,1,1,1,1,1,0,0
691,6486,10603,bus,20,1,1,1,1,1,0,0
708,6487,10603,bus,20,1,1,1,1,1,0,0
721,6488,10603,bus,20,1,1,1,1,1,0,0
733,6489,10603,bus,20,1,1,1,1,1,0,0
749,6490,10603,bus,20,1,1,1,1,1,0,0
767,6491,10603,bus,20,1,1,1,1,1,0,0
785,6492,10603,bus,20,1,1,1,1,1,0,0
801,6493,10603,bus,20,1,1,1,1,1,0,0
821,6494,10603,bus,20,1,1,1,1,1,0,0
841,6495,10603,bus,20,1,1,1,1,1,0,0
862,6496,10603,bus,20,1,1,1,1,1,0,0
876,6497,10603,bus,20,1,1,1,1,1,0,0
893,6498,10603,bus,20,1,1,1,1,1,0,0
924,6499,10603,bus,20,1,1,1,1,1,0,0
948,6500,10603,bus,20,1,1,1,1,1,0,0
955,6501,10603,bus,20,1,1,1,1,1,0,0
974,6502,10603,bus,20,1,1,1,1,1,0,0
988,6503,10603,bus,20,1,1,1,1,1,0,0
1002,6504,10603,bus,20,1,1,1,1,1,0,0
1024,6505,10603,bus,20,1,1,1,1,1,0,0
1038,6506,10603,bus,20,1,1,1,1,1,0,0
1060,6507,10603,bus,20,1,1,1,1,1,0,0
1078,6508,10603,bus,20,1,1,1,1,1,0,0
1106,6509,10603,bus,20,1,1,1,1,1,0,0
1127,6510,10603,bus,20,1,1,1,1,1,0,0
1143,6511,10603,bus,20,1,1,1,1,1,0,0
1166,6512,10603,bus,20,1,1,1,1,1,0,0
1179,6513,10603,bus,20,1,1,1,1,1,0,0
1191,6514,10603,bus,20,1,1,1,1,1,0,0
1210,6515,10603,bus,20,1,1,1,1,1,0,0
1222,6516,10603,bus,20,1,1,1,1,1,0,0
1239,6517,10603,bus,20,1,1,1,1,1,0,0
1252,6518,10603,bus,20,1,1,1,1,1,0,0
1266,6519,10603,bus,20,1,1,1,1,1,0,0
1286,6520,10603,bus,20,1,1,1,1,1,0,0
1296,6521,10603,bus,20,1,1,1,1,1,0,0
1312,6522,10603,bus,20,1,1,1,1,1,0,0
1328,6523,10603,bus,20,1,1,1,1,1,0,0
1344,6524,10603,bus,20,1,1,1,1,1,0,0
1370,6525,10603,bus,20,1,1,1,1,1,0,0
1383,6526,10603,bus,20,1,1,1,1,1,0,0
1403,6527,10603,bus,20,1,1,1,1,1,0,0
330,6528,10352,bus,20,0,0,0,0,0,1,0
377,6529,10352,bus,20,0,0,0,0,0,1,0
415,6530,10352,bus,20,0,0,0,0,0,1,0
451,6531,10352,bus,20,0,0,0,0,0,1,0
487,6532,10352,bus,20,0,0,0,0,0,1,0
525,6533,10352,bus,20,0,0,0,0,0,1,0
559,6534,10352,bus,20,0,0,0,0,0,1,0
620,6535,10352,bus,20,0,0,0,0,0,1,0
652,6536,10352,bus,20,0,0,0,0,0,1,0
695,6537,10352,bus,20,0,0,0,0,0,1,0
727,6538,10352,bus,20,0,0,0,0,0,1,0
769,6539,10352,bus,20,0,0,0,0,0,1,0
821,6540,10352,bus,20,0,0,0,0,0,1,0
847,6541,10352,bus,20,0,0,0,0,0,1,0
892,6542,10352,bus,20,0,0,0,0,0,1,0
924,6543,10352,bus,20,0,0,0,0,0,1,0
964,6544,10352,bus,20,0,0,0,0,0,1,0
1002,6545,10352,bus,20,0,0,0,0,0,1,0
1076,6546,10352,bus,20,0,0,0,0,0,1,0
1170,6547,10352,bus,20,0,0,0,0,0,1,0
1244,6548,10352,bus,20,0,0,0,0,0,1,0
1312,6549,10352,bus,20,0,0,0,0,0,1,0
1382,6550,10352,bus,20,0,0,0,0,0,1,0
377,6551,10353,bus,20,0,0,0,0,0,0,1
415,6552,10353,bus,20,0,0,0,0,0,0,1
451,6553,10353,bus,20,0,0,0,0,0,0,1
487,6554,10353,bus,20,0,0,0,0,0,0,1
525,6555,10353,bus,20,0,0,0,0,0,0,1
559,6556,10353,bus,20,0,0,0,0,0,0,1
620,6557,10353,bus,20,0,0,0,0,0,0,1
652,6558,10353,bus,20,0,0,0,0,0,0,1
695,6559,10353,bus,20,0,0,0,0,0,0,1
727,6560,10353,bus,20,0,0,0,0,0,0,1
769,6561,10353,bus,20,0,0,0,0,0,0,1
821,6562,10353,bus,20,0,0,0,0,0,0,1
847,6563,10353,bus,20,0,0,0,0,0,0,1
892,6564,10353,bus,20,0,0,0,0,0,0,1
924,6565,10353,bus,20,0,0,0,0,0,0,1
964,6566,10353,bus,20,0,0,0,0,0,0,1
1002,6567,10353,bus,20,0,0,0,0,0,0,1
1076,6568,10353,bus,20,0,0,0,0,0,0,1
1170,6569,10353,bus,20,0,0,0,0,0,0,1
1244,6570,10353,bus,20,0,0,0,0,0,0,1
1312,6571,10353,bus,20,0,0,0,0,0,0,1
1382,6572,10353,bus,20,0,0,0,0,0,0,1
335,8249,10607,bus,29,1,1,1,1,1,0,0
362,8250,10607,bus,29,1,1,1,1,1,0,0
388,8251,10607,bus,29,1,1,1,1,1,0,0
405,8252,10607,bus,29,1,1,1,1,1,0,0
425,8253,10607,bus,29,1,1,1,1,1,0,0
439,8254,10607,bus,29,1,1,1,1,1,0,0
459,8255,10607,bus,29,1,1,1,1,1,0,0
479,8256,10607,bus,29,1,1,1,1,1,0,0
499,8257,10607,bus,29,1,1,1,1,1,0,0
513,8258,10607,bus,29,1,1,1,1,1,0,0
532,8259,10607,bus,29,1,1,1,1,1,0,0
549,8260,10607,bus,29,1,1,1,1,1,0,0
571,8261,10607,bus,29,1,1,1,1,1,0,0
608,8262,10607,bus,29,1,1,1,1,1,0,0
639,8263,10607,bus,29,1,1,1,1,1,0,0
665,8264,10607,bus,29,1,1,1,1,1,0,0
698,8265,10607,bus,29,1,1,1,1,1,0,0
729,8266,10607,bus,29,1,1,1,1,1,0,0
755,8267,10607,bus,29,1,1,1,1,1,0,0
777,8268,10607,bus,29,1,1,1,1,1,0,0
799,8269,10607,bus,29,1,1,1,1,1,0,0
827,8270,10607,bus,29,1,1,1,1,1,0,0
851,8271,10607,bus,29,1,1,1,1,1,0,0
873,8272,10607,bus,29,1,1,1,1,1,0,0
897,8273,10607,bus,29,1,1,1,1,1,0,0
923,8274,10607,bus,29,1,1,1,1,1,0,0
944,8275,10607,bus,29,1,1,1,1,1,0,0
967,8276,10607,bus,29,1,1,1,1,1,0,0
986,8277,10607,bus,29,1,1,1,1,1,0,0
1002,8278,10607,bus,29,1,1,1,1,1,0,0
1018,8279,10607,bus,29,1,1,1,1,1,0,0
1039,8280,10607,bus,29,1,1,1,1,1,0,0
1059,8281,10607,bus,29,1,1,1,1,1,0,0
1076,8282,10607,bus,29,1,1,1,1,1,0,0
1090,8283,10607,bus,29,1,1,1,1,1,0,0
1114,8284,10607,bus,29,1,1,1,1,1,0,0
1143,8285,10607,bus,29,1,1,1,1,1,0,0
1167,8286,10607,bus,29,1,1,1,1,1,0,0
1187,8287,10607,bus,29,1,1,1,1,1,0,0
1214,8288,10607,bus,29,1,1,1,1,1,0,0
1257,8289,10607,bus,29,1,1,1,1,1,0,0
1280,8290,10607,bus,29,1,1,1,1,1,0,0
1303,8291,10607,bus,29,1,1,1,1,1,0,0
1326,8292,10607,bus,29,1,1,1,1,1,0,0
1349,8293,10607,bus,29,1,1,1,1,1,0,0
1377,8294,10607,bus,29,1,1,1,1,1,0,0
362,8295,10172,bus,29,0,0,0,0,0,1,0
430,8296,10172,bus,29,0,0,0,0,0,1,0
500,8297,10172,bus,29,0,0,0,0,0,1,0
569,8298,10172,bus,29,0,0,0,0,0,1,0
619,8299,10172,bus,29,0,0,0,0,0,1,0
657,8300,10172,bus,29,0,0,0,0,0,1,0
689,8301,10172,bus,29,0,0,0,0,0,1,0
728,8302,10172,bus,29,0,0,0,0,0,1,0
762,8303,10172,bus,29,0,0,0,0,0,1,0
818,8304,10172,bus,29,0,0,0,0,0,1,0
854,8305,10172,bus,29,0,0,0,0,0,1,0
892,8306,10172,bus,29,0,0,0,0,0,1,0
946,8307,10172,bus,29,0,0,0,0,0,1,0
970,8308,10172,bus,29,0,0,0,0,0,1,0
1015,8309,10172,bus,29,0,0,0,0,0,1,0
1040,8310,10172,bus,29,0,0,0,0,0,1,0
1088,8311,10172,bus,29,0,0,0,0,0,1,0
1130,8312,10172,bus,29,0,0,0,0,0,1,0
1219,8313,10172,bus,29,0,0,0,0,0,1,0
1286,8314,10172,bus,29,0,0,0,0,0,1,0
1353,8315,10172,bus,29,0,0,0,0,0,1,0
421,8316,10173,bus,29,0,0,0,0,0,0,1
500,8317,10173,bus,29,0,0,0,0,0,0,1
569,8318,10173,bus,29,0,0,0,0,0,0,1
619,8319,10173,bus,29,0,0,0,0,0,0,1
657,8320,10173,bus,29,0,0,0,0,0,0,1
689,8321,10173,bus,29,0,0,0,0,0,0,1
728,8322,10173,bus,29,0,0,0,0,0,0,1
762,8323,10173,bus,29,0,0,0,0,0,0,1
818,8324,10173,bus,29,0,0,0,0,0,0,1
854,8325,10173,bus,29,0,0,0,0,0,0,1
892,8326,10173,bus,29,0,0,0,0,0,0,1
946,8327,10173,bus,29,0,0,0,0,0,0,1
970,8328,10173,bus,29,0,0,0,0,0,0,1
1015,8329,10173,bus,29,0,0,0,0,0,0,1
1040,8330,10173,bus,29,0,0,0,0,0,0,1
1088,8331,10173,bus,29,0,0,0,0,0,0,1
1130,8332,10173,bus,29,0,0,0,0,0,0,1
1219,8333,10173,bus,29,0,0,0,0,0,0,1
1286,8334,10173,bus,29,0,0,0,0,0,0,1
1353,8335,10173,bus,29,0,0,0,0,0,0,1
1402,8340,10607,bus,29,1,1,1,1,1,0,0
1418,8341,10607,bus,29,1,1,1,1,1,0,0
1420,8342,10172,bus,29,0,0,0,0,0,1,0
1420,8343,10173,bus,29,0,0,0,0,0,0,1
345,13592,10625,bus,59,1,1,1,1,1,0,0
369,13593,10625,bus,59,1,1,1,1,1,0,0
395,13594,10625,bus,59,1,1,1,1,1,0,0
420,13595,10625,bus,59,1,1,1,1,1,0,0
446,13596,10625,bus,59,1,1,1,1,1,0,0
473,13597,10625,bus,59,1,1,1,1,1,0,0
503,13598,10625,bus,59,1,1,1,1,1,0,0
524,13599,10625,bus,59,1,1,1,1,1,0,0
557,13600,10625,bus,59,1,1,1,1,1,0,0
586,13601,10625,bus,59,1,1,1,1,1,0,0
631,13602,10625,bus,59,1,1,1,1,1,0,0
688,13603,10625,bus,59,1,1,1,1,1,0,0
715,13604,10625,bus,59,1,1,1,1,1,0,0
765,13605,10625,bus,59,1,1,1,1,1,0,0
793,13606,10625,bus,59,1,1,1,1,1,0,0
856,13607,10625,bus,59,1,1,1,1,1,0,0
878,13608,10625,bus,59,1,1,1,1,1,0,0
933,13609,10625,bus,59,1,1,1,1,1,0,0
955,13610,10625,bus,59,1,1,1,1,1,0,0
978,13611,10625,bus,59,1,1,1,1,1,0,0
1013,13612,10625,bus,59,1,1,1,1,1,0,0
1033,13613,10625,bus,59,1,1,1,1,1,0,0
1064,13614,10625,bus,59,1,1,1,1,1,0,0
1097,13615,10625,bus,59,1,1,1,1,1,0,0
1130,13616,10625,bus,59,1,1,1,1,1,0,0
1196,13617,10625,bus,59,1,1,1,1,1,0,0
1227,13618,10625,bus,59,1,1,1,1,1,0,0
1273,13619,10625,bus,59,1,1,1,1,1,0,0
1312,13620,10625,bus,59,1,1,1,1,1,0,0
378,13621,10133,bus,59,0,0,0,0,0,1,1
448,13622,10133,bus,59,0,0,0,0,0,1,1
519,13623,10133,bus,59,0,0,0,0,0,1,1
587,13624,10133,bus,59,0,0,0,0,0,1,1
629,13625,10133,bus,59,0,0,0,0,0,1,1
671,13626,10133,bus,59,0,0,0,0,0,1,1
710,13627,10133,bus,59,0,0,0,0,0,1,1
767,13628,10133,bus,59,0,0,0,0,0,1,1
793,13629,10133,bus,59,0,0,0,0,0,1,1
841,13630,10133,bus,59,0,0,0,0,0,1,1
883,13631,10133,bus,59,0,0,0,0,0,1,1
935,13632,10133,bus,59,0,0,0,0,0,1,1
960,13633,10133,bus,59,0,0,0,0,0,1,1
1009,13634,10133,bus,59,0,0,0,0,0,1,1
1047,13635,10133,bus,59,0,0,0,0,0,1,1
1082,13636,10133,bus,59,0,0,0,0,0,1,1
1152,13637,10133,bus,59,0,0,0,0,0,1,1
1226,13638,10133,bus,59,0,0,0,0,0,1,1
1300,13639,10133,bus,59,0,0,0,0,0,1,1
1151,13689,10625,bus,59,1,1,1,1,1,0,0
1356,13690,10625,bus,59,1,1,1,1,1,0,0
1392,13691,10625,bus,59,1,1,1,1,1,0,0
1374,13692,10133,bus,59,0,0,0,0,0,1,1
369,14259,10616,bus,68,1,1,1,1,1,0,0
397,14260,10616,bus,68,1,1,1,1,1,0,0
430,14261,10616,bus,68,1,1,1,1,1,0,0
458,14262,10616,bus,68,1,1,1,1,1,0,0
487,14263,10616,bus,68,1,1,1,1,1,0,0
515,14264,10616,bus,68,1,1,1,1,1,0,0
541,14265,10616,bus,68,1,1,1,1,1,0,0
574,14266,10616,bus,68,1,1,1,1,1,0,0
604,14267,10616,bus,68,1,1,1,1,1,0,0
650,14268,10616,bus,68,1,1,1,1,1,0,0
691,14269,10616,bus,68,1,1,1,1,1,0,0
735,14270,10616,bus,68,1,1,1,1,1,0,0
777,14271,10616,bus,68,1,1,1,1,1,0,0
820,14272,10616,bus,68,1,1,1,1,1,0,0
861,14273,10616,bus,68,1,1,1,1,1,0,0
907,14274,10616,bus,68,1,1,1,1,1,0,0
949,14275,10616,bus,68,1,1,1,1,1,0,0
992,14276,10616,bus,68,1,1,1,1,1,0,0
1033,14277,10616,bus,68,1,1,1,1,1,0,0
1061,14278,10616,bus,68,1,1,1,1,1,0,0
1086,14279,10616,bus,68,1,1,1,1,1,0,0
1122,14280,10616,bus,68,1,1,1,1,1,0,0
1151,14281,10616,bus,68,1,1,1,1,1,0,0
1194,14282,10616,bus,68,1,1,1,1,1,0,0
1228,14283,10616,bus,68,1,1,1,1,1,0,0
1275,14284,10616,bus,68,1,1,1,1,1,0,0
1314,14285,10616,bus,68,1,1,1,1,1,0,0
1357,14286,10616,bus,68,1,1,1,1,1,0,0
1395,14287,10616,bus,68,1,1,1,1,1,0,0
377,14288,9989,bus,68,0,0,0,0,0,1,0
460,14289,9989,bus,68,0,0,0,0,0,1,0
544,14290,9989,bus,68,0,0,0,0,0,1,0
597,14291,9989,bus,68,0,0,0,0,0,1,0
653,14292,9989,bus,68,0,0,0,0,0,1,0
681,14293,9989,bus,68,0,0,0,0,0,1,0
737,14294,9989,bus,68,0,0,0,0,0,1,0
789,14295,9989,bus,68,0,0,0,0,0,1,0
848,14296,9989,bus,68,0,0,0,0,0,1,0
898,14297,9989,bus,68,0,0,0,0,0,1,0
940,14298,9989,bus,68,0,0,0,0,0,1,0
982,14299,9989,bus,68,0,0,0,0,0,1,0
1024,14300,9989,bus,68,0,0,0,0,0,1,0
1065,14301,9989,bus,68,0,0,0,0,0,1,0
1118,14302,9989,bus,68,0,0,0,0,0,1,0
1226,14303,9989,bus,68,0,0,0,0,0,1,0
1308,14304,9989,bus,68,0,0,0,0,0,1,0
1389,14305,9989,bus,68,0,0,0,0,0,1,0
460,14306,9990,bus,68,0,0,0,0,0,0,1
544,14307,9990,bus,68,0,0,0,0,0,0,1
597,14308,9990,bus,68,0,0,0,0,0,0,1
653,14309,9990,bus,68,0,0,0,0,0,0,1
681,14310,9990,bus,68,0,0,0,0,0,0,1
737,14311,9990,bus,68,0,0,0,0,0,0,1
789,14312,9990,bus,68,0,0,0,0,0,0,1
848,14313,9990,bus,68,0,0,0,0,0,0,1
898,14314,9990,bus,68,0,0,0,0,0,0,1
940,14315,9990,bus,68,0,0,0,0,0,0,1
982,14316,9990,bus,68,0,0,0,0,0,0,1
1024,14317,9990,bus,68,0,0,0,0,0,0,1
1065,14318,9990,bus,68,0,0,0,0,0,0,1
1118,14319,9990,bus,68,0,0,0,0,0,0,1
1226,14320,9990,bus,68,0,0,0,0,0,0,1
1308,14321,9990,bus,68,0,0,0,0,0,0,1
1389,14322,9990,bus,68,0,0,0,0,0,0,1
