timeInMin,trip_id,service_id,tipas,numeris,pirmadienis,antradienis,treciadienis,ketvirtadienis,penktadienis,sestadienis,sekmadienis 
311,7478,10356,bus,24,1,1,1,1,1,0,0
323,7479,10356,bus,24,1,1,1,1,1,0,0
335,7480,10356,bus,24,1,1,1,1,1,0,0
348,7481,10356,bus,24,1,1,1,1,1,0,0
369,7482,10356,bus,24,1,1,1,1,1,0,0
380,7483,10356,bus,24,1,1,1,1,1,0,0
422,7484,10356,bus,24,1,1,1,1,1,0,0
312,7485,9984,bus,24,0,0,0,0,0,1,0
351,7486,9984,bus,24,0,0,0,0,0,1,0
562,7487,9984,bus,24,0,0,0,0,0,1,0
351,7488,9985,bus,24,0,0,0,0,0,0,1
391,7489,9985,bus,24,0,0,0,0,0,0,1
562,7490,9985,bus,24,0,0,0,0,0,0,1
312,9250,10370,bus,34,1,1,1,1,1,0,0
340,9251,10370,bus,34,1,1,1,1,1,0,0
374,9252,10370,bus,34,1,1,1,1,1,0,0
397,9253,10370,bus,34,1,1,1,1,1,0,0
423,9254,10370,bus,34,1,1,1,1,1,0,0
448,9255,10370,bus,34,1,1,1,1,1,0,0
469,9256,10370,bus,34,1,1,1,1,1,0,0
491,9257,10370,bus,34,1,1,1,1,1,0,0
513,9258,10370,bus,34,1,1,1,1,1,0,0
540,9259,10370,bus,34,1,1,1,1,1,0,0
565,9260,10370,bus,34,1,1,1,1,1,0,0
586,9261,10370,bus,34,1,1,1,1,1,0,0
605,9262,10370,bus,34,1,1,1,1,1,0,0
627,9263,10370,bus,34,1,1,1,1,1,0,0
677,9264,10370,bus,34,1,1,1,1,1,0,0
713,9265,10370,bus,34,1,1,1,1,1,0,0
751,9266,10370,bus,34,1,1,1,1,1,0,0
787,9267,10370,bus,34,1,1,1,1,1,0,0
821,9268,10370,bus,34,1,1,1,1,1,0,0
865,9269,10370,bus,34,1,1,1,1,1,0,0
903,9270,10370,bus,34,1,1,1,1,1,0,0
939,9271,10370,bus,34,1,1,1,1,1,0,0
959,9272,10370,bus,34,1,1,1,1,1,0,0
982,9273,10370,bus,34,1,1,1,1,1,0,0
1005,9274,10370,bus,34,1,1,1,1,1,0,0
1028,9275,10370,bus,34,1,1,1,1,1,0,0
1053,9276,10370,bus,34,1,1,1,1,1,0,0
1077,9277,10370,bus,34,1,1,1,1,1,0,0
1103,9278,10370,bus,34,1,1,1,1,1,0,0
1126,9279,10370,bus,34,1,1,1,1,1,0,0
1170,9280,10370,bus,34,1,1,1,1,1,0,0
1199,9281,10370,bus,34,1,1,1,1,1,0,0
1243,9282,10370,bus,34,1,1,1,1,1,0,0
1280,9283,10370,bus,34,1,1,1,1,1,0,0
1312,9284,10370,bus,34,1,1,1,1,1,0,0
1350,9285,10370,bus,34,1,1,1,1,1,0,0
387,9286,10372,bus,34,0,0,0,0,0,0,1
420,9287,10372,bus,34,0,0,0,0,0,0,1
455,9288,10372,bus,34,0,0,0,0,0,0,1
485,9289,10372,bus,34,0,0,0,0,0,0,1
516,9290,10372,bus,34,0,0,0,0,0,0,1
551,9291,10372,bus,34,0,0,0,0,0,0,1
576,9292,10372,bus,34,0,0,0,0,0,0,1
609,9293,10372,bus,34,0,0,0,0,0,0,1
645,9294,10372,bus,34,0,0,0,0,0,0,1
673,9295,10372,bus,34,0,0,0,0,0,0,1
694,9296,10372,bus,34,0,0,0,0,0,0,1
734,9297,10372,bus,34,0,0,0,0,0,0,1
772,9298,10372,bus,34,0,0,0,0,0,0,1
798,9299,10372,bus,34,0,0,0,0,0,0,1
821,9300,10372,bus,34,0,0,0,0,0,0,1
849,9301,10372,bus,34,0,0,0,0,0,0,1
875,9302,10372,bus,34,0,0,0,0,0,0,1
924,9303,10372,bus,34,0,0,0,0,0,0,1
940,9304,10372,bus,34,0,0,0,0,0,0,1
957,9305,10372,bus,34,0,0,0,0,0,0,1
980,9306,10372,bus,34,0,0,0,0,0,0,1
1022,9307,10372,bus,34,0,0,0,0,0,0,1
1039,9308,10372,bus,34,0,0,0,0,0,0,1
1062,9309,10372,bus,34,0,0,0,0,0,0,1
1106,9310,10372,bus,34,0,0,0,0,0,0,1
1147,9311,10372,bus,34,0,0,0,0,0,0,1
1190,9312,10372,bus,34,0,0,0,0,0,0,1
1232,9313,10372,bus,34,0,0,0,0,0,0,1
1271,9314,10372,bus,34,0,0,0,0,0,0,1
1295,9315,10372,bus,34,0,0,0,0,0,0,1
1336,9316,10372,bus,34,0,0,0,0,0,0,1
1379,9317,10372,bus,34,0,0,0,0,0,0,1
325,9318,10371,bus,34,0,0,0,0,0,1,0
387,9319,10371,bus,34,0,0,0,0,0,1,0
420,9320,10371,bus,34,0,0,0,0,0,1,0
455,9321,10371,bus,34,0,0,0,0,0,1,0
485,9322,10371,bus,34,0,0,0,0,0,1,0
516,9323,10371,bus,34,0,0,0,0,0,1,0
551,9324,10371,bus,34,0,0,0,0,0,1,0
576,9325,10371,bus,34,0,0,0,0,0,1,0
609,9326,10371,bus,34,0,0,0,0,0,1,0
645,9327,10371,bus,34,0,0,0,0,0,1,0
673,9328,10371,bus,34,0,0,0,0,0,1,0
694,9329,10371,bus,34,0,0,0,0,0,1,0
734,9330,10371,bus,34,0,0,0,0,0,1,0
772,9331,10371,bus,34,0,0,0,0,0,1,0
798,9332,10371,bus,34,0,0,0,0,0,1,0
821,9333,10371,bus,34,0,0,0,0,0,1,0
849,9334,10371,bus,34,0,0,0,0,0,1,0
875,9335,10371,bus,34,0,0,0,0,0,1,0
924,9336,10371,bus,34,0,0,0,0,0,1,0
940,9337,10371,bus,34,0,0,0,0,0,1,0
957,9338,10371,bus,34,0,0,0,0,0,1,0
980,9339,10371,bus,34,0,0,0,0,0,1,0
1022,9340,10371,bus,34,0,0,0,0,0,1,0
1039,9341,10371,bus,34,0,0,0,0,0,1,0
1062,9342,10371,bus,34,0,0,0,0,0,1,0
1106,9343,10371,bus,34,0,0,0,0,0,1,0
1147,9344,10371,bus,34,0,0,0,0,0,1,0
1190,9345,10371,bus,34,0,0,0,0,0,1,0
1232,9346,10371,bus,34,0,0,0,0,0,1,0
1271,9347,10371,bus,34,0,0,0,0,0,1,0
1295,9348,10371,bus,34,0,0,0,0,0,1,0
1336,9349,10371,bus,34,0,0,0,0,0,1,0
1379,9350,10371,bus,34,0,0,0,0,0,1,0
1384,9359,10372,bus,34,0,0,0,0,0,0,1
1423,9360,10372,bus,34,0,0,0,0,0,0,1
1382,9361,10370,bus,34,1,1,1,1,1,0,0
1423,9362,10370,bus,34,1,1,1,1,1,0,0
1384,9363,10371,bus,34,0,0,0,0,0,1,0
1423,9364,10371,bus,34,0,0,0,0,0,1,0
384,12226,10294,bus,52,0,0,0,0,0,0,1
309,12227,9642,bus,52,1,1,1,1,1,0,0
384,12228,9643,bus,52,0,0,0,0,0,1,0
342,13067,10395,bus,55,1,1,1,1,1,0,0
391,13068,10395,bus,55,1,1,1,1,1,0,0
424,13069,10395,bus,55,1,1,1,1,1,0,0
459,13070,10395,bus,55,1,1,1,1,1,0,0
485,13071,10395,bus,55,1,1,1,1,1,0,0
513,13072,10395,bus,55,1,1,1,1,1,0,0
564,13073,10395,bus,55,1,1,1,1,1,0,0
608,13074,10395,bus,55,1,1,1,1,1,0,0
656,13075,10395,bus,55,1,1,1,1,1,0,0
689,13076,10395,bus,55,1,1,1,1,1,0,0
727,13077,10395,bus,55,1,1,1,1,1,0,0
769,13078,10395,bus,55,1,1,1,1,1,0,0
805,13079,10395,bus,55,1,1,1,1,1,0,0
843,13080,10395,bus,55,1,1,1,1,1,0,0
888,13081,10395,bus,55,1,1,1,1,1,0,0
925,13082,10395,bus,55,1,1,1,1,1,0,0
963,13083,10395,bus,55,1,1,1,1,1,0,0
988,13084,10395,bus,55,1,1,1,1,1,0,0
1012,13085,10395,bus,55,1,1,1,1,1,0,0
1042,13086,10395,bus,55,1,1,1,1,1,0,0
1080,13087,10395,bus,55,1,1,1,1,1,0,0
1108,13088,10395,bus,55,1,1,1,1,1,0,0
1156,13089,10395,bus,55,1,1,1,1,1,0,0
1196,13090,10395,bus,55,1,1,1,1,1,0,0
1230,13091,10395,bus,55,1,1,1,1,1,0,0
1271,13092,10395,bus,55,1,1,1,1,1,0,0
1310,13093,10395,bus,55,1,1,1,1,1,0,0
1343,13094,10395,bus,55,1,1,1,1,1,0,0
331,13095,10193,bus,55,0,0,0,0,0,1,0
384,13096,10193,bus,55,0,0,0,0,0,1,0
441,13097,10193,bus,55,0,0,0,0,0,1,0
494,13098,10193,bus,55,0,0,0,0,0,1,0
540,13099,10193,bus,55,0,0,0,0,0,1,0
588,13100,10193,bus,55,0,0,0,0,0,1,0
633,13101,10193,bus,55,0,0,0,0,0,1,0
676,13102,10193,bus,55,0,0,0,0,0,1,0
710,13103,10193,bus,55,0,0,0,0,0,1,0
747,13104,10193,bus,55,0,0,0,0,0,1,0
784,13105,10193,bus,55,0,0,0,0,0,1,0
823,13106,10193,bus,55,0,0,0,0,0,1,0
860,13107,10193,bus,55,0,0,0,0,0,1,0
892,13108,10193,bus,55,0,0,0,0,0,1,0
936,13109,10193,bus,55,0,0,0,0,0,1,0
977,13110,10193,bus,55,0,0,0,0,0,1,0
1045,13111,10193,bus,55,0,0,0,0,0,1,0
1122,13112,10193,bus,55,0,0,0,0,0,1,0
1184,13113,10193,bus,55,0,0,0,0,0,1,0
1234,13114,10193,bus,55,0,0,0,0,0,1,0
1291,13115,10193,bus,55,0,0,0,0,0,1,0
1341,13116,10193,bus,55,0,0,0,0,0,1,0
384,13117,10194,bus,55,0,0,0,0,0,0,1
441,13118,10194,bus,55,0,0,0,0,0,0,1
494,13119,10194,bus,55,0,0,0,0,0,0,1
540,13120,10194,bus,55,0,0,0,0,0,0,1
588,13121,10194,bus,55,0,0,0,0,0,0,1
633,13122,10194,bus,55,0,0,0,0,0,0,1
676,13123,10194,bus,55,0,0,0,0,0,0,1
710,13124,10194,bus,55,0,0,0,0,0,0,1
747,13125,10194,bus,55,0,0,0,0,0,0,1
784,13126,10194,bus,55,0,0,0,0,0,0,1
823,13127,10194,bus,55,0,0,0,0,0,0,1
860,13128,10194,bus,55,0,0,0,0,0,0,1
892,13129,10194,bus,55,0,0,0,0,0,0,1
936,13130,10194,bus,55,0,0,0,0,0,0,1
977,13131,10194,bus,55,0,0,0,0,0,0,1
1045,13132,10194,bus,55,0,0,0,0,0,0,1
1122,13133,10194,bus,55,0,0,0,0,0,0,1
1184,13134,10194,bus,55,0,0,0,0,0,0,1
1234,13135,10194,bus,55,0,0,0,0,0,0,1
1291,13136,10194,bus,55,0,0,0,0,0,0,1
1341,13137,10194,bus,55,0,0,0,0,0,0,1
336,13415,10613,bus,57,1,1,1,1,1,0,0
393,13416,10613,bus,57,1,1,1,1,1,0,0
452,13417,10613,bus,57,1,1,1,1,1,0,0
510,13418,10613,bus,57,1,1,1,1,1,0,0
567,13419,10613,bus,57,1,1,1,1,1,0,0
647,13420,10613,bus,57,1,1,1,1,1,0,0
704,13421,10613,bus,57,1,1,1,1,1,0,0
761,13422,10613,bus,57,1,1,1,1,1,0,0
821,13423,10613,bus,57,1,1,1,1,1,0,0
888,13424,10613,bus,57,1,1,1,1,1,0,0
946,13425,10613,bus,57,1,1,1,1,1,0,0
1004,13426,10613,bus,57,1,1,1,1,1,0,0
1064,13427,10613,bus,57,1,1,1,1,1,0,0
1129,13428,10613,bus,57,1,1,1,1,1,0,0
1209,13429,10613,bus,57,1,1,1,1,1,0,0
1275,13430,10613,bus,57,1,1,1,1,1,0,0
1342,13431,10613,bus,57,1,1,1,1,1,0,0
350,13432,9652,bus,57,0,0,0,0,0,1,0
410,13433,9652,bus,57,0,0,0,0,0,1,0
470,13434,9652,bus,57,0,0,0,0,0,1,0
530,13435,9652,bus,57,0,0,0,0,0,1,0
590,13436,9652,bus,57,0,0,0,0,0,1,0
670,13437,9652,bus,57,0,0,0,0,0,1,0
730,13438,9652,bus,57,0,0,0,0,0,1,0
790,13439,9652,bus,57,0,0,0,0,0,1,0
850,13440,9652,bus,57,0,0,0,0,0,1,0
910,13441,9652,bus,57,0,0,0,0,0,1,0
970,13442,9652,bus,57,0,0,0,0,0,1,0
1030,13443,9652,bus,57,0,0,0,0,0,1,0
1090,13444,9652,bus,57,0,0,0,0,0,1,0
1150,13445,9652,bus,57,0,0,0,0,0,1,0
1230,13446,9652,bus,57,0,0,0,0,0,1,0
1288,13447,9652,bus,57,0,0,0,0,0,1,0
1346,13448,9652,bus,57,0,0,0,0,0,1,0
410,13449,9653,bus,57,0,0,0,0,0,0,1
470,13450,9653,bus,57,0,0,0,0,0,0,1
530,13451,9653,bus,57,0,0,0,0,0,0,1
590,13452,9653,bus,57,0,0,0,0,0,0,1
670,13453,9653,bus,57,0,0,0,0,0,0,1
730,13454,9653,bus,57,0,0,0,0,0,0,1
790,13455,9653,bus,57,0,0,0,0,0,0,1
850,13456,9653,bus,57,0,0,0,0,0,0,1
910,13457,9653,bus,57,0,0,0,0,0,0,1
970,13458,9653,bus,57,0,0,0,0,0,0,1
1030,13459,9653,bus,57,0,0,0,0,0,0,1
1090,13460,9653,bus,57,0,0,0,0,0,0,1
1150,13461,9653,bus,57,0,0,0,0,0,0,1
1230,13462,9653,bus,57,0,0,0,0,0,0,1
1288,13463,9653,bus,57,0,0,0,0,0,0,1
1346,13464,9653,bus,57,0,0,0,0,0,0,1
376,14953,10501,bus,75,0,0,0,0,0,1,0
433,14954,10501,bus,75,0,0,0,0,0,1,0
489,14955,10501,bus,75,0,0,0,0,0,1,0
555,14956,10501,bus,75,0,0,0,0,0,1,0
627,14957,10501,bus,75,0,0,0,0,0,1,0
663,14958,10501,bus,75,0,0,0,0,0,1,0
706,14959,10501,bus,75,0,0,0,0,0,1,0
742,14960,10501,bus,75,0,0,0,0,0,1,0
778,14961,10501,bus,75,0,0,0,0,0,1,0
827,14962,10501,bus,75,0,0,0,0,0,1,0
871,14963,10501,bus,75,0,0,0,0,0,1,0
915,14964,10501,bus,75,0,0,0,0,0,1,0
957,14965,10501,bus,75,0,0,0,0,0,1,0
1001,14966,10501,bus,75,0,0,0,0,0,1,0
1039,14967,10501,bus,75,0,0,0,0,0,1,0
1076,14968,10501,bus,75,0,0,0,0,0,1,0
1146,14969,10501,bus,75,0,0,0,0,0,1,0
1216,14970,10501,bus,75,0,0,0,0,0,1,0
1279,14971,10501,bus,75,0,0,0,0,0,1,0
1345,14972,10501,bus,75,0,0,0,0,0,1,0
325,14973,10500,bus,75,1,1,1,1,1,0,0
363,14974,10500,bus,75,1,1,1,1,1,0,0
383,14975,10500,bus,75,1,1,1,1,1,0,0
409,14976,10500,bus,75,1,1,1,1,1,0,0
437,14977,10500,bus,75,1,1,1,1,1,0,0
464,14978,10500,bus,75,1,1,1,1,1,0,0
491,14979,10500,bus,75,1,1,1,1,1,0,0
520,14980,10500,bus,75,1,1,1,1,1,0,0
540,14981,10500,bus,75,1,1,1,1,1,0,0
566,14982,10500,bus,75,1,1,1,1,1,0,0
613,14983,10500,bus,75,1,1,1,1,1,0,0
650,14984,10500,bus,75,1,1,1,1,1,0,0
687,14985,10500,bus,75,1,1,1,1,1,0,0
729,14986,10500,bus,75,1,1,1,1,1,0,0
777,14987,10500,bus,75,1,1,1,1,1,0,0
806,14988,10500,bus,75,1,1,1,1,1,0,0
853,14989,10500,bus,75,1,1,1,1,1,0,0
897,14990,10500,bus,75,1,1,1,1,1,0,0
927,14991,10500,bus,75,1,1,1,1,1,0,0
954,14992,10500,bus,75,1,1,1,1,1,0,0
977,14993,10500,bus,75,1,1,1,1,1,0,0
1006,14994,10500,bus,75,1,1,1,1,1,0,0
1036,14995,10500,bus,75,1,1,1,1,1,0,0
1067,14996,10500,bus,75,1,1,1,1,1,0,0
1087,14997,10500,bus,75,1,1,1,1,1,0,0
1106,14998,10500,bus,75,1,1,1,1,1,0,0
1136,14999,10500,bus,75,1,1,1,1,1,0,0
1184,15000,10500,bus,75,1,1,1,1,1,0,0
1222,15001,10500,bus,75,1,1,1,1,1,0,0
1260,15002,10500,bus,75,1,1,1,1,1,0,0
1298,15003,10500,bus,75,1,1,1,1,1,0,0
1335,15004,10500,bus,75,1,1,1,1,1,0,0
376,15005,10502,bus,75,0,0,0,0,0,0,1
433,15006,10502,bus,75,0,0,0,0,0,0,1
489,15007,10502,bus,75,0,0,0,0,0,0,1
555,15008,10502,bus,75,0,0,0,0,0,0,1
627,15009,10502,bus,75,0,0,0,0,0,0,1
663,15010,10502,bus,75,0,0,0,0,0,0,1
706,15011,10502,bus,75,0,0,0,0,0,0,1
742,15012,10502,bus,75,0,0,0,0,0,0,1
778,15013,10502,bus,75,0,0,0,0,0,0,1
827,15014,10502,bus,75,0,0,0,0,0,0,1
871,15015,10502,bus,75,0,0,0,0,0,0,1
915,15016,10502,bus,75,0,0,0,0,0,0,1
957,15017,10502,bus,75,0,0,0,0,0,0,1
1001,15018,10502,bus,75,0,0,0,0,0,0,1
1039,15019,10502,bus,75,0,0,0,0,0,0,1
1076,15020,10502,bus,75,0,0,0,0,0,0,1
1146,15021,10502,bus,75,0,0,0,0,0,0,1
1216,15022,10502,bus,75,0,0,0,0,0,0,1
1279,15023,10502,bus,75,0,0,0,0,0,0,1
1345,15024,10502,bus,75,0,0,0,0,0,0,1
1392,15098,10501,bus,75,0,0,0,0,0,1,0
1371,15099,10500,bus,75,1,1,1,1,1,0,0
1392,15100,10502,bus,75,0,0,0,0,0,0,1
377,15176,10617,bus,76,1,1,1,1,1,0,0
436,15177,10617,bus,76,1,1,1,1,1,0,0
468,15178,10617,bus,76,1,1,1,1,1,0,0
520,15179,10617,bus,76,1,1,1,1,1,0,0
550,15180,10617,bus,76,1,1,1,1,1,0,0
607,15181,10617,bus,76,1,1,1,1,1,0,0
639,15182,10617,bus,76,1,1,1,1,1,0,0
716,15183,10617,bus,76,1,1,1,1,1,0,0
747,15184,10617,bus,76,1,1,1,1,1,0,0
799,15185,10617,bus,76,1,1,1,1,1,0,0
855,15186,10617,bus,76,1,1,1,1,1,0,0
915,15187,10617,bus,76,1,1,1,1,1,0,0
952,15188,10617,bus,76,1,1,1,1,1,0,0
1009,15189,10617,bus,76,1,1,1,1,1,0,0
1044,15190,10617,bus,76,1,1,1,1,1,0,0
1098,15191,10617,bus,76,1,1,1,1,1,0,0
1133,15192,10617,bus,76,1,1,1,1,1,0,0
1180,15193,10617,bus,76,1,1,1,1,1,0,0
1242,15194,10617,bus,76,1,1,1,1,1,0,0
1290,15195,10617,bus,76,1,1,1,1,1,0,0
1324,15196,10617,bus,76,1,1,1,1,1,0,0
1372,15197,10617,bus,76,1,1,1,1,1,0,0
1410,15198,10617,bus,76,1,1,1,1,1,0,0
386,15199,10618,bus,76,0,0,0,0,0,1,0
468,15200,10618,bus,76,0,0,0,0,0,1,0
556,15201,10618,bus,76,0,0,0,0,0,1,0
626,15202,10618,bus,76,0,0,0,0,0,1,0
674,15203,10618,bus,76,0,0,0,0,0,1,0
709,15204,10618,bus,76,0,0,0,0,0,1,0
756,15205,10618,bus,76,0,0,0,0,0,1,0
816,15206,10618,bus,76,0,0,0,0,0,1,0
844,15207,10618,bus,76,0,0,0,0,0,1,0
898,15208,10618,bus,76,0,0,0,0,0,1,0
931,15209,10618,bus,76,0,0,0,0,0,1,0
980,15210,10618,bus,76,0,0,0,0,0,1,0
1015,15211,10618,bus,76,0,0,0,0,0,1,0
1067,15212,10618,bus,76,0,0,0,0,0,1,0
1122,15213,10618,bus,76,0,0,0,0,0,1,0
1229,15214,10618,bus,76,0,0,0,0,0,1,0
1311,15215,10618,bus,76,0,0,0,0,0,1,0
1395,15216,10618,bus,76,0,0,0,0,0,1,0
468,15217,10619,bus,76,0,0,0,0,0,0,1
556,15218,10619,bus,76,0,0,0,0,0,0,1
626,15219,10619,bus,76,0,0,0,0,0,0,1
674,15220,10619,bus,76,0,0,0,0,0,0,1
709,15221,10619,bus,76,0,0,0,0,0,0,1
756,15222,10619,bus,76,0,0,0,0,0,0,1
816,15223,10619,bus,76,0,0,0,0,0,0,1
844,15224,10619,bus,76,0,0,0,0,0,0,1
898,15225,10619,bus,76,0,0,0,0,0,0,1
931,15226,10619,bus,76,0,0,0,0,0,0,1
980,15227,10619,bus,76,0,0,0,0,0,0,1
1015,15228,10619,bus,76,0,0,0,0,0,0,1
1067,15229,10619,bus,76,0,0,0,0,0,0,1
1122,15230,10619,bus,76,0,0,0,0,0,0,1
1229,15231,10619,bus,76,0,0,0,0,0,0,1
1311,15232,10619,bus,76,0,0,0,0,0,0,1
1395,15233,10619,bus,76,0,0,0,0,0,0,1
358,15635,10409,bus,87,1,1,1,1,1,0,0
392,15636,10409,bus,87,1,1,1,1,1,0,0
422,15637,10409,bus,87,1,1,1,1,1,0,0
456,15638,10409,bus,87,1,1,1,1,1,0,0
493,15639,10409,bus,87,1,1,1,1,1,0,0
530,15640,10409,bus,87,1,1,1,1,1,0,0
559,15641,10409,bus,87,1,1,1,1,1,0,0
591,15642,10409,bus,87,1,1,1,1,1,0,0
621,15643,10409,bus,87,1,1,1,1,1,0,0
658,15644,10409,bus,87,1,1,1,1,1,0,0
713,15645,10409,bus,87,1,1,1,1,1,0,0
745,15646,10409,bus,87,1,1,1,1,1,0,0
777,15647,10409,bus,87,1,1,1,1,1,0,0
809,15648,10409,bus,87,1,1,1,1,1,0,0
862,15649,10409,bus,87,1,1,1,1,1,0,0
884,15650,10409,bus,87,1,1,1,1,1,0,0
917,15651,10409,bus,87,1,1,1,1,1,0,0
948,15652,10409,bus,87,1,1,1,1,1,0,0
996,15653,10409,bus,87,1,1,1,1,1,0,0
1031,15654,10409,bus,87,1,1,1,1,1,0,0
1060,15655,10409,bus,87,1,1,1,1,1,0,0
1091,15656,10409,bus,87,1,1,1,1,1,0,0
1125,15657,10409,bus,87,1,1,1,1,1,0,0
1165,15658,10409,bus,87,1,1,1,1,1,0,0
1213,15659,10409,bus,87,1,1,1,1,1,0,0
1252,15660,10409,bus,87,1,1,1,1,1,0,0
1286,15661,10409,bus,87,1,1,1,1,1,0,0
1316,15662,10409,bus,87,1,1,1,1,1,0,0
1364,15663,10409,bus,87,1,1,1,1,1,0,0
1411,15664,10409,bus,87,1,1,1,1,1,0,0
473,15665,10410,bus,87,0,0,0,0,0,1,1
534,15666,10410,bus,87,0,0,0,0,0,1,1
599,15667,10410,bus,87,0,0,0,0,0,1,1
664,15668,10410,bus,87,0,0,0,0,0,1,1
751,15669,10410,bus,87,0,0,0,0,0,1,1
817,15670,10410,bus,87,0,0,0,0,0,1,1
877,15671,10410,bus,87,0,0,0,0,0,1,1
943,15672,10410,bus,87,0,0,0,0,0,1,1
1008,15673,10410,bus,87,0,0,0,0,0,1,1
1074,15674,10410,bus,87,0,0,0,0,0,1,1
1134,15675,10410,bus,87,0,0,0,0,0,1,1
1200,15676,10410,bus,87,0,0,0,0,0,1,1
1286,15677,10410,bus,87,0,0,0,0,0,1,1
1351,15678,10410,bus,87,0,0,0,0,0,1,1
1412,15679,10410,bus,87,0,0,0,0,0,1,1
1429,16342,9969,nightbus,101N,0,0,0,0,1,1,0
1429,16355,9971,nightbus,103N,0,0,0,0,1,1,0
1463,16356,9971,nightbus,103N,0,0,0,0,1,1,0
1511,16357,9971,nightbus,103N,0,0,0,0,1,1,0
1539,16358,9971,nightbus,103N,0,0,0,0,1,1,0
1567,16359,9971,nightbus,103N,0,0,0,0,1,1,0
1404,16380,9972,nightbus,104N,0,0,0,0,1,1,0
1454,16381,9972,nightbus,104N,0,0,0,0,1,1,0
1400,16394,9973,nightbus,105N,0,0,0,0,1,1,0
1434,16395,9973,nightbus,105N,0,0,0,0,1,1,0
