timeInMin,trip_id,service_id,tipas,numeris,pirmadienis,antradienis,treciadienis,ketvirtadienis,penktadienis,sestadienis,sekmadienis 
331,937,10324,expressbus,2G,1,1,1,1,1,0,0
344,938,10324,expressbus,2G,1,1,1,1,1,0,0
354,939,10324,expressbus,2G,1,1,1,1,1,0,0
362,940,10324,expressbus,2G,1,1,1,1,1,0,0
370,941,10324,expressbus,2G,1,1,1,1,1,0,0
377,942,10324,expressbus,2G,1,1,1,1,1,0,0
384,943,10324,expressbus,2G,1,1,1,1,1,0,0
389,944,10324,expressbus,2G,1,1,1,1,1,0,0
395,945,10324,expressbus,2G,1,1,1,1,1,0,0
400,946,10324,expressbus,2G,1,1,1,1,1,0,0
405,947,10324,expressbus,2G,1,1,1,1,1,0,0
411,948,10324,expressbus,2G,1,1,1,1,1,0,0
417,949,10324,expressbus,2G,1,1,1,1,1,0,0
424,950,10324,expressbus,2G,1,1,1,1,1,0,0
431,951,10324,expressbus,2G,1,1,1,1,1,0,0
438,952,10324,expressbus,2G,1,1,1,1,1,0,0
444,953,10324,expressbus,2G,1,1,1,1,1,0,0
449,954,10324,expressbus,2G,1,1,1,1,1,0,0
455,955,10324,expressbus,2G,1,1,1,1,1,0,0
461,956,10324,expressbus,2G,1,1,1,1,1,0,0
467,957,10324,expressbus,2G,1,1,1,1,1,0,0
475,958,10324,expressbus,2G,1,1,1,1,1,0,0
481,959,10324,expressbus,2G,1,1,1,1,1,0,0
488,960,10324,expressbus,2G,1,1,1,1,1,0,0
494,961,10324,expressbus,2G,1,1,1,1,1,0,0
501,962,10324,expressbus,2G,1,1,1,1,1,0,0
507,963,10324,expressbus,2G,1,1,1,1,1,0,0
513,964,10324,expressbus,2G,1,1,1,1,1,0,0
519,965,10324,expressbus,2G,1,1,1,1,1,0,0
525,966,10324,expressbus,2G,1,1,1,1,1,0,0
533,967,10324,expressbus,2G,1,1,1,1,1,0,0
541,968,10324,expressbus,2G,1,1,1,1,1,0,0
550,969,10324,expressbus,2G,1,1,1,1,1,0,0
559,970,10324,expressbus,2G,1,1,1,1,1,0,0
569,971,10324,expressbus,2G,1,1,1,1,1,0,0
579,972,10324,expressbus,2G,1,1,1,1,1,0,0
590,973,10324,expressbus,2G,1,1,1,1,1,0,0
602,974,10324,expressbus,2G,1,1,1,1,1,0,0
612,975,10324,expressbus,2G,1,1,1,1,1,0,0
622,976,10324,expressbus,2G,1,1,1,1,1,0,0
631,977,10324,expressbus,2G,1,1,1,1,1,0,0
641,978,10324,expressbus,2G,1,1,1,1,1,0,0
651,979,10324,expressbus,2G,1,1,1,1,1,0,0
664,980,10324,expressbus,2G,1,1,1,1,1,0,0
678,981,10324,expressbus,2G,1,1,1,1,1,0,0
691,982,10324,expressbus,2G,1,1,1,1,1,0,0
705,983,10324,expressbus,2G,1,1,1,1,1,0,0
716,984,10324,expressbus,2G,1,1,1,1,1,0,0
726,985,10324,expressbus,2G,1,1,1,1,1,0,0
737,986,10324,expressbus,2G,1,1,1,1,1,0,0
748,987,10324,expressbus,2G,1,1,1,1,1,0,0
759,988,10324,expressbus,2G,1,1,1,1,1,0,0
770,989,10324,expressbus,2G,1,1,1,1,1,0,0
782,990,10324,expressbus,2G,1,1,1,1,1,0,0
795,991,10324,expressbus,2G,1,1,1,1,1,0,0
809,992,10324,expressbus,2G,1,1,1,1,1,0,0
821,993,10324,expressbus,2G,1,1,1,1,1,0,0
835,994,10324,expressbus,2G,1,1,1,1,1,0,0
845,995,10324,expressbus,2G,1,1,1,1,1,0,0
856,996,10324,expressbus,2G,1,1,1,1,1,0,0
866,997,10324,expressbus,2G,1,1,1,1,1,0,0
878,998,10324,expressbus,2G,1,1,1,1,1,0,0
889,999,10324,expressbus,2G,1,1,1,1,1,0,0
895,1000,10324,expressbus,2G,1,1,1,1,1,0,0
901,1001,10324,expressbus,2G,1,1,1,1,1,0,0
907,1002,10324,expressbus,2G,1,1,1,1,1,0,0
913,1003,10324,expressbus,2G,1,1,1,1,1,0,0
920,1004,10324,expressbus,2G,1,1,1,1,1,0,0
926,1005,10324,expressbus,2G,1,1,1,1,1,0,0
933,1006,10324,expressbus,2G,1,1,1,1,1,0,0
939,1007,10324,expressbus,2G,1,1,1,1,1,0,0
946,1008,10324,expressbus,2G,1,1,1,1,1,0,0
953,1009,10324,expressbus,2G,1,1,1,1,1,0,0
960,1010,10324,expressbus,2G,1,1,1,1,1,0,0
967,1011,10324,expressbus,2G,1,1,1,1,1,0,0
974,1012,10324,expressbus,2G,1,1,1,1,1,0,0
980,1013,10324,expressbus,2G,1,1,1,1,1,0,0
987,1014,10324,expressbus,2G,1,1,1,1,1,0,0
993,1015,10324,expressbus,2G,1,1,1,1,1,0,0
1000,1016,10324,expressbus,2G,1,1,1,1,1,0,0
1006,1017,10324,expressbus,2G,1,1,1,1,1,0,0
1012,1018,10324,expressbus,2G,1,1,1,1,1,0,0
1018,1019,10324,expressbus,2G,1,1,1,1,1,0,0
1025,1020,10324,expressbus,2G,1,1,1,1,1,0,0
1033,1021,10324,expressbus,2G,1,1,1,1,1,0,0
1039,1022,10324,expressbus,2G,1,1,1,1,1,0,0
1046,1023,10324,expressbus,2G,1,1,1,1,1,0,0
1053,1024,10324,expressbus,2G,1,1,1,1,1,0,0
1060,1025,10324,expressbus,2G,1,1,1,1,1,0,0
1066,1026,10324,expressbus,2G,1,1,1,1,1,0,0
1073,1027,10324,expressbus,2G,1,1,1,1,1,0,0
1083,1028,10324,expressbus,2G,1,1,1,1,1,0,0
1093,1029,10324,expressbus,2G,1,1,1,1,1,0,0
1106,1030,10324,expressbus,2G,1,1,1,1,1,0,0
1119,1031,10324,expressbus,2G,1,1,1,1,1,0,0
1130,1032,10324,expressbus,2G,1,1,1,1,1,0,0
1141,1033,10324,expressbus,2G,1,1,1,1,1,0,0
1151,1034,10324,expressbus,2G,1,1,1,1,1,0,0
1162,1035,10324,expressbus,2G,1,1,1,1,1,0,0
1173,1036,10324,expressbus,2G,1,1,1,1,1,0,0
1184,1037,10324,expressbus,2G,1,1,1,1,1,0,0
1197,1038,10324,expressbus,2G,1,1,1,1,1,0,0
1207,1039,10324,expressbus,2G,1,1,1,1,1,0,0
1220,1040,10324,expressbus,2G,1,1,1,1,1,0,0
1231,1041,10324,expressbus,2G,1,1,1,1,1,0,0
1243,1042,10324,expressbus,2G,1,1,1,1,1,0,0
1256,1043,10324,expressbus,2G,1,1,1,1,1,0,0
1266,1044,10324,expressbus,2G,1,1,1,1,1,0,0
1276,1045,10324,expressbus,2G,1,1,1,1,1,0,0
1286,1046,10324,expressbus,2G,1,1,1,1,1,0,0
1297,1047,10324,expressbus,2G,1,1,1,1,1,0,0
1307,1048,10324,expressbus,2G,1,1,1,1,1,0,0
1319,1049,10324,expressbus,2G,1,1,1,1,1,0,0
1331,1050,10324,expressbus,2G,1,1,1,1,1,0,0
1342,1051,10324,expressbus,2G,1,1,1,1,1,0,0
1355,1052,10324,expressbus,2G,1,1,1,1,1,0,0
1367,1053,10324,expressbus,2G,1,1,1,1,1,0,0
1376,1054,10324,expressbus,2G,1,1,1,1,1,0,0
1389,1055,10324,expressbus,2G,1,1,1,1,1,0,0
328,1056,10325,expressbus,2G,0,0,0,0,0,1,0
351,1057,10325,expressbus,2G,0,0,0,0,0,1,0
372,1058,10325,expressbus,2G,0,0,0,0,0,1,0
388,1059,10325,expressbus,2G,0,0,0,0,0,1,0
401,1060,10325,expressbus,2G,0,0,0,0,0,1,0
412,1061,10325,expressbus,2G,0,0,0,0,0,1,0
426,1062,10325,expressbus,2G,0,0,0,0,0,1,0
440,1063,10325,expressbus,2G,0,0,0,0,0,1,0
453,1064,10325,expressbus,2G,0,0,0,0,0,1,0
467,1065,10325,expressbus,2G,0,0,0,0,0,1,0
483,1066,10325,expressbus,2G,0,0,0,0,0,1,0
496,1067,10325,expressbus,2G,0,0,0,0,0,1,0
509,1068,10325,expressbus,2G,0,0,0,0,0,1,0
522,1069,10325,expressbus,2G,0,0,0,0,0,1,0
536,1070,10325,expressbus,2G,0,0,0,0,0,1,0
552,1071,10325,expressbus,2G,0,0,0,0,0,1,0
562,1072,10325,expressbus,2G,0,0,0,0,0,1,0
572,1073,10325,expressbus,2G,0,0,0,0,0,1,0
583,1074,10325,expressbus,2G,0,0,0,0,0,1,0
595,1075,10325,expressbus,2G,0,0,0,0,0,1,0
610,1076,10325,expressbus,2G,0,0,0,0,0,1,0
622,1077,10325,expressbus,2G,0,0,0,0,0,1,0
635,1078,10325,expressbus,2G,0,0,0,0,0,1,0
646,1079,10325,expressbus,2G,0,0,0,0,0,1,0
658,1080,10325,expressbus,2G,0,0,0,0,0,1,0
669,1081,10325,expressbus,2G,0,0,0,0,0,1,0
682,1082,10325,expressbus,2G,0,0,0,0,0,1,0
693,1083,10325,expressbus,2G,0,0,0,0,0,1,0
704,1084,10325,expressbus,2G,0,0,0,0,0,1,0
714,1085,10325,expressbus,2G,0,0,0,0,0,1,0
725,1086,10325,expressbus,2G,0,0,0,0,0,1,0
735,1087,10325,expressbus,2G,0,0,0,0,0,1,0
746,1088,10325,expressbus,2G,0,0,0,0,0,1,0
760,1089,10325,expressbus,2G,0,0,0,0,0,1,0
774,1090,10325,expressbus,2G,0,0,0,0,0,1,0
785,1091,10325,expressbus,2G,0,0,0,0,0,1,0
797,1092,10325,expressbus,2G,0,0,0,0,0,1,0
808,1093,10325,expressbus,2G,0,0,0,0,0,1,0
821,1094,10325,expressbus,2G,0,0,0,0,0,1,0
830,1095,10325,expressbus,2G,0,0,0,0,0,1,0
839,1096,10325,expressbus,2G,0,0,0,0,0,1,0
848,1097,10325,expressbus,2G,0,0,0,0,0,1,0
858,1098,10325,expressbus,2G,0,0,0,0,0,1,0
869,1099,10325,expressbus,2G,0,0,0,0,0,1,0
881,1100,10325,expressbus,2G,0,0,0,0,0,1,0
892,1101,10325,expressbus,2G,0,0,0,0,0,1,0
903,1102,10325,expressbus,2G,0,0,0,0,0,1,0
917,1103,10325,expressbus,2G,0,0,0,0,0,1,0
934,1104,10325,expressbus,2G,0,0,0,0,0,1,0
946,1105,10325,expressbus,2G,0,0,0,0,0,1,0
956,1106,10325,expressbus,2G,0,0,0,0,0,1,0
965,1107,10325,expressbus,2G,0,0,0,0,0,1,0
974,1108,10325,expressbus,2G,0,0,0,0,0,1,0
985,1109,10325,expressbus,2G,0,0,0,0,0,1,0
995,1110,10325,expressbus,2G,0,0,0,0,0,1,0
1005,1111,10325,expressbus,2G,0,0,0,0,0,1,0
1018,1112,10325,expressbus,2G,0,0,0,0,0,1,0
1031,1113,10325,expressbus,2G,0,0,0,0,0,1,0
1040,1114,10325,expressbus,2G,0,0,0,0,0,1,0
1049,1115,10325,expressbus,2G,0,0,0,0,0,1,0
1058,1116,10325,expressbus,2G,0,0,0,0,0,1,0
1067,1117,10325,expressbus,2G,0,0,0,0,0,1,0
1080,1118,10325,expressbus,2G,0,0,0,0,0,1,0
1093,1119,10325,expressbus,2G,0,0,0,0,0,1,0
1112,1120,10325,expressbus,2G,0,0,0,0,0,1,0
1134,1121,10325,expressbus,2G,0,0,0,0,0,1,0
1148,1122,10325,expressbus,2G,0,0,0,0,0,1,0
1160,1123,10325,expressbus,2G,0,0,0,0,0,1,0
1177,1124,10325,expressbus,2G,0,0,0,0,0,1,0
1197,1125,10325,expressbus,2G,0,0,0,0,0,1,0
1214,1126,10325,expressbus,2G,0,0,0,0,0,1,0
1227,1127,10325,expressbus,2G,0,0,0,0,0,1,0
1241,1128,10325,expressbus,2G,0,0,0,0,0,1,0
1258,1129,10325,expressbus,2G,0,0,0,0,0,1,0
1270,1130,10325,expressbus,2G,0,0,0,0,0,1,0
1283,1131,10325,expressbus,2G,0,0,0,0,0,1,0
1295,1132,10325,expressbus,2G,0,0,0,0,0,1,0
1309,1133,10325,expressbus,2G,0,0,0,0,0,1,0
1324,1134,10325,expressbus,2G,0,0,0,0,0,1,0
1342,1135,10325,expressbus,2G,0,0,0,0,0,1,0
1363,1136,10325,expressbus,2G,0,0,0,0,0,1,0
1385,1137,10325,expressbus,2G,0,0,0,0,0,1,0
351,1138,10326,expressbus,2G,0,0,0,0,0,0,1
372,1139,10326,expressbus,2G,0,0,0,0,0,0,1
388,1140,10326,expressbus,2G,0,0,0,0,0,0,1
401,1141,10326,expressbus,2G,0,0,0,0,0,0,1
412,1142,10326,expressbus,2G,0,0,0,0,0,0,1
426,1143,10326,expressbus,2G,0,0,0,0,0,0,1
440,1144,10326,expressbus,2G,0,0,0,0,0,0,1
453,1145,10326,expressbus,2G,0,0,0,0,0,0,1
467,1146,10326,expressbus,2G,0,0,0,0,0,0,1
483,1147,10326,expressbus,2G,0,0,0,0,0,0,1
496,1148,10326,expressbus,2G,0,0,0,0,0,0,1
509,1149,10326,expressbus,2G,0,0,0,0,0,0,1
522,1150,10326,expressbus,2G,0,0,0,0,0,0,1
536,1151,10326,expressbus,2G,0,0,0,0,0,0,1
552,1152,10326,expressbus,2G,0,0,0,0,0,0,1
562,1153,10326,expressbus,2G,0,0,0,0,0,0,1
572,1154,10326,expressbus,2G,0,0,0,0,0,0,1
583,1155,10326,expressbus,2G,0,0,0,0,0,0,1
595,1156,10326,expressbus,2G,0,0,0,0,0,0,1
610,1157,10326,expressbus,2G,0,0,0,0,0,0,1
622,1158,10326,expressbus,2G,0,0,0,0,0,0,1
635,1159,10326,expressbus,2G,0,0,0,0,0,0,1
646,1160,10326,expressbus,2G,0,0,0,0,0,0,1
658,1161,10326,expressbus,2G,0,0,0,0,0,0,1
669,1162,10326,expressbus,2G,0,0,0,0,0,0,1
682,1163,10326,expressbus,2G,0,0,0,0,0,0,1
693,1164,10326,expressbus,2G,0,0,0,0,0,0,1
704,1165,10326,expressbus,2G,0,0,0,0,0,0,1
714,1166,10326,expressbus,2G,0,0,0,0,0,0,1
725,1167,10326,expressbus,2G,0,0,0,0,0,0,1
735,1168,10326,expressbus,2G,0,0,0,0,0,0,1
746,1169,10326,expressbus,2G,0,0,0,0,0,0,1
760,1170,10326,expressbus,2G,0,0,0,0,0,0,1
774,1171,10326,expressbus,2G,0,0,0,0,0,0,1
785,1172,10326,expressbus,2G,0,0,0,0,0,0,1
797,1173,10326,expressbus,2G,0,0,0,0,0,0,1
808,1174,10326,expressbus,2G,0,0,0,0,0,0,1
821,1175,10326,expressbus,2G,0,0,0,0,0,0,1
830,1176,10326,expressbus,2G,0,0,0,0,0,0,1
839,1177,10326,expressbus,2G,0,0,0,0,0,0,1
848,1178,10326,expressbus,2G,0,0,0,0,0,0,1
858,1179,10326,expressbus,2G,0,0,0,0,0,0,1
869,1180,10326,expressbus,2G,0,0,0,0,0,0,1
881,1181,10326,expressbus,2G,0,0,0,0,0,0,1
892,1182,10326,expressbus,2G,0,0,0,0,0,0,1
903,1183,10326,expressbus,2G,0,0,0,0,0,0,1
917,1184,10326,expressbus,2G,0,0,0,0,0,0,1
934,1185,10326,expressbus,2G,0,0,0,0,0,0,1
946,1186,10326,expressbus,2G,0,0,0,0,0,0,1
956,1187,10326,expressbus,2G,0,0,0,0,0,0,1
965,1188,10326,expressbus,2G,0,0,0,0,0,0,1
974,1189,10326,expressbus,2G,0,0,0,0,0,0,1
985,1190,10326,expressbus,2G,0,0,0,0,0,0,1
995,1191,10326,expressbus,2G,0,0,0,0,0,0,1
1005,1192,10326,expressbus,2G,0,0,0,0,0,0,1
1018,1193,10326,expressbus,2G,0,0,0,0,0,0,1
1031,1194,10326,expressbus,2G,0,0,0,0,0,0,1
1040,1195,10326,expressbus,2G,0,0,0,0,0,0,1
1049,1196,10326,expressbus,2G,0,0,0,0,0,0,1
1058,1197,10326,expressbus,2G,0,0,0,0,0,0,1
1067,1198,10326,expressbus,2G,0,0,0,0,0,0,1
1080,1199,10326,expressbus,2G,0,0,0,0,0,0,1
1093,1200,10326,expressbus,2G,0,0,0,0,0,0,1
1112,1201,10326,expressbus,2G,0,0,0,0,0,0,1
1134,1202,10326,expressbus,2G,0,0,0,0,0,0,1
1148,1203,10326,expressbus,2G,0,0,0,0,0,0,1
1160,1204,10326,expressbus,2G,0,0,0,0,0,0,1
1177,1205,10326,expressbus,2G,0,0,0,0,0,0,1
1197,1206,10326,expressbus,2G,0,0,0,0,0,0,1
1214,1207,10326,expressbus,2G,0,0,0,0,0,0,1
1227,1208,10326,expressbus,2G,0,0,0,0,0,0,1
1241,1209,10326,expressbus,2G,0,0,0,0,0,0,1
1258,1210,10326,expressbus,2G,0,0,0,0,0,0,1
1270,1211,10326,expressbus,2G,0,0,0,0,0,0,1
1283,1212,10326,expressbus,2G,0,0,0,0,0,0,1
1295,1213,10326,expressbus,2G,0,0,0,0,0,0,1
1309,1214,10326,expressbus,2G,0,0,0,0,0,0,1
1324,1215,10326,expressbus,2G,0,0,0,0,0,0,1
1342,1216,10326,expressbus,2G,0,0,0,0,0,0,1
1363,1217,10326,expressbus,2G,0,0,0,0,0,0,1
1385,1218,10326,expressbus,2G,0,0,0,0,0,0,1
296,2370,10327,expressbus,3G,1,1,1,1,1,0,0
308,2371,10327,expressbus,3G,1,1,1,1,1,0,0
320,2372,10327,expressbus,3G,1,1,1,1,1,0,0
330,2373,10327,expressbus,3G,1,1,1,1,1,0,0
338,2374,10327,expressbus,3G,1,1,1,1,1,0,0
343,2375,10327,expressbus,3G,1,1,1,1,1,0,0
355,2376,10327,expressbus,3G,1,1,1,1,1,0,0
367,2377,10327,expressbus,3G,1,1,1,1,1,0,0
377,2378,10327,expressbus,3G,1,1,1,1,1,0,0
387,2379,10327,expressbus,3G,1,1,1,1,1,0,0
397,2380,10327,expressbus,3G,1,1,1,1,1,0,0
412,2381,10327,expressbus,3G,1,1,1,1,1,0,0
422,2382,10327,expressbus,3G,1,1,1,1,1,0,0
432,2383,10327,expressbus,3G,1,1,1,1,1,0,0
453,2384,10327,expressbus,3G,1,1,1,1,1,0,0
348,2385,10329,expressbus,3G,0,0,0,0,0,0,1
361,2386,10329,expressbus,3G,0,0,0,0,0,0,1
374,2387,10329,expressbus,3G,0,0,0,0,0,0,1
384,2388,10329,expressbus,3G,0,0,0,0,0,0,1
398,2389,10329,expressbus,3G,0,0,0,0,0,0,1
409,2390,10329,expressbus,3G,0,0,0,0,0,0,1
554,2391,10329,expressbus,3G,0,0,0,0,0,0,1
586,2392,10329,expressbus,3G,0,0,0,0,0,0,1
597,2393,10329,expressbus,3G,0,0,0,0,0,0,1
318,2394,10328,expressbus,3G,0,0,0,0,0,1,0
333,2395,10328,expressbus,3G,0,0,0,0,0,1,0
348,2396,10328,expressbus,3G,0,0,0,0,0,1,0
361,2397,10328,expressbus,3G,0,0,0,0,0,1,0
374,2398,10328,expressbus,3G,0,0,0,0,0,1,0
398,2399,10328,expressbus,3G,0,0,0,0,0,1,0
554,2400,10328,expressbus,3G,0,0,0,0,0,1,0
586,2401,10328,expressbus,3G,0,0,0,0,0,1,0
597,2402,10328,expressbus,3G,0,0,0,0,0,1,0
309,7478,10356,bus,24,1,1,1,1,1,0,0
321,7479,10356,bus,24,1,1,1,1,1,0,0
333,7480,10356,bus,24,1,1,1,1,1,0,0
346,7481,10356,bus,24,1,1,1,1,1,0,0
367,7482,10356,bus,24,1,1,1,1,1,0,0
378,7483,10356,bus,24,1,1,1,1,1,0,0
420,7484,10356,bus,24,1,1,1,1,1,0,0
310,7485,9984,bus,24,0,0,0,0,0,1,0
349,7486,9984,bus,24,0,0,0,0,0,1,0
560,7487,9984,bus,24,0,0,0,0,0,1,0
349,7488,9985,bus,24,0,0,0,0,0,0,1
389,7489,9985,bus,24,0,0,0,0,0,0,1
560,7490,9985,bus,24,0,0,0,0,0,0,1
311,9250,10370,bus,34,1,1,1,1,1,0,0
339,9251,10370,bus,34,1,1,1,1,1,0,0
373,9252,10370,bus,34,1,1,1,1,1,0,0
396,9253,10370,bus,34,1,1,1,1,1,0,0
422,9254,10370,bus,34,1,1,1,1,1,0,0
447,9255,10370,bus,34,1,1,1,1,1,0,0
468,9256,10370,bus,34,1,1,1,1,1,0,0
490,9257,10370,bus,34,1,1,1,1,1,0,0
512,9258,10370,bus,34,1,1,1,1,1,0,0
539,9259,10370,bus,34,1,1,1,1,1,0,0
564,9260,10370,bus,34,1,1,1,1,1,0,0
585,9261,10370,bus,34,1,1,1,1,1,0,0
604,9262,10370,bus,34,1,1,1,1,1,0,0
626,9263,10370,bus,34,1,1,1,1,1,0,0
676,9264,10370,bus,34,1,1,1,1,1,0,0
712,9265,10370,bus,34,1,1,1,1,1,0,0
750,9266,10370,bus,34,1,1,1,1,1,0,0
786,9267,10370,bus,34,1,1,1,1,1,0,0
820,9268,10370,bus,34,1,1,1,1,1,0,0
864,9269,10370,bus,34,1,1,1,1,1,0,0
902,9270,10370,bus,34,1,1,1,1,1,0,0
938,9271,10370,bus,34,1,1,1,1,1,0,0
958,9272,10370,bus,34,1,1,1,1,1,0,0
981,9273,10370,bus,34,1,1,1,1,1,0,0
1004,9274,10370,bus,34,1,1,1,1,1,0,0
1027,9275,10370,bus,34,1,1,1,1,1,0,0
1052,9276,10370,bus,34,1,1,1,1,1,0,0
1076,9277,10370,bus,34,1,1,1,1,1,0,0
1102,9278,10370,bus,34,1,1,1,1,1,0,0
1125,9279,10370,bus,34,1,1,1,1,1,0,0
1169,9280,10370,bus,34,1,1,1,1,1,0,0
1198,9281,10370,bus,34,1,1,1,1,1,0,0
1242,9282,10370,bus,34,1,1,1,1,1,0,0
1279,9283,10370,bus,34,1,1,1,1,1,0,0
1311,9284,10370,bus,34,1,1,1,1,1,0,0
1349,9285,10370,bus,34,1,1,1,1,1,0,0
386,9286,10372,bus,34,0,0,0,0,0,0,1
419,9287,10372,bus,34,0,0,0,0,0,0,1
454,9288,10372,bus,34,0,0,0,0,0,0,1
484,9289,10372,bus,34,0,0,0,0,0,0,1
515,9290,10372,bus,34,0,0,0,0,0,0,1
550,9291,10372,bus,34,0,0,0,0,0,0,1
575,9292,10372,bus,34,0,0,0,0,0,0,1
608,9293,10372,bus,34,0,0,0,0,0,0,1
644,9294,10372,bus,34,0,0,0,0,0,0,1
672,9295,10372,bus,34,0,0,0,0,0,0,1
693,9296,10372,bus,34,0,0,0,0,0,0,1
733,9297,10372,bus,34,0,0,0,0,0,0,1
771,9298,10372,bus,34,0,0,0,0,0,0,1
797,9299,10372,bus,34,0,0,0,0,0,0,1
820,9300,10372,bus,34,0,0,0,0,0,0,1
848,9301,10372,bus,34,0,0,0,0,0,0,1
874,9302,10372,bus,34,0,0,0,0,0,0,1
923,9303,10372,bus,34,0,0,0,0,0,0,1
939,9304,10372,bus,34,0,0,0,0,0,0,1
956,9305,10372,bus,34,0,0,0,0,0,0,1
979,9306,10372,bus,34,0,0,0,0,0,0,1
1021,9307,10372,bus,34,0,0,0,0,0,0,1
1038,9308,10372,bus,34,0,0,0,0,0,0,1
1061,9309,10372,bus,34,0,0,0,0,0,0,1
1105,9310,10372,bus,34,0,0,0,0,0,0,1
1146,9311,10372,bus,34,0,0,0,0,0,0,1
1189,9312,10372,bus,34,0,0,0,0,0,0,1
1231,9313,10372,bus,34,0,0,0,0,0,0,1
1270,9314,10372,bus,34,0,0,0,0,0,0,1
1294,9315,10372,bus,34,0,0,0,0,0,0,1
1335,9316,10372,bus,34,0,0,0,0,0,0,1
1378,9317,10372,bus,34,0,0,0,0,0,0,1
324,9318,10371,bus,34,0,0,0,0,0,1,0
386,9319,10371,bus,34,0,0,0,0,0,1,0
419,9320,10371,bus,34,0,0,0,0,0,1,0
454,9321,10371,bus,34,0,0,0,0,0,1,0
484,9322,10371,bus,34,0,0,0,0,0,1,0
515,9323,10371,bus,34,0,0,0,0,0,1,0
550,9324,10371,bus,34,0,0,0,0,0,1,0
575,9325,10371,bus,34,0,0,0,0,0,1,0
608,9326,10371,bus,34,0,0,0,0,0,1,0
644,9327,10371,bus,34,0,0,0,0,0,1,0
672,9328,10371,bus,34,0,0,0,0,0,1,0
693,9329,10371,bus,34,0,0,0,0,0,1,0
733,9330,10371,bus,34,0,0,0,0,0,1,0
771,9331,10371,bus,34,0,0,0,0,0,1,0
797,9332,10371,bus,34,0,0,0,0,0,1,0
820,9333,10371,bus,34,0,0,0,0,0,1,0
848,9334,10371,bus,34,0,0,0,0,0,1,0
874,9335,10371,bus,34,0,0,0,0,0,1,0
923,9336,10371,bus,34,0,0,0,0,0,1,0
939,9337,10371,bus,34,0,0,0,0,0,1,0
956,9338,10371,bus,34,0,0,0,0,0,1,0
979,9339,10371,bus,34,0,0,0,0,0,1,0
1021,9340,10371,bus,34,0,0,0,0,0,1,0
1038,9341,10371,bus,34,0,0,0,0,0,1,0
1061,9342,10371,bus,34,0,0,0,0,0,1,0
1105,9343,10371,bus,34,0,0,0,0,0,1,0
1146,9344,10371,bus,34,0,0,0,0,0,1,0
1189,9345,10371,bus,34,0,0,0,0,0,1,0
1231,9346,10371,bus,34,0,0,0,0,0,1,0
1270,9347,10371,bus,34,0,0,0,0,0,1,0
1294,9348,10371,bus,34,0,0,0,0,0,1,0
1335,9349,10371,bus,34,0,0,0,0,0,1,0
1378,9350,10371,bus,34,0,0,0,0,0,1,0
1383,9359,10372,bus,34,0,0,0,0,0,0,1
1422,9360,10372,bus,34,0,0,0,0,0,0,1
1381,9361,10370,bus,34,1,1,1,1,1,0,0
1422,9362,10370,bus,34,1,1,1,1,1,0,0
1383,9363,10371,bus,34,0,0,0,0,0,1,0
1422,9364,10371,bus,34,0,0,0,0,0,1,0
383,12226,10294,bus,52,0,0,0,0,0,0,1
307,12227,9642,bus,52,1,1,1,1,1,0,0
383,12228,9643,bus,52,0,0,0,0,0,1,0
340,13067,10395,bus,55,1,1,1,1,1,0,0
389,13068,10395,bus,55,1,1,1,1,1,0,0
422,13069,10395,bus,55,1,1,1,1,1,0,0
457,13070,10395,bus,55,1,1,1,1,1,0,0
483,13071,10395,bus,55,1,1,1,1,1,0,0
511,13072,10395,bus,55,1,1,1,1,1,0,0
562,13073,10395,bus,55,1,1,1,1,1,0,0
606,13074,10395,bus,55,1,1,1,1,1,0,0
654,13075,10395,bus,55,1,1,1,1,1,0,0
687,13076,10395,bus,55,1,1,1,1,1,0,0
725,13077,10395,bus,55,1,1,1,1,1,0,0
767,13078,10395,bus,55,1,1,1,1,1,0,0
803,13079,10395,bus,55,1,1,1,1,1,0,0
841,13080,10395,bus,55,1,1,1,1,1,0,0
886,13081,10395,bus,55,1,1,1,1,1,0,0
923,13082,10395,bus,55,1,1,1,1,1,0,0
961,13083,10395,bus,55,1,1,1,1,1,0,0
986,13084,10395,bus,55,1,1,1,1,1,0,0
1010,13085,10395,bus,55,1,1,1,1,1,0,0
1040,13086,10395,bus,55,1,1,1,1,1,0,0
1078,13087,10395,bus,55,1,1,1,1,1,0,0
1106,13088,10395,bus,55,1,1,1,1,1,0,0
1154,13089,10395,bus,55,1,1,1,1,1,0,0
1194,13090,10395,bus,55,1,1,1,1,1,0,0
1228,13091,10395,bus,55,1,1,1,1,1,0,0
1269,13092,10395,bus,55,1,1,1,1,1,0,0
1308,13093,10395,bus,55,1,1,1,1,1,0,0
1341,13094,10395,bus,55,1,1,1,1,1,0,0
329,13095,10193,bus,55,0,0,0,0,0,1,0
382,13096,10193,bus,55,0,0,0,0,0,1,0
439,13097,10193,bus,55,0,0,0,0,0,1,0
492,13098,10193,bus,55,0,0,0,0,0,1,0
538,13099,10193,bus,55,0,0,0,0,0,1,0
586,13100,10193,bus,55,0,0,0,0,0,1,0
631,13101,10193,bus,55,0,0,0,0,0,1,0
674,13102,10193,bus,55,0,0,0,0,0,1,0
708,13103,10193,bus,55,0,0,0,0,0,1,0
745,13104,10193,bus,55,0,0,0,0,0,1,0
782,13105,10193,bus,55,0,0,0,0,0,1,0
821,13106,10193,bus,55,0,0,0,0,0,1,0
858,13107,10193,bus,55,0,0,0,0,0,1,0
890,13108,10193,bus,55,0,0,0,0,0,1,0
934,13109,10193,bus,55,0,0,0,0,0,1,0
975,13110,10193,bus,55,0,0,0,0,0,1,0
1043,13111,10193,bus,55,0,0,0,0,0,1,0
1120,13112,10193,bus,55,0,0,0,0,0,1,0
1182,13113,10193,bus,55,0,0,0,0,0,1,0
1232,13114,10193,bus,55,0,0,0,0,0,1,0
1289,13115,10193,bus,55,0,0,0,0,0,1,0
1339,13116,10193,bus,55,0,0,0,0,0,1,0
382,13117,10194,bus,55,0,0,0,0,0,0,1
439,13118,10194,bus,55,0,0,0,0,0,0,1
492,13119,10194,bus,55,0,0,0,0,0,0,1
538,13120,10194,bus,55,0,0,0,0,0,0,1
586,13121,10194,bus,55,0,0,0,0,0,0,1
631,13122,10194,bus,55,0,0,0,0,0,0,1
674,13123,10194,bus,55,0,0,0,0,0,0,1
708,13124,10194,bus,55,0,0,0,0,0,0,1
745,13125,10194,bus,55,0,0,0,0,0,0,1
782,13126,10194,bus,55,0,0,0,0,0,0,1
821,13127,10194,bus,55,0,0,0,0,0,0,1
858,13128,10194,bus,55,0,0,0,0,0,0,1
890,13129,10194,bus,55,0,0,0,0,0,0,1
934,13130,10194,bus,55,0,0,0,0,0,0,1
975,13131,10194,bus,55,0,0,0,0,0,0,1
1043,13132,10194,bus,55,0,0,0,0,0,0,1
1120,13133,10194,bus,55,0,0,0,0,0,0,1
1182,13134,10194,bus,55,0,0,0,0,0,0,1
1232,13135,10194,bus,55,0,0,0,0,0,0,1
1289,13136,10194,bus,55,0,0,0,0,0,0,1
1339,13137,10194,bus,55,0,0,0,0,0,0,1
334,13415,10613,bus,57,1,1,1,1,1,0,0
392,13416,10613,bus,57,1,1,1,1,1,0,0
450,13417,10613,bus,57,1,1,1,1,1,0,0
508,13418,10613,bus,57,1,1,1,1,1,0,0
565,13419,10613,bus,57,1,1,1,1,1,0,0
645,13420,10613,bus,57,1,1,1,1,1,0,0
702,13421,10613,bus,57,1,1,1,1,1,0,0
759,13422,10613,bus,57,1,1,1,1,1,0,0
819,13423,10613,bus,57,1,1,1,1,1,0,0
886,13424,10613,bus,57,1,1,1,1,1,0,0
944,13425,10613,bus,57,1,1,1,1,1,0,0
1002,13426,10613,bus,57,1,1,1,1,1,0,0
1062,13427,10613,bus,57,1,1,1,1,1,0,0
1127,13428,10613,bus,57,1,1,1,1,1,0,0
1207,13429,10613,bus,57,1,1,1,1,1,0,0
1273,13430,10613,bus,57,1,1,1,1,1,0,0
1340,13431,10613,bus,57,1,1,1,1,1,0,0
348,13432,9652,bus,57,0,0,0,0,0,1,0
408,13433,9652,bus,57,0,0,0,0,0,1,0
468,13434,9652,bus,57,0,0,0,0,0,1,0
528,13435,9652,bus,57,0,0,0,0,0,1,0
588,13436,9652,bus,57,0,0,0,0,0,1,0
668,13437,9652,bus,57,0,0,0,0,0,1,0
728,13438,9652,bus,57,0,0,0,0,0,1,0
788,13439,9652,bus,57,0,0,0,0,0,1,0
848,13440,9652,bus,57,0,0,0,0,0,1,0
908,13441,9652,bus,57,0,0,0,0,0,1,0
968,13442,9652,bus,57,0,0,0,0,0,1,0
1028,13443,9652,bus,57,0,0,0,0,0,1,0
1088,13444,9652,bus,57,0,0,0,0,0,1,0
1148,13445,9652,bus,57,0,0,0,0,0,1,0
1228,13446,9652,bus,57,0,0,0,0,0,1,0
1286,13447,9652,bus,57,0,0,0,0,0,1,0
1344,13448,9652,bus,57,0,0,0,0,0,1,0
408,13449,9653,bus,57,0,0,0,0,0,0,1
468,13450,9653,bus,57,0,0,0,0,0,0,1
528,13451,9653,bus,57,0,0,0,0,0,0,1
588,13452,9653,bus,57,0,0,0,0,0,0,1
668,13453,9653,bus,57,0,0,0,0,0,0,1
728,13454,9653,bus,57,0,0,0,0,0,0,1
788,13455,9653,bus,57,0,0,0,0,0,0,1
848,13456,9653,bus,57,0,0,0,0,0,0,1
908,13457,9653,bus,57,0,0,0,0,0,0,1
968,13458,9653,bus,57,0,0,0,0,0,0,1
1028,13459,9653,bus,57,0,0,0,0,0,0,1
1088,13460,9653,bus,57,0,0,0,0,0,0,1
1148,13461,9653,bus,57,0,0,0,0,0,0,1
1228,13462,9653,bus,57,0,0,0,0,0,0,1
1286,13463,9653,bus,57,0,0,0,0,0,0,1
1344,13464,9653,bus,57,0,0,0,0,0,0,1
374,14953,10501,bus,75,0,0,0,0,0,1,0
431,14954,10501,bus,75,0,0,0,0,0,1,0
487,14955,10501,bus,75,0,0,0,0,0,1,0
553,14956,10501,bus,75,0,0,0,0,0,1,0
625,14957,10501,bus,75,0,0,0,0,0,1,0
661,14958,10501,bus,75,0,0,0,0,0,1,0
704,14959,10501,bus,75,0,0,0,0,0,1,0
740,14960,10501,bus,75,0,0,0,0,0,1,0
776,14961,10501,bus,75,0,0,0,0,0,1,0
825,14962,10501,bus,75,0,0,0,0,0,1,0
869,14963,10501,bus,75,0,0,0,0,0,1,0
913,14964,10501,bus,75,0,0,0,0,0,1,0
955,14965,10501,bus,75,0,0,0,0,0,1,0
999,14966,10501,bus,75,0,0,0,0,0,1,0
1037,14967,10501,bus,75,0,0,0,0,0,1,0
1074,14968,10501,bus,75,0,0,0,0,0,1,0
1144,14969,10501,bus,75,0,0,0,0,0,1,0
1214,14970,10501,bus,75,0,0,0,0,0,1,0
1277,14971,10501,bus,75,0,0,0,0,0,1,0
1343,14972,10501,bus,75,0,0,0,0,0,1,0
323,14973,10500,bus,75,1,1,1,1,1,0,0
361,14974,10500,bus,75,1,1,1,1,1,0,0
381,14975,10500,bus,75,1,1,1,1,1,0,0
407,14976,10500,bus,75,1,1,1,1,1,0,0
435,14977,10500,bus,75,1,1,1,1,1,0,0
462,14978,10500,bus,75,1,1,1,1,1,0,0
489,14979,10500,bus,75,1,1,1,1,1,0,0
518,14980,10500,bus,75,1,1,1,1,1,0,0
538,14981,10500,bus,75,1,1,1,1,1,0,0
564,14982,10500,bus,75,1,1,1,1,1,0,0
611,14983,10500,bus,75,1,1,1,1,1,0,0
648,14984,10500,bus,75,1,1,1,1,1,0,0
685,14985,10500,bus,75,1,1,1,1,1,0,0
727,14986,10500,bus,75,1,1,1,1,1,0,0
775,14987,10500,bus,75,1,1,1,1,1,0,0
804,14988,10500,bus,75,1,1,1,1,1,0,0
851,14989,10500,bus,75,1,1,1,1,1,0,0
895,14990,10500,bus,75,1,1,1,1,1,0,0
925,14991,10500,bus,75,1,1,1,1,1,0,0
952,14992,10500,bus,75,1,1,1,1,1,0,0
975,14993,10500,bus,75,1,1,1,1,1,0,0
1004,14994,10500,bus,75,1,1,1,1,1,0,0
1034,14995,10500,bus,75,1,1,1,1,1,0,0
1065,14996,10500,bus,75,1,1,1,1,1,0,0
1085,14997,10500,bus,75,1,1,1,1,1,0,0
1104,14998,10500,bus,75,1,1,1,1,1,0,0
1134,14999,10500,bus,75,1,1,1,1,1,0,0
1182,15000,10500,bus,75,1,1,1,1,1,0,0
1220,15001,10500,bus,75,1,1,1,1,1,0,0
1258,15002,10500,bus,75,1,1,1,1,1,0,0
1296,15003,10500,bus,75,1,1,1,1,1,0,0
1333,15004,10500,bus,75,1,1,1,1,1,0,0
374,15005,10502,bus,75,0,0,0,0,0,0,1
431,15006,10502,bus,75,0,0,0,0,0,0,1
487,15007,10502,bus,75,0,0,0,0,0,0,1
553,15008,10502,bus,75,0,0,0,0,0,0,1
625,15009,10502,bus,75,0,0,0,0,0,0,1
661,15010,10502,bus,75,0,0,0,0,0,0,1
704,15011,10502,bus,75,0,0,0,0,0,0,1
740,15012,10502,bus,75,0,0,0,0,0,0,1
776,15013,10502,bus,75,0,0,0,0,0,0,1
825,15014,10502,bus,75,0,0,0,0,0,0,1
869,15015,10502,bus,75,0,0,0,0,0,0,1
913,15016,10502,bus,75,0,0,0,0,0,0,1
955,15017,10502,bus,75,0,0,0,0,0,0,1
999,15018,10502,bus,75,0,0,0,0,0,0,1
1037,15019,10502,bus,75,0,0,0,0,0,0,1
1074,15020,10502,bus,75,0,0,0,0,0,0,1
1144,15021,10502,bus,75,0,0,0,0,0,0,1
1214,15022,10502,bus,75,0,0,0,0,0,0,1
1277,15023,10502,bus,75,0,0,0,0,0,0,1
1343,15024,10502,bus,75,0,0,0,0,0,0,1
1390,15098,10501,bus,75,0,0,0,0,0,1,0
1369,15099,10500,bus,75,1,1,1,1,1,0,0
1390,15100,10502,bus,75,0,0,0,0,0,0,1
375,15176,10617,bus,76,1,1,1,1,1,0,0
434,15177,10617,bus,76,1,1,1,1,1,0,0
466,15178,10617,bus,76,1,1,1,1,1,0,0
518,15179,10617,bus,76,1,1,1,1,1,0,0
548,15180,10617,bus,76,1,1,1,1,1,0,0
605,15181,10617,bus,76,1,1,1,1,1,0,0
637,15182,10617,bus,76,1,1,1,1,1,0,0
714,15183,10617,bus,76,1,1,1,1,1,0,0
745,15184,10617,bus,76,1,1,1,1,1,0,0
797,15185,10617,bus,76,1,1,1,1,1,0,0
853,15186,10617,bus,76,1,1,1,1,1,0,0
913,15187,10617,bus,76,1,1,1,1,1,0,0
950,15188,10617,bus,76,1,1,1,1,1,0,0
1007,15189,10617,bus,76,1,1,1,1,1,0,0
1042,15190,10617,bus,76,1,1,1,1,1,0,0
1096,15191,10617,bus,76,1,1,1,1,1,0,0
1131,15192,10617,bus,76,1,1,1,1,1,0,0
1178,15193,10617,bus,76,1,1,1,1,1,0,0
1240,15194,10617,bus,76,1,1,1,1,1,0,0
1288,15195,10617,bus,76,1,1,1,1,1,0,0
1322,15196,10617,bus,76,1,1,1,1,1,0,0
1370,15197,10617,bus,76,1,1,1,1,1,0,0
1408,15198,10617,bus,76,1,1,1,1,1,0,0
384,15199,10618,bus,76,0,0,0,0,0,1,0
466,15200,10618,bus,76,0,0,0,0,0,1,0
554,15201,10618,bus,76,0,0,0,0,0,1,0
624,15202,10618,bus,76,0,0,0,0,0,1,0
672,15203,10618,bus,76,0,0,0,0,0,1,0
707,15204,10618,bus,76,0,0,0,0,0,1,0
754,15205,10618,bus,76,0,0,0,0,0,1,0
814,15206,10618,bus,76,0,0,0,0,0,1,0
842,15207,10618,bus,76,0,0,0,0,0,1,0
896,15208,10618,bus,76,0,0,0,0,0,1,0
929,15209,10618,bus,76,0,0,0,0,0,1,0
978,15210,10618,bus,76,0,0,0,0,0,1,0
1013,15211,10618,bus,76,0,0,0,0,0,1,0
1065,15212,10618,bus,76,0,0,0,0,0,1,0
1120,15213,10618,bus,76,0,0,0,0,0,1,0
1227,15214,10618,bus,76,0,0,0,0,0,1,0
1309,15215,10618,bus,76,0,0,0,0,0,1,0
1393,15216,10618,bus,76,0,0,0,0,0,1,0
466,15217,10619,bus,76,0,0,0,0,0,0,1
554,15218,10619,bus,76,0,0,0,0,0,0,1
624,15219,10619,bus,76,0,0,0,0,0,0,1
672,15220,10619,bus,76,0,0,0,0,0,0,1
707,15221,10619,bus,76,0,0,0,0,0,0,1
754,15222,10619,bus,76,0,0,0,0,0,0,1
814,15223,10619,bus,76,0,0,0,0,0,0,1
842,15224,10619,bus,76,0,0,0,0,0,0,1
896,15225,10619,bus,76,0,0,0,0,0,0,1
929,15226,10619,bus,76,0,0,0,0,0,0,1
978,15227,10619,bus,76,0,0,0,0,0,0,1
1013,15228,10619,bus,76,0,0,0,0,0,0,1
1065,15229,10619,bus,76,0,0,0,0,0,0,1
1120,15230,10619,bus,76,0,0,0,0,0,0,1
1227,15231,10619,bus,76,0,0,0,0,0,0,1
1309,15232,10619,bus,76,0,0,0,0,0,0,1
1393,15233,10619,bus,76,0,0,0,0,0,0,1
357,15635,10409,bus,87,1,1,1,1,1,0,0
391,15636,10409,bus,87,1,1,1,1,1,0,0
421,15637,10409,bus,87,1,1,1,1,1,0,0
455,15638,10409,bus,87,1,1,1,1,1,0,0
492,15639,10409,bus,87,1,1,1,1,1,0,0
529,15640,10409,bus,87,1,1,1,1,1,0,0
558,15641,10409,bus,87,1,1,1,1,1,0,0
590,15642,10409,bus,87,1,1,1,1,1,0,0
620,15643,10409,bus,87,1,1,1,1,1,0,0
657,15644,10409,bus,87,1,1,1,1,1,0,0
712,15645,10409,bus,87,1,1,1,1,1,0,0
744,15646,10409,bus,87,1,1,1,1,1,0,0
776,15647,10409,bus,87,1,1,1,1,1,0,0
808,15648,10409,bus,87,1,1,1,1,1,0,0
861,15649,10409,bus,87,1,1,1,1,1,0,0
883,15650,10409,bus,87,1,1,1,1,1,0,0
916,15651,10409,bus,87,1,1,1,1,1,0,0
947,15652,10409,bus,87,1,1,1,1,1,0,0
995,15653,10409,bus,87,1,1,1,1,1,0,0
1030,15654,10409,bus,87,1,1,1,1,1,0,0
1059,15655,10409,bus,87,1,1,1,1,1,0,0
1090,15656,10409,bus,87,1,1,1,1,1,0,0
1124,15657,10409,bus,87,1,1,1,1,1,0,0
1164,15658,10409,bus,87,1,1,1,1,1,0,0
1212,15659,10409,bus,87,1,1,1,1,1,0,0
1251,15660,10409,bus,87,1,1,1,1,1,0,0
1285,15661,10409,bus,87,1,1,1,1,1,0,0
1315,15662,10409,bus,87,1,1,1,1,1,0,0
1363,15663,10409,bus,87,1,1,1,1,1,0,0
1410,15664,10409,bus,87,1,1,1,1,1,0,0
472,15665,10410,bus,87,0,0,0,0,0,1,1
533,15666,10410,bus,87,0,0,0,0,0,1,1
598,15667,10410,bus,87,0,0,0,0,0,1,1
663,15668,10410,bus,87,0,0,0,0,0,1,1
750,15669,10410,bus,87,0,0,0,0,0,1,1
816,15670,10410,bus,87,0,0,0,0,0,1,1
876,15671,10410,bus,87,0,0,0,0,0,1,1
942,15672,10410,bus,87,0,0,0,0,0,1,1
1007,15673,10410,bus,87,0,0,0,0,0,1,1
1073,15674,10410,bus,87,0,0,0,0,0,1,1
1133,15675,10410,bus,87,0,0,0,0,0,1,1
1199,15676,10410,bus,87,0,0,0,0,0,1,1
1285,15677,10410,bus,87,0,0,0,0,0,1,1
1350,15678,10410,bus,87,0,0,0,0,0,1,1
1411,15679,10410,bus,87,0,0,0,0,0,1,1
1427,16342,9969,nightbus,101N,0,0,0,0,1,1,0
1428,16355,9971,nightbus,103N,0,0,0,0,1,1,0
1462,16356,9971,nightbus,103N,0,0,0,0,1,1,0
1509,16357,9971,nightbus,103N,0,0,0,0,1,1,0
1538,16358,9971,nightbus,103N,0,0,0,0,1,1,0
1566,16359,9971,nightbus,103N,0,0,0,0,1,1,0
1403,16380,9972,nightbus,104N,0,0,0,0,1,1,0
1453,16381,9972,nightbus,104N,0,0,0,0,1,1,0
1398,16394,9973,nightbus,105N,0,0,0,0,1,1,0
1432,16395,9973,nightbus,105N,0,0,0,0,1,1,0
