timeInMin,trip_id,service_id,tipas,numeris,pirmadienis,antradienis,treciadienis,ketvirtadienis,penktadienis,sestadienis,sekmadienis 
1364,71,10571,bus,1,1,1,1,1,1,1,0
1364,72,10572,bus,1,0,0,0,0,0,0,1
1379,933,10573,bus,2,1,1,1,1,1,1,0
1379,934,10574,bus,2,0,0,0,0,0,0,1
1151,1666,8395,bus,3,1,1,1,1,1,0,0
1347,1667,8395,bus,3,1,1,1,1,1,0,0
1397,1668,8395,bus,3,1,1,1,1,1,0,0
1280,1669,8396,bus,3,0,0,0,0,0,1,0
1292,1670,8397,bus,3,0,0,0,0,0,0,1
1379,2468,8111,bus,4,1,1,1,1,1,0,0
1367,2469,8114,bus,4,0,0,0,0,0,1,1
340,2472,10482,expressbus,4G,1,1,1,1,1,0,0
352,2473,10482,expressbus,4G,1,1,1,1,1,0,0
364,2474,10482,expressbus,4G,1,1,1,1,1,0,0
370,2475,10482,expressbus,4G,1,1,1,1,1,0,0
378,2476,10482,expressbus,4G,1,1,1,1,1,0,0
384,2477,10482,expressbus,4G,1,1,1,1,1,0,0
390,2478,10482,expressbus,4G,1,1,1,1,1,0,0
396,2479,10482,expressbus,4G,1,1,1,1,1,0,0
402,2480,10482,expressbus,4G,1,1,1,1,1,0,0
408,2481,10482,expressbus,4G,1,1,1,1,1,0,0
415,2482,10482,expressbus,4G,1,1,1,1,1,0,0
420,2483,10482,expressbus,4G,1,1,1,1,1,0,0
428,2484,10482,expressbus,4G,1,1,1,1,1,0,0
434,2485,10482,expressbus,4G,1,1,1,1,1,0,0
442,2486,10482,expressbus,4G,1,1,1,1,1,0,0
448,2487,10482,expressbus,4G,1,1,1,1,1,0,0
454,2488,10482,expressbus,4G,1,1,1,1,1,0,0
460,2489,10482,expressbus,4G,1,1,1,1,1,0,0
467,2490,10482,expressbus,4G,1,1,1,1,1,0,0
473,2491,10482,expressbus,4G,1,1,1,1,1,0,0
479,2492,10482,expressbus,4G,1,1,1,1,1,0,0
484,2493,10482,expressbus,4G,1,1,1,1,1,0,0
490,2494,10482,expressbus,4G,1,1,1,1,1,0,0
497,2495,10482,expressbus,4G,1,1,1,1,1,0,0
502,2496,10482,expressbus,4G,1,1,1,1,1,0,0
509,2497,10482,expressbus,4G,1,1,1,1,1,0,0
516,2498,10482,expressbus,4G,1,1,1,1,1,0,0
524,2499,10482,expressbus,4G,1,1,1,1,1,0,0
530,2500,10482,expressbus,4G,1,1,1,1,1,0,0
538,2501,10482,expressbus,4G,1,1,1,1,1,0,0
545,2502,10482,expressbus,4G,1,1,1,1,1,0,0
551,2503,10482,expressbus,4G,1,1,1,1,1,0,0
557,2504,10482,expressbus,4G,1,1,1,1,1,0,0
567,2505,10482,expressbus,4G,1,1,1,1,1,0,0
579,2506,10482,expressbus,4G,1,1,1,1,1,0,0
590,2507,10482,expressbus,4G,1,1,1,1,1,0,0
601,2508,10482,expressbus,4G,1,1,1,1,1,0,0
612,2509,10482,expressbus,4G,1,1,1,1,1,0,0
622,2510,10482,expressbus,4G,1,1,1,1,1,0,0
630,2511,10482,expressbus,4G,1,1,1,1,1,0,0
638,2512,10482,expressbus,4G,1,1,1,1,1,0,0
649,2513,10482,expressbus,4G,1,1,1,1,1,0,0
662,2514,10482,expressbus,4G,1,1,1,1,1,0,0
674,2515,10482,expressbus,4G,1,1,1,1,1,0,0
686,2516,10482,expressbus,4G,1,1,1,1,1,0,0
698,2517,10482,expressbus,4G,1,1,1,1,1,0,0
710,2518,10482,expressbus,4G,1,1,1,1,1,0,0
721,2519,10482,expressbus,4G,1,1,1,1,1,0,0
732,2520,10482,expressbus,4G,1,1,1,1,1,0,0
740,2521,10482,expressbus,4G,1,1,1,1,1,0,0
750,2522,10482,expressbus,4G,1,1,1,1,1,0,0
762,2523,10482,expressbus,4G,1,1,1,1,1,0,0
774,2524,10482,expressbus,4G,1,1,1,1,1,0,0
785,2525,10482,expressbus,4G,1,1,1,1,1,0,0
795,2526,10482,expressbus,4G,1,1,1,1,1,0,0
805,2527,10482,expressbus,4G,1,1,1,1,1,0,0
817,2528,10482,expressbus,4G,1,1,1,1,1,0,0
829,2529,10482,expressbus,4G,1,1,1,1,1,0,0
839,2530,10482,expressbus,4G,1,1,1,1,1,0,0
851,2531,10482,expressbus,4G,1,1,1,1,1,0,0
865,2532,10482,expressbus,4G,1,1,1,1,1,0,0
874,2533,10482,expressbus,4G,1,1,1,1,1,0,0
886,2534,10482,expressbus,4G,1,1,1,1,1,0,0
897,2535,10482,expressbus,4G,1,1,1,1,1,0,0
905,2536,10482,expressbus,4G,1,1,1,1,1,0,0
913,2537,10482,expressbus,4G,1,1,1,1,1,0,0
920,2538,10482,expressbus,4G,1,1,1,1,1,0,0
927,2539,10482,expressbus,4G,1,1,1,1,1,0,0
934,2540,10482,expressbus,4G,1,1,1,1,1,0,0
939,2541,10482,expressbus,4G,1,1,1,1,1,0,0
945,2542,10482,expressbus,4G,1,1,1,1,1,0,0
951,2543,10482,expressbus,4G,1,1,1,1,1,0,0
956,2544,10482,expressbus,4G,1,1,1,1,1,0,0
961,2545,10482,expressbus,4G,1,1,1,1,1,0,0
968,2546,10482,expressbus,4G,1,1,1,1,1,0,0
974,2547,10482,expressbus,4G,1,1,1,1,1,0,0
980,2548,10482,expressbus,4G,1,1,1,1,1,0,0
986,2549,10482,expressbus,4G,1,1,1,1,1,0,0
992,2550,10482,expressbus,4G,1,1,1,1,1,0,0
998,2551,10482,expressbus,4G,1,1,1,1,1,0,0
1004,2552,10482,expressbus,4G,1,1,1,1,1,0,0
1010,2553,10482,expressbus,4G,1,1,1,1,1,0,0
1017,2554,10482,expressbus,4G,1,1,1,1,1,0,0
1025,2555,10482,expressbus,4G,1,1,1,1,1,0,0
1032,2556,10482,expressbus,4G,1,1,1,1,1,0,0
1040,2557,10482,expressbus,4G,1,1,1,1,1,0,0
1046,2558,10482,expressbus,4G,1,1,1,1,1,0,0
1053,2559,10482,expressbus,4G,1,1,1,1,1,0,0
1060,2560,10482,expressbus,4G,1,1,1,1,1,0,0
1067,2561,10482,expressbus,4G,1,1,1,1,1,0,0
1073,2562,10482,expressbus,4G,1,1,1,1,1,0,0
1080,2563,10482,expressbus,4G,1,1,1,1,1,0,0
1088,2564,10482,expressbus,4G,1,1,1,1,1,0,0
1096,2565,10482,expressbus,4G,1,1,1,1,1,0,0
1105,2566,10482,expressbus,4G,1,1,1,1,1,0,0
1116,2567,10482,expressbus,4G,1,1,1,1,1,0,0
1125,2568,10482,expressbus,4G,1,1,1,1,1,0,0
1136,2569,10482,expressbus,4G,1,1,1,1,1,0,0
1149,2570,10482,expressbus,4G,1,1,1,1,1,0,0
1163,2571,10482,expressbus,4G,1,1,1,1,1,0,0
1176,2572,10482,expressbus,4G,1,1,1,1,1,0,0
1188,2573,10482,expressbus,4G,1,1,1,1,1,0,0
1198,2574,10482,expressbus,4G,1,1,1,1,1,0,0
1212,2575,10482,expressbus,4G,1,1,1,1,1,0,0
1226,2576,10482,expressbus,4G,1,1,1,1,1,0,0
1238,2577,10482,expressbus,4G,1,1,1,1,1,0,0
1249,2578,10482,expressbus,4G,1,1,1,1,1,0,0
1260,2579,10482,expressbus,4G,1,1,1,1,1,0,0
1270,2580,10482,expressbus,4G,1,1,1,1,1,0,0
1281,2581,10482,expressbus,4G,1,1,1,1,1,0,0
1292,2582,10482,expressbus,4G,1,1,1,1,1,0,0
1303,2583,10482,expressbus,4G,1,1,1,1,1,0,0
1313,2584,10482,expressbus,4G,1,1,1,1,1,0,0
1324,2585,10482,expressbus,4G,1,1,1,1,1,0,0
1336,2586,10482,expressbus,4G,1,1,1,1,1,0,0
1349,2587,10482,expressbus,4G,1,1,1,1,1,0,0
1361,2588,10482,expressbus,4G,1,1,1,1,1,0,0
1377,2589,10482,expressbus,4G,1,1,1,1,1,0,0
1399,2590,10482,expressbus,4G,1,1,1,1,1,0,0
338,2591,10483,expressbus,4G,0,0,0,0,0,1,0
358,2592,10483,expressbus,4G,0,0,0,0,0,1,0
382,2593,10483,expressbus,4G,0,0,0,0,0,1,0
397,2594,10483,expressbus,4G,0,0,0,0,0,1,0
413,2595,10483,expressbus,4G,0,0,0,0,0,1,0
428,2596,10483,expressbus,4G,0,0,0,0,0,1,0
446,2597,10483,expressbus,4G,0,0,0,0,0,1,0
460,2598,10483,expressbus,4G,0,0,0,0,0,1,0
476,2599,10483,expressbus,4G,0,0,0,0,0,1,0
491,2600,10483,expressbus,4G,0,0,0,0,0,1,0
507,2601,10483,expressbus,4G,0,0,0,0,0,1,0
520,2602,10483,expressbus,4G,0,0,0,0,0,1,0
537,2603,10483,expressbus,4G,0,0,0,0,0,1,0
552,2604,10483,expressbus,4G,0,0,0,0,0,1,0
569,2605,10483,expressbus,4G,0,0,0,0,0,1,0
583,2606,10483,expressbus,4G,0,0,0,0,0,1,0
599,2607,10483,expressbus,4G,0,0,0,0,0,1,0
613,2608,10483,expressbus,4G,0,0,0,0,0,1,0
627,2609,10483,expressbus,4G,0,0,0,0,0,1,0
641,2610,10483,expressbus,4G,0,0,0,0,0,1,0
653,2611,10483,expressbus,4G,0,0,0,0,0,1,0
668,2612,10483,expressbus,4G,0,0,0,0,0,1,0
680,2613,10483,expressbus,4G,0,0,0,0,0,1,0
695,2614,10483,expressbus,4G,0,0,0,0,0,1,0
707,2615,10483,expressbus,4G,0,0,0,0,0,1,0
719,2616,10483,expressbus,4G,0,0,0,0,0,1,0
731,2617,10483,expressbus,4G,0,0,0,0,0,1,0
743,2618,10483,expressbus,4G,0,0,0,0,0,1,0
758,2619,10483,expressbus,4G,0,0,0,0,0,1,0
774,2620,10483,expressbus,4G,0,0,0,0,0,1,0
787,2621,10483,expressbus,4G,0,0,0,0,0,1,0
798,2622,10483,expressbus,4G,0,0,0,0,0,1,0
811,2623,10483,expressbus,4G,0,0,0,0,0,1,0
824,2624,10483,expressbus,4G,0,0,0,0,0,1,0
838,2625,10483,expressbus,4G,0,0,0,0,0,1,0
850,2626,10483,expressbus,4G,0,0,0,0,0,1,0
860,2627,10483,expressbus,4G,0,0,0,0,0,1,0
874,2628,10483,expressbus,4G,0,0,0,0,0,1,0
887,2629,10483,expressbus,4G,0,0,0,0,0,1,0
898,2630,10483,expressbus,4G,0,0,0,0,0,1,0
910,2631,10483,expressbus,4G,0,0,0,0,0,1,0
922,2632,10483,expressbus,4G,0,0,0,0,0,1,0
935,2633,10483,expressbus,4G,0,0,0,0,0,1,0
949,2634,10483,expressbus,4G,0,0,0,0,0,1,0
960,2635,10483,expressbus,4G,0,0,0,0,0,1,0
972,2636,10483,expressbus,4G,0,0,0,0,0,1,0
984,2637,10483,expressbus,4G,0,0,0,0,0,1,0
994,2638,10483,expressbus,4G,0,0,0,0,0,1,0
1006,2639,10483,expressbus,4G,0,0,0,0,0,1,0
1018,2640,10483,expressbus,4G,0,0,0,0,0,1,0
1029,2641,10483,expressbus,4G,0,0,0,0,0,1,0
1044,2642,10483,expressbus,4G,0,0,0,0,0,1,0
1059,2643,10483,expressbus,4G,0,0,0,0,0,1,0
1073,2644,10483,expressbus,4G,0,0,0,0,0,1,0
1087,2645,10483,expressbus,4G,0,0,0,0,0,1,0
1106,2646,10483,expressbus,4G,0,0,0,0,0,1,0
1127,2647,10483,expressbus,4G,0,0,0,0,0,1,0
1146,2648,10483,expressbus,4G,0,0,0,0,0,1,0
1163,2649,10483,expressbus,4G,0,0,0,0,0,1,0
1181,2650,10483,expressbus,4G,0,0,0,0,0,1,0
1205,2651,10483,expressbus,4G,0,0,0,0,0,1,0
1218,2652,10483,expressbus,4G,0,0,0,0,0,1,0
1234,2653,10483,expressbus,4G,0,0,0,0,0,1,0
1247,2654,10483,expressbus,4G,0,0,0,0,0,1,0
1268,2655,10483,expressbus,4G,0,0,0,0,0,1,0
1283,2656,10483,expressbus,4G,0,0,0,0,0,1,0
1300,2657,10483,expressbus,4G,0,0,0,0,0,1,0
1314,2658,10483,expressbus,4G,0,0,0,0,0,1,0
1329,2659,10483,expressbus,4G,0,0,0,0,0,1,0
1344,2660,10483,expressbus,4G,0,0,0,0,0,1,0
1360,2661,10483,expressbus,4G,0,0,0,0,0,1,0
1379,2662,10483,expressbus,4G,0,0,0,0,0,1,0
1400,2663,10483,expressbus,4G,0,0,0,0,0,1,0
382,2664,10484,expressbus,4G,0,0,0,0,0,0,1
397,2665,10484,expressbus,4G,0,0,0,0,0,0,1
413,2666,10484,expressbus,4G,0,0,0,0,0,0,1
428,2667,10484,expressbus,4G,0,0,0,0,0,0,1
446,2668,10484,expressbus,4G,0,0,0,0,0,0,1
460,2669,10484,expressbus,4G,0,0,0,0,0,0,1
476,2670,10484,expressbus,4G,0,0,0,0,0,0,1
491,2671,10484,expressbus,4G,0,0,0,0,0,0,1
507,2672,10484,expressbus,4G,0,0,0,0,0,0,1
520,2673,10484,expressbus,4G,0,0,0,0,0,0,1
537,2674,10484,expressbus,4G,0,0,0,0,0,0,1
552,2675,10484,expressbus,4G,0,0,0,0,0,0,1
569,2676,10484,expressbus,4G,0,0,0,0,0,0,1
583,2677,10484,expressbus,4G,0,0,0,0,0,0,1
599,2678,10484,expressbus,4G,0,0,0,0,0,0,1
613,2679,10484,expressbus,4G,0,0,0,0,0,0,1
627,2680,10484,expressbus,4G,0,0,0,0,0,0,1
641,2681,10484,expressbus,4G,0,0,0,0,0,0,1
653,2682,10484,expressbus,4G,0,0,0,0,0,0,1
668,2683,10484,expressbus,4G,0,0,0,0,0,0,1
680,2684,10484,expressbus,4G,0,0,0,0,0,0,1
695,2685,10484,expressbus,4G,0,0,0,0,0,0,1
707,2686,10484,expressbus,4G,0,0,0,0,0,0,1
719,2687,10484,expressbus,4G,0,0,0,0,0,0,1
731,2688,10484,expressbus,4G,0,0,0,0,0,0,1
743,2689,10484,expressbus,4G,0,0,0,0,0,0,1
758,2690,10484,expressbus,4G,0,0,0,0,0,0,1
774,2691,10484,expressbus,4G,0,0,0,0,0,0,1
787,2692,10484,expressbus,4G,0,0,0,0,0,0,1
798,2693,10484,expressbus,4G,0,0,0,0,0,0,1
811,2694,10484,expressbus,4G,0,0,0,0,0,0,1
824,2695,10484,expressbus,4G,0,0,0,0,0,0,1
838,2696,10484,expressbus,4G,0,0,0,0,0,0,1
850,2697,10484,expressbus,4G,0,0,0,0,0,0,1
860,2698,10484,expressbus,4G,0,0,0,0,0,0,1
874,2699,10484,expressbus,4G,0,0,0,0,0,0,1
887,2700,10484,expressbus,4G,0,0,0,0,0,0,1
898,2701,10484,expressbus,4G,0,0,0,0,0,0,1
910,2702,10484,expressbus,4G,0,0,0,0,0,0,1
922,2703,10484,expressbus,4G,0,0,0,0,0,0,1
935,2704,10484,expressbus,4G,0,0,0,0,0,0,1
949,2705,10484,expressbus,4G,0,0,0,0,0,0,1
960,2706,10484,expressbus,4G,0,0,0,0,0,0,1
972,2707,10484,expressbus,4G,0,0,0,0,0,0,1
984,2708,10484,expressbus,4G,0,0,0,0,0,0,1
994,2709,10484,expressbus,4G,0,0,0,0,0,0,1
1006,2710,10484,expressbus,4G,0,0,0,0,0,0,1
1018,2711,10484,expressbus,4G,0,0,0,0,0,0,1
1029,2712,10484,expressbus,4G,0,0,0,0,0,0,1
1044,2713,10484,expressbus,4G,0,0,0,0,0,0,1
1059,2714,10484,expressbus,4G,0,0,0,0,0,0,1
1073,2715,10484,expressbus,4G,0,0,0,0,0,0,1
1087,2716,10484,expressbus,4G,0,0,0,0,0,0,1
1106,2717,10484,expressbus,4G,0,0,0,0,0,0,1
1127,2718,10484,expressbus,4G,0,0,0,0,0,0,1
1146,2719,10484,expressbus,4G,0,0,0,0,0,0,1
1163,2720,10484,expressbus,4G,0,0,0,0,0,0,1
1181,2721,10484,expressbus,4G,0,0,0,0,0,0,1
1205,2722,10484,expressbus,4G,0,0,0,0,0,0,1
1218,2723,10484,expressbus,4G,0,0,0,0,0,0,1
1234,2724,10484,expressbus,4G,0,0,0,0,0,0,1
1247,2725,10484,expressbus,4G,0,0,0,0,0,0,1
1268,2726,10484,expressbus,4G,0,0,0,0,0,0,1
1283,2727,10484,expressbus,4G,0,0,0,0,0,0,1
1300,2728,10484,expressbus,4G,0,0,0,0,0,0,1
1314,2729,10484,expressbus,4G,0,0,0,0,0,0,1
1329,2730,10484,expressbus,4G,0,0,0,0,0,0,1
1344,2731,10484,expressbus,4G,0,0,0,0,0,0,1
1360,2732,10484,expressbus,4G,0,0,0,0,0,0,1
1379,2733,10484,expressbus,4G,0,0,0,0,0,0,1
1400,2734,10484,expressbus,4G,0,0,0,0,0,0,1
308,3061,10482,expressbus,4G,1,1,1,1,1,0,0
325,3062,10482,expressbus,4G,1,1,1,1,1,0,0
313,3063,10483,expressbus,4G,0,0,0,0,0,1,0
359,3064,10484,expressbus,4G,0,0,0,0,0,0,1
350,3065,9930,bus,5,1,1,1,1,1,0,0
374,3066,9930,bus,5,1,1,1,1,1,0,0
398,3067,9930,bus,5,1,1,1,1,1,0,0
427,3068,9930,bus,5,1,1,1,1,1,0,0
451,3069,9930,bus,5,1,1,1,1,1,0,0
479,3070,9930,bus,5,1,1,1,1,1,0,0
506,3071,9930,bus,5,1,1,1,1,1,0,0
530,3072,9930,bus,5,1,1,1,1,1,0,0
559,3073,9930,bus,5,1,1,1,1,1,0,0
583,3074,9930,bus,5,1,1,1,1,1,0,0
607,3075,9930,bus,5,1,1,1,1,1,0,0
637,3076,9930,bus,5,1,1,1,1,1,0,0
684,3077,9930,bus,5,1,1,1,1,1,0,0
710,3078,9930,bus,5,1,1,1,1,1,0,0
739,3079,9930,bus,5,1,1,1,1,1,0,0
762,3080,9930,bus,5,1,1,1,1,1,0,0
786,3081,9930,bus,5,1,1,1,1,1,0,0
815,3082,9930,bus,5,1,1,1,1,1,0,0
838,3083,9930,bus,5,1,1,1,1,1,0,0
862,3084,9930,bus,5,1,1,1,1,1,0,0
891,3085,9930,bus,5,1,1,1,1,1,0,0
919,3086,9930,bus,5,1,1,1,1,1,0,0
943,3087,9930,bus,5,1,1,1,1,1,0,0
973,3088,9930,bus,5,1,1,1,1,1,0,0
996,3089,9930,bus,5,1,1,1,1,1,0,0
1020,3090,9930,bus,5,1,1,1,1,1,0,0
1050,3091,9930,bus,5,1,1,1,1,1,0,0
1076,3092,9930,bus,5,1,1,1,1,1,0,0
1101,3093,9930,bus,5,1,1,1,1,1,0,0
1131,3094,9930,bus,5,1,1,1,1,1,0,0
1156,3095,9930,bus,5,1,1,1,1,1,0,0
1182,3096,9930,bus,5,1,1,1,1,1,0,0
1230,3097,9930,bus,5,1,1,1,1,1,0,0
1253,3098,9930,bus,5,1,1,1,1,1,0,0
1278,3099,9930,bus,5,1,1,1,1,1,0,0
1302,3100,9930,bus,5,1,1,1,1,1,0,0
1323,3101,9930,bus,5,1,1,1,1,1,0,0
1348,3102,9930,bus,5,1,1,1,1,1,0,0
1373,3103,9930,bus,5,1,1,1,1,1,0,0
1391,3104,9930,bus,5,1,1,1,1,1,0,0
1412,3105,9930,bus,5,1,1,1,1,1,0,0
347,3106,9600,bus,5,0,0,0,0,0,1,0
415,3107,9600,bus,5,0,0,0,0,0,1,0
484,3108,9600,bus,5,0,0,0,0,0,1,0
552,3109,9600,bus,5,0,0,0,0,0,1,0
615,3110,9600,bus,5,0,0,0,0,0,1,0
648,3111,9600,bus,5,0,0,0,0,0,1,0
686,3112,9600,bus,5,0,0,0,0,0,1,0
743,3113,9600,bus,5,0,0,0,0,0,1,0
781,3114,9600,bus,5,0,0,0,0,0,1,0
816,3115,9600,bus,5,0,0,0,0,0,1,0
851,3116,9600,bus,5,0,0,0,0,0,1,0
896,3117,9600,bus,5,0,0,0,0,0,1,0
946,3118,9600,bus,5,0,0,0,0,0,1,0
975,3119,9600,bus,5,0,0,0,0,0,1,0
1018,3120,9600,bus,5,0,0,0,0,0,1,0
1048,3121,9600,bus,5,0,0,0,0,0,1,0
1088,3122,9600,bus,5,0,0,0,0,0,1,0
1142,3123,9600,bus,5,0,0,0,0,0,1,0
1209,3124,9600,bus,5,0,0,0,0,0,1,0
1276,3125,9600,bus,5,0,0,0,0,0,1,0
1342,3126,9600,bus,5,0,0,0,0,0,1,0
1408,3127,9600,bus,5,0,0,0,0,0,1,0
415,3128,9601,bus,5,0,0,0,0,0,0,1
484,3129,9601,bus,5,0,0,0,0,0,0,1
552,3130,9601,bus,5,0,0,0,0,0,0,1
615,3131,9601,bus,5,0,0,0,0,0,0,1
648,3132,9601,bus,5,0,0,0,0,0,0,1
686,3133,9601,bus,5,0,0,0,0,0,0,1
743,3134,9601,bus,5,0,0,0,0,0,0,1
781,3135,9601,bus,5,0,0,0,0,0,0,1
816,3136,9601,bus,5,0,0,0,0,0,0,1
851,3137,9601,bus,5,0,0,0,0,0,0,1
896,3138,9601,bus,5,0,0,0,0,0,0,1
946,3139,9601,bus,5,0,0,0,0,0,0,1
975,3140,9601,bus,5,0,0,0,0,0,0,1
1018,3141,9601,bus,5,0,0,0,0,0,0,1
1048,3142,9601,bus,5,0,0,0,0,0,0,1
1088,3143,9601,bus,5,0,0,0,0,0,0,1
1142,3144,9601,bus,5,0,0,0,0,0,0,1
1209,3145,9601,bus,5,0,0,0,0,0,0,1
1276,3146,9601,bus,5,0,0,0,0,0,0,1
1342,3147,9601,bus,5,0,0,0,0,0,0,1
1408,3148,9601,bus,5,0,0,0,0,0,0,1
1103,4364,10335,expressbus,6G,0,0,0,0,0,0,1
1128,4365,10335,expressbus,6G,0,0,0,0,0,0,1
1364,4366,10335,expressbus,6G,0,0,0,0,0,0,1
1395,4367,10335,expressbus,6G,0,0,0,0,0,0,1
1415,4368,10335,expressbus,6G,0,0,0,0,0,0,1
1438,4369,10335,expressbus,6G,0,0,0,0,0,0,1
1131,4370,10333,expressbus,6G,1,1,1,1,1,0,0
1152,4371,10333,expressbus,6G,1,1,1,1,1,0,0
1165,4372,10333,expressbus,6G,1,1,1,1,1,0,0
1188,4373,10333,expressbus,6G,1,1,1,1,1,0,0
1364,4374,10333,expressbus,6G,1,1,1,1,1,0,0
1391,4375,10333,expressbus,6G,1,1,1,1,1,0,0
1414,4376,10333,expressbus,6G,1,1,1,1,1,0,0
1432,4377,10333,expressbus,6G,1,1,1,1,1,0,0
1103,4378,10334,expressbus,6G,0,0,0,0,0,1,0
1128,4379,10334,expressbus,6G,0,0,0,0,0,1,0
1364,4380,10334,expressbus,6G,0,0,0,0,0,1,0
1395,4381,10334,expressbus,6G,0,0,0,0,0,1,0
1415,4382,10334,expressbus,6G,0,0,0,0,0,1,0
1438,4383,10334,expressbus,6G,0,0,0,0,0,1,0
1381,5395,10658,bus,12,1,1,1,1,1,0,0
1422,5396,10658,bus,12,1,1,1,1,1,0,0
1415,5397,10659,bus,12,0,0,0,0,0,1,0
1428,5398,10660,bus,12,0,0,0,0,0,0,1
1162,5596,8603,bus,13,1,1,1,1,1,0,0
1269,5659,10342,bus,14,0,0,0,0,0,1,1
1270,5660,10341,bus,14,1,1,1,1,1,0,0
1171,5880,10044,bus,16,1,1,1,1,1,0,0
1321,5881,10044,bus,16,1,1,1,1,1,0,0
1437,5882,10044,bus,16,1,1,1,1,1,0,0
1127,5883,10045,bus,16,0,0,0,0,0,1,0
1432,5884,10045,bus,16,0,0,0,0,0,1,0
1127,5885,10046,bus,16,0,0,0,0,0,0,1
1432,5886,10046,bus,16,0,0,0,0,0,0,1
1438,6227,10349,bus,18,0,0,0,0,0,1,0
1438,6228,10350,bus,18,0,0,0,0,0,0,1
1387,6451,10047,bus,19,1,1,1,1,1,0,0
1412,6452,10047,bus,19,1,1,1,1,1,0,0
1442,6453,10047,bus,19,1,1,1,1,1,0,0
1082,6454,10048,bus,19,0,0,0,0,0,1,0
1363,6455,10048,bus,19,0,0,0,0,0,1,0
1404,6456,10048,bus,19,0,0,0,0,0,1,0
1082,6457,10049,bus,19,0,0,0,0,0,0,1
1363,6458,10049,bus,19,0,0,0,0,0,0,1
1404,6459,10049,bus,19,0,0,0,0,0,0,1
1364,7211,9980,bus,23,1,1,1,1,1,0,0
1402,7212,9980,bus,23,1,1,1,1,1,0,0
1400,7213,9982,bus,23,0,0,0,0,0,0,1
1400,7214,9981,bus,23,0,0,0,0,0,1,0
1413,8835,10365,bus,31,0,0,0,0,0,1,0
1433,8836,10365,bus,31,0,0,0,0,0,1,0
1413,8837,10366,bus,31,0,0,0,0,0,0,1
1433,8838,10366,bus,31,0,0,0,0,0,0,1
1141,8839,10608,bus,31,1,1,1,1,1,0,0
1174,8840,10608,bus,31,1,1,1,1,1,0,0
1354,8841,10608,bus,31,1,1,1,1,1,0,0
1391,8842,10608,bus,31,1,1,1,1,1,0,0
1437,8843,10608,bus,31,1,1,1,1,1,0,0
1431,8844,10365,bus,31,0,0,0,0,0,1,0
1448,8845,10365,bus,31,0,0,0,0,0,1,0
1431,8846,10366,bus,31,0,0,0,0,0,0,1
1448,8847,10366,bus,31,0,0,0,0,0,0,1
1390,10607,8030,bus,41,1,1,1,1,1,0,0
1349,10608,8031,bus,41,0,0,0,0,0,1,0
1349,10609,10248,bus,41,0,0,0,0,0,0,1
1187,10788,9629,bus,42,1,1,1,1,1,0,0
1373,10789,9629,bus,42,1,1,1,1,1,0,0
1417,10790,9629,bus,42,1,1,1,1,1,0,0
1378,10791,9630,bus,42,0,0,0,0,0,1,0
1404,10792,9630,bus,42,0,0,0,0,0,1,0
1378,10793,9631,bus,42,0,0,0,0,0,0,1
1404,10794,9631,bus,42,0,0,0,0,0,0,1
1118,13584,9756,bus,58,1,1,1,1,1,0,0
1401,13585,9756,bus,58,1,1,1,1,1,0,0
1377,13586,9136,bus,58,0,0,0,0,0,1,0
1377,13587,9137,bus,58,0,0,0,0,0,0,1
1355,14189,10201,bus,67,1,1,1,1,1,0,0
1355,14190,10202,bus,67,0,0,0,0,0,1,0
1355,14191,10203,bus,67,0,0,0,0,0,0,1
1036,14929,10406,bus,74,0,0,0,0,0,0,1
1142,14930,10404,bus,74,1,1,1,1,1,0,0
1152,14931,10404,bus,74,1,1,1,1,1,0,0
1182,14932,10404,bus,74,1,1,1,1,1,0,0
1384,14933,10404,bus,74,1,1,1,1,1,0,0
1036,14934,10405,bus,74,0,0,0,0,0,1,0
1407,14935,10406,bus,74,0,0,0,0,0,0,1
1438,14936,10406,bus,74,0,0,0,0,0,0,1
1392,14937,10404,bus,74,1,1,1,1,1,0,0
1431,14938,10404,bus,74,1,1,1,1,1,0,0
1407,14939,10405,bus,74,0,0,0,0,0,1,0
1438,14940,10405,bus,74,0,0,0,0,0,1,0
1157,15398,10408,bus,78,1,1,1,1,1,0,0
1394,15399,10408,bus,78,1,1,1,1,1,0,0
1434,15400,10408,bus,78,1,1,1,1,1,0,0
1412,15401,8037,bus,78,0,0,0,0,0,1,0
1443,15402,8037,bus,78,0,0,0,0,0,1,0
1412,15403,8038,bus,78,0,0,0,0,0,0,1
1443,15404,8038,bus,78,0,0,0,0,0,0,1
1360,15576,10053,bus,82,1,1,1,1,1,0,0
1402,15577,10053,bus,82,1,1,1,1,1,0,0
1386,15578,10054,bus,82,0,0,0,0,0,1,0
1422,15579,10054,bus,82,0,0,0,0,0,1,0
1386,15580,10055,bus,82,0,0,0,0,0,0,1
1422,15581,10055,bus,82,0,0,0,0,0,0,1
1478,16375,9972,nightbus,104N,0,0,0,0,1,1,0
1528,16376,9972,nightbus,104N,0,0,0,0,1,1,0
1577,16377,9972,nightbus,104N,0,0,0,0,1,1,0
1623,16379,9972,nightbus,104N,0,0,0,0,1,1,0
357,19938,10452,trol,9,1,1,1,1,1,0,0
378,19939,10452,trol,9,1,1,1,1,1,0,0
390,19940,10452,trol,9,1,1,1,1,1,0,0
408,19941,10452,trol,9,1,1,1,1,1,0,0
427,19942,10452,trol,9,1,1,1,1,1,0,0
441,19943,10452,trol,9,1,1,1,1,1,0,0
450,19944,10452,trol,9,1,1,1,1,1,0,0
458,19945,10452,trol,9,1,1,1,1,1,0,0
468,19946,10452,trol,9,1,1,1,1,1,0,0
475,19947,10452,trol,9,1,1,1,1,1,0,0
485,19948,10452,trol,9,1,1,1,1,1,0,0
491,19949,10452,trol,9,1,1,1,1,1,0,0
501,19950,10452,trol,9,1,1,1,1,1,0,0
510,19951,10452,trol,9,1,1,1,1,1,0,0
517,19952,10452,trol,9,1,1,1,1,1,0,0
526,19953,10452,trol,9,1,1,1,1,1,0,0
535,19954,10452,trol,9,1,1,1,1,1,0,0
543,19955,10452,trol,9,1,1,1,1,1,0,0
551,19956,10452,trol,9,1,1,1,1,1,0,0
560,19957,10452,trol,9,1,1,1,1,1,0,0
570,19958,10452,trol,9,1,1,1,1,1,0,0
579,19959,10452,trol,9,1,1,1,1,1,0,0
592,19960,10452,trol,9,1,1,1,1,1,0,0
600,19961,10452,trol,9,1,1,1,1,1,0,0
613,19962,10452,trol,9,1,1,1,1,1,0,0
624,19963,10452,trol,9,1,1,1,1,1,0,0
638,19964,10452,trol,9,1,1,1,1,1,0,0
653,19965,10452,trol,9,1,1,1,1,1,0,0
670,19966,10452,trol,9,1,1,1,1,1,0,0
685,19967,10452,trol,9,1,1,1,1,1,0,0
697,19968,10452,trol,9,1,1,1,1,1,0,0
715,19969,10452,trol,9,1,1,1,1,1,0,0
733,19970,10452,trol,9,1,1,1,1,1,0,0
750,19971,10452,trol,9,1,1,1,1,1,0,0
765,19972,10452,trol,9,1,1,1,1,1,0,0
780,19973,10452,trol,9,1,1,1,1,1,0,0
797,19974,10452,trol,9,1,1,1,1,1,0,0
814,19975,10452,trol,9,1,1,1,1,1,0,0
830,19976,10452,trol,9,1,1,1,1,1,0,0
843,19977,10452,trol,9,1,1,1,1,1,0,0
860,19978,10452,trol,9,1,1,1,1,1,0,0
879,19979,10452,trol,9,1,1,1,1,1,0,0
898,19980,10452,trol,9,1,1,1,1,1,0,0
915,19981,10452,trol,9,1,1,1,1,1,0,0
924,19982,10452,trol,9,1,1,1,1,1,0,0
937,19983,10452,trol,9,1,1,1,1,1,0,0
946,19984,10452,trol,9,1,1,1,1,1,0,0
956,19985,10452,trol,9,1,1,1,1,1,0,0
968,19986,10452,trol,9,1,1,1,1,1,0,0
978,19987,10452,trol,9,1,1,1,1,1,0,0
985,19988,10452,trol,9,1,1,1,1,1,0,0
992,19989,10452,trol,9,1,1,1,1,1,0,0
1000,19990,10452,trol,9,1,1,1,1,1,0,0
1009,19991,10452,trol,9,1,1,1,1,1,0,0
1016,19992,10452,trol,9,1,1,1,1,1,0,0
1023,19993,10452,trol,9,1,1,1,1,1,0,0
1031,19994,10452,trol,9,1,1,1,1,1,0,0
1037,19995,10452,trol,9,1,1,1,1,1,0,0
1048,19996,10452,trol,9,1,1,1,1,1,0,0
1056,19997,10452,trol,9,1,1,1,1,1,0,0
1065,19998,10452,trol,9,1,1,1,1,1,0,0
1077,19999,10452,trol,9,1,1,1,1,1,0,0
1084,20000,10452,trol,9,1,1,1,1,1,0,0
1092,20001,10452,trol,9,1,1,1,1,1,0,0
1102,20002,10452,trol,9,1,1,1,1,1,0,0
1110,20003,10452,trol,9,1,1,1,1,1,0,0
1120,20004,10452,trol,9,1,1,1,1,1,0,0
1127,20005,10452,trol,9,1,1,1,1,1,0,0
1137,20006,10452,trol,9,1,1,1,1,1,0,0
1147,20007,10452,trol,9,1,1,1,1,1,0,0
1154,20008,10452,trol,9,1,1,1,1,1,0,0
1162,20009,10452,trol,9,1,1,1,1,1,0,0
1169,20010,10452,trol,9,1,1,1,1,1,0,0
1179,20011,10452,trol,9,1,1,1,1,1,0,0
1189,20012,10452,trol,9,1,1,1,1,1,0,0
1199,20013,10452,trol,9,1,1,1,1,1,0,0
1213,20014,10452,trol,9,1,1,1,1,1,0,0
1231,20015,10452,trol,9,1,1,1,1,1,0,0
1248,20016,10452,trol,9,1,1,1,1,1,0,0
1262,20017,10452,trol,9,1,1,1,1,1,0,0
1279,20018,10452,trol,9,1,1,1,1,1,0,0
1291,20019,10452,trol,9,1,1,1,1,1,0,0
1308,20020,10452,trol,9,1,1,1,1,1,0,0
1323,20021,10452,trol,9,1,1,1,1,1,0,0
1341,20022,10452,trol,9,1,1,1,1,1,0,0
1354,20023,10452,trol,9,1,1,1,1,1,0,0
1372,20024,10452,trol,9,1,1,1,1,1,0,0
1386,20025,10452,trol,9,1,1,1,1,1,0,0
1402,20026,10452,trol,9,1,1,1,1,1,0,0
1418,20027,10452,trol,9,1,1,1,1,1,0,0
368,20028,10453,trol,9,0,0,0,0,0,1,0
402,20029,10453,trol,9,0,0,0,0,0,1,0
425,20030,10453,trol,9,0,0,0,0,0,1,0
447,20031,10453,trol,9,0,0,0,0,0,1,0
475,20032,10453,trol,9,0,0,0,0,0,1,0
492,20033,10453,trol,9,0,0,0,0,0,1,0
514,20034,10453,trol,9,0,0,0,0,0,1,0
524,20035,10453,trol,9,0,0,0,0,0,1,0
549,20036,10453,trol,9,0,0,0,0,0,1,0
570,20037,10453,trol,9,0,0,0,0,0,1,0
590,20038,10453,trol,9,0,0,0,0,0,1,0
614,20039,10453,trol,9,0,0,0,0,0,1,0
628,20040,10453,trol,9,0,0,0,0,0,1,0
647,20041,10453,trol,9,0,0,0,0,0,1,0
658,20042,10453,trol,9,0,0,0,0,0,1,0
669,20043,10453,trol,9,0,0,0,0,0,1,0
688,20044,10453,trol,9,0,0,0,0,0,1,0
704,20045,10453,trol,9,0,0,0,0,0,1,0
718,20046,10453,trol,9,0,0,0,0,0,1,0
735,20047,10453,trol,9,0,0,0,0,0,1,0
751,20048,10453,trol,9,0,0,0,0,0,1,0
760,20049,10453,trol,9,0,0,0,0,0,1,0
778,20050,10453,trol,9,0,0,0,0,0,1,0
793,20051,10453,trol,9,0,0,0,0,0,1,0
802,20052,10453,trol,9,0,0,0,0,0,1,0
825,20053,10453,trol,9,0,0,0,0,0,1,0
836,20054,10453,trol,9,0,0,0,0,0,1,0
847,20055,10453,trol,9,0,0,0,0,0,1,0
863,20056,10453,trol,9,0,0,0,0,0,1,0
874,20057,10453,trol,9,0,0,0,0,0,1,0
885,20058,10453,trol,9,0,0,0,0,0,1,0
900,20059,10453,trol,9,0,0,0,0,0,1,0
917,20060,10453,trol,9,0,0,0,0,0,1,0
930,20061,10453,trol,9,0,0,0,0,0,1,0
947,20062,10453,trol,9,0,0,0,0,0,1,0
964,20063,10453,trol,9,0,0,0,0,0,1,0
977,20064,10453,trol,9,0,0,0,0,0,1,0
989,20065,10453,trol,9,0,0,0,0,0,1,0
1008,20066,10453,trol,9,0,0,0,0,0,1,0
1019,20067,10453,trol,9,0,0,0,0,0,1,0
1033,20068,10453,trol,9,0,0,0,0,0,1,0
1043,20069,10453,trol,9,0,0,0,0,0,1,0
1058,20070,10453,trol,9,0,0,0,0,0,1,0
1074,20071,10453,trol,9,0,0,0,0,0,1,0
1086,20072,10453,trol,9,0,0,0,0,0,1,0
1103,20073,10453,trol,9,0,0,0,0,0,1,0
1122,20074,10453,trol,9,0,0,0,0,0,1,0
1150,20075,10453,trol,9,0,0,0,0,0,1,0
1173,20076,10453,trol,9,0,0,0,0,0,1,0
1196,20077,10453,trol,9,0,0,0,0,0,1,0
1222,20078,10453,trol,9,0,0,0,0,0,1,0
1235,20079,10453,trol,9,0,0,0,0,0,1,0
1252,20080,10453,trol,9,0,0,0,0,0,1,0
1275,20081,10453,trol,9,0,0,0,0,0,1,0
1295,20082,10453,trol,9,0,0,0,0,0,1,0
1309,20083,10453,trol,9,0,0,0,0,0,1,0
1333,20084,10453,trol,9,0,0,0,0,0,1,0
1351,20085,10453,trol,9,0,0,0,0,0,1,0
1384,20086,10453,trol,9,0,0,0,0,0,1,0
1409,20087,10453,trol,9,0,0,0,0,0,1,0
1425,20088,10453,trol,9,0,0,0,0,0,1,0
402,20089,10454,trol,9,0,0,0,0,0,0,1
425,20090,10454,trol,9,0,0,0,0,0,0,1
447,20091,10454,trol,9,0,0,0,0,0,0,1
475,20092,10454,trol,9,0,0,0,0,0,0,1
492,20093,10454,trol,9,0,0,0,0,0,0,1
514,20094,10454,trol,9,0,0,0,0,0,0,1
524,20095,10454,trol,9,0,0,0,0,0,0,1
549,20096,10454,trol,9,0,0,0,0,0,0,1
570,20097,10454,trol,9,0,0,0,0,0,0,1
590,20098,10454,trol,9,0,0,0,0,0,0,1
614,20099,10454,trol,9,0,0,0,0,0,0,1
628,20100,10454,trol,9,0,0,0,0,0,0,1
647,20101,10454,trol,9,0,0,0,0,0,0,1
658,20102,10454,trol,9,0,0,0,0,0,0,1
669,20103,10454,trol,9,0,0,0,0,0,0,1
688,20104,10454,trol,9,0,0,0,0,0,0,1
704,20105,10454,trol,9,0,0,0,0,0,0,1
718,20106,10454,trol,9,0,0,0,0,0,0,1
735,20107,10454,trol,9,0,0,0,0,0,0,1
751,20108,10454,trol,9,0,0,0,0,0,0,1
760,20109,10454,trol,9,0,0,0,0,0,0,1
778,20110,10454,trol,9,0,0,0,0,0,0,1
793,20111,10454,trol,9,0,0,0,0,0,0,1
802,20112,10454,trol,9,0,0,0,0,0,0,1
825,20113,10454,trol,9,0,0,0,0,0,0,1
836,20114,10454,trol,9,0,0,0,0,0,0,1
847,20115,10454,trol,9,0,0,0,0,0,0,1
863,20116,10454,trol,9,0,0,0,0,0,0,1
874,20117,10454,trol,9,0,0,0,0,0,0,1
885,20118,10454,trol,9,0,0,0,0,0,0,1
900,20119,10454,trol,9,0,0,0,0,0,0,1
917,20120,10454,trol,9,0,0,0,0,0,0,1
930,20121,10454,trol,9,0,0,0,0,0,0,1
947,20122,10454,trol,9,0,0,0,0,0,0,1
964,20123,10454,trol,9,0,0,0,0,0,0,1
977,20124,10454,trol,9,0,0,0,0,0,0,1
989,20125,10454,trol,9,0,0,0,0,0,0,1
1008,20126,10454,trol,9,0,0,0,0,0,0,1
1019,20127,10454,trol,9,0,0,0,0,0,0,1
1033,20128,10454,trol,9,0,0,0,0,0,0,1
1043,20129,10454,trol,9,0,0,0,0,0,0,1
1058,20130,10454,trol,9,0,0,0,0,0,0,1
1074,20131,10454,trol,9,0,0,0,0,0,0,1
1086,20132,10454,trol,9,0,0,0,0,0,0,1
1103,20133,10454,trol,9,0,0,0,0,0,0,1
1122,20134,10454,trol,9,0,0,0,0,0,0,1
1150,20135,10454,trol,9,0,0,0,0,0,0,1
1173,20136,10454,trol,9,0,0,0,0,0,0,1
1196,20137,10454,trol,9,0,0,0,0,0,0,1
1222,20138,10454,trol,9,0,0,0,0,0,0,1
1235,20139,10454,trol,9,0,0,0,0,0,0,1
1252,20140,10454,trol,9,0,0,0,0,0,0,1
1275,20141,10454,trol,9,0,0,0,0,0,0,1
1295,20142,10454,trol,9,0,0,0,0,0,0,1
1309,20143,10454,trol,9,0,0,0,0,0,0,1
1333,20144,10454,trol,9,0,0,0,0,0,0,1
1351,20145,10454,trol,9,0,0,0,0,0,0,1
1384,20146,10454,trol,9,0,0,0,0,0,0,1
1409,20147,10454,trol,9,0,0,0,0,0,0,1
1425,20148,10454,trol,9,0,0,0,0,0,0,1
368,20405,10454,trol,9,0,0,0,0,0,0,1
427,20982,10460,trol,12,0,0,0,0,0,0,1
451,20983,10460,trol,12,0,0,0,0,0,0,1
476,20984,10460,trol,12,0,0,0,0,0,0,1
499,20985,10460,trol,12,0,0,0,0,0,0,1
514,20986,10460,trol,12,0,0,0,0,0,0,1
534,20987,10460,trol,12,0,0,0,0,0,0,1
556,20988,10460,trol,12,0,0,0,0,0,0,1
583,20989,10460,trol,12,0,0,0,0,0,0,1
605,20990,10460,trol,12,0,0,0,0,0,0,1
624,20991,10460,trol,12,0,0,0,0,0,0,1
649,20992,10460,trol,12,0,0,0,0,0,0,1
676,20993,10460,trol,12,0,0,0,0,0,0,1
695,20994,10460,trol,12,0,0,0,0,0,0,1
721,20995,10460,trol,12,0,0,0,0,0,0,1
745,20996,10460,trol,12,0,0,0,0,0,0,1
761,20997,10460,trol,12,0,0,0,0,0,0,1
781,20998,10460,trol,12,0,0,0,0,0,0,1
799,20999,10460,trol,12,0,0,0,0,0,0,1
822,21000,10460,trol,12,0,0,0,0,0,0,1
841,21001,10460,trol,12,0,0,0,0,0,0,1
859,21002,10460,trol,12,0,0,0,0,0,0,1
885,21003,10460,trol,12,0,0,0,0,0,0,1
909,21004,10460,trol,12,0,0,0,0,0,0,1
921,21005,10460,trol,12,0,0,0,0,0,0,1
936,21006,10460,trol,12,0,0,0,0,0,0,1
959,21007,10460,trol,12,0,0,0,0,0,0,1
976,21008,10460,trol,12,0,0,0,0,0,0,1
999,21009,10460,trol,12,0,0,0,0,0,0,1
1021,21010,10460,trol,12,0,0,0,0,0,0,1
1041,21011,10460,trol,12,0,0,0,0,0,0,1
1053,21012,10460,trol,12,0,0,0,0,0,0,1
1069,21013,10460,trol,12,0,0,0,0,0,0,1
1095,21014,10460,trol,12,0,0,0,0,0,0,1
1119,21015,10460,trol,12,0,0,0,0,0,0,1
1143,21016,10460,trol,12,0,0,0,0,0,0,1
1166,21017,10460,trol,12,0,0,0,0,0,0,1
1203,21018,10460,trol,12,0,0,0,0,0,0,1
1230,21019,10460,trol,12,0,0,0,0,0,0,1
1253,21020,10460,trol,12,0,0,0,0,0,0,1
1282,21021,10460,trol,12,0,0,0,0,0,0,1
1307,21022,10460,trol,12,0,0,0,0,0,0,1
1327,21023,10460,trol,12,0,0,0,0,0,0,1
1347,21024,10460,trol,12,0,0,0,0,0,0,1
1370,21025,10460,trol,12,0,0,0,0,0,0,1
1398,21026,10460,trol,12,0,0,0,0,0,0,1
1419,21027,10460,trol,12,0,0,0,0,0,0,1
387,21028,10458,trol,12,1,1,1,1,1,0,0
406,21029,10458,trol,12,1,1,1,1,1,0,0
421,21030,10458,trol,12,1,1,1,1,1,0,0
436,21031,10458,trol,12,1,1,1,1,1,0,0
451,21032,10458,trol,12,1,1,1,1,1,0,0
463,21033,10458,trol,12,1,1,1,1,1,0,0
480,21034,10458,trol,12,1,1,1,1,1,0,0
495,21035,10458,trol,12,1,1,1,1,1,0,0
506,21036,10458,trol,12,1,1,1,1,1,0,0
518,21037,10458,trol,12,1,1,1,1,1,0,0
529,21038,10458,trol,12,1,1,1,1,1,0,0
540,21039,10458,trol,12,1,1,1,1,1,0,0
548,21040,10458,trol,12,1,1,1,1,1,0,0
562,21041,10458,trol,12,1,1,1,1,1,0,0
573,21042,10458,trol,12,1,1,1,1,1,0,0
588,21043,10458,trol,12,1,1,1,1,1,0,0
605,21044,10458,trol,12,1,1,1,1,1,0,0
620,21045,10458,trol,12,1,1,1,1,1,0,0
636,21046,10458,trol,12,1,1,1,1,1,0,0
649,21047,10458,trol,12,1,1,1,1,1,0,0
663,21048,10458,trol,12,1,1,1,1,1,0,0
682,21049,10458,trol,12,1,1,1,1,1,0,0
697,21050,10458,trol,12,1,1,1,1,1,0,0
714,21051,10458,trol,12,1,1,1,1,1,0,0
731,21052,10458,trol,12,1,1,1,1,1,0,0
748,21053,10458,trol,12,1,1,1,1,1,0,0
762,21054,10458,trol,12,1,1,1,1,1,0,0
773,21055,10458,trol,12,1,1,1,1,1,0,0
789,21056,10458,trol,12,1,1,1,1,1,0,0
804,21057,10458,trol,12,1,1,1,1,1,0,0
818,21058,10458,trol,12,1,1,1,1,1,0,0
833,21059,10458,trol,12,1,1,1,1,1,0,0
845,21060,10458,trol,12,1,1,1,1,1,0,0
863,21061,10458,trol,12,1,1,1,1,1,0,0
883,21062,10458,trol,12,1,1,1,1,1,0,0
896,21063,10458,trol,12,1,1,1,1,1,0,0
911,21064,10458,trol,12,1,1,1,1,1,0,0
924,21065,10458,trol,12,1,1,1,1,1,0,0
941,21066,10458,trol,12,1,1,1,1,1,0,0
957,21067,10458,trol,12,1,1,1,1,1,0,0
972,21068,10458,trol,12,1,1,1,1,1,0,0
991,21069,10458,trol,12,1,1,1,1,1,0,0
1003,21070,10458,trol,12,1,1,1,1,1,0,0
1016,21071,10458,trol,12,1,1,1,1,1,0,0
1026,21072,10458,trol,12,1,1,1,1,1,0,0
1038,21073,10458,trol,12,1,1,1,1,1,0,0
1052,21074,10458,trol,12,1,1,1,1,1,0,0
1064,21075,10458,trol,12,1,1,1,1,1,0,0
1074,21076,10458,trol,12,1,1,1,1,1,0,0
1091,21077,10458,trol,12,1,1,1,1,1,0,0
1109,21078,10458,trol,12,1,1,1,1,1,0,0
1126,21079,10458,trol,12,1,1,1,1,1,0,0
1140,21080,10458,trol,12,1,1,1,1,1,0,0
1151,21081,10458,trol,12,1,1,1,1,1,0,0
1162,21082,10458,trol,12,1,1,1,1,1,0,0
1172,21083,10458,trol,12,1,1,1,1,1,0,0
1185,21084,10458,trol,12,1,1,1,1,1,0,0
1206,21085,10458,trol,12,1,1,1,1,1,0,0
1218,21086,10458,trol,12,1,1,1,1,1,0,0
1233,21087,10458,trol,12,1,1,1,1,1,0,0
1251,21088,10458,trol,12,1,1,1,1,1,0,0
1272,21089,10458,trol,12,1,1,1,1,1,0,0
1281,21090,10458,trol,12,1,1,1,1,1,0,0
1293,21091,10458,trol,12,1,1,1,1,1,0,0
1306,21092,10458,trol,12,1,1,1,1,1,0,0
1323,21093,10458,trol,12,1,1,1,1,1,0,0
1338,21094,10458,trol,12,1,1,1,1,1,0,0
1351,21095,10458,trol,12,1,1,1,1,1,0,0
1371,21096,10458,trol,12,1,1,1,1,1,0,0
1385,21097,10458,trol,12,1,1,1,1,1,0,0
1408,21098,10458,trol,12,1,1,1,1,1,0,0
1420,21099,10458,trol,12,1,1,1,1,1,0,0
427,21100,10459,trol,12,0,0,0,0,0,1,0
451,21101,10459,trol,12,0,0,0,0,0,1,0
476,21102,10459,trol,12,0,0,0,0,0,1,0
499,21103,10459,trol,12,0,0,0,0,0,1,0
514,21104,10459,trol,12,0,0,0,0,0,1,0
534,21105,10459,trol,12,0,0,0,0,0,1,0
556,21106,10459,trol,12,0,0,0,0,0,1,0
583,21107,10459,trol,12,0,0,0,0,0,1,0
605,21108,10459,trol,12,0,0,0,0,0,1,0
624,21109,10459,trol,12,0,0,0,0,0,1,0
649,21110,10459,trol,12,0,0,0,0,0,1,0
676,21111,10459,trol,12,0,0,0,0,0,1,0
695,21112,10459,trol,12,0,0,0,0,0,1,0
721,21113,10459,trol,12,0,0,0,0,0,1,0
745,21114,10459,trol,12,0,0,0,0,0,1,0
761,21115,10459,trol,12,0,0,0,0,0,1,0
781,21116,10459,trol,12,0,0,0,0,0,1,0
799,21117,10459,trol,12,0,0,0,0,0,1,0
822,21118,10459,trol,12,0,0,0,0,0,1,0
841,21119,10459,trol,12,0,0,0,0,0,1,0
859,21120,10459,trol,12,0,0,0,0,0,1,0
885,21121,10459,trol,12,0,0,0,0,0,1,0
909,21122,10459,trol,12,0,0,0,0,0,1,0
921,21123,10459,trol,12,0,0,0,0,0,1,0
936,21124,10459,trol,12,0,0,0,0,0,1,0
959,21125,10459,trol,12,0,0,0,0,0,1,0
976,21126,10459,trol,12,0,0,0,0,0,1,0
999,21127,10459,trol,12,0,0,0,0,0,1,0
1021,21128,10459,trol,12,0,0,0,0,0,1,0
1041,21129,10459,trol,12,0,0,0,0,0,1,0
1053,21130,10459,trol,12,0,0,0,0,0,1,0
1069,21131,10459,trol,12,0,0,0,0,0,1,0
1095,21132,10459,trol,12,0,0,0,0,0,1,0
1119,21133,10459,trol,12,0,0,0,0,0,1,0
1143,21134,10459,trol,12,0,0,0,0,0,1,0
1166,21135,10459,trol,12,0,0,0,0,0,1,0
1203,21136,10459,trol,12,0,0,0,0,0,1,0
1230,21137,10459,trol,12,0,0,0,0,0,1,0
1253,21138,10459,trol,12,0,0,0,0,0,1,0
1282,21139,10459,trol,12,0,0,0,0,0,1,0
1307,21140,10459,trol,12,0,0,0,0,0,1,0
1327,21141,10459,trol,12,0,0,0,0,0,1,0
1347,21142,10459,trol,12,0,0,0,0,0,1,0
1370,21143,10459,trol,12,0,0,0,0,0,1,0
1398,21144,10459,trol,12,0,0,0,0,0,1,0
1419,21145,10459,trol,12,0,0,0,0,0,1,0
1448,21166,10460,trol,12,0,0,0,0,0,0,1
1448,21167,10459,trol,12,0,0,0,0,0,1,0
392,22446,10471,trol,17,0,0,0,0,0,0,1
416,22447,10471,trol,17,0,0,0,0,0,0,1
446,22448,10471,trol,17,0,0,0,0,0,0,1
468,22449,10471,trol,17,0,0,0,0,0,0,1
480,22450,10471,trol,17,0,0,0,0,0,0,1
497,22451,10471,trol,17,0,0,0,0,0,0,1
511,22452,10471,trol,17,0,0,0,0,0,0,1
525,22453,10471,trol,17,0,0,0,0,0,0,1
541,22454,10471,trol,17,0,0,0,0,0,0,1
553,22455,10471,trol,17,0,0,0,0,0,0,1
569,22456,10471,trol,17,0,0,0,0,0,0,1
587,22457,10471,trol,17,0,0,0,0,0,0,1
598,22458,10471,trol,17,0,0,0,0,0,0,1
612,22459,10471,trol,17,0,0,0,0,0,0,1
625,22460,10471,trol,17,0,0,0,0,0,0,1
634,22461,10471,trol,17,0,0,0,0,0,0,1
648,22462,10471,trol,17,0,0,0,0,0,0,1
658,22463,10471,trol,17,0,0,0,0,0,0,1
671,22464,10471,trol,17,0,0,0,0,0,0,1
683,22465,10471,trol,17,0,0,0,0,0,0,1
693,22466,10471,trol,17,0,0,0,0,0,0,1
701,22467,10471,trol,17,0,0,0,0,0,0,1
710,22468,10471,trol,17,0,0,0,0,0,0,1
722,22469,10471,trol,17,0,0,0,0,0,0,1
735,22470,10471,trol,17,0,0,0,0,0,0,1
745,22471,10471,trol,17,0,0,0,0,0,0,1
759,22472,10471,trol,17,0,0,0,0,0,0,1
772,22473,10471,trol,17,0,0,0,0,0,0,1
784,22474,10471,trol,17,0,0,0,0,0,0,1
794,22475,10471,trol,17,0,0,0,0,0,0,1
805,22476,10471,trol,17,0,0,0,0,0,0,1
818,22477,10471,trol,17,0,0,0,0,0,0,1
825,22478,10471,trol,17,0,0,0,0,0,0,1
839,22479,10471,trol,17,0,0,0,0,0,0,1
850,22480,10471,trol,17,0,0,0,0,0,0,1
860,22481,10471,trol,17,0,0,0,0,0,0,1
872,22482,10471,trol,17,0,0,0,0,0,0,1
882,22483,10471,trol,17,0,0,0,0,0,0,1
893,22484,10471,trol,17,0,0,0,0,0,0,1
904,22485,10471,trol,17,0,0,0,0,0,0,1
915,22486,10471,trol,17,0,0,0,0,0,0,1
924,22487,10471,trol,17,0,0,0,0,0,0,1
934,22488,10471,trol,17,0,0,0,0,0,0,1
946,22489,10471,trol,17,0,0,0,0,0,0,1
958,22490,10471,trol,17,0,0,0,0,0,0,1
966,22491,10471,trol,17,0,0,0,0,0,0,1
978,22492,10471,trol,17,0,0,0,0,0,0,1
991,22493,10471,trol,17,0,0,0,0,0,0,1
1003,22494,10471,trol,17,0,0,0,0,0,0,1
1011,22495,10471,trol,17,0,0,0,0,0,0,1
1021,22496,10471,trol,17,0,0,0,0,0,0,1
1029,22497,10471,trol,17,0,0,0,0,0,0,1
1044,22498,10471,trol,17,0,0,0,0,0,0,1
1055,22499,10471,trol,17,0,0,0,0,0,0,1
1062,22500,10471,trol,17,0,0,0,0,0,0,1
1073,22501,10471,trol,17,0,0,0,0,0,0,1
1081,22502,10471,trol,17,0,0,0,0,0,0,1
1095,22503,10471,trol,17,0,0,0,0,0,0,1
1118,22504,10471,trol,17,0,0,0,0,0,0,1
1136,22505,10471,trol,17,0,0,0,0,0,0,1
1151,22506,10471,trol,17,0,0,0,0,0,0,1
1174,22507,10471,trol,17,0,0,0,0,0,0,1
1189,22508,10471,trol,17,0,0,0,0,0,0,1
1206,22509,10471,trol,17,0,0,0,0,0,0,1
1220,22510,10471,trol,17,0,0,0,0,0,0,1
1237,22511,10471,trol,17,0,0,0,0,0,0,1
1255,22512,10471,trol,17,0,0,0,0,0,0,1
1268,22513,10471,trol,17,0,0,0,0,0,0,1
1283,22514,10471,trol,17,0,0,0,0,0,0,1
1300,22515,10471,trol,17,0,0,0,0,0,0,1
1311,22516,10471,trol,17,0,0,0,0,0,0,1
1327,22517,10471,trol,17,0,0,0,0,0,0,1
1339,22518,10471,trol,17,0,0,0,0,0,0,1
1355,22519,10471,trol,17,0,0,0,0,0,0,1
1366,22520,10471,trol,17,0,0,0,0,0,0,1
1387,22521,10471,trol,17,0,0,0,0,0,0,1
1415,22522,10471,trol,17,0,0,0,0,0,0,1
353,22523,10469,trol,17,1,1,1,1,1,0,0
369,22524,10469,trol,17,1,1,1,1,1,0,0
388,22525,10469,trol,17,1,1,1,1,1,0,0
406,22526,10469,trol,17,1,1,1,1,1,0,0
419,22527,10469,trol,17,1,1,1,1,1,0,0
436,22528,10469,trol,17,1,1,1,1,1,0,0
443,22529,10469,trol,17,1,1,1,1,1,0,0
451,22530,10469,trol,17,1,1,1,1,1,0,0
456,22531,10469,trol,17,1,1,1,1,1,0,0
464,22532,10469,trol,17,1,1,1,1,1,0,0
473,22533,10469,trol,17,1,1,1,1,1,0,0
480,22534,10469,trol,17,1,1,1,1,1,0,0
486,22535,10469,trol,17,1,1,1,1,1,0,0
494,22536,10469,trol,17,1,1,1,1,1,0,0
498,22537,10469,trol,17,1,1,1,1,1,0,0
505,22538,10469,trol,17,1,1,1,1,1,0,0
510,22539,10469,trol,17,1,1,1,1,1,0,0
518,22540,10469,trol,17,1,1,1,1,1,0,0
525,22541,10469,trol,17,1,1,1,1,1,0,0
532,22542,10469,trol,17,1,1,1,1,1,0,0
540,22543,10469,trol,17,1,1,1,1,1,0,0
548,22544,10469,trol,17,1,1,1,1,1,0,0
553,22545,10469,trol,17,1,1,1,1,1,0,0
558,22546,10469,trol,17,1,1,1,1,1,0,0
566,22547,10469,trol,17,1,1,1,1,1,0,0
573,22548,10469,trol,17,1,1,1,1,1,0,0
581,22549,10469,trol,17,1,1,1,1,1,0,0
587,22550,10469,trol,17,1,1,1,1,1,0,0
594,22551,10469,trol,17,1,1,1,1,1,0,0
598,22552,10469,trol,17,1,1,1,1,1,0,0
604,22553,10469,trol,17,1,1,1,1,1,0,0
614,22554,10469,trol,17,1,1,1,1,1,0,0
623,22555,10469,trol,17,1,1,1,1,1,0,0
629,22556,10469,trol,17,1,1,1,1,1,0,0
639,22557,10469,trol,17,1,1,1,1,1,0,0
648,22558,10469,trol,17,1,1,1,1,1,0,0
659,22559,10469,trol,17,1,1,1,1,1,0,0
672,22560,10469,trol,17,1,1,1,1,1,0,0
683,22561,10469,trol,17,1,1,1,1,1,0,0
691,22562,10469,trol,17,1,1,1,1,1,0,0
702,22563,10469,trol,17,1,1,1,1,1,0,0
717,22564,10469,trol,17,1,1,1,1,1,0,0
730,22565,10469,trol,17,1,1,1,1,1,0,0
739,22566,10469,trol,17,1,1,1,1,1,0,0
752,22567,10469,trol,17,1,1,1,1,1,0,0
764,22568,10469,trol,17,1,1,1,1,1,0,0
772,22569,10469,trol,17,1,1,1,1,1,0,0
786,22570,10469,trol,17,1,1,1,1,1,0,0
798,22571,10469,trol,17,1,1,1,1,1,0,0
812,22572,10469,trol,17,1,1,1,1,1,0,0
822,22573,10469,trol,17,1,1,1,1,1,0,0
834,22574,10469,trol,17,1,1,1,1,1,0,0
848,22575,10469,trol,17,1,1,1,1,1,0,0
862,22576,10469,trol,17,1,1,1,1,1,0,0
871,22577,10469,trol,17,1,1,1,1,1,0,0
882,22578,10469,trol,17,1,1,1,1,1,0,0
897,22579,10469,trol,17,1,1,1,1,1,0,0
912,22580,10469,trol,17,1,1,1,1,1,0,0
928,22581,10469,trol,17,1,1,1,1,1,0,0
936,22582,10469,trol,17,1,1,1,1,1,0,0
947,22583,10469,trol,17,1,1,1,1,1,0,0
960,22584,10469,trol,17,1,1,1,1,1,0,0
968,22585,10469,trol,17,1,1,1,1,1,0,0
980,22586,10469,trol,17,1,1,1,1,1,0,0
987,22587,10469,trol,17,1,1,1,1,1,0,0
993,22588,10469,trol,17,1,1,1,1,1,0,0
1003,22589,10469,trol,17,1,1,1,1,1,0,0
1009,22590,10469,trol,17,1,1,1,1,1,0,0
1017,22591,10469,trol,17,1,1,1,1,1,0,0
1027,22592,10469,trol,17,1,1,1,1,1,0,0
1033,22593,10469,trol,17,1,1,1,1,1,0,0
1039,22594,10469,trol,17,1,1,1,1,1,0,0
1046,22595,10469,trol,17,1,1,1,1,1,0,0
1052,22596,10469,trol,17,1,1,1,1,1,0,0
1057,22597,10469,trol,17,1,1,1,1,1,0,0
1065,22598,10469,trol,17,1,1,1,1,1,0,0
1072,22599,10469,trol,17,1,1,1,1,1,0,0
1077,22600,10469,trol,17,1,1,1,1,1,0,0
1085,22601,10469,trol,17,1,1,1,1,1,0,0
1093,22602,10469,trol,17,1,1,1,1,1,0,0
1100,22603,10469,trol,17,1,1,1,1,1,0,0
1106,22604,10469,trol,17,1,1,1,1,1,0,0
1116,22605,10469,trol,17,1,1,1,1,1,0,0
1125,22606,10469,trol,17,1,1,1,1,1,0,0
1132,22607,10469,trol,17,1,1,1,1,1,0,0
1141,22608,10469,trol,17,1,1,1,1,1,0,0
1149,22609,10469,trol,17,1,1,1,1,1,0,0
1155,22610,10469,trol,17,1,1,1,1,1,0,0
1163,22611,10469,trol,17,1,1,1,1,1,0,0
1171,22612,10469,trol,17,1,1,1,1,1,0,0
1180,22613,10469,trol,17,1,1,1,1,1,0,0
1190,22614,10469,trol,17,1,1,1,1,1,0,0
1198,22615,10469,trol,17,1,1,1,1,1,0,0
1207,22616,10469,trol,17,1,1,1,1,1,0,0
1221,22617,10469,trol,17,1,1,1,1,1,0,0
1235,22618,10469,trol,17,1,1,1,1,1,0,0
1244,22619,10469,trol,17,1,1,1,1,1,0,0
1256,22620,10469,trol,17,1,1,1,1,1,0,0
1265,22621,10469,trol,17,1,1,1,1,1,0,0
1274,22622,10469,trol,17,1,1,1,1,1,0,0
1286,22623,10469,trol,17,1,1,1,1,1,0,0
1297,22624,10469,trol,17,1,1,1,1,1,0,0
1310,22625,10469,trol,17,1,1,1,1,1,0,0
1322,22626,10469,trol,17,1,1,1,1,1,0,0
1332,22627,10469,trol,17,1,1,1,1,1,0,0
1344,22628,10469,trol,17,1,1,1,1,1,0,0
1356,22629,10469,trol,17,1,1,1,1,1,0,0
1366,22630,10469,trol,17,1,1,1,1,1,0,0
1381,22631,10469,trol,17,1,1,1,1,1,0,0
1408,22632,10469,trol,17,1,1,1,1,1,0,0
365,22633,10470,trol,17,0,0,0,0,0,1,0
392,22634,10470,trol,17,0,0,0,0,0,1,0
416,22635,10470,trol,17,0,0,0,0,0,1,0
446,22636,10470,trol,17,0,0,0,0,0,1,0
468,22637,10470,trol,17,0,0,0,0,0,1,0
480,22638,10470,trol,17,0,0,0,0,0,1,0
497,22639,10470,trol,17,0,0,0,0,0,1,0
511,22640,10470,trol,17,0,0,0,0,0,1,0
525,22641,10470,trol,17,0,0,0,0,0,1,0
541,22642,10470,trol,17,0,0,0,0,0,1,0
553,22643,10470,trol,17,0,0,0,0,0,1,0
569,22644,10470,trol,17,0,0,0,0,0,1,0
587,22645,10470,trol,17,0,0,0,0,0,1,0
598,22646,10470,trol,17,0,0,0,0,0,1,0
612,22647,10470,trol,17,0,0,0,0,0,1,0
625,22648,10470,trol,17,0,0,0,0,0,1,0
634,22649,10470,trol,17,0,0,0,0,0,1,0
648,22650,10470,trol,17,0,0,0,0,0,1,0
658,22651,10470,trol,17,0,0,0,0,0,1,0
671,22652,10470,trol,17,0,0,0,0,0,1,0
683,22653,10470,trol,17,0,0,0,0,0,1,0
693,22654,10470,trol,17,0,0,0,0,0,1,0
701,22655,10470,trol,17,0,0,0,0,0,1,0
710,22656,10470,trol,17,0,0,0,0,0,1,0
722,22657,10470,trol,17,0,0,0,0,0,1,0
735,22658,10470,trol,17,0,0,0,0,0,1,0
745,22659,10470,trol,17,0,0,0,0,0,1,0
759,22660,10470,trol,17,0,0,0,0,0,1,0
772,22661,10470,trol,17,0,0,0,0,0,1,0
784,22662,10470,trol,17,0,0,0,0,0,1,0
794,22663,10470,trol,17,0,0,0,0,0,1,0
805,22664,10470,trol,17,0,0,0,0,0,1,0
818,22665,10470,trol,17,0,0,0,0,0,1,0
825,22666,10470,trol,17,0,0,0,0,0,1,0
839,22667,10470,trol,17,0,0,0,0,0,1,0
850,22668,10470,trol,17,0,0,0,0,0,1,0
860,22669,10470,trol,17,0,0,0,0,0,1,0
872,22670,10470,trol,17,0,0,0,0,0,1,0
882,22671,10470,trol,17,0,0,0,0,0,1,0
893,22672,10470,trol,17,0,0,0,0,0,1,0
904,22673,10470,trol,17,0,0,0,0,0,1,0
915,22674,10470,trol,17,0,0,0,0,0,1,0
924,22675,10470,trol,17,0,0,0,0,0,1,0
934,22676,10470,trol,17,0,0,0,0,0,1,0
946,22677,10470,trol,17,0,0,0,0,0,1,0
958,22678,10470,trol,17,0,0,0,0,0,1,0
966,22679,10470,trol,17,0,0,0,0,0,1,0
978,22680,10470,trol,17,0,0,0,0,0,1,0
991,22681,10470,trol,17,0,0,0,0,0,1,0
1003,22682,10470,trol,17,0,0,0,0,0,1,0
1011,22683,10470,trol,17,0,0,0,0,0,1,0
1021,22684,10470,trol,17,0,0,0,0,0,1,0
1029,22685,10470,trol,17,0,0,0,0,0,1,0
1044,22686,10470,trol,17,0,0,0,0,0,1,0
1055,22687,10470,trol,17,0,0,0,0,0,1,0
1062,22688,10470,trol,17,0,0,0,0,0,1,0
1073,22689,10470,trol,17,0,0,0,0,0,1,0
1081,22690,10470,trol,17,0,0,0,0,0,1,0
1095,22691,10470,trol,17,0,0,0,0,0,1,0
1118,22692,10470,trol,17,0,0,0,0,0,1,0
1136,22693,10470,trol,17,0,0,0,0,0,1,0
1151,22694,10470,trol,17,0,0,0,0,0,1,0
1174,22695,10470,trol,17,0,0,0,0,0,1,0
1189,22696,10470,trol,17,0,0,0,0,0,1,0
1206,22697,10470,trol,17,0,0,0,0,0,1,0
1220,22698,10470,trol,17,0,0,0,0,0,1,0
1237,22699,10470,trol,17,0,0,0,0,0,1,0
1255,22700,10470,trol,17,0,0,0,0,0,1,0
1268,22701,10470,trol,17,0,0,0,0,0,1,0
1283,22702,10470,trol,17,0,0,0,0,0,1,0
1300,22703,10470,trol,17,0,0,0,0,0,1,0
1311,22704,10470,trol,17,0,0,0,0,0,1,0
1327,22705,10470,trol,17,0,0,0,0,0,1,0
1339,22706,10470,trol,17,0,0,0,0,0,1,0
1355,22707,10470,trol,17,0,0,0,0,0,1,0
1366,22708,10470,trol,17,0,0,0,0,0,1,0
1387,22709,10470,trol,17,0,0,0,0,0,1,0
1415,22710,10470,trol,17,0,0,0,0,0,1,0
1433,22743,10469,trol,17,1,1,1,1,1,0,0
335,22768,10469,trol,17,1,1,1,1,1,0,0
349,22980,10475,trol,19,1,1,1,1,1,0,0
363,22981,10475,trol,19,1,1,1,1,1,0,0
374,22982,10475,trol,19,1,1,1,1,1,0,0
385,22983,10475,trol,19,1,1,1,1,1,0,0
395,22984,10475,trol,19,1,1,1,1,1,0,0
406,22985,10475,trol,19,1,1,1,1,1,0,0
415,22986,10475,trol,19,1,1,1,1,1,0,0
422,22987,10475,trol,19,1,1,1,1,1,0,0
430,22988,10475,trol,19,1,1,1,1,1,0,0
437,22989,10475,trol,19,1,1,1,1,1,0,0
445,22990,10475,trol,19,1,1,1,1,1,0,0
454,22991,10475,trol,19,1,1,1,1,1,0,0
462,22992,10475,trol,19,1,1,1,1,1,0,0
469,22993,10475,trol,19,1,1,1,1,1,0,0
473,22994,10475,trol,19,1,1,1,1,1,0,0
481,22995,10475,trol,19,1,1,1,1,1,0,0
489,22996,10475,trol,19,1,1,1,1,1,0,0
495,22997,10475,trol,19,1,1,1,1,1,0,0
500,22998,10475,trol,19,1,1,1,1,1,0,0
507,22999,10475,trol,19,1,1,1,1,1,0,0
515,23000,10475,trol,19,1,1,1,1,1,0,0
523,23001,10475,trol,19,1,1,1,1,1,0,0
531,23002,10475,trol,19,1,1,1,1,1,0,0
540,23003,10475,trol,19,1,1,1,1,1,0,0
547,23004,10475,trol,19,1,1,1,1,1,0,0
557,23005,10475,trol,19,1,1,1,1,1,0,0
564,23006,10475,trol,19,1,1,1,1,1,0,0
573,23007,10475,trol,19,1,1,1,1,1,0,0
582,23008,10475,trol,19,1,1,1,1,1,0,0
589,23009,10475,trol,19,1,1,1,1,1,0,0
599,23010,10475,trol,19,1,1,1,1,1,0,0
607,23011,10475,trol,19,1,1,1,1,1,0,0
615,23012,10475,trol,19,1,1,1,1,1,0,0
620,23013,10475,trol,19,1,1,1,1,1,0,0
628,23014,10475,trol,19,1,1,1,1,1,0,0
635,23015,10475,trol,19,1,1,1,1,1,0,0
644,23016,10475,trol,19,1,1,1,1,1,0,0
655,23017,10475,trol,19,1,1,1,1,1,0,0
662,23018,10475,trol,19,1,1,1,1,1,0,0
673,23019,10475,trol,19,1,1,1,1,1,0,0
686,23020,10475,trol,19,1,1,1,1,1,0,0
694,23021,10475,trol,19,1,1,1,1,1,0,0
705,23022,10475,trol,19,1,1,1,1,1,0,0
720,23023,10475,trol,19,1,1,1,1,1,0,0
729,23024,10475,trol,19,1,1,1,1,1,0,0
738,23025,10475,trol,19,1,1,1,1,1,0,0
746,23026,10475,trol,19,1,1,1,1,1,0,0
756,23027,10475,trol,19,1,1,1,1,1,0,0
768,23028,10475,trol,19,1,1,1,1,1,0,0
777,23029,10475,trol,19,1,1,1,1,1,0,0
788,23030,10475,trol,19,1,1,1,1,1,0,0
801,23031,10475,trol,19,1,1,1,1,1,0,0
811,23032,10475,trol,19,1,1,1,1,1,0,0
823,23033,10475,trol,19,1,1,1,1,1,0,0
835,23034,10475,trol,19,1,1,1,1,1,0,0
845,23035,10475,trol,19,1,1,1,1,1,0,0
853,23036,10475,trol,19,1,1,1,1,1,0,0
864,23037,10475,trol,19,1,1,1,1,1,0,0
872,23038,10475,trol,19,1,1,1,1,1,0,0
883,23039,10475,trol,19,1,1,1,1,1,0,0
894,23040,10475,trol,19,1,1,1,1,1,0,0
904,23041,10475,trol,19,1,1,1,1,1,0,0
916,23042,10475,trol,19,1,1,1,1,1,0,0
927,23043,10475,trol,19,1,1,1,1,1,0,0
934,23044,10475,trol,19,1,1,1,1,1,0,0
942,23045,10475,trol,19,1,1,1,1,1,0,0
951,23046,10475,trol,19,1,1,1,1,1,0,0
958,23047,10475,trol,19,1,1,1,1,1,0,0
962,23048,10475,trol,19,1,1,1,1,1,0,0
971,23049,10475,trol,19,1,1,1,1,1,0,0
976,23050,10475,trol,19,1,1,1,1,1,0,0
983,23051,10475,trol,19,1,1,1,1,1,0,0
990,23052,10475,trol,19,1,1,1,1,1,0,0
996,23053,10475,trol,19,1,1,1,1,1,0,0
1004,23054,10475,trol,19,1,1,1,1,1,0,0
1012,23055,10475,trol,19,1,1,1,1,1,0,0
1019,23056,10475,trol,19,1,1,1,1,1,0,0
1027,23057,10475,trol,19,1,1,1,1,1,0,0
1035,23058,10475,trol,19,1,1,1,1,1,0,0
1042,23059,10475,trol,19,1,1,1,1,1,0,0
1047,23060,10475,trol,19,1,1,1,1,1,0,0
1054,23061,10475,trol,19,1,1,1,1,1,0,0
1061,23062,10475,trol,19,1,1,1,1,1,0,0
1070,23063,10475,trol,19,1,1,1,1,1,0,0
1079,23064,10475,trol,19,1,1,1,1,1,0,0
1087,23065,10475,trol,19,1,1,1,1,1,0,0
1096,23066,10475,trol,19,1,1,1,1,1,0,0
1105,23067,10475,trol,19,1,1,1,1,1,0,0
1112,23068,10475,trol,19,1,1,1,1,1,0,0
1118,23069,10475,trol,19,1,1,1,1,1,0,0
1131,23070,10475,trol,19,1,1,1,1,1,0,0
1143,23071,10475,trol,19,1,1,1,1,1,0,0
1150,23072,10475,trol,19,1,1,1,1,1,0,0
1159,23073,10475,trol,19,1,1,1,1,1,0,0
1165,23074,10475,trol,19,1,1,1,1,1,0,0
1172,23075,10475,trol,19,1,1,1,1,1,0,0
1183,23076,10475,trol,19,1,1,1,1,1,0,0
1194,23077,10475,trol,19,1,1,1,1,1,0,0
1205,23078,10475,trol,19,1,1,1,1,1,0,0
1217,23079,10475,trol,19,1,1,1,1,1,0,0
1226,23080,10475,trol,19,1,1,1,1,1,0,0
1238,23081,10475,trol,19,1,1,1,1,1,0,0
1251,23082,10475,trol,19,1,1,1,1,1,0,0
1258,23083,10475,trol,19,1,1,1,1,1,0,0
1268,23084,10475,trol,19,1,1,1,1,1,0,0
1276,23085,10475,trol,19,1,1,1,1,1,0,0
1286,23086,10475,trol,19,1,1,1,1,1,0,0
1299,23087,10475,trol,19,1,1,1,1,1,0,0
1312,23088,10475,trol,19,1,1,1,1,1,0,0
1320,23089,10475,trol,19,1,1,1,1,1,0,0
1332,23090,10475,trol,19,1,1,1,1,1,0,0
1345,23091,10475,trol,19,1,1,1,1,1,0,0
1358,23092,10475,trol,19,1,1,1,1,1,0,0
1368,23093,10475,trol,19,1,1,1,1,1,0,0
1390,23094,10475,trol,19,1,1,1,1,1,0,0
1407,23095,10475,trol,19,1,1,1,1,1,0,0
345,23096,10476,trol,19,0,0,0,0,0,1,0
372,23097,10476,trol,19,0,0,0,0,0,1,0
397,23098,10476,trol,19,0,0,0,0,0,1,0
412,23099,10476,trol,19,0,0,0,0,0,1,0
429,23100,10476,trol,19,0,0,0,0,0,1,0
444,23101,10476,trol,19,0,0,0,0,0,1,0
460,23102,10476,trol,19,0,0,0,0,0,1,0
472,23103,10476,trol,19,0,0,0,0,0,1,0
486,23104,10476,trol,19,0,0,0,0,0,1,0
498,23105,10476,trol,19,0,0,0,0,0,1,0
508,23106,10476,trol,19,0,0,0,0,0,1,0
519,23107,10476,trol,19,0,0,0,0,0,1,0
533,23108,10476,trol,19,0,0,0,0,0,1,0
545,23109,10476,trol,19,0,0,0,0,0,1,0
562,23110,10476,trol,19,0,0,0,0,0,1,0
578,23111,10476,trol,19,0,0,0,0,0,1,0
594,23112,10476,trol,19,0,0,0,0,0,1,0
608,23113,10476,trol,19,0,0,0,0,0,1,0
625,23114,10476,trol,19,0,0,0,0,0,1,0
642,23115,10476,trol,19,0,0,0,0,0,1,0
654,23116,10476,trol,19,0,0,0,0,0,1,0
667,23117,10476,trol,19,0,0,0,0,0,1,0
681,23118,10476,trol,19,0,0,0,0,0,1,0
692,23119,10476,trol,19,0,0,0,0,0,1,0
701,23120,10476,trol,19,0,0,0,0,0,1,0
715,23121,10476,trol,19,0,0,0,0,0,1,0
729,23122,10476,trol,19,0,0,0,0,0,1,0
743,23123,10476,trol,19,0,0,0,0,0,1,0
755,23124,10476,trol,19,0,0,0,0,0,1,0
766,23125,10476,trol,19,0,0,0,0,0,1,0
775,23126,10476,trol,19,0,0,0,0,0,1,0
788,23127,10476,trol,19,0,0,0,0,0,1,0
796,23128,10476,trol,19,0,0,0,0,0,1,0
810,23129,10476,trol,19,0,0,0,0,0,1,0
820,23130,10476,trol,19,0,0,0,0,0,1,0
833,23131,10476,trol,19,0,0,0,0,0,1,0
849,23132,10476,trol,19,0,0,0,0,0,1,0
859,23133,10476,trol,19,0,0,0,0,0,1,0
871,23134,10476,trol,19,0,0,0,0,0,1,0
888,23135,10476,trol,19,0,0,0,0,0,1,0
896,23136,10476,trol,19,0,0,0,0,0,1,0
908,23137,10476,trol,19,0,0,0,0,0,1,0
920,23138,10476,trol,19,0,0,0,0,0,1,0
934,23139,10476,trol,19,0,0,0,0,0,1,0
944,23140,10476,trol,19,0,0,0,0,0,1,0
958,23141,10476,trol,19,0,0,0,0,0,1,0
973,23142,10476,trol,19,0,0,0,0,0,1,0
984,23143,10476,trol,19,0,0,0,0,0,1,0
996,23144,10476,trol,19,0,0,0,0,0,1,0
1005,23145,10476,trol,19,0,0,0,0,0,1,0
1016,23146,10476,trol,19,0,0,0,0,0,1,0
1027,23147,10476,trol,19,0,0,0,0,0,1,0
1040,23148,10476,trol,19,0,0,0,0,0,1,0
1054,23149,10476,trol,19,0,0,0,0,0,1,0
1069,23150,10476,trol,19,0,0,0,0,0,1,0
1083,23151,10476,trol,19,0,0,0,0,0,1,0
1099,23152,10476,trol,19,0,0,0,0,0,1,0
1113,23153,10476,trol,19,0,0,0,0,0,1,0
1128,23154,10476,trol,19,0,0,0,0,0,1,0
1141,23155,10476,trol,19,0,0,0,0,0,1,0
1159,23156,10476,trol,19,0,0,0,0,0,1,0
1177,23157,10476,trol,19,0,0,0,0,0,1,0
1188,23158,10476,trol,19,0,0,0,0,0,1,0
1204,23159,10476,trol,19,0,0,0,0,0,1,0
1218,23160,10476,trol,19,0,0,0,0,0,1,0
1232,23161,10476,trol,19,0,0,0,0,0,1,0
1239,23162,10476,trol,19,0,0,0,0,0,1,0
1255,23163,10476,trol,19,0,0,0,0,0,1,0
1266,23164,10476,trol,19,0,0,0,0,0,1,0
1279,23165,10476,trol,19,0,0,0,0,0,1,0
1289,23166,10476,trol,19,0,0,0,0,0,1,0
1299,23167,10476,trol,19,0,0,0,0,0,1,0
1314,23168,10476,trol,19,0,0,0,0,0,1,0
1327,23169,10476,trol,19,0,0,0,0,0,1,0
1341,23170,10476,trol,19,0,0,0,0,0,1,0
1356,23171,10476,trol,19,0,0,0,0,0,1,0
1367,23172,10476,trol,19,0,0,0,0,0,1,0
1380,23173,10476,trol,19,0,0,0,0,0,1,0
1395,23174,10476,trol,19,0,0,0,0,0,1,0
1414,23175,10476,trol,19,0,0,0,0,0,1,0
397,23176,10477,trol,19,0,0,0,0,0,0,1
412,23177,10477,trol,19,0,0,0,0,0,0,1
429,23178,10477,trol,19,0,0,0,0,0,0,1
444,23179,10477,trol,19,0,0,0,0,0,0,1
460,23180,10477,trol,19,0,0,0,0,0,0,1
472,23181,10477,trol,19,0,0,0,0,0,0,1
486,23182,10477,trol,19,0,0,0,0,0,0,1
498,23183,10477,trol,19,0,0,0,0,0,0,1
508,23184,10477,trol,19,0,0,0,0,0,0,1
519,23185,10477,trol,19,0,0,0,0,0,0,1
533,23186,10477,trol,19,0,0,0,0,0,0,1
545,23187,10477,trol,19,0,0,0,0,0,0,1
562,23188,10477,trol,19,0,0,0,0,0,0,1
578,23189,10477,trol,19,0,0,0,0,0,0,1
594,23190,10477,trol,19,0,0,0,0,0,0,1
608,23191,10477,trol,19,0,0,0,0,0,0,1
625,23192,10477,trol,19,0,0,0,0,0,0,1
642,23193,10477,trol,19,0,0,0,0,0,0,1
654,23194,10477,trol,19,0,0,0,0,0,0,1
667,23195,10477,trol,19,0,0,0,0,0,0,1
681,23196,10477,trol,19,0,0,0,0,0,0,1
692,23197,10477,trol,19,0,0,0,0,0,0,1
701,23198,10477,trol,19,0,0,0,0,0,0,1
715,23199,10477,trol,19,0,0,0,0,0,0,1
729,23200,10477,trol,19,0,0,0,0,0,0,1
743,23201,10477,trol,19,0,0,0,0,0,0,1
755,23202,10477,trol,19,0,0,0,0,0,0,1
766,23203,10477,trol,19,0,0,0,0,0,0,1
775,23204,10477,trol,19,0,0,0,0,0,0,1
788,23205,10477,trol,19,0,0,0,0,0,0,1
796,23206,10477,trol,19,0,0,0,0,0,0,1
810,23207,10477,trol,19,0,0,0,0,0,0,1
820,23208,10477,trol,19,0,0,0,0,0,0,1
833,23209,10477,trol,19,0,0,0,0,0,0,1
849,23210,10477,trol,19,0,0,0,0,0,0,1
859,23211,10477,trol,19,0,0,0,0,0,0,1
871,23212,10477,trol,19,0,0,0,0,0,0,1
888,23213,10477,trol,19,0,0,0,0,0,0,1
896,23214,10477,trol,19,0,0,0,0,0,0,1
908,23215,10477,trol,19,0,0,0,0,0,0,1
920,23216,10477,trol,19,0,0,0,0,0,0,1
934,23217,10477,trol,19,0,0,0,0,0,0,1
944,23218,10477,trol,19,0,0,0,0,0,0,1
958,23219,10477,trol,19,0,0,0,0,0,0,1
973,23220,10477,trol,19,0,0,0,0,0,0,1
984,23221,10477,trol,19,0,0,0,0,0,0,1
996,23222,10477,trol,19,0,0,0,0,0,0,1
1005,23223,10477,trol,19,0,0,0,0,0,0,1
1016,23224,10477,trol,19,0,0,0,0,0,0,1
1027,23225,10477,trol,19,0,0,0,0,0,0,1
1040,23226,10477,trol,19,0,0,0,0,0,0,1
1054,23227,10477,trol,19,0,0,0,0,0,0,1
1069,23228,10477,trol,19,0,0,0,0,0,0,1
1083,23229,10477,trol,19,0,0,0,0,0,0,1
1099,23230,10477,trol,19,0,0,0,0,0,0,1
1113,23231,10477,trol,19,0,0,0,0,0,0,1
1128,23232,10477,trol,19,0,0,0,0,0,0,1
1141,23233,10477,trol,19,0,0,0,0,0,0,1
1159,23234,10477,trol,19,0,0,0,0,0,0,1
1177,23235,10477,trol,19,0,0,0,0,0,0,1
1188,23236,10477,trol,19,0,0,0,0,0,0,1
1204,23237,10477,trol,19,0,0,0,0,0,0,1
1218,23238,10477,trol,19,0,0,0,0,0,0,1
1232,23239,10477,trol,19,0,0,0,0,0,0,1
1239,23240,10477,trol,19,0,0,0,0,0,0,1
1255,23241,10477,trol,19,0,0,0,0,0,0,1
1266,23242,10477,trol,19,0,0,0,0,0,0,1
1279,23243,10477,trol,19,0,0,0,0,0,0,1
1289,23244,10477,trol,19,0,0,0,0,0,0,1
1299,23245,10477,trol,19,0,0,0,0,0,0,1
1314,23246,10477,trol,19,0,0,0,0,0,0,1
1327,23247,10477,trol,19,0,0,0,0,0,0,1
1341,23248,10477,trol,19,0,0,0,0,0,0,1
1356,23249,10477,trol,19,0,0,0,0,0,0,1
1367,23250,10477,trol,19,0,0,0,0,0,0,1
1380,23251,10477,trol,19,0,0,0,0,0,0,1
1395,23252,10477,trol,19,0,0,0,0,0,0,1
1414,23253,10477,trol,19,0,0,0,0,0,0,1
1423,23530,10475,trol,19,1,1,1,1,1,0,0
1438,23531,10475,trol,19,1,1,1,1,1,0,0
345,23598,10477,trol,19,0,0,0,0,0,0,1
372,23599,10477,trol,19,0,0,0,0,0,0,1
408,23757,10569,trol,20,0,0,0,0,0,0,1
431,23758,10569,trol,20,0,0,0,0,0,0,1
460,23759,10569,trol,20,0,0,0,0,0,0,1
484,23760,10569,trol,20,0,0,0,0,0,0,1
503,23761,10569,trol,20,0,0,0,0,0,0,1
521,23762,10569,trol,20,0,0,0,0,0,0,1
544,23763,10569,trol,20,0,0,0,0,0,0,1
560,23764,10569,trol,20,0,0,0,0,0,0,1
581,23765,10569,trol,20,0,0,0,0,0,0,1
604,23766,10569,trol,20,0,0,0,0,0,0,1
623,23767,10569,trol,20,0,0,0,0,0,0,1
660,23768,10569,trol,20,0,0,0,0,0,0,1
678,23769,10569,trol,20,0,0,0,0,0,0,1
692,23770,10569,trol,20,0,0,0,0,0,0,1
724,23771,10569,trol,20,0,0,0,0,0,0,1
743,23772,10569,trol,20,0,0,0,0,0,0,1
765,23773,10569,trol,20,0,0,0,0,0,0,1
787,23774,10569,trol,20,0,0,0,0,0,0,1
802,23775,10569,trol,20,0,0,0,0,0,0,1
821,23776,10569,trol,20,0,0,0,0,0,0,1
841,23777,10569,trol,20,0,0,0,0,0,0,1
862,23778,10569,trol,20,0,0,0,0,0,0,1
880,23779,10569,trol,20,0,0,0,0,0,0,1
897,23780,10569,trol,20,0,0,0,0,0,0,1
918,23781,10569,trol,20,0,0,0,0,0,0,1
941,23782,10569,trol,20,0,0,0,0,0,0,1
961,23783,10569,trol,20,0,0,0,0,0,0,1
981,23784,10569,trol,20,0,0,0,0,0,0,1
999,23785,10569,trol,20,0,0,0,0,0,0,1
1019,23786,10569,trol,20,0,0,0,0,0,0,1
1039,23787,10569,trol,20,0,0,0,0,0,0,1
1053,23788,10569,trol,20,0,0,0,0,0,0,1
1077,23789,10569,trol,20,0,0,0,0,0,0,1
1101,23790,10569,trol,20,0,0,0,0,0,0,1
1127,23791,10569,trol,20,0,0,0,0,0,0,1
1155,23792,10569,trol,20,0,0,0,0,0,0,1
1180,23793,10569,trol,20,0,0,0,0,0,0,1
1202,23794,10569,trol,20,0,0,0,0,0,0,1
1223,23795,10569,trol,20,0,0,0,0,0,0,1
1234,23796,10569,trol,20,0,0,0,0,0,0,1
1259,23797,10569,trol,20,0,0,0,0,0,0,1
1279,23798,10569,trol,20,0,0,0,0,0,0,1
1292,23799,10569,trol,20,0,0,0,0,0,0,1
1308,23800,10569,trol,20,0,0,0,0,0,0,1
1335,23801,10569,trol,20,0,0,0,0,0,0,1
1359,23802,10569,trol,20,0,0,0,0,0,0,1
1383,23803,10569,trol,20,0,0,0,0,0,0,1
364,23804,10478,trol,20,1,1,1,1,1,0,0
395,23805,10478,trol,20,1,1,1,1,1,0,0
416,23806,10478,trol,20,1,1,1,1,1,0,0
442,23807,10478,trol,20,1,1,1,1,1,0,0
459,23808,10478,trol,20,1,1,1,1,1,0,0
475,23809,10478,trol,20,1,1,1,1,1,0,0
492,23810,10478,trol,20,1,1,1,1,1,0,0
504,23811,10478,trol,20,1,1,1,1,1,0,0
521,23812,10478,trol,20,1,1,1,1,1,0,0
535,23813,10478,trol,20,1,1,1,1,1,0,0
546,23814,10478,trol,20,1,1,1,1,1,0,0
560,23815,10478,trol,20,1,1,1,1,1,0,0
576,23816,10478,trol,20,1,1,1,1,1,0,0
589,23817,10478,trol,20,1,1,1,1,1,0,0
609,23818,10478,trol,20,1,1,1,1,1,0,0
631,23819,10478,trol,20,1,1,1,1,1,0,0
651,23820,10478,trol,20,1,1,1,1,1,0,0
671,23821,10478,trol,20,1,1,1,1,1,0,0
689,23822,10478,trol,20,1,1,1,1,1,0,0
705,23823,10478,trol,20,1,1,1,1,1,0,0
728,23824,10478,trol,20,1,1,1,1,1,0,0
743,23825,10478,trol,20,1,1,1,1,1,0,0
757,23826,10478,trol,20,1,1,1,1,1,0,0
775,23827,10478,trol,20,1,1,1,1,1,0,0
792,23828,10478,trol,20,1,1,1,1,1,0,0
814,23829,10478,trol,20,1,1,1,1,1,0,0
828,23830,10478,trol,20,1,1,1,1,1,0,0
843,23831,10478,trol,20,1,1,1,1,1,0,0
858,23832,10478,trol,20,1,1,1,1,1,0,0
873,23833,10478,trol,20,1,1,1,1,1,0,0
895,23834,10478,trol,20,1,1,1,1,1,0,0
910,23835,10478,trol,20,1,1,1,1,1,0,0
926,23836,10478,trol,20,1,1,1,1,1,0,0
946,23837,10478,trol,20,1,1,1,1,1,0,0
957,23838,10478,trol,20,1,1,1,1,1,0,0
978,23839,10478,trol,20,1,1,1,1,1,0,0
995,23840,10478,trol,20,1,1,1,1,1,0,0
1008,23841,10478,trol,20,1,1,1,1,1,0,0
1021,23842,10478,trol,20,1,1,1,1,1,0,0
1037,23843,10478,trol,20,1,1,1,1,1,0,0
1052,23844,10478,trol,20,1,1,1,1,1,0,0
1069,23845,10478,trol,20,1,1,1,1,1,0,0
1081,23846,10478,trol,20,1,1,1,1,1,0,0
1097,23847,10478,trol,20,1,1,1,1,1,0,0
1113,23848,10478,trol,20,1,1,1,1,1,0,0
1131,23849,10478,trol,20,1,1,1,1,1,0,0
1147,23850,10478,trol,20,1,1,1,1,1,0,0
1164,23851,10478,trol,20,1,1,1,1,1,0,0
1178,23852,10478,trol,20,1,1,1,1,1,0,0
1193,23853,10478,trol,20,1,1,1,1,1,0,0
1211,23854,10478,trol,20,1,1,1,1,1,0,0
1237,23855,10478,trol,20,1,1,1,1,1,0,0
1252,23856,10478,trol,20,1,1,1,1,1,0,0
1264,23857,10478,trol,20,1,1,1,1,1,0,0
1276,23858,10478,trol,20,1,1,1,1,1,0,0
1293,23859,10478,trol,20,1,1,1,1,1,0,0
1315,23860,10478,trol,20,1,1,1,1,1,0,0
1329,23861,10478,trol,20,1,1,1,1,1,0,0
1349,23862,10478,trol,20,1,1,1,1,1,0,0
1362,23863,10478,trol,20,1,1,1,1,1,0,0
1377,23864,10478,trol,20,1,1,1,1,1,0,0
1391,23865,10478,trol,20,1,1,1,1,1,0,0
1414,23866,10478,trol,20,1,1,1,1,1,0,0
408,23867,10479,trol,20,0,0,0,0,0,1,0
431,23868,10479,trol,20,0,0,0,0,0,1,0
460,23869,10479,trol,20,0,0,0,0,0,1,0
484,23870,10479,trol,20,0,0,0,0,0,1,0
503,23871,10479,trol,20,0,0,0,0,0,1,0
521,23872,10479,trol,20,0,0,0,0,0,1,0
544,23873,10479,trol,20,0,0,0,0,0,1,0
560,23874,10479,trol,20,0,0,0,0,0,1,0
581,23875,10479,trol,20,0,0,0,0,0,1,0
604,23876,10479,trol,20,0,0,0,0,0,1,0
623,23877,10479,trol,20,0,0,0,0,0,1,0
660,23878,10479,trol,20,0,0,0,0,0,1,0
678,23879,10479,trol,20,0,0,0,0,0,1,0
692,23880,10479,trol,20,0,0,0,0,0,1,0
724,23881,10479,trol,20,0,0,0,0,0,1,0
743,23882,10479,trol,20,0,0,0,0,0,1,0
765,23883,10479,trol,20,0,0,0,0,0,1,0
787,23884,10479,trol,20,0,0,0,0,0,1,0
802,23885,10479,trol,20,0,0,0,0,0,1,0
821,23886,10479,trol,20,0,0,0,0,0,1,0
841,23887,10479,trol,20,0,0,0,0,0,1,0
862,23888,10479,trol,20,0,0,0,0,0,1,0
880,23889,10479,trol,20,0,0,0,0,0,1,0
897,23890,10479,trol,20,0,0,0,0,0,1,0
918,23891,10479,trol,20,0,0,0,0,0,1,0
941,23892,10479,trol,20,0,0,0,0,0,1,0
961,23893,10479,trol,20,0,0,0,0,0,1,0
981,23894,10479,trol,20,0,0,0,0,0,1,0
999,23895,10479,trol,20,0,0,0,0,0,1,0
1019,23896,10479,trol,20,0,0,0,0,0,1,0
1039,23897,10479,trol,20,0,0,0,0,0,1,0
1053,23898,10479,trol,20,0,0,0,0,0,1,0
1077,23899,10479,trol,20,0,0,0,0,0,1,0
1101,23900,10479,trol,20,0,0,0,0,0,1,0
1127,23901,10479,trol,20,0,0,0,0,0,1,0
1155,23902,10479,trol,20,0,0,0,0,0,1,0
1180,23903,10479,trol,20,0,0,0,0,0,1,0
1202,23904,10479,trol,20,0,0,0,0,0,1,0
1223,23905,10479,trol,20,0,0,0,0,0,1,0
1234,23906,10479,trol,20,0,0,0,0,0,1,0
1259,23907,10479,trol,20,0,0,0,0,0,1,0
1279,23908,10479,trol,20,0,0,0,0,0,1,0
1292,23909,10479,trol,20,0,0,0,0,0,1,0
1308,23910,10479,trol,20,0,0,0,0,0,1,0
1335,23911,10479,trol,20,0,0,0,0,0,1,0
1359,23912,10479,trol,20,0,0,0,0,0,1,0
1383,23913,10479,trol,20,0,0,0,0,0,1,0
