timeInMin,trip_id,service_id,tipas,numeris,pirmadienis,antradienis,treciadienis,ketvirtadienis,penktadienis,sestadienis,sekmadienis 
336,8718,10608,bus,31,1,1,1,1,1,0,0
374,8719,10608,bus,31,1,1,1,1,1,0,0
395,8720,10608,bus,31,1,1,1,1,1,0,0
419,8721,10608,bus,31,1,1,1,1,1,0,0
441,8722,10608,bus,31,1,1,1,1,1,0,0
463,8723,10608,bus,31,1,1,1,1,1,0,0
481,8724,10608,bus,31,1,1,1,1,1,0,0
503,8725,10608,bus,31,1,1,1,1,1,0,0
528,8726,10608,bus,31,1,1,1,1,1,0,0
554,8727,10608,bus,31,1,1,1,1,1,0,0
572,8728,10608,bus,31,1,1,1,1,1,0,0
597,8729,10608,bus,31,1,1,1,1,1,0,0
635,8730,10608,bus,31,1,1,1,1,1,0,0
678,8731,10608,bus,31,1,1,1,1,1,0,0
723,8732,10608,bus,31,1,1,1,1,1,0,0
750,8733,10608,bus,31,1,1,1,1,1,0,0
766,8734,10608,bus,31,1,1,1,1,1,0,0
813,8735,10608,bus,31,1,1,1,1,1,0,0
844,8736,10608,bus,31,1,1,1,1,1,0,0
871,8737,10608,bus,31,1,1,1,1,1,0,0
911,8738,10608,bus,31,1,1,1,1,1,0,0
933,8739,10608,bus,31,1,1,1,1,1,0,0
949,8740,10608,bus,31,1,1,1,1,1,0,0
970,8741,10608,bus,31,1,1,1,1,1,0,0
992,8742,10608,bus,31,1,1,1,1,1,0,0
1012,8743,10608,bus,31,1,1,1,1,1,0,0
1029,8744,10608,bus,31,1,1,1,1,1,0,0
1044,8745,10608,bus,31,1,1,1,1,1,0,0
1062,8746,10608,bus,31,1,1,1,1,1,0,0
1086,8747,10608,bus,31,1,1,1,1,1,0,0
1110,8748,10608,bus,31,1,1,1,1,1,0,0
1151,8749,10608,bus,31,1,1,1,1,1,0,0
1180,8750,10608,bus,31,1,1,1,1,1,0,0
1229,8751,10608,bus,31,1,1,1,1,1,0,0
1268,8752,10608,bus,31,1,1,1,1,1,0,0
1303,8753,10608,bus,31,1,1,1,1,1,0,0
1352,8754,10608,bus,31,1,1,1,1,1,0,0
355,8755,10365,bus,31,0,0,0,0,0,1,0
384,8756,10365,bus,31,0,0,0,0,0,1,0
417,8757,10365,bus,31,0,0,0,0,0,1,0
447,8758,10365,bus,31,0,0,0,0,0,1,0
476,8759,10365,bus,31,0,0,0,0,0,1,0
503,8760,10365,bus,31,0,0,0,0,0,1,0
531,8761,10365,bus,31,0,0,0,0,0,1,0
567,8762,10365,bus,31,0,0,0,0,0,1,0
592,8763,10365,bus,31,0,0,0,0,0,1,0
619,8764,10365,bus,31,0,0,0,0,0,1,0
654,8765,10365,bus,31,0,0,0,0,0,1,0
683,8766,10365,bus,31,0,0,0,0,0,1,0
708,8767,10365,bus,31,0,0,0,0,0,1,0
734,8768,10365,bus,31,0,0,0,0,0,1,0
751,8769,10365,bus,31,0,0,0,0,0,1,0
777,8770,10365,bus,31,0,0,0,0,0,1,0
801,8771,10365,bus,31,0,0,0,0,0,1,0
824,8772,10365,bus,31,0,0,0,0,0,1,0
844,8773,10365,bus,31,0,0,0,0,0,1,0
873,8774,10365,bus,31,0,0,0,0,0,1,0
897,8775,10365,bus,31,0,0,0,0,0,1,0
918,8776,10365,bus,31,0,0,0,0,0,1,0
938,8777,10365,bus,31,0,0,0,0,0,1,0
964,8778,10365,bus,31,0,0,0,0,0,1,0
989,8779,10365,bus,31,0,0,0,0,0,1,0
1008,8780,10365,bus,31,0,0,0,0,0,1,0
1028,8781,10365,bus,31,0,0,0,0,0,1,0
1054,8782,10365,bus,31,0,0,0,0,0,1,0
1079,8783,10365,bus,31,0,0,0,0,0,1,0
1104,8784,10365,bus,31,0,0,0,0,0,1,0
1143,8785,10365,bus,31,0,0,0,0,0,1,0
1169,8786,10365,bus,31,0,0,0,0,0,1,0
1196,8787,10365,bus,31,0,0,0,0,0,1,0
1231,8788,10365,bus,31,0,0,0,0,0,1,0
1256,8789,10365,bus,31,0,0,0,0,0,1,0
1284,8790,10365,bus,31,0,0,0,0,0,1,0
1307,8791,10365,bus,31,0,0,0,0,0,1,0
1345,8792,10365,bus,31,0,0,0,0,0,1,0
1358,8793,10365,bus,31,0,0,0,0,0,1,0
1375,8794,10365,bus,31,0,0,0,0,0,1,0
1395,8795,10365,bus,31,0,0,0,0,0,1,0
411,8796,10366,bus,31,0,0,0,0,0,0,1
447,8797,10366,bus,31,0,0,0,0,0,0,1
476,8798,10366,bus,31,0,0,0,0,0,0,1
503,8799,10366,bus,31,0,0,0,0,0,0,1
531,8800,10366,bus,31,0,0,0,0,0,0,1
567,8801,10366,bus,31,0,0,0,0,0,0,1
592,8802,10366,bus,31,0,0,0,0,0,0,1
619,8803,10366,bus,31,0,0,0,0,0,0,1
654,8804,10366,bus,31,0,0,0,0,0,0,1
683,8805,10366,bus,31,0,0,0,0,0,0,1
708,8806,10366,bus,31,0,0,0,0,0,0,1
734,8807,10366,bus,31,0,0,0,0,0,0,1
751,8808,10366,bus,31,0,0,0,0,0,0,1
777,8809,10366,bus,31,0,0,0,0,0,0,1
801,8810,10366,bus,31,0,0,0,0,0,0,1
824,8811,10366,bus,31,0,0,0,0,0,0,1
844,8812,10366,bus,31,0,0,0,0,0,0,1
873,8813,10366,bus,31,0,0,0,0,0,0,1
897,8814,10366,bus,31,0,0,0,0,0,0,1
918,8815,10366,bus,31,0,0,0,0,0,0,1
938,8816,10366,bus,31,0,0,0,0,0,0,1
964,8817,10366,bus,31,0,0,0,0,0,0,1
989,8818,10366,bus,31,0,0,0,0,0,0,1
1008,8819,10366,bus,31,0,0,0,0,0,0,1
1028,8820,10366,bus,31,0,0,0,0,0,0,1
1054,8821,10366,bus,31,0,0,0,0,0,0,1
1079,8822,10366,bus,31,0,0,0,0,0,0,1
1104,8823,10366,bus,31,0,0,0,0,0,0,1
1143,8824,10366,bus,31,0,0,0,0,0,0,1
1169,8825,10366,bus,31,0,0,0,0,0,0,1
1196,8826,10366,bus,31,0,0,0,0,0,0,1
1231,8827,10366,bus,31,0,0,0,0,0,0,1
1256,8828,10366,bus,31,0,0,0,0,0,0,1
1284,8829,10366,bus,31,0,0,0,0,0,0,1
1307,8830,10366,bus,31,0,0,0,0,0,0,1
1345,8831,10366,bus,31,0,0,0,0,0,0,1
1358,8832,10366,bus,31,0,0,0,0,0,0,1
1375,8833,10366,bus,31,0,0,0,0,0,0,1
1395,8834,10366,bus,31,0,0,0,0,0,0,1
