timeInMin,trip_id,service_id,tipas,numeris,pirmadienis,antradienis,treciadienis,ketvirtadienis,penktadienis,sestadienis,sekmadienis 
361,7624,10357,bus,26,1,1,1,1,1,0,0
412,7625,10357,bus,26,1,1,1,1,1,0,0
469,7626,10357,bus,26,1,1,1,1,1,0,0
526,7627,10357,bus,26,1,1,1,1,1,0,0
615,7628,10357,bus,26,1,1,1,1,1,0,0
668,7629,10357,bus,26,1,1,1,1,1,0,0
718,7630,10357,bus,26,1,1,1,1,1,0,0
777,7631,10357,bus,26,1,1,1,1,1,0,0
837,7632,10357,bus,26,1,1,1,1,1,0,0
898,7633,10357,bus,26,1,1,1,1,1,0,0
952,7634,10357,bus,26,1,1,1,1,1,0,0
1010,7635,10357,bus,26,1,1,1,1,1,0,0
1061,7636,10357,bus,26,1,1,1,1,1,0,0
1143,7637,10357,bus,26,1,1,1,1,1,0,0
1192,7638,10357,bus,26,1,1,1,1,1,0,0
1249,7639,10357,bus,26,1,1,1,1,1,0,0
1297,7640,10357,bus,26,1,1,1,1,1,0,0
1343,7641,10357,bus,26,1,1,1,1,1,0,0
353,7642,10358,bus,26,0,0,0,0,0,1,0
408,7643,10358,bus,26,0,0,0,0,0,1,0
460,7644,10358,bus,26,0,0,0,0,0,1,0
520,7645,10358,bus,26,0,0,0,0,0,1,0
602,7646,10358,bus,26,0,0,0,0,0,1,0
656,7647,10358,bus,26,0,0,0,0,0,1,0
713,7648,10358,bus,26,0,0,0,0,0,1,0
760,7649,10358,bus,26,0,0,0,0,0,1,0
812,7650,10358,bus,26,0,0,0,0,0,1,0
867,7651,10358,bus,26,0,0,0,0,0,1,0
917,7652,10358,bus,26,0,0,0,0,0,1,0
973,7653,10358,bus,26,0,0,0,0,0,1,0
1029,7654,10358,bus,26,0,0,0,0,0,1,0
1109,7655,10358,bus,26,0,0,0,0,0,1,0
1172,7656,10358,bus,26,0,0,0,0,0,1,0
1221,7657,10358,bus,26,0,0,0,0,0,1,0
1270,7658,10358,bus,26,0,0,0,0,0,1,0
1320,7659,10358,bus,26,0,0,0,0,0,1,0
1370,7660,10358,bus,26,0,0,0,0,0,1,0
408,7661,10359,bus,26,0,0,0,0,0,0,1
460,7662,10359,bus,26,0,0,0,0,0,0,1
520,7663,10359,bus,26,0,0,0,0,0,0,1
602,7664,10359,bus,26,0,0,0,0,0,0,1
656,7665,10359,bus,26,0,0,0,0,0,0,1
713,7666,10359,bus,26,0,0,0,0,0,0,1
760,7667,10359,bus,26,0,0,0,0,0,0,1
812,7668,10359,bus,26,0,0,0,0,0,0,1
867,7669,10359,bus,26,0,0,0,0,0,0,1
917,7670,10359,bus,26,0,0,0,0,0,0,1
973,7671,10359,bus,26,0,0,0,0,0,0,1
1029,7672,10359,bus,26,0,0,0,0,0,0,1
1109,7673,10359,bus,26,0,0,0,0,0,0,1
1172,7674,10359,bus,26,0,0,0,0,0,0,1
1221,7675,10359,bus,26,0,0,0,0,0,0,1
1270,7676,10359,bus,26,0,0,0,0,0,0,1
1320,7677,10359,bus,26,0,0,0,0,0,0,1
1370,7678,10359,bus,26,0,0,0,0,0,0,1
312,7740,10357,bus,26,1,1,1,1,1,0,0
307,7741,10358,bus,26,0,0,0,0,0,1,0
357,7742,10359,bus,26,0,0,0,0,0,0,1
357,11450,10384,bus,48,1,1,1,1,1,0,0
401,11451,10384,bus,48,1,1,1,1,1,0,0
444,11452,10384,bus,48,1,1,1,1,1,0,0
476,11453,10384,bus,48,1,1,1,1,1,0,0
506,11454,10384,bus,48,1,1,1,1,1,0,0
535,11455,10384,bus,48,1,1,1,1,1,0,0
570,11456,10384,bus,48,1,1,1,1,1,0,0
621,11457,10384,bus,48,1,1,1,1,1,0,0
654,11458,10384,bus,48,1,1,1,1,1,0,0
681,11459,10384,bus,48,1,1,1,1,1,0,0
710,11460,10384,bus,48,1,1,1,1,1,0,0
739,11461,10384,bus,48,1,1,1,1,1,0,0
768,11462,10384,bus,48,1,1,1,1,1,0,0
798,11463,10384,bus,48,1,1,1,1,1,0,0
827,11464,10384,bus,48,1,1,1,1,1,0,0
856,11465,10384,bus,48,1,1,1,1,1,0,0
890,11466,10384,bus,48,1,1,1,1,1,0,0
915,11467,10384,bus,48,1,1,1,1,1,0,0
948,11468,10384,bus,48,1,1,1,1,1,0,0
979,11469,10384,bus,48,1,1,1,1,1,0,0
1014,11470,10384,bus,48,1,1,1,1,1,0,0
1037,11471,10384,bus,48,1,1,1,1,1,0,0
1070,11472,10384,bus,48,1,1,1,1,1,0,0
1106,11473,10384,bus,48,1,1,1,1,1,0,0
1130,11474,10384,bus,48,1,1,1,1,1,0,0
1166,11475,10384,bus,48,1,1,1,1,1,0,0
1220,11476,10384,bus,48,1,1,1,1,1,0,0
1242,11477,10384,bus,48,1,1,1,1,1,0,0
1276,11478,10384,bus,48,1,1,1,1,1,0,0
1301,11479,10384,bus,48,1,1,1,1,1,0,0
1326,11480,10384,bus,48,1,1,1,1,1,0,0
1357,11481,10384,bus,48,1,1,1,1,1,0,0
1382,11482,10384,bus,48,1,1,1,1,1,0,0
362,11483,10385,bus,48,0,0,0,0,0,1,0
403,11484,10385,bus,48,0,0,0,0,0,1,0
444,11485,10385,bus,48,0,0,0,0,0,1,0
486,11486,10385,bus,48,0,0,0,0,0,1,0
528,11487,10385,bus,48,0,0,0,0,0,1,0
597,11488,10385,bus,48,0,0,0,0,0,1,0
647,11489,10385,bus,48,0,0,0,0,0,1,0
694,11490,10385,bus,48,0,0,0,0,0,1,0
732,11491,10385,bus,48,0,0,0,0,0,1,0
777,11492,10385,bus,48,0,0,0,0,0,1,0
823,11493,10385,bus,48,0,0,0,0,0,1,0
864,11494,10385,bus,48,0,0,0,0,0,1,0
913,11495,10385,bus,48,0,0,0,0,0,1,0
951,11496,10385,bus,48,0,0,0,0,0,1,0
996,11497,10385,bus,48,0,0,0,0,0,1,0
1034,11498,10385,bus,48,0,0,0,0,0,1,0
1083,11499,10385,bus,48,0,0,0,0,0,1,0
1144,11500,10385,bus,48,0,0,0,0,0,1,0
1196,11501,10385,bus,48,0,0,0,0,0,1,0
1232,11502,10385,bus,48,0,0,0,0,0,1,0
1275,11503,10385,bus,48,0,0,0,0,0,1,0
1316,11504,10385,bus,48,0,0,0,0,0,1,0
1353,11505,10385,bus,48,0,0,0,0,0,1,0
403,11506,10386,bus,48,0,0,0,0,0,0,1
444,11507,10386,bus,48,0,0,0,0,0,0,1
486,11508,10386,bus,48,0,0,0,0,0,0,1
528,11509,10386,bus,48,0,0,0,0,0,0,1
597,11510,10386,bus,48,0,0,0,0,0,0,1
647,11511,10386,bus,48,0,0,0,0,0,0,1
694,11512,10386,bus,48,0,0,0,0,0,0,1
732,11513,10386,bus,48,0,0,0,0,0,0,1
777,11514,10386,bus,48,0,0,0,0,0,0,1
823,11515,10386,bus,48,0,0,0,0,0,0,1
864,11516,10386,bus,48,0,0,0,0,0,0,1
913,11517,10386,bus,48,0,0,0,0,0,0,1
951,11518,10386,bus,48,0,0,0,0,0,0,1
996,11519,10386,bus,48,0,0,0,0,0,0,1
1034,11520,10386,bus,48,0,0,0,0,0,0,1
1083,11521,10386,bus,48,0,0,0,0,0,0,1
1144,11522,10386,bus,48,0,0,0,0,0,0,1
1196,11523,10386,bus,48,0,0,0,0,0,0,1
1232,11524,10386,bus,48,0,0,0,0,0,0,1
1275,11525,10386,bus,48,0,0,0,0,0,0,1
1316,11526,10386,bus,48,0,0,0,0,0,0,1
1353,11527,10386,bus,48,0,0,0,0,0,0,1
389,11815,10612,bus,50,1,1,1,1,1,0,0
404,11816,10612,bus,50,1,1,1,1,1,0,0
421,11817,10612,bus,50,1,1,1,1,1,0,0
437,11818,10612,bus,50,1,1,1,1,1,0,0
455,11819,10612,bus,50,1,1,1,1,1,0,0
472,11820,10612,bus,50,1,1,1,1,1,0,0
487,11821,10612,bus,50,1,1,1,1,1,0,0
502,11822,10612,bus,50,1,1,1,1,1,0,0
519,11823,10612,bus,50,1,1,1,1,1,0,0
537,11824,10612,bus,50,1,1,1,1,1,0,0
554,11825,10612,bus,50,1,1,1,1,1,0,0
577,11826,10612,bus,50,1,1,1,1,1,0,0
607,11827,10612,bus,50,1,1,1,1,1,0,0
641,11828,10612,bus,50,1,1,1,1,1,0,0
672,11829,10612,bus,50,1,1,1,1,1,0,0
701,11830,10612,bus,50,1,1,1,1,1,0,0
730,11831,10612,bus,50,1,1,1,1,1,0,0
760,11832,10612,bus,50,1,1,1,1,1,0,0
792,11833,10612,bus,50,1,1,1,1,1,0,0
817,11834,10612,bus,50,1,1,1,1,1,0,0
849,11835,10612,bus,50,1,1,1,1,1,0,0
881,11836,10612,bus,50,1,1,1,1,1,0,0
905,11837,10612,bus,50,1,1,1,1,1,0,0
925,11838,10612,bus,50,1,1,1,1,1,0,0
943,11839,10612,bus,50,1,1,1,1,1,0,0
956,11840,10612,bus,50,1,1,1,1,1,0,0
973,11841,10612,bus,50,1,1,1,1,1,0,0
992,11842,10612,bus,50,1,1,1,1,1,0,0
1005,11843,10612,bus,50,1,1,1,1,1,0,0
1024,11844,10612,bus,50,1,1,1,1,1,0,0
1040,11845,10612,bus,50,1,1,1,1,1,0,0
1056,11846,10612,bus,50,1,1,1,1,1,0,0
1072,11847,10612,bus,50,1,1,1,1,1,0,0
1089,11848,10612,bus,50,1,1,1,1,1,0,0
1108,11849,10612,bus,50,1,1,1,1,1,0,0
1123,11850,10612,bus,50,1,1,1,1,1,0,0
1148,11851,10612,bus,50,1,1,1,1,1,0,0
1166,11852,10612,bus,50,1,1,1,1,1,0,0
1197,11853,10612,bus,50,1,1,1,1,1,0,0
1223,11854,10612,bus,50,1,1,1,1,1,0,0
1246,11855,10612,bus,50,1,1,1,1,1,0,0
1283,11856,10612,bus,50,1,1,1,1,1,0,0
1309,11857,10612,bus,50,1,1,1,1,1,0,0
1338,11858,10612,bus,50,1,1,1,1,1,0,0
1361,11859,10612,bus,50,1,1,1,1,1,0,0
1390,11860,10612,bus,50,1,1,1,1,1,0,0
1419,11861,10612,bus,50,1,1,1,1,1,0,0
391,11862,10389,bus,50,0,0,0,0,0,1,0
470,11863,10389,bus,50,0,0,0,0,0,1,0
509,11864,10389,bus,50,0,0,0,0,0,1,0
554,11865,10389,bus,50,0,0,0,0,0,1,0
592,11866,10389,bus,50,0,0,0,0,0,1,0
635,11867,10389,bus,50,0,0,0,0,0,1,0
670,11868,10389,bus,50,0,0,0,0,0,1,0
703,11869,10389,bus,50,0,0,0,0,0,1,0
726,11870,10389,bus,50,0,0,0,0,0,1,0
785,11871,10389,bus,50,0,0,0,0,0,1,0
817,11872,10389,bus,50,0,0,0,0,0,1,0
842,11873,10389,bus,50,0,0,0,0,0,1,0
874,11874,10389,bus,50,0,0,0,0,0,1,0
904,11875,10389,bus,50,0,0,0,0,0,1,0
930,11876,10389,bus,50,0,0,0,0,0,1,0
960,11877,10389,bus,50,0,0,0,0,0,1,0
983,11878,10389,bus,50,0,0,0,0,0,1,0
1013,11879,10389,bus,50,0,0,0,0,0,1,0
1042,11880,10389,bus,50,0,0,0,0,0,1,0
1094,11881,10389,bus,50,0,0,0,0,0,1,0
1158,11882,10389,bus,50,0,0,0,0,0,1,0
1236,11883,10389,bus,50,0,0,0,0,0,1,0
1311,11884,10389,bus,50,0,0,0,0,0,1,0
1382,11885,10389,bus,50,0,0,0,0,0,1,0
391,11886,10390,bus,50,0,0,0,0,0,0,1
470,11887,10390,bus,50,0,0,0,0,0,0,1
509,11888,10390,bus,50,0,0,0,0,0,0,1
554,11889,10390,bus,50,0,0,0,0,0,0,1
592,11890,10390,bus,50,0,0,0,0,0,0,1
635,11891,10390,bus,50,0,0,0,0,0,0,1
670,11892,10390,bus,50,0,0,0,0,0,0,1
703,11893,10390,bus,50,0,0,0,0,0,0,1
726,11894,10390,bus,50,0,0,0,0,0,0,1
785,11895,10390,bus,50,0,0,0,0,0,0,1
817,11896,10390,bus,50,0,0,0,0,0,0,1
842,11897,10390,bus,50,0,0,0,0,0,0,1
874,11898,10390,bus,50,0,0,0,0,0,0,1
904,11899,10390,bus,50,0,0,0,0,0,0,1
930,11900,10390,bus,50,0,0,0,0,0,0,1
960,11901,10390,bus,50,0,0,0,0,0,0,1
983,11902,10390,bus,50,0,0,0,0,0,0,1
1013,11903,10390,bus,50,0,0,0,0,0,0,1
1042,11904,10390,bus,50,0,0,0,0,0,0,1
1094,11905,10390,bus,50,0,0,0,0,0,0,1
1158,11906,10390,bus,50,0,0,0,0,0,0,1
1236,11907,10390,bus,50,0,0,0,0,0,0,1
1311,11908,10390,bus,50,0,0,0,0,0,0,1
1382,11909,10390,bus,50,0,0,0,0,0,0,1
306,12027,10612,bus,50,1,1,1,1,1,0,0
335,12028,10612,bus,50,1,1,1,1,1,0,0
352,12029,10612,bus,50,1,1,1,1,1,0,0
370,12030,10612,bus,50,1,1,1,1,1,0,0
384,12031,10612,bus,50,1,1,1,1,1,0,0
321,12032,10389,bus,50,0,0,0,0,0,1,0
