timeInMin,trip_id,service_id,tipas,numeris,pirmadienis,antradienis,treciadienis,ketvirtadienis,penktadienis,sestadienis,sekmadienis 
339,9445,10609,bus,35,1,1,1,1,1,0,0
384,9446,10609,bus,35,1,1,1,1,1,0,0
425,9447,10609,bus,35,1,1,1,1,1,0,0
452,9448,10609,bus,35,1,1,1,1,1,0,0
478,9449,10609,bus,35,1,1,1,1,1,0,0
523,9450,10609,bus,35,1,1,1,1,1,0,0
562,9451,10609,bus,35,1,1,1,1,1,0,0
604,9452,10609,bus,35,1,1,1,1,1,0,0
652,9453,10609,bus,35,1,1,1,1,1,0,0
697,9454,10609,bus,35,1,1,1,1,1,0,0
736,9455,10609,bus,35,1,1,1,1,1,0,0
403,9456,10610,bus,35,0,0,0,0,0,0,1
432,9457,10610,bus,35,0,0,0,0,0,0,1
482,9458,10610,bus,35,0,0,0,0,0,0,1
514,9459,10610,bus,35,0,0,0,0,0,0,1
566,9460,10610,bus,35,0,0,0,0,0,0,1
650,9461,10610,bus,35,0,0,0,0,0,0,1
704,9462,10610,bus,35,0,0,0,0,0,0,1
742,9463,10610,bus,35,0,0,0,0,0,0,1
793,9464,10610,bus,35,0,0,0,0,0,0,1
834,9465,10610,bus,35,0,0,0,0,0,0,1
879,9466,10610,bus,35,0,0,0,0,0,0,1
930,9467,10610,bus,35,0,0,0,0,0,0,1
966,9468,10610,bus,35,0,0,0,0,0,0,1
1016,9469,10610,bus,35,0,0,0,0,0,0,1
1052,9470,10610,bus,35,0,0,0,0,0,0,1
350,9471,10588,bus,35,0,0,0,0,0,1,0
436,9472,10588,bus,35,0,0,0,0,0,1,0
463,9473,10588,bus,35,0,0,0,0,0,1,0
527,9474,10588,bus,35,0,0,0,0,0,1,0
566,9475,10588,bus,35,0,0,0,0,0,1,0
650,9476,10588,bus,35,0,0,0,0,0,1,0
704,9477,10588,bus,35,0,0,0,0,0,1,0
742,9478,10588,bus,35,0,0,0,0,0,1,0
793,9479,10588,bus,35,0,0,0,0,0,1,0
834,9480,10588,bus,35,0,0,0,0,0,1,0
879,9481,10588,bus,35,0,0,0,0,0,1,0
930,9482,10588,bus,35,0,0,0,0,0,1,0
966,9483,10588,bus,35,0,0,0,0,0,1,0
1016,9484,10588,bus,35,0,0,0,0,0,1,0
1052,9485,10588,bus,35,0,0,0,0,0,1,0
787,9486,10609,bus,35,1,1,1,1,1,0,0
822,9487,10609,bus,35,1,1,1,1,1,0,0
883,9488,10609,bus,35,1,1,1,1,1,0,0
913,9489,10609,bus,35,1,1,1,1,1,0,0
939,9490,10609,bus,35,1,1,1,1,1,0,0
970,9491,10609,bus,35,1,1,1,1,1,0,0
1009,9492,10609,bus,35,1,1,1,1,1,0,0
1029,9493,10609,bus,35,1,1,1,1,1,0,0
1065,9494,10609,bus,35,1,1,1,1,1,0,0
1098,9495,10609,bus,35,1,1,1,1,1,0,0
1122,9496,10609,bus,35,1,1,1,1,1,0,0
1160,9497,10609,bus,35,1,1,1,1,1,0,0
1218,9498,10609,bus,35,1,1,1,1,1,0,0
1271,9499,10609,bus,35,1,1,1,1,1,0,0
1302,9500,10609,bus,35,1,1,1,1,1,0,0
1346,9501,10609,bus,35,1,1,1,1,1,0,0
1391,9502,10609,bus,35,1,1,1,1,1,0,0
1142,9503,10610,bus,35,0,0,0,0,0,0,1
1190,9504,10610,bus,35,0,0,0,0,0,0,1
1233,9505,10610,bus,35,0,0,0,0,0,0,1
1280,9506,10610,bus,35,0,0,0,0,0,0,1
1336,9507,10610,bus,35,0,0,0,0,0,0,1
1396,9508,10610,bus,35,0,0,0,0,0,0,1
1142,9509,10588,bus,35,0,0,0,0,0,1,0
1190,9510,10588,bus,35,0,0,0,0,0,1,0
1233,9511,10588,bus,35,0,0,0,0,0,1,0
1280,9512,10588,bus,35,0,0,0,0,0,1,0
1336,9513,10588,bus,35,0,0,0,0,0,1,0
1396,9514,10588,bus,35,0,0,0,0,0,1,0
351,9594,10609,bus,36,1,1,1,1,1,0,0
368,9595,10611,bus,36,1,1,1,1,1,0,0
407,9596,10611,bus,36,1,1,1,1,1,0,0
443,9597,10611,bus,36,1,1,1,1,1,0,0
466,9598,10611,bus,36,1,1,1,1,1,0,0
509,9599,10611,bus,36,1,1,1,1,1,0,0
551,9600,10611,bus,36,1,1,1,1,1,0,0
595,9601,10611,bus,36,1,1,1,1,1,0,0
647,9602,10611,bus,36,1,1,1,1,1,0,0
691,9603,10611,bus,36,1,1,1,1,1,0,0
745,9604,10611,bus,36,1,1,1,1,1,0,0
795,9605,10611,bus,36,1,1,1,1,1,0,0
850,9606,10611,bus,36,1,1,1,1,1,0,0
899,9607,10611,bus,36,1,1,1,1,1,0,0
950,9608,10611,bus,36,1,1,1,1,1,0,0
976,9609,10611,bus,36,1,1,1,1,1,0,0
1003,9610,10611,bus,36,1,1,1,1,1,0,0
1053,9611,10611,bus,36,1,1,1,1,1,0,0
1082,9612,10611,bus,36,1,1,1,1,1,0,0
1102,9613,10611,bus,36,1,1,1,1,1,0,0
1156,9614,10611,bus,36,1,1,1,1,1,0,0
1181,9615,10611,bus,36,1,1,1,1,1,0,0
1224,9616,10611,bus,36,1,1,1,1,1,0,0
1275,9617,10611,bus,36,1,1,1,1,1,0,0
1321,9618,10611,bus,36,1,1,1,1,1,0,0
1374,9619,10611,bus,36,1,1,1,1,1,0,0
1414,9620,10611,bus,36,1,1,1,1,1,0,0
392,9621,10181,bus,36,0,0,0,0,0,1,0
431,9622,10181,bus,36,0,0,0,0,0,1,0
499,9623,10181,bus,36,0,0,0,0,0,1,0
535,9624,10181,bus,36,0,0,0,0,0,1,0
598,9625,10181,bus,36,0,0,0,0,0,1,0
638,9626,10181,bus,36,0,0,0,0,0,1,0
728,9627,10181,bus,36,0,0,0,0,0,1,0
771,9628,10181,bus,36,0,0,0,0,0,1,0
827,9629,10181,bus,36,0,0,0,0,0,1,0
869,9630,10181,bus,36,0,0,0,0,0,1,0
937,9631,10181,bus,36,0,0,0,0,0,1,0
976,9632,10181,bus,36,0,0,0,0,0,1,0
1040,9633,10181,bus,36,0,0,0,0,0,1,0
1077,9634,10181,bus,36,0,0,0,0,0,1,0
1165,9635,10181,bus,36,0,0,0,0,0,1,0
1204,9636,10181,bus,36,0,0,0,0,0,1,0
1267,9637,10181,bus,36,0,0,0,0,0,1,0
1307,9638,10181,bus,36,0,0,0,0,0,1,0
1367,9639,10181,bus,36,0,0,0,0,0,1,0
1430,9640,10181,bus,36,0,0,0,0,0,1,0
392,9641,10182,bus,36,0,0,0,0,0,0,1
431,9642,10182,bus,36,0,0,0,0,0,0,1
499,9643,10182,bus,36,0,0,0,0,0,0,1
535,9644,10182,bus,36,0,0,0,0,0,0,1
598,9645,10182,bus,36,0,0,0,0,0,0,1
638,9646,10182,bus,36,0,0,0,0,0,0,1
728,9647,10182,bus,36,0,0,0,0,0,0,1
771,9648,10182,bus,36,0,0,0,0,0,0,1
827,9649,10182,bus,36,0,0,0,0,0,0,1
869,9650,10182,bus,36,0,0,0,0,0,0,1
937,9651,10182,bus,36,0,0,0,0,0,0,1
976,9652,10182,bus,36,0,0,0,0,0,0,1
1040,9653,10182,bus,36,0,0,0,0,0,0,1
1077,9654,10182,bus,36,0,0,0,0,0,0,1
1165,9655,10182,bus,36,0,0,0,0,0,0,1
1204,9656,10182,bus,36,0,0,0,0,0,0,1
1267,9657,10182,bus,36,0,0,0,0,0,0,1
1307,9658,10182,bus,36,0,0,0,0,0,0,1
1367,9659,10182,bus,36,0,0,0,0,0,0,1
1430,9660,10182,bus,36,0,0,0,0,0,0,1
1032,13967,10614,bus,65,1,1,1,1,1,0,0
1060,13968,10614,bus,65,1,1,1,1,1,0,0
363,14025,10615,bus,66,1,1,1,1,1,0,0
387,14026,10615,bus,66,1,1,1,1,1,0,0
415,14027,10615,bus,66,1,1,1,1,1,0,0
458,14028,10615,bus,66,1,1,1,1,1,0,0
485,14029,10615,bus,66,1,1,1,1,1,0,0
517,14030,10615,bus,66,1,1,1,1,1,0,0
558,14031,10615,bus,66,1,1,1,1,1,0,0
585,14032,10615,bus,66,1,1,1,1,1,0,0
616,14033,10615,bus,66,1,1,1,1,1,0,0
677,14034,10615,bus,66,1,1,1,1,1,0,0
719,14035,10615,bus,66,1,1,1,1,1,0,0
771,14036,10615,bus,66,1,1,1,1,1,0,0
824,14037,10615,bus,66,1,1,1,1,1,0,0
868,14038,10615,bus,66,1,1,1,1,1,0,0
922,14039,10615,bus,66,1,1,1,1,1,0,0
962,14040,10615,bus,66,1,1,1,1,1,0,0
1016,14041,10615,bus,66,1,1,1,1,1,0,0
1043,14042,10615,bus,66,1,1,1,1,1,0,0
1069,14043,10615,bus,66,1,1,1,1,1,0,0
1119,14044,10615,bus,66,1,1,1,1,1,0,0
1145,14045,10615,bus,66,1,1,1,1,1,0,0
1197,14046,10615,bus,66,1,1,1,1,1,0,0
1242,14047,10615,bus,66,1,1,1,1,1,0,0
1293,14048,10615,bus,66,1,1,1,1,1,0,0
1337,14049,10615,bus,66,1,1,1,1,1,0,0
1386,14050,10615,bus,66,1,1,1,1,1,0,0
363,14051,10401,bus,66,0,0,0,0,0,1,0
461,14052,10401,bus,66,0,0,0,0,0,1,0
561,14053,10401,bus,66,0,0,0,0,0,1,0
620,14054,10401,bus,66,0,0,0,0,0,1,0
684,14055,10401,bus,66,0,0,0,0,0,1,0
714,14056,10401,bus,66,0,0,0,0,0,1,0
785,14057,10401,bus,66,0,0,0,0,0,1,0
837,14058,10401,bus,66,0,0,0,0,0,1,0
887,14059,10401,bus,66,0,0,0,0,0,1,0
948,14060,10401,bus,66,0,0,0,0,0,1,0
989,14061,10401,bus,66,0,0,0,0,0,1,0
1052,14062,10401,bus,66,0,0,0,0,0,1,0
1112,14063,10401,bus,66,0,0,0,0,0,1,0
1231,14064,10401,bus,66,0,0,0,0,0,1,0
1324,14065,10401,bus,66,0,0,0,0,0,1,0
1418,14066,10401,bus,66,0,0,0,0,0,1,0
461,14067,10402,bus,66,0,0,0,0,0,0,1
561,14068,10402,bus,66,0,0,0,0,0,0,1
620,14069,10402,bus,66,0,0,0,0,0,0,1
684,14070,10402,bus,66,0,0,0,0,0,0,1
714,14071,10402,bus,66,0,0,0,0,0,0,1
785,14072,10402,bus,66,0,0,0,0,0,0,1
837,14073,10402,bus,66,0,0,0,0,0,0,1
887,14074,10402,bus,66,0,0,0,0,0,0,1
948,14075,10402,bus,66,0,0,0,0,0,0,1
989,14076,10402,bus,66,0,0,0,0,0,0,1
1052,14077,10402,bus,66,0,0,0,0,0,0,1
1112,14078,10402,bus,66,0,0,0,0,0,0,1
1231,14079,10402,bus,66,0,0,0,0,0,0,1
1324,14080,10402,bus,66,0,0,0,0,0,0,1
1418,14081,10402,bus,66,0,0,0,0,0,0,1
369,15176,10617,bus,76,1,1,1,1,1,0,0
428,15177,10617,bus,76,1,1,1,1,1,0,0
460,15178,10617,bus,76,1,1,1,1,1,0,0
512,15179,10617,bus,76,1,1,1,1,1,0,0
542,15180,10617,bus,76,1,1,1,1,1,0,0
599,15181,10617,bus,76,1,1,1,1,1,0,0
631,15182,10617,bus,76,1,1,1,1,1,0,0
708,15183,10617,bus,76,1,1,1,1,1,0,0
739,15184,10617,bus,76,1,1,1,1,1,0,0
791,15185,10617,bus,76,1,1,1,1,1,0,0
847,15186,10617,bus,76,1,1,1,1,1,0,0
907,15187,10617,bus,76,1,1,1,1,1,0,0
944,15188,10617,bus,76,1,1,1,1,1,0,0
1001,15189,10617,bus,76,1,1,1,1,1,0,0
1036,15190,10617,bus,76,1,1,1,1,1,0,0
1090,15191,10617,bus,76,1,1,1,1,1,0,0
1125,15192,10617,bus,76,1,1,1,1,1,0,0
1172,15193,10617,bus,76,1,1,1,1,1,0,0
1234,15194,10617,bus,76,1,1,1,1,1,0,0
1282,15195,10617,bus,76,1,1,1,1,1,0,0
1316,15196,10617,bus,76,1,1,1,1,1,0,0
1364,15197,10617,bus,76,1,1,1,1,1,0,0
1402,15198,10617,bus,76,1,1,1,1,1,0,0
378,15199,10618,bus,76,0,0,0,0,0,1,0
460,15200,10618,bus,76,0,0,0,0,0,1,0
548,15201,10618,bus,76,0,0,0,0,0,1,0
618,15202,10618,bus,76,0,0,0,0,0,1,0
666,15203,10618,bus,76,0,0,0,0,0,1,0
701,15204,10618,bus,76,0,0,0,0,0,1,0
748,15205,10618,bus,76,0,0,0,0,0,1,0
808,15206,10618,bus,76,0,0,0,0,0,1,0
836,15207,10618,bus,76,0,0,0,0,0,1,0
890,15208,10618,bus,76,0,0,0,0,0,1,0
923,15209,10618,bus,76,0,0,0,0,0,1,0
972,15210,10618,bus,76,0,0,0,0,0,1,0
1007,15211,10618,bus,76,0,0,0,0,0,1,0
1059,15212,10618,bus,76,0,0,0,0,0,1,0
1114,15213,10618,bus,76,0,0,0,0,0,1,0
1221,15214,10618,bus,76,0,0,0,0,0,1,0
1303,15215,10618,bus,76,0,0,0,0,0,1,0
1387,15216,10618,bus,76,0,0,0,0,0,1,0
460,15217,10619,bus,76,0,0,0,0,0,0,1
548,15218,10619,bus,76,0,0,0,0,0,0,1
618,15219,10619,bus,76,0,0,0,0,0,0,1
666,15220,10619,bus,76,0,0,0,0,0,0,1
701,15221,10619,bus,76,0,0,0,0,0,0,1
748,15222,10619,bus,76,0,0,0,0,0,0,1
808,15223,10619,bus,76,0,0,0,0,0,0,1
836,15224,10619,bus,76,0,0,0,0,0,0,1
890,15225,10619,bus,76,0,0,0,0,0,0,1
923,15226,10619,bus,76,0,0,0,0,0,0,1
972,15227,10619,bus,76,0,0,0,0,0,0,1
1007,15228,10619,bus,76,0,0,0,0,0,0,1
1059,15229,10619,bus,76,0,0,0,0,0,0,1
1114,15230,10619,bus,76,0,0,0,0,0,0,1
1221,15231,10619,bus,76,0,0,0,0,0,0,1
1303,15232,10619,bus,76,0,0,0,0,0,0,1
1387,15233,10619,bus,76,0,0,0,0,0,0,1
