timeInMin,trip_id,service_id,tipas,numeris,pirmadienis,antradienis,treciadienis,ketvirtadienis,penktadienis,sestadienis,sekmadienis 
1422,16371,9972,nightbus,104N,0,0,0,0,1,1,0
1472,16372,9972,nightbus,104N,0,0,0,0,1,1,0
1521,16373,9972,nightbus,104N,0,0,0,0,1,1,0
1572,16374,9972,nightbus,104N,0,0,0,0,1,1,0
1430,18939,10448,trol,6,0,0,0,0,0,0,1
1444,18940,10448,trol,6,0,0,0,0,0,0,1
1433,18941,10446,trol,6,1,1,1,1,1,0,0
1430,18942,10447,trol,6,0,0,0,0,0,1,0
1444,18943,10447,trol,6,0,0,0,0,0,1,0
408,20586,10457,trol,10,0,0,0,0,0,0,1
435,20587,10457,trol,10,0,0,0,0,0,0,1
466,20588,10457,trol,10,0,0,0,0,0,0,1
488,20589,10457,trol,10,0,0,0,0,0,0,1
506,20590,10457,trol,10,0,0,0,0,0,0,1
534,20591,10457,trol,10,0,0,0,0,0,0,1
562,20592,10457,trol,10,0,0,0,0,0,0,1
586,20593,10457,trol,10,0,0,0,0,0,0,1
606,20594,10457,trol,10,0,0,0,0,0,0,1
623,20595,10457,trol,10,0,0,0,0,0,0,1
643,20596,10457,trol,10,0,0,0,0,0,0,1
661,20597,10457,trol,10,0,0,0,0,0,0,1
679,20598,10457,trol,10,0,0,0,0,0,0,1
696,20599,10457,trol,10,0,0,0,0,0,0,1
711,20600,10457,trol,10,0,0,0,0,0,0,1
724,20601,10457,trol,10,0,0,0,0,0,0,1
737,20602,10457,trol,10,0,0,0,0,0,0,1
753,20603,10457,trol,10,0,0,0,0,0,0,1
769,20604,10457,trol,10,0,0,0,0,0,0,1
785,20605,10457,trol,10,0,0,0,0,0,0,1
802,20606,10457,trol,10,0,0,0,0,0,0,1
818,20607,10457,trol,10,0,0,0,0,0,0,1
834,20608,10457,trol,10,0,0,0,0,0,0,1
851,20609,10457,trol,10,0,0,0,0,0,0,1
871,20610,10457,trol,10,0,0,0,0,0,0,1
889,20611,10457,trol,10,0,0,0,0,0,0,1
905,20612,10457,trol,10,0,0,0,0,0,0,1
916,20613,10457,trol,10,0,0,0,0,0,0,1
932,20614,10457,trol,10,0,0,0,0,0,0,1
942,20615,10457,trol,10,0,0,0,0,0,0,1
960,20616,10457,trol,10,0,0,0,0,0,0,1
974,20617,10457,trol,10,0,0,0,0,0,0,1
990,20618,10457,trol,10,0,0,0,0,0,0,1
1005,20619,10457,trol,10,0,0,0,0,0,0,1
1018,20620,10457,trol,10,0,0,0,0,0,0,1
1036,20621,10457,trol,10,0,0,0,0,0,0,1
1046,20622,10457,trol,10,0,0,0,0,0,0,1
1057,20623,10457,trol,10,0,0,0,0,0,0,1
1072,20624,10457,trol,10,0,0,0,0,0,0,1
1090,20625,10457,trol,10,0,0,0,0,0,0,1
1104,20626,10457,trol,10,0,0,0,0,0,0,1
1119,20627,10457,trol,10,0,0,0,0,0,0,1
1134,20628,10457,trol,10,0,0,0,0,0,0,1
1171,20629,10457,trol,10,0,0,0,0,0,0,1
1199,20630,10457,trol,10,0,0,0,0,0,0,1
1231,20631,10457,trol,10,0,0,0,0,0,0,1
1257,20632,10457,trol,10,0,0,0,0,0,0,1
1279,20633,10457,trol,10,0,0,0,0,0,0,1
1302,20634,10457,trol,10,0,0,0,0,0,0,1
1326,20635,10457,trol,10,0,0,0,0,0,0,1
1350,20636,10457,trol,10,0,0,0,0,0,0,1
1378,20637,10457,trol,10,0,0,0,0,0,0,1
1407,20638,10457,trol,10,0,0,0,0,0,0,1
368,20639,10455,trol,10,1,1,1,1,1,0,0
386,20640,10455,trol,10,1,1,1,1,1,0,0
403,20641,10455,trol,10,1,1,1,1,1,0,0
417,20642,10455,trol,10,1,1,1,1,1,0,0
439,20643,10455,trol,10,1,1,1,1,1,0,0
454,20644,10455,trol,10,1,1,1,1,1,0,0
465,20645,10455,trol,10,1,1,1,1,1,0,0
475,20646,10455,trol,10,1,1,1,1,1,0,0
485,20647,10455,trol,10,1,1,1,1,1,0,0
498,20648,10455,trol,10,1,1,1,1,1,0,0
510,20649,10455,trol,10,1,1,1,1,1,0,0
519,20650,10455,trol,10,1,1,1,1,1,0,0
530,20651,10455,trol,10,1,1,1,1,1,0,0
545,20652,10455,trol,10,1,1,1,1,1,0,0
553,20653,10455,trol,10,1,1,1,1,1,0,0
570,20654,10455,trol,10,1,1,1,1,1,0,0
586,20655,10455,trol,10,1,1,1,1,1,0,0
596,20656,10455,trol,10,1,1,1,1,1,0,0
613,20657,10455,trol,10,1,1,1,1,1,0,0
626,20658,10455,trol,10,1,1,1,1,1,0,0
639,20659,10455,trol,10,1,1,1,1,1,0,0
650,20660,10455,trol,10,1,1,1,1,1,0,0
658,20661,10455,trol,10,1,1,1,1,1,0,0
670,20662,10455,trol,10,1,1,1,1,1,0,0
687,20663,10455,trol,10,1,1,1,1,1,0,0
707,20664,10455,trol,10,1,1,1,1,1,0,0
720,20665,10455,trol,10,1,1,1,1,1,0,0
735,20666,10455,trol,10,1,1,1,1,1,0,0
749,20667,10455,trol,10,1,1,1,1,1,0,0
767,20668,10455,trol,10,1,1,1,1,1,0,0
783,20669,10455,trol,10,1,1,1,1,1,0,0
797,20670,10455,trol,10,1,1,1,1,1,0,0
813,20671,10455,trol,10,1,1,1,1,1,0,0
833,20672,10455,trol,10,1,1,1,1,1,0,0
849,20673,10455,trol,10,1,1,1,1,1,0,0
866,20674,10455,trol,10,1,1,1,1,1,0,0
885,20675,10455,trol,10,1,1,1,1,1,0,0
895,20676,10455,trol,10,1,1,1,1,1,0,0
916,20677,10455,trol,10,1,1,1,1,1,0,0
932,20678,10455,trol,10,1,1,1,1,1,0,0
948,20679,10455,trol,10,1,1,1,1,1,0,0
965,20680,10455,trol,10,1,1,1,1,1,0,0
979,20681,10455,trol,10,1,1,1,1,1,0,0
999,20682,10455,trol,10,1,1,1,1,1,0,0
1011,20683,10455,trol,10,1,1,1,1,1,0,0
1022,20684,10455,trol,10,1,1,1,1,1,0,0
1034,20685,10455,trol,10,1,1,1,1,1,0,0
1045,20686,10455,trol,10,1,1,1,1,1,0,0
1054,20687,10455,trol,10,1,1,1,1,1,0,0
1069,20688,10455,trol,10,1,1,1,1,1,0,0
1078,20689,10455,trol,10,1,1,1,1,1,0,0
1089,20690,10455,trol,10,1,1,1,1,1,0,0
1100,20691,10455,trol,10,1,1,1,1,1,0,0
1119,20692,10455,trol,10,1,1,1,1,1,0,0
1134,20693,10455,trol,10,1,1,1,1,1,0,0
1142,20694,10455,trol,10,1,1,1,1,1,0,0
1152,20695,10455,trol,10,1,1,1,1,1,0,0
1167,20696,10455,trol,10,1,1,1,1,1,0,0
1179,20697,10455,trol,10,1,1,1,1,1,0,0
1194,20698,10455,trol,10,1,1,1,1,1,0,0
1209,20699,10455,trol,10,1,1,1,1,1,0,0
1222,20700,10455,trol,10,1,1,1,1,1,0,0
1236,20701,10455,trol,10,1,1,1,1,1,0,0
1257,20702,10455,trol,10,1,1,1,1,1,0,0
1276,20703,10455,trol,10,1,1,1,1,1,0,0
1286,20704,10455,trol,10,1,1,1,1,1,0,0
1297,20705,10455,trol,10,1,1,1,1,1,0,0
1311,20706,10455,trol,10,1,1,1,1,1,0,0
1322,20707,10455,trol,10,1,1,1,1,1,0,0
1343,20708,10455,trol,10,1,1,1,1,1,0,0
1357,20709,10455,trol,10,1,1,1,1,1,0,0
1376,20710,10455,trol,10,1,1,1,1,1,0,0
1392,20711,10455,trol,10,1,1,1,1,1,0,0
1404,20712,10455,trol,10,1,1,1,1,1,0,0
365,20713,10456,trol,10,0,0,0,0,0,1,0
408,20714,10456,trol,10,0,0,0,0,0,1,0
435,20715,10456,trol,10,0,0,0,0,0,1,0
466,20716,10456,trol,10,0,0,0,0,0,1,0
488,20717,10456,trol,10,0,0,0,0,0,1,0
506,20718,10456,trol,10,0,0,0,0,0,1,0
534,20719,10456,trol,10,0,0,0,0,0,1,0
562,20720,10456,trol,10,0,0,0,0,0,1,0
586,20721,10456,trol,10,0,0,0,0,0,1,0
606,20722,10456,trol,10,0,0,0,0,0,1,0
623,20723,10456,trol,10,0,0,0,0,0,1,0
643,20724,10456,trol,10,0,0,0,0,0,1,0
661,20725,10456,trol,10,0,0,0,0,0,1,0
679,20726,10456,trol,10,0,0,0,0,0,1,0
696,20727,10456,trol,10,0,0,0,0,0,1,0
711,20728,10456,trol,10,0,0,0,0,0,1,0
724,20729,10456,trol,10,0,0,0,0,0,1,0
737,20730,10456,trol,10,0,0,0,0,0,1,0
753,20731,10456,trol,10,0,0,0,0,0,1,0
769,20732,10456,trol,10,0,0,0,0,0,1,0
785,20733,10456,trol,10,0,0,0,0,0,1,0
802,20734,10456,trol,10,0,0,0,0,0,1,0
818,20735,10456,trol,10,0,0,0,0,0,1,0
834,20736,10456,trol,10,0,0,0,0,0,1,0
851,20737,10456,trol,10,0,0,0,0,0,1,0
871,20738,10456,trol,10,0,0,0,0,0,1,0
889,20739,10456,trol,10,0,0,0,0,0,1,0
905,20740,10456,trol,10,0,0,0,0,0,1,0
916,20741,10456,trol,10,0,0,0,0,0,1,0
932,20742,10456,trol,10,0,0,0,0,0,1,0
942,20743,10456,trol,10,0,0,0,0,0,1,0
960,20744,10456,trol,10,0,0,0,0,0,1,0
974,20745,10456,trol,10,0,0,0,0,0,1,0
990,20746,10456,trol,10,0,0,0,0,0,1,0
1005,20747,10456,trol,10,0,0,0,0,0,1,0
1018,20748,10456,trol,10,0,0,0,0,0,1,0
1036,20749,10456,trol,10,0,0,0,0,0,1,0
1046,20750,10456,trol,10,0,0,0,0,0,1,0
1057,20751,10456,trol,10,0,0,0,0,0,1,0
1072,20752,10456,trol,10,0,0,0,0,0,1,0
1090,20753,10456,trol,10,0,0,0,0,0,1,0
1104,20754,10456,trol,10,0,0,0,0,0,1,0
1119,20755,10456,trol,10,0,0,0,0,0,1,0
1134,20756,10456,trol,10,0,0,0,0,0,1,0
1171,20757,10456,trol,10,0,0,0,0,0,1,0
1199,20758,10456,trol,10,0,0,0,0,0,1,0
1231,20759,10456,trol,10,0,0,0,0,0,1,0
1257,20760,10456,trol,10,0,0,0,0,0,1,0
1279,20761,10456,trol,10,0,0,0,0,0,1,0
1302,20762,10456,trol,10,0,0,0,0,0,1,0
1326,20763,10456,trol,10,0,0,0,0,0,1,0
1350,20764,10456,trol,10,0,0,0,0,0,1,0
1378,20765,10456,trol,10,0,0,0,0,0,1,0
1407,20766,10456,trol,10,0,0,0,0,0,1,0
