timeInMin,trip_id,service_id,tipas,numeris,pirmadienis,antradienis,treciadienis,ketvirtadienis,penktadienis,sestadienis,sekmadienis 
331,10009,10378,bus,40,1,1,1,1,1,0,0
349,10010,10378,bus,40,1,1,1,1,1,0,0
363,10011,10378,bus,40,1,1,1,1,1,0,0
373,10012,10378,bus,40,1,1,1,1,1,0,0
383,10013,10378,bus,40,1,1,1,1,1,0,0
391,10014,10378,bus,40,1,1,1,1,1,0,0
398,10015,10378,bus,40,1,1,1,1,1,0,0
404,10016,10378,bus,40,1,1,1,1,1,0,0
410,10017,10378,bus,40,1,1,1,1,1,0,0
417,10018,10378,bus,40,1,1,1,1,1,0,0
426,10019,10378,bus,40,1,1,1,1,1,0,0
433,10020,10378,bus,40,1,1,1,1,1,0,0
440,10021,10378,bus,40,1,1,1,1,1,0,0
447,10022,10378,bus,40,1,1,1,1,1,0,0
454,10023,10378,bus,40,1,1,1,1,1,0,0
461,10024,10378,bus,40,1,1,1,1,1,0,0
469,10025,10378,bus,40,1,1,1,1,1,0,0
475,10026,10378,bus,40,1,1,1,1,1,0,0
483,10027,10378,bus,40,1,1,1,1,1,0,0
490,10028,10378,bus,40,1,1,1,1,1,0,0
497,10029,10378,bus,40,1,1,1,1,1,0,0
504,10030,10378,bus,40,1,1,1,1,1,0,0
511,10031,10378,bus,40,1,1,1,1,1,0,0
518,10032,10378,bus,40,1,1,1,1,1,0,0
525,10033,10378,bus,40,1,1,1,1,1,0,0
532,10034,10378,bus,40,1,1,1,1,1,0,0
540,10035,10378,bus,40,1,1,1,1,1,0,0
546,10036,10378,bus,40,1,1,1,1,1,0,0
554,10037,10378,bus,40,1,1,1,1,1,0,0
560,10038,10378,bus,40,1,1,1,1,1,0,0
567,10039,10378,bus,40,1,1,1,1,1,0,0
573,10040,10378,bus,40,1,1,1,1,1,0,0
581,10041,10378,bus,40,1,1,1,1,1,0,0
587,10042,10378,bus,40,1,1,1,1,1,0,0
594,10043,10378,bus,40,1,1,1,1,1,0,0
603,10044,10378,bus,40,1,1,1,1,1,0,0
617,10045,10378,bus,40,1,1,1,1,1,0,0
633,10046,10378,bus,40,1,1,1,1,1,0,0
649,10047,10378,bus,40,1,1,1,1,1,0,0
665,10048,10378,bus,40,1,1,1,1,1,0,0
683,10049,10378,bus,40,1,1,1,1,1,0,0
695,10050,10378,bus,40,1,1,1,1,1,0,0
709,10051,10378,bus,40,1,1,1,1,1,0,0
722,10052,10378,bus,40,1,1,1,1,1,0,0
735,10053,10378,bus,40,1,1,1,1,1,0,0
751,10054,10378,bus,40,1,1,1,1,1,0,0
764,10055,10378,bus,40,1,1,1,1,1,0,0
777,10056,10378,bus,40,1,1,1,1,1,0,0
791,10057,10378,bus,40,1,1,1,1,1,0,0
804,10058,10378,bus,40,1,1,1,1,1,0,0
820,10059,10378,bus,40,1,1,1,1,1,0,0
833,10060,10378,bus,40,1,1,1,1,1,0,0
846,10061,10378,bus,40,1,1,1,1,1,0,0
860,10062,10378,bus,40,1,1,1,1,1,0,0
873,10063,10378,bus,40,1,1,1,1,1,0,0
889,10064,10378,bus,40,1,1,1,1,1,0,0
902,10065,10378,bus,40,1,1,1,1,1,0,0
915,10066,10378,bus,40,1,1,1,1,1,0,0
929,10067,10378,bus,40,1,1,1,1,1,0,0
943,10068,10378,bus,40,1,1,1,1,1,0,0
951,10069,10378,bus,40,1,1,1,1,1,0,0
959,10070,10378,bus,40,1,1,1,1,1,0,0
966,10071,10378,bus,40,1,1,1,1,1,0,0
974,10072,10378,bus,40,1,1,1,1,1,0,0
982,10073,10378,bus,40,1,1,1,1,1,0,0
989,10074,10378,bus,40,1,1,1,1,1,0,0
997,10075,10378,bus,40,1,1,1,1,1,0,0
1004,10076,10378,bus,40,1,1,1,1,1,0,0
1010,10077,10378,bus,40,1,1,1,1,1,0,0
1016,10078,10378,bus,40,1,1,1,1,1,0,0
1022,10079,10378,bus,40,1,1,1,1,1,0,0
1028,10080,10378,bus,40,1,1,1,1,1,0,0
1034,10081,10378,bus,40,1,1,1,1,1,0,0
1040,10082,10378,bus,40,1,1,1,1,1,0,0
1046,10083,10378,bus,40,1,1,1,1,1,0,0
1052,10084,10378,bus,40,1,1,1,1,1,0,0
1060,10085,10378,bus,40,1,1,1,1,1,0,0
1067,10086,10378,bus,40,1,1,1,1,1,0,0
1075,10087,10378,bus,40,1,1,1,1,1,0,0
1081,10088,10378,bus,40,1,1,1,1,1,0,0
1087,10089,10378,bus,40,1,1,1,1,1,0,0
1093,10090,10378,bus,40,1,1,1,1,1,0,0
1101,10091,10378,bus,40,1,1,1,1,1,0,0
1109,10092,10378,bus,40,1,1,1,1,1,0,0
1117,10093,10378,bus,40,1,1,1,1,1,0,0
1124,10094,10378,bus,40,1,1,1,1,1,0,0
1133,10095,10378,bus,40,1,1,1,1,1,0,0
1143,10096,10378,bus,40,1,1,1,1,1,0,0
1151,10097,10378,bus,40,1,1,1,1,1,0,0
1160,10098,10378,bus,40,1,1,1,1,1,0,0
1167,10099,10378,bus,40,1,1,1,1,1,0,0
1178,10100,10378,bus,40,1,1,1,1,1,0,0
1188,10101,10378,bus,40,1,1,1,1,1,0,0
1200,10102,10378,bus,40,1,1,1,1,1,0,0
1212,10103,10378,bus,40,1,1,1,1,1,0,0
1224,10104,10378,bus,40,1,1,1,1,1,0,0
1238,10105,10378,bus,40,1,1,1,1,1,0,0
1254,10106,10378,bus,40,1,1,1,1,1,0,0
1266,10107,10378,bus,40,1,1,1,1,1,0,0
1277,10108,10378,bus,40,1,1,1,1,1,0,0
1289,10109,10378,bus,40,1,1,1,1,1,0,0
1303,10110,10378,bus,40,1,1,1,1,1,0,0
1317,10111,10378,bus,40,1,1,1,1,1,0,0
1331,10112,10378,bus,40,1,1,1,1,1,0,0
1342,10113,10378,bus,40,1,1,1,1,1,0,0
1354,10114,10378,bus,40,1,1,1,1,1,0,0
1369,10115,10378,bus,40,1,1,1,1,1,0,0
1382,10116,10378,bus,40,1,1,1,1,1,0,0
1397,10117,10378,bus,40,1,1,1,1,1,0,0
344,10118,10379,bus,40,0,0,0,0,0,1,0
360,10119,10379,bus,40,0,0,0,0,0,1,0
376,10120,10379,bus,40,0,0,0,0,0,1,0
393,10121,10379,bus,40,0,0,0,0,0,1,0
406,10122,10379,bus,40,0,0,0,0,0,1,0
422,10123,10379,bus,40,0,0,0,0,0,1,0
441,10124,10379,bus,40,0,0,0,0,0,1,0
458,10125,10379,bus,40,0,0,0,0,0,1,0
472,10126,10379,bus,40,0,0,0,0,0,1,0
487,10127,10379,bus,40,0,0,0,0,0,1,0
507,10128,10379,bus,40,0,0,0,0,0,1,0
524,10129,10379,bus,40,0,0,0,0,0,1,0
539,10130,10379,bus,40,0,0,0,0,0,1,0
553,10131,10379,bus,40,0,0,0,0,0,1,0
572,10132,10379,bus,40,0,0,0,0,0,1,0
588,10133,10379,bus,40,0,0,0,0,0,1,0
602,10134,10379,bus,40,0,0,0,0,0,1,0
616,10135,10379,bus,40,0,0,0,0,0,1,0
631,10136,10379,bus,40,0,0,0,0,0,1,0
643,10137,10379,bus,40,0,0,0,0,0,1,0
655,10138,10379,bus,40,0,0,0,0,0,1,0
666,10139,10379,bus,40,0,0,0,0,0,1,0
675,10140,10379,bus,40,0,0,0,0,0,1,0
685,10141,10379,bus,40,0,0,0,0,0,1,0
696,10142,10379,bus,40,0,0,0,0,0,1,0
707,10143,10379,bus,40,0,0,0,0,0,1,0
721,10144,10379,bus,40,0,0,0,0,0,1,0
730,10145,10379,bus,40,0,0,0,0,0,1,0
742,10146,10379,bus,40,0,0,0,0,0,1,0
752,10147,10379,bus,40,0,0,0,0,0,1,0
762,10148,10379,bus,40,0,0,0,0,0,1,0
777,10149,10379,bus,40,0,0,0,0,0,1,0
794,10150,10379,bus,40,0,0,0,0,0,1,0
806,10151,10379,bus,40,0,0,0,0,0,1,0
816,10152,10379,bus,40,0,0,0,0,0,1,0
826,10153,10379,bus,40,0,0,0,0,0,1,0
836,10154,10379,bus,40,0,0,0,0,0,1,0
848,10155,10379,bus,40,0,0,0,0,0,1,0
870,10156,10379,bus,40,0,0,0,0,0,1,0
880,10157,10379,bus,40,0,0,0,0,0,1,0
890,10158,10379,bus,40,0,0,0,0,0,1,0
900,10159,10379,bus,40,0,0,0,0,0,1,0
912,10160,10379,bus,40,0,0,0,0,0,1,0
921,10161,10379,bus,40,0,0,0,0,0,1,0
934,10162,10379,bus,40,0,0,0,0,0,1,0
945,10163,10379,bus,40,0,0,0,0,0,1,0
955,10164,10379,bus,40,0,0,0,0,0,1,0
966,10165,10379,bus,40,0,0,0,0,0,1,0
976,10166,10379,bus,40,0,0,0,0,0,1,0
985,10167,10379,bus,40,0,0,0,0,0,1,0
999,10168,10379,bus,40,0,0,0,0,0,1,0
1011,10169,10379,bus,40,0,0,0,0,0,1,0
1022,10170,10379,bus,40,0,0,0,0,0,1,0
1034,10171,10379,bus,40,0,0,0,0,0,1,0
1047,10172,10379,bus,40,0,0,0,0,0,1,0
1058,10173,10379,bus,40,0,0,0,0,0,1,0
1077,10174,10379,bus,40,0,0,0,0,0,1,0
1094,10175,10379,bus,40,0,0,0,0,0,1,0
1116,10176,10379,bus,40,0,0,0,0,0,1,0
1139,10177,10379,bus,40,0,0,0,0,0,1,0
1159,10178,10379,bus,40,0,0,0,0,0,1,0
1180,10179,10379,bus,40,0,0,0,0,0,1,0
1193,10180,10379,bus,40,0,0,0,0,0,1,0
1208,10181,10379,bus,40,0,0,0,0,0,1,0
1223,10182,10379,bus,40,0,0,0,0,0,1,0
1243,10183,10379,bus,40,0,0,0,0,0,1,0
1255,10184,10379,bus,40,0,0,0,0,0,1,0
1268,10185,10379,bus,40,0,0,0,0,0,1,0
1283,10186,10379,bus,40,0,0,0,0,0,1,0
1303,10187,10379,bus,40,0,0,0,0,0,1,0
1321,10188,10379,bus,40,0,0,0,0,0,1,0
1343,10189,10379,bus,40,0,0,0,0,0,1,0
1365,10190,10379,bus,40,0,0,0,0,0,1,0
376,10191,10380,bus,40,0,0,0,0,0,0,1
393,10192,10380,bus,40,0,0,0,0,0,0,1
406,10193,10380,bus,40,0,0,0,0,0,0,1
422,10194,10380,bus,40,0,0,0,0,0,0,1
441,10195,10380,bus,40,0,0,0,0,0,0,1
458,10196,10380,bus,40,0,0,0,0,0,0,1
472,10197,10380,bus,40,0,0,0,0,0,0,1
487,10198,10380,bus,40,0,0,0,0,0,0,1
507,10199,10380,bus,40,0,0,0,0,0,0,1
524,10200,10380,bus,40,0,0,0,0,0,0,1
539,10201,10380,bus,40,0,0,0,0,0,0,1
553,10202,10380,bus,40,0,0,0,0,0,0,1
572,10203,10380,bus,40,0,0,0,0,0,0,1
588,10204,10380,bus,40,0,0,0,0,0,0,1
602,10205,10380,bus,40,0,0,0,0,0,0,1
616,10206,10380,bus,40,0,0,0,0,0,0,1
631,10207,10380,bus,40,0,0,0,0,0,0,1
643,10208,10380,bus,40,0,0,0,0,0,0,1
655,10209,10380,bus,40,0,0,0,0,0,0,1
666,10210,10380,bus,40,0,0,0,0,0,0,1
675,10211,10380,bus,40,0,0,0,0,0,0,1
685,10212,10380,bus,40,0,0,0,0,0,0,1
696,10213,10380,bus,40,0,0,0,0,0,0,1
707,10214,10380,bus,40,0,0,0,0,0,0,1
721,10215,10380,bus,40,0,0,0,0,0,0,1
730,10216,10380,bus,40,0,0,0,0,0,0,1
742,10217,10380,bus,40,0,0,0,0,0,0,1
752,10218,10380,bus,40,0,0,0,0,0,0,1
762,10219,10380,bus,40,0,0,0,0,0,0,1
777,10220,10380,bus,40,0,0,0,0,0,0,1
794,10221,10380,bus,40,0,0,0,0,0,0,1
806,10222,10380,bus,40,0,0,0,0,0,0,1
816,10223,10380,bus,40,0,0,0,0,0,0,1
826,10224,10380,bus,40,0,0,0,0,0,0,1
836,10225,10380,bus,40,0,0,0,0,0,0,1
848,10226,10380,bus,40,0,0,0,0,0,0,1
870,10227,10380,bus,40,0,0,0,0,0,0,1
880,10228,10380,bus,40,0,0,0,0,0,0,1
890,10229,10380,bus,40,0,0,0,0,0,0,1
900,10230,10380,bus,40,0,0,0,0,0,0,1
912,10231,10380,bus,40,0,0,0,0,0,0,1
921,10232,10380,bus,40,0,0,0,0,0,0,1
934,10233,10380,bus,40,0,0,0,0,0,0,1
945,10234,10380,bus,40,0,0,0,0,0,0,1
955,10235,10380,bus,40,0,0,0,0,0,0,1
966,10236,10380,bus,40,0,0,0,0,0,0,1
976,10237,10380,bus,40,0,0,0,0,0,0,1
985,10238,10380,bus,40,0,0,0,0,0,0,1
999,10239,10380,bus,40,0,0,0,0,0,0,1
1011,10240,10380,bus,40,0,0,0,0,0,0,1
1022,10241,10380,bus,40,0,0,0,0,0,0,1
1034,10242,10380,bus,40,0,0,0,0,0,0,1
1047,10243,10380,bus,40,0,0,0,0,0,0,1
1058,10244,10380,bus,40,0,0,0,0,0,0,1
1077,10245,10380,bus,40,0,0,0,0,0,0,1
1094,10246,10380,bus,40,0,0,0,0,0,0,1
1116,10247,10380,bus,40,0,0,0,0,0,0,1
1139,10248,10380,bus,40,0,0,0,0,0,0,1
1159,10249,10380,bus,40,0,0,0,0,0,0,1
1180,10250,10380,bus,40,0,0,0,0,0,0,1
1193,10251,10380,bus,40,0,0,0,0,0,0,1
1208,10252,10380,bus,40,0,0,0,0,0,0,1
1223,10253,10380,bus,40,0,0,0,0,0,0,1
1243,10254,10380,bus,40,0,0,0,0,0,0,1
1255,10255,10380,bus,40,0,0,0,0,0,0,1
1268,10256,10380,bus,40,0,0,0,0,0,0,1
1283,10257,10380,bus,40,0,0,0,0,0,0,1
1303,10258,10380,bus,40,0,0,0,0,0,0,1
1321,10259,10380,bus,40,0,0,0,0,0,0,1
1343,10260,10380,bus,40,0,0,0,0,0,0,1
1365,10261,10380,bus,40,0,0,0,0,0,0,1
376,12229,10394,bus,53,0,0,0,0,0,0,1
391,12230,10394,bus,53,0,0,0,0,0,0,1
406,12231,10394,bus,53,0,0,0,0,0,0,1
421,12232,10394,bus,53,0,0,0,0,0,0,1
436,12233,10394,bus,53,0,0,0,0,0,0,1
451,12234,10394,bus,53,0,0,0,0,0,0,1
466,12235,10394,bus,53,0,0,0,0,0,0,1
481,12236,10394,bus,53,0,0,0,0,0,0,1
496,12237,10394,bus,53,0,0,0,0,0,0,1
512,12238,10394,bus,53,0,0,0,0,0,0,1
527,12239,10394,bus,53,0,0,0,0,0,0,1
538,12240,10394,bus,53,0,0,0,0,0,0,1
549,12241,10394,bus,53,0,0,0,0,0,0,1
559,12242,10394,bus,53,0,0,0,0,0,0,1
568,12243,10394,bus,53,0,0,0,0,0,0,1
578,12244,10394,bus,53,0,0,0,0,0,0,1
588,12245,10394,bus,53,0,0,0,0,0,0,1
600,12246,10394,bus,53,0,0,0,0,0,0,1
613,12247,10394,bus,53,0,0,0,0,0,0,1
623,12248,10394,bus,53,0,0,0,0,0,0,1
632,12249,10394,bus,53,0,0,0,0,0,0,1
641,12250,10394,bus,53,0,0,0,0,0,0,1
652,12251,10394,bus,53,0,0,0,0,0,0,1
664,12252,10394,bus,53,0,0,0,0,0,0,1
675,12253,10394,bus,53,0,0,0,0,0,0,1
685,12254,10394,bus,53,0,0,0,0,0,0,1
695,12255,10394,bus,53,0,0,0,0,0,0,1
707,12256,10394,bus,53,0,0,0,0,0,0,1
720,12257,10394,bus,53,0,0,0,0,0,0,1
737,12258,10394,bus,53,0,0,0,0,0,0,1
746,12259,10394,bus,53,0,0,0,0,0,0,1
757,12260,10394,bus,53,0,0,0,0,0,0,1
766,12261,10394,bus,53,0,0,0,0,0,0,1
772,12262,10394,bus,53,0,0,0,0,0,0,1
783,12263,10394,bus,53,0,0,0,0,0,0,1
791,12264,10394,bus,53,0,0,0,0,0,0,1
800,12265,10394,bus,53,0,0,0,0,0,0,1
808,12266,10394,bus,53,0,0,0,0,0,0,1
818,12267,10394,bus,53,0,0,0,0,0,0,1
832,12268,10394,bus,53,0,0,0,0,0,0,1
842,12269,10394,bus,53,0,0,0,0,0,0,1
855,12270,10394,bus,53,0,0,0,0,0,0,1
865,12271,10394,bus,53,0,0,0,0,0,0,1
874,12272,10394,bus,53,0,0,0,0,0,0,1
883,12273,10394,bus,53,0,0,0,0,0,0,1
892,12274,10394,bus,53,0,0,0,0,0,0,1
902,12275,10394,bus,53,0,0,0,0,0,0,1
911,12276,10394,bus,53,0,0,0,0,0,0,1
921,12277,10394,bus,53,0,0,0,0,0,0,1
934,12278,10394,bus,53,0,0,0,0,0,0,1
948,12279,10394,bus,53,0,0,0,0,0,0,1
961,12280,10394,bus,53,0,0,0,0,0,0,1
971,12281,10394,bus,53,0,0,0,0,0,0,1
980,12282,10394,bus,53,0,0,0,0,0,0,1
990,12283,10394,bus,53,0,0,0,0,0,0,1
1001,12284,10394,bus,53,0,0,0,0,0,0,1
1012,12285,10394,bus,53,0,0,0,0,0,0,1
1027,12286,10394,bus,53,0,0,0,0,0,0,1
1043,12287,10394,bus,53,0,0,0,0,0,0,1
1059,12288,10394,bus,53,0,0,0,0,0,0,1
1080,12289,10394,bus,53,0,0,0,0,0,0,1
1101,12290,10394,bus,53,0,0,0,0,0,0,1
1116,12291,10394,bus,53,0,0,0,0,0,0,1
1141,12292,10394,bus,53,0,0,0,0,0,0,1
1165,12293,10394,bus,53,0,0,0,0,0,0,1
1182,12294,10394,bus,53,0,0,0,0,0,0,1
1199,12295,10394,bus,53,0,0,0,0,0,0,1
1219,12296,10394,bus,53,0,0,0,0,0,0,1
1231,12297,10394,bus,53,0,0,0,0,0,0,1
1243,12298,10394,bus,53,0,0,0,0,0,0,1
1258,12299,10394,bus,53,0,0,0,0,0,0,1
1272,12300,10394,bus,53,0,0,0,0,0,0,1
1288,12301,10394,bus,53,0,0,0,0,0,0,1
1303,12302,10394,bus,53,0,0,0,0,0,0,1
1317,12303,10394,bus,53,0,0,0,0,0,0,1
1331,12304,10394,bus,53,0,0,0,0,0,0,1
1344,12305,10394,bus,53,0,0,0,0,0,0,1
1360,12306,10394,bus,53,0,0,0,0,0,0,1
1378,12307,10394,bus,53,0,0,0,0,0,0,1
326,12308,10392,bus,53,1,1,1,1,1,0,0
337,12309,10392,bus,53,1,1,1,1,1,0,0
348,12310,10392,bus,53,1,1,1,1,1,0,0
359,12311,10392,bus,53,1,1,1,1,1,0,0
371,12312,10392,bus,53,1,1,1,1,1,0,0
378,12313,10392,bus,53,1,1,1,1,1,0,0
384,12314,10392,bus,53,1,1,1,1,1,0,0
390,12315,10392,bus,53,1,1,1,1,1,0,0
396,12316,10392,bus,53,1,1,1,1,1,0,0
402,12317,10392,bus,53,1,1,1,1,1,0,0
409,12318,10392,bus,53,1,1,1,1,1,0,0
416,12319,10392,bus,53,1,1,1,1,1,0,0
423,12320,10392,bus,53,1,1,1,1,1,0,0
431,12321,10392,bus,53,1,1,1,1,1,0,0
437,12322,10392,bus,53,1,1,1,1,1,0,0
443,12323,10392,bus,53,1,1,1,1,1,0,0
450,12324,10392,bus,53,1,1,1,1,1,0,0
457,12325,10392,bus,53,1,1,1,1,1,0,0
465,12326,10392,bus,53,1,1,1,1,1,0,0
473,12327,10392,bus,53,1,1,1,1,1,0,0
480,12328,10392,bus,53,1,1,1,1,1,0,0
489,12329,10392,bus,53,1,1,1,1,1,0,0
497,12330,10392,bus,53,1,1,1,1,1,0,0
506,12331,10392,bus,53,1,1,1,1,1,0,0
514,12332,10392,bus,53,1,1,1,1,1,0,0
523,12333,10392,bus,53,1,1,1,1,1,0,0
533,12334,10392,bus,53,1,1,1,1,1,0,0
541,12335,10392,bus,53,1,1,1,1,1,0,0
550,12336,10392,bus,53,1,1,1,1,1,0,0
557,12337,10392,bus,53,1,1,1,1,1,0,0
567,12338,10392,bus,53,1,1,1,1,1,0,0
578,12339,10392,bus,53,1,1,1,1,1,0,0
588,12340,10392,bus,53,1,1,1,1,1,0,0
600,12341,10392,bus,53,1,1,1,1,1,0,0
610,12342,10392,bus,53,1,1,1,1,1,0,0
620,12343,10392,bus,53,1,1,1,1,1,0,0
629,12344,10392,bus,53,1,1,1,1,1,0,0
639,12345,10392,bus,53,1,1,1,1,1,0,0
650,12346,10392,bus,53,1,1,1,1,1,0,0
663,12347,10392,bus,53,1,1,1,1,1,0,0
675,12348,10392,bus,53,1,1,1,1,1,0,0
686,12349,10392,bus,53,1,1,1,1,1,0,0
694,12350,10392,bus,53,1,1,1,1,1,0,0
702,12351,10392,bus,53,1,1,1,1,1,0,0
710,12352,10392,bus,53,1,1,1,1,1,0,0
720,12353,10392,bus,53,1,1,1,1,1,0,0
730,12354,10392,bus,53,1,1,1,1,1,0,0
740,12355,10392,bus,53,1,1,1,1,1,0,0
750,12356,10392,bus,53,1,1,1,1,1,0,0
761,12357,10392,bus,53,1,1,1,1,1,0,0
772,12358,10392,bus,53,1,1,1,1,1,0,0
784,12359,10392,bus,53,1,1,1,1,1,0,0
794,12360,10392,bus,53,1,1,1,1,1,0,0
803,12361,10392,bus,53,1,1,1,1,1,0,0
813,12362,10392,bus,53,1,1,1,1,1,0,0
822,12363,10392,bus,53,1,1,1,1,1,0,0
830,12364,10392,bus,53,1,1,1,1,1,0,0
840,12365,10392,bus,53,1,1,1,1,1,0,0
849,12366,10392,bus,53,1,1,1,1,1,0,0
859,12367,10392,bus,53,1,1,1,1,1,0,0
870,12368,10392,bus,53,1,1,1,1,1,0,0
882,12369,10392,bus,53,1,1,1,1,1,0,0
891,12370,10392,bus,53,1,1,1,1,1,0,0
900,12371,10392,bus,53,1,1,1,1,1,0,0
906,12372,10392,bus,53,1,1,1,1,1,0,0
913,12373,10392,bus,53,1,1,1,1,1,0,0
921,12374,10392,bus,53,1,1,1,1,1,0,0
929,12375,10392,bus,53,1,1,1,1,1,0,0
936,12376,10392,bus,53,1,1,1,1,1,0,0
943,12377,10392,bus,53,1,1,1,1,1,0,0
950,12378,10392,bus,53,1,1,1,1,1,0,0
958,12379,10392,bus,53,1,1,1,1,1,0,0
964,12380,10392,bus,53,1,1,1,1,1,0,0
970,12381,10392,bus,53,1,1,1,1,1,0,0
976,12382,10392,bus,53,1,1,1,1,1,0,0
983,12383,10392,bus,53,1,1,1,1,1,0,0
991,12384,10392,bus,53,1,1,1,1,1,0,0
999,12385,10392,bus,53,1,1,1,1,1,0,0
1007,12386,10392,bus,53,1,1,1,1,1,0,0
1016,12387,10392,bus,53,1,1,1,1,1,0,0
1025,12388,10392,bus,53,1,1,1,1,1,0,0
1035,12389,10392,bus,53,1,1,1,1,1,0,0
1045,12390,10392,bus,53,1,1,1,1,1,0,0
1056,12391,10392,bus,53,1,1,1,1,1,0,0
1068,12392,10392,bus,53,1,1,1,1,1,0,0
1083,12393,10392,bus,53,1,1,1,1,1,0,0
1096,12394,10392,bus,53,1,1,1,1,1,0,0
1104,12395,10392,bus,53,1,1,1,1,1,0,0
1112,12396,10392,bus,53,1,1,1,1,1,0,0
1120,12397,10392,bus,53,1,1,1,1,1,0,0
1131,12398,10392,bus,53,1,1,1,1,1,0,0
1143,12399,10392,bus,53,1,1,1,1,1,0,0
1156,12400,10392,bus,53,1,1,1,1,1,0,0
1167,12401,10392,bus,53,1,1,1,1,1,0,0
1178,12402,10392,bus,53,1,1,1,1,1,0,0
1188,12403,10392,bus,53,1,1,1,1,1,0,0
1199,12404,10392,bus,53,1,1,1,1,1,0,0
1206,12405,10392,bus,53,1,1,1,1,1,0,0
1214,12406,10392,bus,53,1,1,1,1,1,0,0
1223,12407,10392,bus,53,1,1,1,1,1,0,0
1231,12408,10392,bus,53,1,1,1,1,1,0,0
1240,12409,10392,bus,53,1,1,1,1,1,0,0
1249,12410,10392,bus,53,1,1,1,1,1,0,0
1262,12411,10392,bus,53,1,1,1,1,1,0,0
1273,12412,10392,bus,53,1,1,1,1,1,0,0
1283,12413,10392,bus,53,1,1,1,1,1,0,0
1292,12414,10392,bus,53,1,1,1,1,1,0,0
1300,12415,10392,bus,53,1,1,1,1,1,0,0
1308,12416,10392,bus,53,1,1,1,1,1,0,0
1318,12417,10392,bus,53,1,1,1,1,1,0,0
1327,12418,10392,bus,53,1,1,1,1,1,0,0
1336,12419,10392,bus,53,1,1,1,1,1,0,0
1344,12420,10392,bus,53,1,1,1,1,1,0,0
1353,12421,10392,bus,53,1,1,1,1,1,0,0
1364,12422,10392,bus,53,1,1,1,1,1,0,0
1373,12423,10392,bus,53,1,1,1,1,1,0,0
1382,12424,10392,bus,53,1,1,1,1,1,0,0
322,12425,10393,bus,53,0,0,0,0,0,1,0
348,12426,10393,bus,53,0,0,0,0,0,1,0
361,12427,10393,bus,53,0,0,0,0,0,1,0
376,12428,10393,bus,53,0,0,0,0,0,1,0
391,12429,10393,bus,53,0,0,0,0,0,1,0
406,12430,10393,bus,53,0,0,0,0,0,1,0
421,12431,10393,bus,53,0,0,0,0,0,1,0
436,12432,10393,bus,53,0,0,0,0,0,1,0
451,12433,10393,bus,53,0,0,0,0,0,1,0
466,12434,10393,bus,53,0,0,0,0,0,1,0
481,12435,10393,bus,53,0,0,0,0,0,1,0
496,12436,10393,bus,53,0,0,0,0,0,1,0
512,12437,10393,bus,53,0,0,0,0,0,1,0
527,12438,10393,bus,53,0,0,0,0,0,1,0
538,12439,10393,bus,53,0,0,0,0,0,1,0
549,12440,10393,bus,53,0,0,0,0,0,1,0
559,12441,10393,bus,53,0,0,0,0,0,1,0
568,12442,10393,bus,53,0,0,0,0,0,1,0
578,12443,10393,bus,53,0,0,0,0,0,1,0
588,12444,10393,bus,53,0,0,0,0,0,1,0
600,12445,10393,bus,53,0,0,0,0,0,1,0
613,12446,10393,bus,53,0,0,0,0,0,1,0
623,12447,10393,bus,53,0,0,0,0,0,1,0
632,12448,10393,bus,53,0,0,0,0,0,1,0
641,12449,10393,bus,53,0,0,0,0,0,1,0
652,12450,10393,bus,53,0,0,0,0,0,1,0
664,12451,10393,bus,53,0,0,0,0,0,1,0
675,12452,10393,bus,53,0,0,0,0,0,1,0
685,12453,10393,bus,53,0,0,0,0,0,1,0
695,12454,10393,bus,53,0,0,0,0,0,1,0
707,12455,10393,bus,53,0,0,0,0,0,1,0
720,12456,10393,bus,53,0,0,0,0,0,1,0
737,12457,10393,bus,53,0,0,0,0,0,1,0
746,12458,10393,bus,53,0,0,0,0,0,1,0
757,12459,10393,bus,53,0,0,0,0,0,1,0
766,12460,10393,bus,53,0,0,0,0,0,1,0
772,12461,10393,bus,53,0,0,0,0,0,1,0
783,12462,10393,bus,53,0,0,0,0,0,1,0
791,12463,10393,bus,53,0,0,0,0,0,1,0
800,12464,10393,bus,53,0,0,0,0,0,1,0
808,12465,10393,bus,53,0,0,0,0,0,1,0
818,12466,10393,bus,53,0,0,0,0,0,1,0
832,12467,10393,bus,53,0,0,0,0,0,1,0
842,12468,10393,bus,53,0,0,0,0,0,1,0
855,12469,10393,bus,53,0,0,0,0,0,1,0
865,12470,10393,bus,53,0,0,0,0,0,1,0
874,12471,10393,bus,53,0,0,0,0,0,1,0
883,12472,10393,bus,53,0,0,0,0,0,1,0
892,12473,10393,bus,53,0,0,0,0,0,1,0
902,12474,10393,bus,53,0,0,0,0,0,1,0
911,12475,10393,bus,53,0,0,0,0,0,1,0
921,12476,10393,bus,53,0,0,0,0,0,1,0
934,12477,10393,bus,53,0,0,0,0,0,1,0
948,12478,10393,bus,53,0,0,0,0,0,1,0
961,12479,10393,bus,53,0,0,0,0,0,1,0
971,12480,10393,bus,53,0,0,0,0,0,1,0
980,12481,10393,bus,53,0,0,0,0,0,1,0
990,12482,10393,bus,53,0,0,0,0,0,1,0
1001,12483,10393,bus,53,0,0,0,0,0,1,0
1012,12484,10393,bus,53,0,0,0,0,0,1,0
1027,12485,10393,bus,53,0,0,0,0,0,1,0
1043,12486,10393,bus,53,0,0,0,0,0,1,0
1059,12487,10393,bus,53,0,0,0,0,0,1,0
1080,12488,10393,bus,53,0,0,0,0,0,1,0
1101,12489,10393,bus,53,0,0,0,0,0,1,0
1116,12490,10393,bus,53,0,0,0,0,0,1,0
1141,12491,10393,bus,53,0,0,0,0,0,1,0
1165,12492,10393,bus,53,0,0,0,0,0,1,0
1182,12493,10393,bus,53,0,0,0,0,0,1,0
1199,12494,10393,bus,53,0,0,0,0,0,1,0
1219,12495,10393,bus,53,0,0,0,0,0,1,0
1231,12496,10393,bus,53,0,0,0,0,0,1,0
1243,12497,10393,bus,53,0,0,0,0,0,1,0
1258,12498,10393,bus,53,0,0,0,0,0,1,0
1272,12499,10393,bus,53,0,0,0,0,0,1,0
1288,12500,10393,bus,53,0,0,0,0,0,1,0
1303,12501,10393,bus,53,0,0,0,0,0,1,0
1317,12502,10393,bus,53,0,0,0,0,0,1,0
1331,12503,10393,bus,53,0,0,0,0,0,1,0
1344,12504,10393,bus,53,0,0,0,0,0,1,0
1360,12505,10393,bus,53,0,0,0,0,0,1,0
1378,12506,10393,bus,53,0,0,0,0,0,1,0
1138,12783,10392,bus,53,1,1,1,1,1,0,0
1172,12784,10392,bus,53,1,1,1,1,1,0,0
1185,12785,10392,bus,53,1,1,1,1,1,0,0
1194,12786,10392,bus,53,1,1,1,1,1,0,0
1207,12787,10392,bus,53,1,1,1,1,1,0,0
1393,12788,10392,bus,53,1,1,1,1,1,0,0
1404,12789,10392,bus,53,1,1,1,1,1,0,0
1414,12790,10392,bus,53,1,1,1,1,1,0,0
1427,12791,10392,bus,53,1,1,1,1,1,0,0
1440,12792,10392,bus,53,1,1,1,1,1,0,0
1449,12793,10392,bus,53,1,1,1,1,1,0,0
1054,12794,10394,bus,53,0,0,0,0,0,0,1
1064,12795,10394,bus,53,0,0,0,0,0,0,1
1096,12796,10394,bus,53,0,0,0,0,0,0,1
1123,12797,10394,bus,53,0,0,0,0,0,0,1
1393,12798,10394,bus,53,0,0,0,0,0,0,1
1413,12799,10394,bus,53,0,0,0,0,0,0,1
1434,12800,10394,bus,53,0,0,0,0,0,0,1
1054,12801,10393,bus,53,0,0,0,0,0,1,0
1064,12802,10393,bus,53,0,0,0,0,0,1,0
1096,12803,10393,bus,53,0,0,0,0,0,1,0
1123,12804,10393,bus,53,0,0,0,0,0,1,0
1393,12805,10393,bus,53,0,0,0,0,0,1,0
1413,12806,10393,bus,53,0,0,0,0,0,1,0
1434,12807,10393,bus,53,0,0,0,0,0,1,0
374,13159,9466,bus,56,0,0,0,0,0,0,1
409,13160,9466,bus,56,0,0,0,0,0,0,1
442,13161,9466,bus,56,0,0,0,0,0,0,1
475,13162,9466,bus,56,0,0,0,0,0,0,1
517,13163,9466,bus,56,0,0,0,0,0,0,1
571,13164,9466,bus,56,0,0,0,0,0,0,1
621,13165,9466,bus,56,0,0,0,0,0,0,1
652,13166,9466,bus,56,0,0,0,0,0,0,1
690,13167,9466,bus,56,0,0,0,0,0,0,1
721,13168,9466,bus,56,0,0,0,0,0,0,1
759,13169,9466,bus,56,0,0,0,0,0,0,1
797,13170,9466,bus,56,0,0,0,0,0,0,1
832,13171,9466,bus,56,0,0,0,0,0,0,1
871,13172,9466,bus,56,0,0,0,0,0,0,1
906,13173,9466,bus,56,0,0,0,0,0,0,1
940,13174,9466,bus,56,0,0,0,0,0,0,1
975,13175,9466,bus,56,0,0,0,0,0,0,1
1010,13176,9466,bus,56,0,0,0,0,0,0,1
1052,13177,9466,bus,56,0,0,0,0,0,0,1
1104,13178,9466,bus,56,0,0,0,0,0,0,1
1150,13179,9466,bus,56,0,0,0,0,0,0,1
1197,13180,9466,bus,56,0,0,0,0,0,0,1
1219,13181,9466,bus,56,0,0,0,0,0,0,1
1262,13182,9466,bus,56,0,0,0,0,0,0,1
1290,13183,9466,bus,56,0,0,0,0,0,0,1
1331,13184,9466,bus,56,0,0,0,0,0,0,1
1356,13185,9466,bus,56,0,0,0,0,0,0,1
310,13186,10396,bus,56,1,1,1,1,1,0,0
331,13187,10396,bus,56,1,1,1,1,1,0,0
353,13188,10396,bus,56,1,1,1,1,1,0,0
376,13189,10396,bus,56,1,1,1,1,1,0,0
392,13190,10396,bus,56,1,1,1,1,1,0,0
407,13191,10396,bus,56,1,1,1,1,1,0,0
421,13192,10396,bus,56,1,1,1,1,1,0,0
439,13193,10396,bus,56,1,1,1,1,1,0,0
454,13194,10396,bus,56,1,1,1,1,1,0,0
469,13195,10396,bus,56,1,1,1,1,1,0,0
486,13196,10396,bus,56,1,1,1,1,1,0,0
501,13197,10396,bus,56,1,1,1,1,1,0,0
519,13198,10396,bus,56,1,1,1,1,1,0,0
536,13199,10396,bus,56,1,1,1,1,1,0,0
559,13200,10396,bus,56,1,1,1,1,1,0,0
590,13201,10396,bus,56,1,1,1,1,1,0,0
613,13202,10396,bus,56,1,1,1,1,1,0,0
640,13203,10396,bus,56,1,1,1,1,1,0,0
664,13204,10396,bus,56,1,1,1,1,1,0,0
687,13205,10396,bus,56,1,1,1,1,1,0,0
711,13206,10396,bus,56,1,1,1,1,1,0,0
738,13207,10396,bus,56,1,1,1,1,1,0,0
760,13208,10396,bus,56,1,1,1,1,1,0,0
787,13209,10396,bus,56,1,1,1,1,1,0,0
812,13210,10396,bus,56,1,1,1,1,1,0,0
833,13211,10396,bus,56,1,1,1,1,1,0,0
865,13212,10396,bus,56,1,1,1,1,1,0,0
890,13213,10396,bus,56,1,1,1,1,1,0,0
913,13214,10396,bus,56,1,1,1,1,1,0,0
938,13215,10396,bus,56,1,1,1,1,1,0,0
964,13216,10396,bus,56,1,1,1,1,1,0,0
982,13217,10396,bus,56,1,1,1,1,1,0,0
1000,13218,10396,bus,56,1,1,1,1,1,0,0
1020,13219,10396,bus,56,1,1,1,1,1,0,0
1041,13220,10396,bus,56,1,1,1,1,1,0,0
1058,13221,10396,bus,56,1,1,1,1,1,0,0
1078,13222,10396,bus,56,1,1,1,1,1,0,0
1104,13223,10396,bus,56,1,1,1,1,1,0,0
1137,13224,10396,bus,56,1,1,1,1,1,0,0
1154,13225,10396,bus,56,1,1,1,1,1,0,0
1183,13226,10396,bus,56,1,1,1,1,1,0,0
1208,13227,10396,bus,56,1,1,1,1,1,0,0
1233,13228,10396,bus,56,1,1,1,1,1,0,0
1254,13229,10396,bus,56,1,1,1,1,1,0,0
1281,13230,10396,bus,56,1,1,1,1,1,0,0
1305,13231,10396,bus,56,1,1,1,1,1,0,0
1328,13232,10396,bus,56,1,1,1,1,1,0,0
1357,13233,10396,bus,56,1,1,1,1,1,0,0
343,13234,9465,bus,56,0,0,0,0,0,1,0
374,13235,9465,bus,56,0,0,0,0,0,1,0
409,13236,9465,bus,56,0,0,0,0,0,1,0
442,13237,9465,bus,56,0,0,0,0,0,1,0
475,13238,9465,bus,56,0,0,0,0,0,1,0
517,13239,9465,bus,56,0,0,0,0,0,1,0
571,13240,9465,bus,56,0,0,0,0,0,1,0
621,13241,9465,bus,56,0,0,0,0,0,1,0
652,13242,9465,bus,56,0,0,0,0,0,1,0
690,13243,9465,bus,56,0,0,0,0,0,1,0
721,13244,9465,bus,56,0,0,0,0,0,1,0
759,13245,9465,bus,56,0,0,0,0,0,1,0
797,13246,9465,bus,56,0,0,0,0,0,1,0
832,13247,9465,bus,56,0,0,0,0,0,1,0
871,13248,9465,bus,56,0,0,0,0,0,1,0
906,13249,9465,bus,56,0,0,0,0,0,1,0
940,13250,9465,bus,56,0,0,0,0,0,1,0
975,13251,9465,bus,56,0,0,0,0,0,1,0
1010,13252,9465,bus,56,0,0,0,0,0,1,0
1052,13253,9465,bus,56,0,0,0,0,0,1,0
1104,13254,9465,bus,56,0,0,0,0,0,1,0
1150,13255,9465,bus,56,0,0,0,0,0,1,0
1197,13256,9465,bus,56,0,0,0,0,0,1,0
1219,13257,9465,bus,56,0,0,0,0,0,1,0
1262,13258,9465,bus,56,0,0,0,0,0,1,0
1290,13259,9465,bus,56,0,0,0,0,0,1,0
1331,13260,9465,bus,56,0,0,0,0,0,1,0
1356,13261,9465,bus,56,0,0,0,0,0,1,0
384,14953,10501,bus,75,0,0,0,0,0,1,0
441,14954,10501,bus,75,0,0,0,0,0,1,0
497,14955,10501,bus,75,0,0,0,0,0,1,0
563,14956,10501,bus,75,0,0,0,0,0,1,0
635,14957,10501,bus,75,0,0,0,0,0,1,0
671,14958,10501,bus,75,0,0,0,0,0,1,0
714,14959,10501,bus,75,0,0,0,0,0,1,0
750,14960,10501,bus,75,0,0,0,0,0,1,0
786,14961,10501,bus,75,0,0,0,0,0,1,0
835,14962,10501,bus,75,0,0,0,0,0,1,0
879,14963,10501,bus,75,0,0,0,0,0,1,0
923,14964,10501,bus,75,0,0,0,0,0,1,0
965,14965,10501,bus,75,0,0,0,0,0,1,0
1009,14966,10501,bus,75,0,0,0,0,0,1,0
1047,14967,10501,bus,75,0,0,0,0,0,1,0
1084,14968,10501,bus,75,0,0,0,0,0,1,0
1154,14969,10501,bus,75,0,0,0,0,0,1,0
1224,14970,10501,bus,75,0,0,0,0,0,1,0
1287,14971,10501,bus,75,0,0,0,0,0,1,0
1353,14972,10501,bus,75,0,0,0,0,0,1,0
335,14973,10500,bus,75,1,1,1,1,1,0,0
373,14974,10500,bus,75,1,1,1,1,1,0,0
394,14975,10500,bus,75,1,1,1,1,1,0,0
420,14976,10500,bus,75,1,1,1,1,1,0,0
448,14977,10500,bus,75,1,1,1,1,1,0,0
475,14978,10500,bus,75,1,1,1,1,1,0,0
502,14979,10500,bus,75,1,1,1,1,1,0,0
530,14980,10500,bus,75,1,1,1,1,1,0,0
550,14981,10500,bus,75,1,1,1,1,1,0,0
576,14982,10500,bus,75,1,1,1,1,1,0,0
623,14983,10500,bus,75,1,1,1,1,1,0,0
660,14984,10500,bus,75,1,1,1,1,1,0,0
697,14985,10500,bus,75,1,1,1,1,1,0,0
739,14986,10500,bus,75,1,1,1,1,1,0,0
787,14987,10500,bus,75,1,1,1,1,1,0,0
816,14988,10500,bus,75,1,1,1,1,1,0,0
863,14989,10500,bus,75,1,1,1,1,1,0,0
908,14990,10500,bus,75,1,1,1,1,1,0,0
938,14991,10500,bus,75,1,1,1,1,1,0,0
965,14992,10500,bus,75,1,1,1,1,1,0,0
988,14993,10500,bus,75,1,1,1,1,1,0,0
1017,14994,10500,bus,75,1,1,1,1,1,0,0
1047,14995,10500,bus,75,1,1,1,1,1,0,0
1078,14996,10500,bus,75,1,1,1,1,1,0,0
1098,14997,10500,bus,75,1,1,1,1,1,0,0
1117,14998,10500,bus,75,1,1,1,1,1,0,0
1147,14999,10500,bus,75,1,1,1,1,1,0,0
1195,15000,10500,bus,75,1,1,1,1,1,0,0
1231,15001,10500,bus,75,1,1,1,1,1,0,0
1269,15002,10500,bus,75,1,1,1,1,1,0,0
1307,15003,10500,bus,75,1,1,1,1,1,0,0
1344,15004,10500,bus,75,1,1,1,1,1,0,0
384,15005,10502,bus,75,0,0,0,0,0,0,1
441,15006,10502,bus,75,0,0,0,0,0,0,1
497,15007,10502,bus,75,0,0,0,0,0,0,1
563,15008,10502,bus,75,0,0,0,0,0,0,1
635,15009,10502,bus,75,0,0,0,0,0,0,1
671,15010,10502,bus,75,0,0,0,0,0,0,1
714,15011,10502,bus,75,0,0,0,0,0,0,1
750,15012,10502,bus,75,0,0,0,0,0,0,1
786,15013,10502,bus,75,0,0,0,0,0,0,1
835,15014,10502,bus,75,0,0,0,0,0,0,1
879,15015,10502,bus,75,0,0,0,0,0,0,1
923,15016,10502,bus,75,0,0,0,0,0,0,1
965,15017,10502,bus,75,0,0,0,0,0,0,1
1009,15018,10502,bus,75,0,0,0,0,0,0,1
1047,15019,10502,bus,75,0,0,0,0,0,0,1
1084,15020,10502,bus,75,0,0,0,0,0,0,1
1154,15021,10502,bus,75,0,0,0,0,0,0,1
1224,15022,10502,bus,75,0,0,0,0,0,0,1
1287,15023,10502,bus,75,0,0,0,0,0,0,1
1353,15024,10502,bus,75,0,0,0,0,0,0,1
1399,15098,10501,bus,75,0,0,0,0,0,1,0
1379,15099,10500,bus,75,1,1,1,1,1,0,0
1399,15100,10502,bus,75,0,0,0,0,0,0,1
1415,16371,9972,nightbus,104N,0,0,0,0,1,1,0
1465,16372,9972,nightbus,104N,0,0,0,0,1,1,0
1514,16373,9972,nightbus,104N,0,0,0,0,1,1,0
1565,16374,9972,nightbus,104N,0,0,0,0,1,1,0
