timeInMin,trip_id,service_id,tipas,numeris,pirmadienis,antradienis,treciadienis,ketvirtadienis,penktadienis,sestadienis,sekmadienis 
1412,7618,9328,bus,25,1,1,1,1,1,0,0
1413,7619,9329,bus,25,0,0,0,0,0,1,0
333,10009,10378,bus,40,1,1,1,1,1,0,0
351,10010,10378,bus,40,1,1,1,1,1,0,0
365,10011,10378,bus,40,1,1,1,1,1,0,0
375,10012,10378,bus,40,1,1,1,1,1,0,0
385,10013,10378,bus,40,1,1,1,1,1,0,0
393,10014,10378,bus,40,1,1,1,1,1,0,0
400,10015,10378,bus,40,1,1,1,1,1,0,0
406,10016,10378,bus,40,1,1,1,1,1,0,0
412,10017,10378,bus,40,1,1,1,1,1,0,0
419,10018,10378,bus,40,1,1,1,1,1,0,0
428,10019,10378,bus,40,1,1,1,1,1,0,0
435,10020,10378,bus,40,1,1,1,1,1,0,0
442,10021,10378,bus,40,1,1,1,1,1,0,0
449,10022,10378,bus,40,1,1,1,1,1,0,0
456,10023,10378,bus,40,1,1,1,1,1,0,0
463,10024,10378,bus,40,1,1,1,1,1,0,0
471,10025,10378,bus,40,1,1,1,1,1,0,0
477,10026,10378,bus,40,1,1,1,1,1,0,0
485,10027,10378,bus,40,1,1,1,1,1,0,0
492,10028,10378,bus,40,1,1,1,1,1,0,0
499,10029,10378,bus,40,1,1,1,1,1,0,0
506,10030,10378,bus,40,1,1,1,1,1,0,0
513,10031,10378,bus,40,1,1,1,1,1,0,0
520,10032,10378,bus,40,1,1,1,1,1,0,0
527,10033,10378,bus,40,1,1,1,1,1,0,0
534,10034,10378,bus,40,1,1,1,1,1,0,0
542,10035,10378,bus,40,1,1,1,1,1,0,0
548,10036,10378,bus,40,1,1,1,1,1,0,0
555,10037,10378,bus,40,1,1,1,1,1,0,0
562,10038,10378,bus,40,1,1,1,1,1,0,0
569,10039,10378,bus,40,1,1,1,1,1,0,0
575,10040,10378,bus,40,1,1,1,1,1,0,0
583,10041,10378,bus,40,1,1,1,1,1,0,0
589,10042,10378,bus,40,1,1,1,1,1,0,0
596,10043,10378,bus,40,1,1,1,1,1,0,0
605,10044,10378,bus,40,1,1,1,1,1,0,0
619,10045,10378,bus,40,1,1,1,1,1,0,0
635,10046,10378,bus,40,1,1,1,1,1,0,0
651,10047,10378,bus,40,1,1,1,1,1,0,0
667,10048,10378,bus,40,1,1,1,1,1,0,0
685,10049,10378,bus,40,1,1,1,1,1,0,0
697,10050,10378,bus,40,1,1,1,1,1,0,0
711,10051,10378,bus,40,1,1,1,1,1,0,0
724,10052,10378,bus,40,1,1,1,1,1,0,0
737,10053,10378,bus,40,1,1,1,1,1,0,0
753,10054,10378,bus,40,1,1,1,1,1,0,0
766,10055,10378,bus,40,1,1,1,1,1,0,0
779,10056,10378,bus,40,1,1,1,1,1,0,0
793,10057,10378,bus,40,1,1,1,1,1,0,0
806,10058,10378,bus,40,1,1,1,1,1,0,0
822,10059,10378,bus,40,1,1,1,1,1,0,0
835,10060,10378,bus,40,1,1,1,1,1,0,0
848,10061,10378,bus,40,1,1,1,1,1,0,0
862,10062,10378,bus,40,1,1,1,1,1,0,0
875,10063,10378,bus,40,1,1,1,1,1,0,0
891,10064,10378,bus,40,1,1,1,1,1,0,0
904,10065,10378,bus,40,1,1,1,1,1,0,0
917,10066,10378,bus,40,1,1,1,1,1,0,0
931,10067,10378,bus,40,1,1,1,1,1,0,0
945,10068,10378,bus,40,1,1,1,1,1,0,0
953,10069,10378,bus,40,1,1,1,1,1,0,0
961,10070,10378,bus,40,1,1,1,1,1,0,0
968,10071,10378,bus,40,1,1,1,1,1,0,0
976,10072,10378,bus,40,1,1,1,1,1,0,0
984,10073,10378,bus,40,1,1,1,1,1,0,0
991,10074,10378,bus,40,1,1,1,1,1,0,0
999,10075,10378,bus,40,1,1,1,1,1,0,0
1006,10076,10378,bus,40,1,1,1,1,1,0,0
1012,10077,10378,bus,40,1,1,1,1,1,0,0
1018,10078,10378,bus,40,1,1,1,1,1,0,0
1024,10079,10378,bus,40,1,1,1,1,1,0,0
1030,10080,10378,bus,40,1,1,1,1,1,0,0
1036,10081,10378,bus,40,1,1,1,1,1,0,0
1042,10082,10378,bus,40,1,1,1,1,1,0,0
1048,10083,10378,bus,40,1,1,1,1,1,0,0
1054,10084,10378,bus,40,1,1,1,1,1,0,0
1062,10085,10378,bus,40,1,1,1,1,1,0,0
1069,10086,10378,bus,40,1,1,1,1,1,0,0
1077,10087,10378,bus,40,1,1,1,1,1,0,0
1083,10088,10378,bus,40,1,1,1,1,1,0,0
1089,10089,10378,bus,40,1,1,1,1,1,0,0
1095,10090,10378,bus,40,1,1,1,1,1,0,0
1103,10091,10378,bus,40,1,1,1,1,1,0,0
1111,10092,10378,bus,40,1,1,1,1,1,0,0
1119,10093,10378,bus,40,1,1,1,1,1,0,0
1126,10094,10378,bus,40,1,1,1,1,1,0,0
1135,10095,10378,bus,40,1,1,1,1,1,0,0
1145,10096,10378,bus,40,1,1,1,1,1,0,0
1153,10097,10378,bus,40,1,1,1,1,1,0,0
1162,10098,10378,bus,40,1,1,1,1,1,0,0
1169,10099,10378,bus,40,1,1,1,1,1,0,0
1180,10100,10378,bus,40,1,1,1,1,1,0,0
1190,10101,10378,bus,40,1,1,1,1,1,0,0
1202,10102,10378,bus,40,1,1,1,1,1,0,0
1214,10103,10378,bus,40,1,1,1,1,1,0,0
1226,10104,10378,bus,40,1,1,1,1,1,0,0
1240,10105,10378,bus,40,1,1,1,1,1,0,0
1256,10106,10378,bus,40,1,1,1,1,1,0,0
1268,10107,10378,bus,40,1,1,1,1,1,0,0
1279,10108,10378,bus,40,1,1,1,1,1,0,0
1291,10109,10378,bus,40,1,1,1,1,1,0,0
1305,10110,10378,bus,40,1,1,1,1,1,0,0
1319,10111,10378,bus,40,1,1,1,1,1,0,0
1333,10112,10378,bus,40,1,1,1,1,1,0,0
1344,10113,10378,bus,40,1,1,1,1,1,0,0
1356,10114,10378,bus,40,1,1,1,1,1,0,0
1371,10115,10378,bus,40,1,1,1,1,1,0,0
1384,10116,10378,bus,40,1,1,1,1,1,0,0
1399,10117,10378,bus,40,1,1,1,1,1,0,0
345,10118,10379,bus,40,0,0,0,0,0,1,0
361,10119,10379,bus,40,0,0,0,0,0,1,0
377,10120,10379,bus,40,0,0,0,0,0,1,0
394,10121,10379,bus,40,0,0,0,0,0,1,0
407,10122,10379,bus,40,0,0,0,0,0,1,0
423,10123,10379,bus,40,0,0,0,0,0,1,0
443,10124,10379,bus,40,0,0,0,0,0,1,0
460,10125,10379,bus,40,0,0,0,0,0,1,0
474,10126,10379,bus,40,0,0,0,0,0,1,0
489,10127,10379,bus,40,0,0,0,0,0,1,0
509,10128,10379,bus,40,0,0,0,0,0,1,0
526,10129,10379,bus,40,0,0,0,0,0,1,0
541,10130,10379,bus,40,0,0,0,0,0,1,0
555,10131,10379,bus,40,0,0,0,0,0,1,0
573,10132,10379,bus,40,0,0,0,0,0,1,0
589,10133,10379,bus,40,0,0,0,0,0,1,0
603,10134,10379,bus,40,0,0,0,0,0,1,0
617,10135,10379,bus,40,0,0,0,0,0,1,0
632,10136,10379,bus,40,0,0,0,0,0,1,0
644,10137,10379,bus,40,0,0,0,0,0,1,0
656,10138,10379,bus,40,0,0,0,0,0,1,0
667,10139,10379,bus,40,0,0,0,0,0,1,0
676,10140,10379,bus,40,0,0,0,0,0,1,0
686,10141,10379,bus,40,0,0,0,0,0,1,0
697,10142,10379,bus,40,0,0,0,0,0,1,0
708,10143,10379,bus,40,0,0,0,0,0,1,0
722,10144,10379,bus,40,0,0,0,0,0,1,0
731,10145,10379,bus,40,0,0,0,0,0,1,0
743,10146,10379,bus,40,0,0,0,0,0,1,0
753,10147,10379,bus,40,0,0,0,0,0,1,0
763,10148,10379,bus,40,0,0,0,0,0,1,0
778,10149,10379,bus,40,0,0,0,0,0,1,0
795,10150,10379,bus,40,0,0,0,0,0,1,0
807,10151,10379,bus,40,0,0,0,0,0,1,0
817,10152,10379,bus,40,0,0,0,0,0,1,0
827,10153,10379,bus,40,0,0,0,0,0,1,0
837,10154,10379,bus,40,0,0,0,0,0,1,0
849,10155,10379,bus,40,0,0,0,0,0,1,0
871,10156,10379,bus,40,0,0,0,0,0,1,0
881,10157,10379,bus,40,0,0,0,0,0,1,0
891,10158,10379,bus,40,0,0,0,0,0,1,0
901,10159,10379,bus,40,0,0,0,0,0,1,0
913,10160,10379,bus,40,0,0,0,0,0,1,0
922,10161,10379,bus,40,0,0,0,0,0,1,0
935,10162,10379,bus,40,0,0,0,0,0,1,0
946,10163,10379,bus,40,0,0,0,0,0,1,0
956,10164,10379,bus,40,0,0,0,0,0,1,0
967,10165,10379,bus,40,0,0,0,0,0,1,0
977,10166,10379,bus,40,0,0,0,0,0,1,0
986,10167,10379,bus,40,0,0,0,0,0,1,0
1000,10168,10379,bus,40,0,0,0,0,0,1,0
1012,10169,10379,bus,40,0,0,0,0,0,1,0
1023,10170,10379,bus,40,0,0,0,0,0,1,0
1035,10171,10379,bus,40,0,0,0,0,0,1,0
1048,10172,10379,bus,40,0,0,0,0,0,1,0
1059,10173,10379,bus,40,0,0,0,0,0,1,0
1078,10174,10379,bus,40,0,0,0,0,0,1,0
1095,10175,10379,bus,40,0,0,0,0,0,1,0
1117,10176,10379,bus,40,0,0,0,0,0,1,0
1140,10177,10379,bus,40,0,0,0,0,0,1,0
1160,10178,10379,bus,40,0,0,0,0,0,1,0
1181,10179,10379,bus,40,0,0,0,0,0,1,0
1194,10180,10379,bus,40,0,0,0,0,0,1,0
1209,10181,10379,bus,40,0,0,0,0,0,1,0
1224,10182,10379,bus,40,0,0,0,0,0,1,0
1244,10183,10379,bus,40,0,0,0,0,0,1,0
1256,10184,10379,bus,40,0,0,0,0,0,1,0
1269,10185,10379,bus,40,0,0,0,0,0,1,0
1284,10186,10379,bus,40,0,0,0,0,0,1,0
1304,10187,10379,bus,40,0,0,0,0,0,1,0
1322,10188,10379,bus,40,0,0,0,0,0,1,0
1344,10189,10379,bus,40,0,0,0,0,0,1,0
1366,10190,10379,bus,40,0,0,0,0,0,1,0
377,10191,10380,bus,40,0,0,0,0,0,0,1
394,10192,10380,bus,40,0,0,0,0,0,0,1
407,10193,10380,bus,40,0,0,0,0,0,0,1
423,10194,10380,bus,40,0,0,0,0,0,0,1
443,10195,10380,bus,40,0,0,0,0,0,0,1
460,10196,10380,bus,40,0,0,0,0,0,0,1
474,10197,10380,bus,40,0,0,0,0,0,0,1
489,10198,10380,bus,40,0,0,0,0,0,0,1
509,10199,10380,bus,40,0,0,0,0,0,0,1
526,10200,10380,bus,40,0,0,0,0,0,0,1
541,10201,10380,bus,40,0,0,0,0,0,0,1
555,10202,10380,bus,40,0,0,0,0,0,0,1
573,10203,10380,bus,40,0,0,0,0,0,0,1
589,10204,10380,bus,40,0,0,0,0,0,0,1
603,10205,10380,bus,40,0,0,0,0,0,0,1
617,10206,10380,bus,40,0,0,0,0,0,0,1
632,10207,10380,bus,40,0,0,0,0,0,0,1
644,10208,10380,bus,40,0,0,0,0,0,0,1
656,10209,10380,bus,40,0,0,0,0,0,0,1
667,10210,10380,bus,40,0,0,0,0,0,0,1
676,10211,10380,bus,40,0,0,0,0,0,0,1
686,10212,10380,bus,40,0,0,0,0,0,0,1
697,10213,10380,bus,40,0,0,0,0,0,0,1
708,10214,10380,bus,40,0,0,0,0,0,0,1
722,10215,10380,bus,40,0,0,0,0,0,0,1
731,10216,10380,bus,40,0,0,0,0,0,0,1
743,10217,10380,bus,40,0,0,0,0,0,0,1
753,10218,10380,bus,40,0,0,0,0,0,0,1
763,10219,10380,bus,40,0,0,0,0,0,0,1
778,10220,10380,bus,40,0,0,0,0,0,0,1
795,10221,10380,bus,40,0,0,0,0,0,0,1
807,10222,10380,bus,40,0,0,0,0,0,0,1
817,10223,10380,bus,40,0,0,0,0,0,0,1
827,10224,10380,bus,40,0,0,0,0,0,0,1
837,10225,10380,bus,40,0,0,0,0,0,0,1
849,10226,10380,bus,40,0,0,0,0,0,0,1
871,10227,10380,bus,40,0,0,0,0,0,0,1
881,10228,10380,bus,40,0,0,0,0,0,0,1
891,10229,10380,bus,40,0,0,0,0,0,0,1
901,10230,10380,bus,40,0,0,0,0,0,0,1
913,10231,10380,bus,40,0,0,0,0,0,0,1
922,10232,10380,bus,40,0,0,0,0,0,0,1
935,10233,10380,bus,40,0,0,0,0,0,0,1
946,10234,10380,bus,40,0,0,0,0,0,0,1
956,10235,10380,bus,40,0,0,0,0,0,0,1
967,10236,10380,bus,40,0,0,0,0,0,0,1
977,10237,10380,bus,40,0,0,0,0,0,0,1
986,10238,10380,bus,40,0,0,0,0,0,0,1
1000,10239,10380,bus,40,0,0,0,0,0,0,1
1012,10240,10380,bus,40,0,0,0,0,0,0,1
1023,10241,10380,bus,40,0,0,0,0,0,0,1
1035,10242,10380,bus,40,0,0,0,0,0,0,1
1048,10243,10380,bus,40,0,0,0,0,0,0,1
1059,10244,10380,bus,40,0,0,0,0,0,0,1
1078,10245,10380,bus,40,0,0,0,0,0,0,1
1095,10246,10380,bus,40,0,0,0,0,0,0,1
1117,10247,10380,bus,40,0,0,0,0,0,0,1
1140,10248,10380,bus,40,0,0,0,0,0,0,1
1160,10249,10380,bus,40,0,0,0,0,0,0,1
1181,10250,10380,bus,40,0,0,0,0,0,0,1
1194,10251,10380,bus,40,0,0,0,0,0,0,1
1209,10252,10380,bus,40,0,0,0,0,0,0,1
1224,10253,10380,bus,40,0,0,0,0,0,0,1
1244,10254,10380,bus,40,0,0,0,0,0,0,1
1256,10255,10380,bus,40,0,0,0,0,0,0,1
1269,10256,10380,bus,40,0,0,0,0,0,0,1
1284,10257,10380,bus,40,0,0,0,0,0,0,1
1304,10258,10380,bus,40,0,0,0,0,0,0,1
1322,10259,10380,bus,40,0,0,0,0,0,0,1
1344,10260,10380,bus,40,0,0,0,0,0,0,1
1366,10261,10380,bus,40,0,0,0,0,0,0,1
332,11450,10384,bus,48,1,1,1,1,1,0,0
375,11451,10384,bus,48,1,1,1,1,1,0,0
417,11452,10384,bus,48,1,1,1,1,1,0,0
447,11453,10384,bus,48,1,1,1,1,1,0,0
477,11454,10384,bus,48,1,1,1,1,1,0,0
506,11455,10384,bus,48,1,1,1,1,1,0,0
543,11456,10384,bus,48,1,1,1,1,1,0,0
596,11457,10384,bus,48,1,1,1,1,1,0,0
629,11458,10384,bus,48,1,1,1,1,1,0,0
656,11459,10384,bus,48,1,1,1,1,1,0,0
685,11460,10384,bus,48,1,1,1,1,1,0,0
714,11461,10384,bus,48,1,1,1,1,1,0,0
743,11462,10384,bus,48,1,1,1,1,1,0,0
773,11463,10384,bus,48,1,1,1,1,1,0,0
802,11464,10384,bus,48,1,1,1,1,1,0,0
831,11465,10384,bus,48,1,1,1,1,1,0,0
865,11466,10384,bus,48,1,1,1,1,1,0,0
890,11467,10384,bus,48,1,1,1,1,1,0,0
923,11468,10384,bus,48,1,1,1,1,1,0,0
952,11469,10384,bus,48,1,1,1,1,1,0,0
987,11470,10384,bus,48,1,1,1,1,1,0,0
1010,11471,10384,bus,48,1,1,1,1,1,0,0
1041,11472,10384,bus,48,1,1,1,1,1,0,0
1077,11473,10384,bus,48,1,1,1,1,1,0,0
1101,11474,10384,bus,48,1,1,1,1,1,0,0
1138,11475,10384,bus,48,1,1,1,1,1,0,0
1196,11476,10384,bus,48,1,1,1,1,1,0,0
1218,11477,10384,bus,48,1,1,1,1,1,0,0
1252,11478,10384,bus,48,1,1,1,1,1,0,0
1277,11479,10384,bus,48,1,1,1,1,1,0,0
1302,11480,10384,bus,48,1,1,1,1,1,0,0
1333,11481,10384,bus,48,1,1,1,1,1,0,0
1358,11482,10384,bus,48,1,1,1,1,1,0,0
339,11483,10385,bus,48,0,0,0,0,0,1,0
380,11484,10385,bus,48,0,0,0,0,0,1,0
421,11485,10385,bus,48,0,0,0,0,0,1,0
462,11486,10385,bus,48,0,0,0,0,0,1,0
503,11487,10385,bus,48,0,0,0,0,0,1,0
572,11488,10385,bus,48,0,0,0,0,0,1,0
622,11489,10385,bus,48,0,0,0,0,0,1,0
669,11490,10385,bus,48,0,0,0,0,0,1,0
707,11491,10385,bus,48,0,0,0,0,0,1,0
752,11492,10385,bus,48,0,0,0,0,0,1,0
798,11493,10385,bus,48,0,0,0,0,0,1,0
839,11494,10385,bus,48,0,0,0,0,0,1,0
888,11495,10385,bus,48,0,0,0,0,0,1,0
926,11496,10385,bus,48,0,0,0,0,0,1,0
971,11497,10385,bus,48,0,0,0,0,0,1,0
1009,11498,10385,bus,48,0,0,0,0,0,1,0
1058,11499,10385,bus,48,0,0,0,0,0,1,0
1119,11500,10385,bus,48,0,0,0,0,0,1,0
1171,11501,10385,bus,48,0,0,0,0,0,1,0
1209,11502,10385,bus,48,0,0,0,0,0,1,0
1252,11503,10385,bus,48,0,0,0,0,0,1,0
1293,11504,10385,bus,48,0,0,0,0,0,1,0
1330,11505,10385,bus,48,0,0,0,0,0,1,0
380,11506,10386,bus,48,0,0,0,0,0,0,1
421,11507,10386,bus,48,0,0,0,0,0,0,1
462,11508,10386,bus,48,0,0,0,0,0,0,1
503,11509,10386,bus,48,0,0,0,0,0,0,1
572,11510,10386,bus,48,0,0,0,0,0,0,1
622,11511,10386,bus,48,0,0,0,0,0,0,1
669,11512,10386,bus,48,0,0,0,0,0,0,1
707,11513,10386,bus,48,0,0,0,0,0,0,1
752,11514,10386,bus,48,0,0,0,0,0,0,1
798,11515,10386,bus,48,0,0,0,0,0,0,1
839,11516,10386,bus,48,0,0,0,0,0,0,1
888,11517,10386,bus,48,0,0,0,0,0,0,1
926,11518,10386,bus,48,0,0,0,0,0,0,1
971,11519,10386,bus,48,0,0,0,0,0,0,1
1009,11520,10386,bus,48,0,0,0,0,0,0,1
1058,11521,10386,bus,48,0,0,0,0,0,0,1
1119,11522,10386,bus,48,0,0,0,0,0,0,1
1171,11523,10386,bus,48,0,0,0,0,0,0,1
1209,11524,10386,bus,48,0,0,0,0,0,0,1
1252,11525,10386,bus,48,0,0,0,0,0,0,1
1293,11526,10386,bus,48,0,0,0,0,0,0,1
1330,11527,10386,bus,48,0,0,0,0,0,0,1
1386,11609,10384,bus,48,1,1,1,1,1,0,0
1411,11610,10384,bus,48,1,1,1,1,1,0,0
1434,11611,10384,bus,48,1,1,1,1,1,0,0
1364,11612,10385,bus,48,0,0,0,0,0,1,0
1401,11613,10385,bus,48,0,0,0,0,0,1,0
1364,11614,10386,bus,48,0,0,0,0,0,0,1
1401,11615,10386,bus,48,0,0,0,0,0,0,1
377,12229,10394,bus,53,0,0,0,0,0,0,1
392,12230,10394,bus,53,0,0,0,0,0,0,1
407,12231,10394,bus,53,0,0,0,0,0,0,1
422,12232,10394,bus,53,0,0,0,0,0,0,1
437,12233,10394,bus,53,0,0,0,0,0,0,1
452,12234,10394,bus,53,0,0,0,0,0,0,1
467,12235,10394,bus,53,0,0,0,0,0,0,1
482,12236,10394,bus,53,0,0,0,0,0,0,1
497,12237,10394,bus,53,0,0,0,0,0,0,1
513,12238,10394,bus,53,0,0,0,0,0,0,1
528,12239,10394,bus,53,0,0,0,0,0,0,1
539,12240,10394,bus,53,0,0,0,0,0,0,1
550,12241,10394,bus,53,0,0,0,0,0,0,1
560,12242,10394,bus,53,0,0,0,0,0,0,1
569,12243,10394,bus,53,0,0,0,0,0,0,1
579,12244,10394,bus,53,0,0,0,0,0,0,1
589,12245,10394,bus,53,0,0,0,0,0,0,1
601,12246,10394,bus,53,0,0,0,0,0,0,1
614,12247,10394,bus,53,0,0,0,0,0,0,1
624,12248,10394,bus,53,0,0,0,0,0,0,1
633,12249,10394,bus,53,0,0,0,0,0,0,1
642,12250,10394,bus,53,0,0,0,0,0,0,1
653,12251,10394,bus,53,0,0,0,0,0,0,1
665,12252,10394,bus,53,0,0,0,0,0,0,1
676,12253,10394,bus,53,0,0,0,0,0,0,1
686,12254,10394,bus,53,0,0,0,0,0,0,1
696,12255,10394,bus,53,0,0,0,0,0,0,1
708,12256,10394,bus,53,0,0,0,0,0,0,1
721,12257,10394,bus,53,0,0,0,0,0,0,1
738,12258,10394,bus,53,0,0,0,0,0,0,1
747,12259,10394,bus,53,0,0,0,0,0,0,1
758,12260,10394,bus,53,0,0,0,0,0,0,1
767,12261,10394,bus,53,0,0,0,0,0,0,1
773,12262,10394,bus,53,0,0,0,0,0,0,1
784,12263,10394,bus,53,0,0,0,0,0,0,1
792,12264,10394,bus,53,0,0,0,0,0,0,1
801,12265,10394,bus,53,0,0,0,0,0,0,1
809,12266,10394,bus,53,0,0,0,0,0,0,1
819,12267,10394,bus,53,0,0,0,0,0,0,1
833,12268,10394,bus,53,0,0,0,0,0,0,1
843,12269,10394,bus,53,0,0,0,0,0,0,1
856,12270,10394,bus,53,0,0,0,0,0,0,1
866,12271,10394,bus,53,0,0,0,0,0,0,1
875,12272,10394,bus,53,0,0,0,0,0,0,1
884,12273,10394,bus,53,0,0,0,0,0,0,1
893,12274,10394,bus,53,0,0,0,0,0,0,1
903,12275,10394,bus,53,0,0,0,0,0,0,1
912,12276,10394,bus,53,0,0,0,0,0,0,1
922,12277,10394,bus,53,0,0,0,0,0,0,1
935,12278,10394,bus,53,0,0,0,0,0,0,1
949,12279,10394,bus,53,0,0,0,0,0,0,1
962,12280,10394,bus,53,0,0,0,0,0,0,1
972,12281,10394,bus,53,0,0,0,0,0,0,1
981,12282,10394,bus,53,0,0,0,0,0,0,1
991,12283,10394,bus,53,0,0,0,0,0,0,1
1002,12284,10394,bus,53,0,0,0,0,0,0,1
1013,12285,10394,bus,53,0,0,0,0,0,0,1
1028,12286,10394,bus,53,0,0,0,0,0,0,1
1044,12287,10394,bus,53,0,0,0,0,0,0,1
1060,12288,10394,bus,53,0,0,0,0,0,0,1
1081,12289,10394,bus,53,0,0,0,0,0,0,1
1102,12290,10394,bus,53,0,0,0,0,0,0,1
1117,12291,10394,bus,53,0,0,0,0,0,0,1
1142,12292,10394,bus,53,0,0,0,0,0,0,1
1166,12293,10394,bus,53,0,0,0,0,0,0,1
1183,12294,10394,bus,53,0,0,0,0,0,0,1
1200,12295,10394,bus,53,0,0,0,0,0,0,1
1220,12296,10394,bus,53,0,0,0,0,0,0,1
1232,12297,10394,bus,53,0,0,0,0,0,0,1
1244,12298,10394,bus,53,0,0,0,0,0,0,1
1259,12299,10394,bus,53,0,0,0,0,0,0,1
1273,12300,10394,bus,53,0,0,0,0,0,0,1
1289,12301,10394,bus,53,0,0,0,0,0,0,1
1304,12302,10394,bus,53,0,0,0,0,0,0,1
1318,12303,10394,bus,53,0,0,0,0,0,0,1
1332,12304,10394,bus,53,0,0,0,0,0,0,1
1345,12305,10394,bus,53,0,0,0,0,0,0,1
1361,12306,10394,bus,53,0,0,0,0,0,0,1
1379,12307,10394,bus,53,0,0,0,0,0,0,1
327,12308,10392,bus,53,1,1,1,1,1,0,0
338,12309,10392,bus,53,1,1,1,1,1,0,0
349,12310,10392,bus,53,1,1,1,1,1,0,0
360,12311,10392,bus,53,1,1,1,1,1,0,0
372,12312,10392,bus,53,1,1,1,1,1,0,0
379,12313,10392,bus,53,1,1,1,1,1,0,0
385,12314,10392,bus,53,1,1,1,1,1,0,0
391,12315,10392,bus,53,1,1,1,1,1,0,0
397,12316,10392,bus,53,1,1,1,1,1,0,0
403,12317,10392,bus,53,1,1,1,1,1,0,0
410,12318,10392,bus,53,1,1,1,1,1,0,0
417,12319,10392,bus,53,1,1,1,1,1,0,0
424,12320,10392,bus,53,1,1,1,1,1,0,0
432,12321,10392,bus,53,1,1,1,1,1,0,0
438,12322,10392,bus,53,1,1,1,1,1,0,0
444,12323,10392,bus,53,1,1,1,1,1,0,0
451,12324,10392,bus,53,1,1,1,1,1,0,0
458,12325,10392,bus,53,1,1,1,1,1,0,0
466,12326,10392,bus,53,1,1,1,1,1,0,0
474,12327,10392,bus,53,1,1,1,1,1,0,0
481,12328,10392,bus,53,1,1,1,1,1,0,0
490,12329,10392,bus,53,1,1,1,1,1,0,0
498,12330,10392,bus,53,1,1,1,1,1,0,0
507,12331,10392,bus,53,1,1,1,1,1,0,0
515,12332,10392,bus,53,1,1,1,1,1,0,0
524,12333,10392,bus,53,1,1,1,1,1,0,0
534,12334,10392,bus,53,1,1,1,1,1,0,0
542,12335,10392,bus,53,1,1,1,1,1,0,0
551,12336,10392,bus,53,1,1,1,1,1,0,0
558,12337,10392,bus,53,1,1,1,1,1,0,0
568,12338,10392,bus,53,1,1,1,1,1,0,0
579,12339,10392,bus,53,1,1,1,1,1,0,0
589,12340,10392,bus,53,1,1,1,1,1,0,0
601,12341,10392,bus,53,1,1,1,1,1,0,0
611,12342,10392,bus,53,1,1,1,1,1,0,0
621,12343,10392,bus,53,1,1,1,1,1,0,0
630,12344,10392,bus,53,1,1,1,1,1,0,0
640,12345,10392,bus,53,1,1,1,1,1,0,0
651,12346,10392,bus,53,1,1,1,1,1,0,0
664,12347,10392,bus,53,1,1,1,1,1,0,0
676,12348,10392,bus,53,1,1,1,1,1,0,0
687,12349,10392,bus,53,1,1,1,1,1,0,0
695,12350,10392,bus,53,1,1,1,1,1,0,0
703,12351,10392,bus,53,1,1,1,1,1,0,0
711,12352,10392,bus,53,1,1,1,1,1,0,0
721,12353,10392,bus,53,1,1,1,1,1,0,0
731,12354,10392,bus,53,1,1,1,1,1,0,0
741,12355,10392,bus,53,1,1,1,1,1,0,0
751,12356,10392,bus,53,1,1,1,1,1,0,0
762,12357,10392,bus,53,1,1,1,1,1,0,0
773,12358,10392,bus,53,1,1,1,1,1,0,0
785,12359,10392,bus,53,1,1,1,1,1,0,0
795,12360,10392,bus,53,1,1,1,1,1,0,0
804,12361,10392,bus,53,1,1,1,1,1,0,0
814,12362,10392,bus,53,1,1,1,1,1,0,0
823,12363,10392,bus,53,1,1,1,1,1,0,0
831,12364,10392,bus,53,1,1,1,1,1,0,0
841,12365,10392,bus,53,1,1,1,1,1,0,0
850,12366,10392,bus,53,1,1,1,1,1,0,0
860,12367,10392,bus,53,1,1,1,1,1,0,0
871,12368,10392,bus,53,1,1,1,1,1,0,0
883,12369,10392,bus,53,1,1,1,1,1,0,0
892,12370,10392,bus,53,1,1,1,1,1,0,0
901,12371,10392,bus,53,1,1,1,1,1,0,0
907,12372,10392,bus,53,1,1,1,1,1,0,0
914,12373,10392,bus,53,1,1,1,1,1,0,0
922,12374,10392,bus,53,1,1,1,1,1,0,0
930,12375,10392,bus,53,1,1,1,1,1,0,0
937,12376,10392,bus,53,1,1,1,1,1,0,0
944,12377,10392,bus,53,1,1,1,1,1,0,0
951,12378,10392,bus,53,1,1,1,1,1,0,0
959,12379,10392,bus,53,1,1,1,1,1,0,0
965,12380,10392,bus,53,1,1,1,1,1,0,0
971,12381,10392,bus,53,1,1,1,1,1,0,0
977,12382,10392,bus,53,1,1,1,1,1,0,0
984,12383,10392,bus,53,1,1,1,1,1,0,0
992,12384,10392,bus,53,1,1,1,1,1,0,0
1000,12385,10392,bus,53,1,1,1,1,1,0,0
1008,12386,10392,bus,53,1,1,1,1,1,0,0
1017,12387,10392,bus,53,1,1,1,1,1,0,0
1026,12388,10392,bus,53,1,1,1,1,1,0,0
1036,12389,10392,bus,53,1,1,1,1,1,0,0
1046,12390,10392,bus,53,1,1,1,1,1,0,0
1057,12391,10392,bus,53,1,1,1,1,1,0,0
1069,12392,10392,bus,53,1,1,1,1,1,0,0
1084,12393,10392,bus,53,1,1,1,1,1,0,0
1097,12394,10392,bus,53,1,1,1,1,1,0,0
1105,12395,10392,bus,53,1,1,1,1,1,0,0
1113,12396,10392,bus,53,1,1,1,1,1,0,0
1121,12397,10392,bus,53,1,1,1,1,1,0,0
1132,12398,10392,bus,53,1,1,1,1,1,0,0
1144,12399,10392,bus,53,1,1,1,1,1,0,0
1157,12400,10392,bus,53,1,1,1,1,1,0,0
1168,12401,10392,bus,53,1,1,1,1,1,0,0
1179,12402,10392,bus,53,1,1,1,1,1,0,0
1189,12403,10392,bus,53,1,1,1,1,1,0,0
1200,12404,10392,bus,53,1,1,1,1,1,0,0
1207,12405,10392,bus,53,1,1,1,1,1,0,0
1215,12406,10392,bus,53,1,1,1,1,1,0,0
1224,12407,10392,bus,53,1,1,1,1,1,0,0
1232,12408,10392,bus,53,1,1,1,1,1,0,0
1241,12409,10392,bus,53,1,1,1,1,1,0,0
1250,12410,10392,bus,53,1,1,1,1,1,0,0
1263,12411,10392,bus,53,1,1,1,1,1,0,0
1274,12412,10392,bus,53,1,1,1,1,1,0,0
1284,12413,10392,bus,53,1,1,1,1,1,0,0
1293,12414,10392,bus,53,1,1,1,1,1,0,0
1301,12415,10392,bus,53,1,1,1,1,1,0,0
1309,12416,10392,bus,53,1,1,1,1,1,0,0
1319,12417,10392,bus,53,1,1,1,1,1,0,0
1328,12418,10392,bus,53,1,1,1,1,1,0,0
1337,12419,10392,bus,53,1,1,1,1,1,0,0
1345,12420,10392,bus,53,1,1,1,1,1,0,0
1354,12421,10392,bus,53,1,1,1,1,1,0,0
1365,12422,10392,bus,53,1,1,1,1,1,0,0
1374,12423,10392,bus,53,1,1,1,1,1,0,0
1383,12424,10392,bus,53,1,1,1,1,1,0,0
323,12425,10393,bus,53,0,0,0,0,0,1,0
349,12426,10393,bus,53,0,0,0,0,0,1,0
362,12427,10393,bus,53,0,0,0,0,0,1,0
377,12428,10393,bus,53,0,0,0,0,0,1,0
392,12429,10393,bus,53,0,0,0,0,0,1,0
407,12430,10393,bus,53,0,0,0,0,0,1,0
422,12431,10393,bus,53,0,0,0,0,0,1,0
437,12432,10393,bus,53,0,0,0,0,0,1,0
452,12433,10393,bus,53,0,0,0,0,0,1,0
467,12434,10393,bus,53,0,0,0,0,0,1,0
482,12435,10393,bus,53,0,0,0,0,0,1,0
497,12436,10393,bus,53,0,0,0,0,0,1,0
513,12437,10393,bus,53,0,0,0,0,0,1,0
528,12438,10393,bus,53,0,0,0,0,0,1,0
539,12439,10393,bus,53,0,0,0,0,0,1,0
550,12440,10393,bus,53,0,0,0,0,0,1,0
560,12441,10393,bus,53,0,0,0,0,0,1,0
569,12442,10393,bus,53,0,0,0,0,0,1,0
579,12443,10393,bus,53,0,0,0,0,0,1,0
589,12444,10393,bus,53,0,0,0,0,0,1,0
601,12445,10393,bus,53,0,0,0,0,0,1,0
614,12446,10393,bus,53,0,0,0,0,0,1,0
624,12447,10393,bus,53,0,0,0,0,0,1,0
633,12448,10393,bus,53,0,0,0,0,0,1,0
642,12449,10393,bus,53,0,0,0,0,0,1,0
653,12450,10393,bus,53,0,0,0,0,0,1,0
665,12451,10393,bus,53,0,0,0,0,0,1,0
676,12452,10393,bus,53,0,0,0,0,0,1,0
686,12453,10393,bus,53,0,0,0,0,0,1,0
696,12454,10393,bus,53,0,0,0,0,0,1,0
708,12455,10393,bus,53,0,0,0,0,0,1,0
721,12456,10393,bus,53,0,0,0,0,0,1,0
738,12457,10393,bus,53,0,0,0,0,0,1,0
747,12458,10393,bus,53,0,0,0,0,0,1,0
758,12459,10393,bus,53,0,0,0,0,0,1,0
767,12460,10393,bus,53,0,0,0,0,0,1,0
773,12461,10393,bus,53,0,0,0,0,0,1,0
784,12462,10393,bus,53,0,0,0,0,0,1,0
792,12463,10393,bus,53,0,0,0,0,0,1,0
801,12464,10393,bus,53,0,0,0,0,0,1,0
809,12465,10393,bus,53,0,0,0,0,0,1,0
819,12466,10393,bus,53,0,0,0,0,0,1,0
833,12467,10393,bus,53,0,0,0,0,0,1,0
843,12468,10393,bus,53,0,0,0,0,0,1,0
856,12469,10393,bus,53,0,0,0,0,0,1,0
866,12470,10393,bus,53,0,0,0,0,0,1,0
875,12471,10393,bus,53,0,0,0,0,0,1,0
884,12472,10393,bus,53,0,0,0,0,0,1,0
893,12473,10393,bus,53,0,0,0,0,0,1,0
903,12474,10393,bus,53,0,0,0,0,0,1,0
912,12475,10393,bus,53,0,0,0,0,0,1,0
922,12476,10393,bus,53,0,0,0,0,0,1,0
935,12477,10393,bus,53,0,0,0,0,0,1,0
949,12478,10393,bus,53,0,0,0,0,0,1,0
962,12479,10393,bus,53,0,0,0,0,0,1,0
972,12480,10393,bus,53,0,0,0,0,0,1,0
981,12481,10393,bus,53,0,0,0,0,0,1,0
991,12482,10393,bus,53,0,0,0,0,0,1,0
1002,12483,10393,bus,53,0,0,0,0,0,1,0
1013,12484,10393,bus,53,0,0,0,0,0,1,0
1028,12485,10393,bus,53,0,0,0,0,0,1,0
1044,12486,10393,bus,53,0,0,0,0,0,1,0
1060,12487,10393,bus,53,0,0,0,0,0,1,0
1081,12488,10393,bus,53,0,0,0,0,0,1,0
1102,12489,10393,bus,53,0,0,0,0,0,1,0
1117,12490,10393,bus,53,0,0,0,0,0,1,0
1142,12491,10393,bus,53,0,0,0,0,0,1,0
1166,12492,10393,bus,53,0,0,0,0,0,1,0
1183,12493,10393,bus,53,0,0,0,0,0,1,0
1200,12494,10393,bus,53,0,0,0,0,0,1,0
1220,12495,10393,bus,53,0,0,0,0,0,1,0
1232,12496,10393,bus,53,0,0,0,0,0,1,0
1244,12497,10393,bus,53,0,0,0,0,0,1,0
1259,12498,10393,bus,53,0,0,0,0,0,1,0
1273,12499,10393,bus,53,0,0,0,0,0,1,0
1289,12500,10393,bus,53,0,0,0,0,0,1,0
1304,12501,10393,bus,53,0,0,0,0,0,1,0
1318,12502,10393,bus,53,0,0,0,0,0,1,0
1332,12503,10393,bus,53,0,0,0,0,0,1,0
1345,12504,10393,bus,53,0,0,0,0,0,1,0
1361,12505,10393,bus,53,0,0,0,0,0,1,0
1379,12506,10393,bus,53,0,0,0,0,0,1,0
1139,12783,10392,bus,53,1,1,1,1,1,0,0
1173,12784,10392,bus,53,1,1,1,1,1,0,0
1186,12785,10392,bus,53,1,1,1,1,1,0,0
1195,12786,10392,bus,53,1,1,1,1,1,0,0
1208,12787,10392,bus,53,1,1,1,1,1,0,0
1394,12788,10392,bus,53,1,1,1,1,1,0,0
1405,12789,10392,bus,53,1,1,1,1,1,0,0
1415,12790,10392,bus,53,1,1,1,1,1,0,0
1428,12791,10392,bus,53,1,1,1,1,1,0,0
1441,12792,10392,bus,53,1,1,1,1,1,0,0
1450,12793,10392,bus,53,1,1,1,1,1,0,0
1055,12794,10394,bus,53,0,0,0,0,0,0,1
1065,12795,10394,bus,53,0,0,0,0,0,0,1
1097,12796,10394,bus,53,0,0,0,0,0,0,1
1124,12797,10394,bus,53,0,0,0,0,0,0,1
1394,12798,10394,bus,53,0,0,0,0,0,0,1
1414,12799,10394,bus,53,0,0,0,0,0,0,1
1435,12800,10394,bus,53,0,0,0,0,0,0,1
1055,12801,10393,bus,53,0,0,0,0,0,1,0
1065,12802,10393,bus,53,0,0,0,0,0,1,0
1097,12803,10393,bus,53,0,0,0,0,0,1,0
1124,12804,10393,bus,53,0,0,0,0,0,1,0
1394,12805,10393,bus,53,0,0,0,0,0,1,0
1414,12806,10393,bus,53,0,0,0,0,0,1,0
1435,12807,10393,bus,53,0,0,0,0,0,1,0
375,13159,9466,bus,56,0,0,0,0,0,0,1
410,13160,9466,bus,56,0,0,0,0,0,0,1
443,13161,9466,bus,56,0,0,0,0,0,0,1
476,13162,9466,bus,56,0,0,0,0,0,0,1
518,13163,9466,bus,56,0,0,0,0,0,0,1
572,13164,9466,bus,56,0,0,0,0,0,0,1
622,13165,9466,bus,56,0,0,0,0,0,0,1
653,13166,9466,bus,56,0,0,0,0,0,0,1
691,13167,9466,bus,56,0,0,0,0,0,0,1
722,13168,9466,bus,56,0,0,0,0,0,0,1
760,13169,9466,bus,56,0,0,0,0,0,0,1
798,13170,9466,bus,56,0,0,0,0,0,0,1
833,13171,9466,bus,56,0,0,0,0,0,0,1
872,13172,9466,bus,56,0,0,0,0,0,0,1
907,13173,9466,bus,56,0,0,0,0,0,0,1
941,13174,9466,bus,56,0,0,0,0,0,0,1
976,13175,9466,bus,56,0,0,0,0,0,0,1
1011,13176,9466,bus,56,0,0,0,0,0,0,1
1053,13177,9466,bus,56,0,0,0,0,0,0,1
1105,13178,9466,bus,56,0,0,0,0,0,0,1
1151,13179,9466,bus,56,0,0,0,0,0,0,1
1198,13180,9466,bus,56,0,0,0,0,0,0,1
1220,13181,9466,bus,56,0,0,0,0,0,0,1
1263,13182,9466,bus,56,0,0,0,0,0,0,1
1291,13183,9466,bus,56,0,0,0,0,0,0,1
1332,13184,9466,bus,56,0,0,0,0,0,0,1
1357,13185,9466,bus,56,0,0,0,0,0,0,1
311,13186,10396,bus,56,1,1,1,1,1,0,0
332,13187,10396,bus,56,1,1,1,1,1,0,0
354,13188,10396,bus,56,1,1,1,1,1,0,0
377,13189,10396,bus,56,1,1,1,1,1,0,0
393,13190,10396,bus,56,1,1,1,1,1,0,0
408,13191,10396,bus,56,1,1,1,1,1,0,0
422,13192,10396,bus,56,1,1,1,1,1,0,0
440,13193,10396,bus,56,1,1,1,1,1,0,0
455,13194,10396,bus,56,1,1,1,1,1,0,0
470,13195,10396,bus,56,1,1,1,1,1,0,0
487,13196,10396,bus,56,1,1,1,1,1,0,0
502,13197,10396,bus,56,1,1,1,1,1,0,0
520,13198,10396,bus,56,1,1,1,1,1,0,0
537,13199,10396,bus,56,1,1,1,1,1,0,0
560,13200,10396,bus,56,1,1,1,1,1,0,0
591,13201,10396,bus,56,1,1,1,1,1,0,0
614,13202,10396,bus,56,1,1,1,1,1,0,0
641,13203,10396,bus,56,1,1,1,1,1,0,0
665,13204,10396,bus,56,1,1,1,1,1,0,0
688,13205,10396,bus,56,1,1,1,1,1,0,0
712,13206,10396,bus,56,1,1,1,1,1,0,0
739,13207,10396,bus,56,1,1,1,1,1,0,0
761,13208,10396,bus,56,1,1,1,1,1,0,0
788,13209,10396,bus,56,1,1,1,1,1,0,0
813,13210,10396,bus,56,1,1,1,1,1,0,0
834,13211,10396,bus,56,1,1,1,1,1,0,0
866,13212,10396,bus,56,1,1,1,1,1,0,0
891,13213,10396,bus,56,1,1,1,1,1,0,0
914,13214,10396,bus,56,1,1,1,1,1,0,0
939,13215,10396,bus,56,1,1,1,1,1,0,0
965,13216,10396,bus,56,1,1,1,1,1,0,0
983,13217,10396,bus,56,1,1,1,1,1,0,0
1001,13218,10396,bus,56,1,1,1,1,1,0,0
1021,13219,10396,bus,56,1,1,1,1,1,0,0
1042,13220,10396,bus,56,1,1,1,1,1,0,0
1059,13221,10396,bus,56,1,1,1,1,1,0,0
1079,13222,10396,bus,56,1,1,1,1,1,0,0
1105,13223,10396,bus,56,1,1,1,1,1,0,0
1138,13224,10396,bus,56,1,1,1,1,1,0,0
1155,13225,10396,bus,56,1,1,1,1,1,0,0
1184,13226,10396,bus,56,1,1,1,1,1,0,0
1209,13227,10396,bus,56,1,1,1,1,1,0,0
1234,13228,10396,bus,56,1,1,1,1,1,0,0
1255,13229,10396,bus,56,1,1,1,1,1,0,0
1282,13230,10396,bus,56,1,1,1,1,1,0,0
1306,13231,10396,bus,56,1,1,1,1,1,0,0
1329,13232,10396,bus,56,1,1,1,1,1,0,0
1358,13233,10396,bus,56,1,1,1,1,1,0,0
344,13234,9465,bus,56,0,0,0,0,0,1,0
375,13235,9465,bus,56,0,0,0,0,0,1,0
410,13236,9465,bus,56,0,0,0,0,0,1,0
443,13237,9465,bus,56,0,0,0,0,0,1,0
476,13238,9465,bus,56,0,0,0,0,0,1,0
518,13239,9465,bus,56,0,0,0,0,0,1,0
572,13240,9465,bus,56,0,0,0,0,0,1,0
622,13241,9465,bus,56,0,0,0,0,0,1,0
653,13242,9465,bus,56,0,0,0,0,0,1,0
691,13243,9465,bus,56,0,0,0,0,0,1,0
722,13244,9465,bus,56,0,0,0,0,0,1,0
760,13245,9465,bus,56,0,0,0,0,0,1,0
798,13246,9465,bus,56,0,0,0,0,0,1,0
833,13247,9465,bus,56,0,0,0,0,0,1,0
872,13248,9465,bus,56,0,0,0,0,0,1,0
907,13249,9465,bus,56,0,0,0,0,0,1,0
941,13250,9465,bus,56,0,0,0,0,0,1,0
976,13251,9465,bus,56,0,0,0,0,0,1,0
1011,13252,9465,bus,56,0,0,0,0,0,1,0
1053,13253,9465,bus,56,0,0,0,0,0,1,0
1105,13254,9465,bus,56,0,0,0,0,0,1,0
1151,13255,9465,bus,56,0,0,0,0,0,1,0
1198,13256,9465,bus,56,0,0,0,0,0,1,0
1220,13257,9465,bus,56,0,0,0,0,0,1,0
1263,13258,9465,bus,56,0,0,0,0,0,1,0
1291,13259,9465,bus,56,0,0,0,0,0,1,0
1332,13260,9465,bus,56,0,0,0,0,0,1,0
1357,13261,9465,bus,56,0,0,0,0,0,1,0
1380,15682,10409,bus,87,1,1,1,1,1,0,0
1410,15683,10409,bus,87,1,1,1,1,1,0,0
1433,15684,10409,bus,87,1,1,1,1,1,0,0
1432,15685,10410,bus,87,0,0,0,0,0,1,1
1416,16371,9972,nightbus,104N,0,0,0,0,1,1,0
1466,16372,9972,nightbus,104N,0,0,0,0,1,1,0
1515,16373,9972,nightbus,104N,0,0,0,0,1,1,0
1566,16374,9972,nightbus,104N,0,0,0,0,1,1,0
