timeInMin,trip_id,service_id,tipas,numeris,pirmadienis,antradienis,treciadienis,ketvirtadienis,penktadienis,sestadienis,sekmadienis 
1218,1615,8395,bus,3,1,1,1,1,1,0,0
1259,1616,8395,bus,3,1,1,1,1,1,0,0
1321,1617,8395,bus,3,1,1,1,1,1,0,0
322,1618,8396,bus,3,0,0,0,0,0,1,0
412,1619,8396,bus,3,0,0,0,0,0,1,0
498,1620,8396,bus,3,0,0,0,0,0,1,0
1191,1621,8396,bus,3,0,0,0,0,0,1,0
451,1622,8397,bus,3,0,0,0,0,0,0,1
548,1623,8397,bus,3,0,0,0,0,0,0,1
1213,1624,8397,bus,3,0,0,0,0,0,0,1
336,10515,8030,bus,41,1,1,1,1,1,0,0
407,10516,8030,bus,41,1,1,1,1,1,0,0
481,10517,8030,bus,41,1,1,1,1,1,0,0
543,10518,8030,bus,41,1,1,1,1,1,0,0
629,10519,8030,bus,41,1,1,1,1,1,0,0
685,10520,8030,bus,41,1,1,1,1,1,0,0
743,10521,8030,bus,41,1,1,1,1,1,0,0
798,10522,8030,bus,41,1,1,1,1,1,0,0
865,10523,8030,bus,41,1,1,1,1,1,0,0
922,10524,8030,bus,41,1,1,1,1,1,0,0
982,10525,8030,bus,41,1,1,1,1,1,0,0
1040,10526,8030,bus,41,1,1,1,1,1,0,0
1098,10527,8030,bus,41,1,1,1,1,1,0,0
1183,10528,8030,bus,41,1,1,1,1,1,0,0
1236,10529,8030,bus,41,1,1,1,1,1,0,0
1291,10530,8030,bus,41,1,1,1,1,1,0,0
1345,10531,8030,bus,41,1,1,1,1,1,0,0
352,10532,8031,bus,41,0,0,0,0,0,1,0
410,10533,8031,bus,41,0,0,0,0,0,1,0
479,10534,8031,bus,41,0,0,0,0,0,1,0
574,10535,8031,bus,41,0,0,0,0,0,1,0
642,10536,8031,bus,41,0,0,0,0,0,1,0
712,10537,8031,bus,41,0,0,0,0,0,1,0
771,10538,8031,bus,41,0,0,0,0,0,1,0
835,10539,8031,bus,41,0,0,0,0,0,1,0
896,10540,8031,bus,41,0,0,0,0,0,1,0
957,10541,8031,bus,41,0,0,0,0,0,1,0
1020,10542,8031,bus,41,0,0,0,0,0,1,0
1113,10543,8031,bus,41,0,0,0,0,0,1,0
1174,10544,8031,bus,41,0,0,0,0,0,1,0
1235,10545,8031,bus,41,0,0,0,0,0,1,0
1299,10546,8031,bus,41,0,0,0,0,0,1,0
410,10547,10248,bus,41,0,0,0,0,0,0,1
479,10548,10248,bus,41,0,0,0,0,0,0,1
574,10549,10248,bus,41,0,0,0,0,0,0,1
642,10550,10248,bus,41,0,0,0,0,0,0,1
712,10551,10248,bus,41,0,0,0,0,0,0,1
771,10552,10248,bus,41,0,0,0,0,0,0,1
835,10553,10248,bus,41,0,0,0,0,0,0,1
896,10554,10248,bus,41,0,0,0,0,0,0,1
957,10555,10248,bus,41,0,0,0,0,0,0,1
1020,10556,10248,bus,41,0,0,0,0,0,0,1
1113,10557,10248,bus,41,0,0,0,0,0,0,1
1174,10558,10248,bus,41,0,0,0,0,0,0,1
1235,10559,10248,bus,41,0,0,0,0,0,0,1
1299,10560,10248,bus,41,0,0,0,0,0,0,1
342,10613,9629,bus,42,1,1,1,1,1,0,0
361,10614,9629,bus,42,1,1,1,1,1,0,0
381,10615,9629,bus,42,1,1,1,1,1,0,0
413,10616,9629,bus,42,1,1,1,1,1,0,0
431,10617,9629,bus,42,1,1,1,1,1,0,0
458,10618,9629,bus,42,1,1,1,1,1,0,0
485,10619,9629,bus,42,1,1,1,1,1,0,0
506,10620,9629,bus,42,1,1,1,1,1,0,0
537,10621,9629,bus,42,1,1,1,1,1,0,0
585,10622,9629,bus,42,1,1,1,1,1,0,0
616,10623,9629,bus,42,1,1,1,1,1,0,0
661,10624,9629,bus,42,1,1,1,1,1,0,0
694,10625,9629,bus,42,1,1,1,1,1,0,0
732,10626,9629,bus,42,1,1,1,1,1,0,0
768,10627,9629,bus,42,1,1,1,1,1,0,0
802,10628,9629,bus,42,1,1,1,1,1,0,0
841,10629,9629,bus,42,1,1,1,1,1,0,0
873,10630,9629,bus,42,1,1,1,1,1,0,0
913,10631,9629,bus,42,1,1,1,1,1,0,0
949,10632,9629,bus,42,1,1,1,1,1,0,0
964,10633,9629,bus,42,1,1,1,1,1,0,0
990,10634,9629,bus,42,1,1,1,1,1,0,0
1019,10635,9629,bus,42,1,1,1,1,1,0,0
1044,10636,9629,bus,42,1,1,1,1,1,0,0
1067,10637,9629,bus,42,1,1,1,1,1,0,0
1091,10638,9629,bus,42,1,1,1,1,1,0,0
1118,10639,9629,bus,42,1,1,1,1,1,0,0
1169,10640,9629,bus,42,1,1,1,1,1,0,0
1204,10641,9629,bus,42,1,1,1,1,1,0,0
1245,10642,9629,bus,42,1,1,1,1,1,0,0
1274,10643,9629,bus,42,1,1,1,1,1,0,0
1316,10644,9629,bus,42,1,1,1,1,1,0,0
1352,10645,9629,bus,42,1,1,1,1,1,0,0
327,10646,9630,bus,42,0,0,0,0,0,1,0
360,10647,9630,bus,42,0,0,0,0,0,1,0
395,10648,9630,bus,42,0,0,0,0,0,1,0
434,10649,9630,bus,42,0,0,0,0,0,1,0
467,10650,9630,bus,42,0,0,0,0,0,1,0
508,10651,9630,bus,42,0,0,0,0,0,1,0
535,10652,9630,bus,42,0,0,0,0,0,1,0
604,10653,9630,bus,42,0,0,0,0,0,1,0
635,10654,9630,bus,42,0,0,0,0,0,1,0
672,10655,9630,bus,42,0,0,0,0,0,1,0
706,10656,9630,bus,42,0,0,0,0,0,1,0
740,10657,9630,bus,42,0,0,0,0,0,1,0
776,10658,9630,bus,42,0,0,0,0,0,1,0
809,10659,9630,bus,42,0,0,0,0,0,1,0
849,10660,9630,bus,42,0,0,0,0,0,1,0
882,10661,9630,bus,42,0,0,0,0,0,1,0
917,10662,9630,bus,42,0,0,0,0,0,1,0
950,10663,9630,bus,42,0,0,0,0,0,1,0
986,10664,9630,bus,42,0,0,0,0,0,1,0
1032,10665,9630,bus,42,0,0,0,0,0,1,0
1057,10666,9630,bus,42,0,0,0,0,0,1,0
1136,10667,9630,bus,42,0,0,0,0,0,1,0
1156,10668,9630,bus,42,0,0,0,0,0,1,0
1204,10669,9630,bus,42,0,0,0,0,0,1,0
1229,10670,9630,bus,42,0,0,0,0,0,1,0
1274,10671,9630,bus,42,0,0,0,0,0,1,0
1315,10672,9630,bus,42,0,0,0,0,0,1,0
1343,10673,9630,bus,42,0,0,0,0,0,1,0
395,10674,9631,bus,42,0,0,0,0,0,0,1
434,10675,9631,bus,42,0,0,0,0,0,0,1
467,10676,9631,bus,42,0,0,0,0,0,0,1
508,10677,9631,bus,42,0,0,0,0,0,0,1
535,10678,9631,bus,42,0,0,0,0,0,0,1
604,10679,9631,bus,42,0,0,0,0,0,0,1
635,10680,9631,bus,42,0,0,0,0,0,0,1
672,10681,9631,bus,42,0,0,0,0,0,0,1
706,10682,9631,bus,42,0,0,0,0,0,0,1
740,10683,9631,bus,42,0,0,0,0,0,0,1
776,10684,9631,bus,42,0,0,0,0,0,0,1
809,10685,9631,bus,42,0,0,0,0,0,0,1
849,10686,9631,bus,42,0,0,0,0,0,0,1
882,10687,9631,bus,42,0,0,0,0,0,0,1
917,10688,9631,bus,42,0,0,0,0,0,0,1
950,10689,9631,bus,42,0,0,0,0,0,0,1
986,10690,9631,bus,42,0,0,0,0,0,0,1
1032,10691,9631,bus,42,0,0,0,0,0,0,1
1057,10692,9631,bus,42,0,0,0,0,0,0,1
1136,10693,9631,bus,42,0,0,0,0,0,0,1
1156,10694,9631,bus,42,0,0,0,0,0,0,1
1204,10695,9631,bus,42,0,0,0,0,0,0,1
1229,10696,9631,bus,42,0,0,0,0,0,0,1
1274,10697,9631,bus,42,0,0,0,0,0,0,1
1315,10698,9631,bus,42,0,0,0,0,0,0,1
1343,10699,9631,bus,42,0,0,0,0,0,0,1
330,15246,10408,bus,78,1,1,1,1,1,0,0
348,15247,10408,bus,78,1,1,1,1,1,0,0
385,15248,10408,bus,78,1,1,1,1,1,0,0
416,15249,10408,bus,78,1,1,1,1,1,0,0
434,15250,10408,bus,78,1,1,1,1,1,0,0
470,15251,10408,bus,78,1,1,1,1,1,0,0
496,15252,10408,bus,78,1,1,1,1,1,0,0
523,15253,10408,bus,78,1,1,1,1,1,0,0
554,15254,10408,bus,78,1,1,1,1,1,0,0
606,15255,10408,bus,78,1,1,1,1,1,0,0
645,15256,10408,bus,78,1,1,1,1,1,0,0
685,15257,10408,bus,78,1,1,1,1,1,0,0
726,15258,10408,bus,78,1,1,1,1,1,0,0
763,15259,10408,bus,78,1,1,1,1,1,0,0
813,15260,10408,bus,78,1,1,1,1,1,0,0
848,15261,10408,bus,78,1,1,1,1,1,0,0
902,15262,10408,bus,78,1,1,1,1,1,0,0
939,15263,10408,bus,78,1,1,1,1,1,0,0
974,15264,10408,bus,78,1,1,1,1,1,0,0
1001,15265,10408,bus,78,1,1,1,1,1,0,0
1029,15266,10408,bus,78,1,1,1,1,1,0,0
1075,15267,10408,bus,78,1,1,1,1,1,0,0
1111,15268,10408,bus,78,1,1,1,1,1,0,0
1153,15269,10408,bus,78,1,1,1,1,1,0,0
1196,15270,10408,bus,78,1,1,1,1,1,0,0
1234,15271,10408,bus,78,1,1,1,1,1,0,0
1282,15272,10408,bus,78,1,1,1,1,1,0,0
1320,15273,10408,bus,78,1,1,1,1,1,0,0
1365,15274,10408,bus,78,1,1,1,1,1,0,0
333,15275,8037,bus,78,0,0,0,0,0,1,0
376,15276,8037,bus,78,0,0,0,0,0,1,0
416,15277,8037,bus,78,0,0,0,0,0,1,0
459,15278,8037,bus,78,0,0,0,0,0,1,0
500,15279,8037,bus,78,0,0,0,0,0,1,0
547,15280,8037,bus,78,0,0,0,0,0,1,0
616,15281,8037,bus,78,0,0,0,0,0,1,0
662,15282,8037,bus,78,0,0,0,0,0,1,0
699,15283,8037,bus,78,0,0,0,0,0,1,0
746,15284,8037,bus,78,0,0,0,0,0,1,0
788,15285,8037,bus,78,0,0,0,0,0,1,0
839,15286,8037,bus,78,0,0,0,0,0,1,0
876,15287,8037,bus,78,0,0,0,0,0,1,0
930,15288,8037,bus,78,0,0,0,0,0,1,0
968,15289,8037,bus,78,0,0,0,0,0,1,0
1013,15290,8037,bus,78,0,0,0,0,0,1,0
1081,15291,8037,bus,78,0,0,0,0,0,1,0
1125,15292,8037,bus,78,0,0,0,0,0,1,0
1164,15293,8037,bus,78,0,0,0,0,0,1,0
1208,15294,8037,bus,78,0,0,0,0,0,1,0
1250,15295,8037,bus,78,0,0,0,0,0,1,0
1290,15296,8037,bus,78,0,0,0,0,0,1,0
1334,15297,8037,bus,78,0,0,0,0,0,1,0
1371,15298,8037,bus,78,0,0,0,0,0,1,0
376,15299,8038,bus,78,0,0,0,0,0,0,1
416,15300,8038,bus,78,0,0,0,0,0,0,1
459,15301,8038,bus,78,0,0,0,0,0,0,1
500,15302,8038,bus,78,0,0,0,0,0,0,1
547,15303,8038,bus,78,0,0,0,0,0,0,1
616,15304,8038,bus,78,0,0,0,0,0,0,1
662,15305,8038,bus,78,0,0,0,0,0,0,1
699,15306,8038,bus,78,0,0,0,0,0,0,1
746,15307,8038,bus,78,0,0,0,0,0,0,1
788,15308,8038,bus,78,0,0,0,0,0,0,1
839,15309,8038,bus,78,0,0,0,0,0,0,1
876,15310,8038,bus,78,0,0,0,0,0,0,1
930,15311,8038,bus,78,0,0,0,0,0,0,1
968,15312,8038,bus,78,0,0,0,0,0,0,1
1013,15313,8038,bus,78,0,0,0,0,0,0,1
1081,15314,8038,bus,78,0,0,0,0,0,0,1
1125,15315,8038,bus,78,0,0,0,0,0,0,1
1164,15316,8038,bus,78,0,0,0,0,0,0,1
1208,15317,8038,bus,78,0,0,0,0,0,0,1
1250,15318,8038,bus,78,0,0,0,0,0,0,1
1290,15319,8038,bus,78,0,0,0,0,0,0,1
1334,15320,8038,bus,78,0,0,0,0,0,0,1
1371,15321,8038,bus,78,0,0,0,0,0,0,1
