timeInMin,trip_id,service_id,tipas,numeris,pirmadienis,antradienis,treciadienis,ketvirtadienis,penktadienis,sestadienis,sekmadienis 
1220,1615,8395,bus,3,1,1,1,1,1,0,0
1261,1616,8395,bus,3,1,1,1,1,1,0,0
1323,1617,8395,bus,3,1,1,1,1,1,0,0
324,1618,8396,bus,3,0,0,0,0,0,1,0
414,1619,8396,bus,3,0,0,0,0,0,1,0
500,1620,8396,bus,3,0,0,0,0,0,1,0
1193,1621,8396,bus,3,0,0,0,0,0,1,0
453,1622,8397,bus,3,0,0,0,0,0,0,1
550,1623,8397,bus,3,0,0,0,0,0,0,1
1215,1624,8397,bus,3,0,0,0,0,0,0,1
338,10515,8030,bus,41,1,1,1,1,1,0,0
409,10516,8030,bus,41,1,1,1,1,1,0,0
483,10517,8030,bus,41,1,1,1,1,1,0,0
545,10518,8030,bus,41,1,1,1,1,1,0,0
631,10519,8030,bus,41,1,1,1,1,1,0,0
687,10520,8030,bus,41,1,1,1,1,1,0,0
745,10521,8030,bus,41,1,1,1,1,1,0,0
800,10522,8030,bus,41,1,1,1,1,1,0,0
867,10523,8030,bus,41,1,1,1,1,1,0,0
924,10524,8030,bus,41,1,1,1,1,1,0,0
984,10525,8030,bus,41,1,1,1,1,1,0,0
1042,10526,8030,bus,41,1,1,1,1,1,0,0
1100,10527,8030,bus,41,1,1,1,1,1,0,0
1185,10528,8030,bus,41,1,1,1,1,1,0,0
1238,10529,8030,bus,41,1,1,1,1,1,0,0
1293,10530,8030,bus,41,1,1,1,1,1,0,0
1347,10531,8030,bus,41,1,1,1,1,1,0,0
354,10532,8031,bus,41,0,0,0,0,0,1,0
412,10533,8031,bus,41,0,0,0,0,0,1,0
481,10534,8031,bus,41,0,0,0,0,0,1,0
576,10535,8031,bus,41,0,0,0,0,0,1,0
644,10536,8031,bus,41,0,0,0,0,0,1,0
714,10537,8031,bus,41,0,0,0,0,0,1,0
773,10538,8031,bus,41,0,0,0,0,0,1,0
837,10539,8031,bus,41,0,0,0,0,0,1,0
898,10540,8031,bus,41,0,0,0,0,0,1,0
959,10541,8031,bus,41,0,0,0,0,0,1,0
1022,10542,8031,bus,41,0,0,0,0,0,1,0
1115,10543,8031,bus,41,0,0,0,0,0,1,0
1176,10544,8031,bus,41,0,0,0,0,0,1,0
1237,10545,8031,bus,41,0,0,0,0,0,1,0
1301,10546,8031,bus,41,0,0,0,0,0,1,0
412,10547,10248,bus,41,0,0,0,0,0,0,1
481,10548,10248,bus,41,0,0,0,0,0,0,1
576,10549,10248,bus,41,0,0,0,0,0,0,1
644,10550,10248,bus,41,0,0,0,0,0,0,1
714,10551,10248,bus,41,0,0,0,0,0,0,1
773,10552,10248,bus,41,0,0,0,0,0,0,1
837,10553,10248,bus,41,0,0,0,0,0,0,1
898,10554,10248,bus,41,0,0,0,0,0,0,1
959,10555,10248,bus,41,0,0,0,0,0,0,1
1022,10556,10248,bus,41,0,0,0,0,0,0,1
1115,10557,10248,bus,41,0,0,0,0,0,0,1
1176,10558,10248,bus,41,0,0,0,0,0,0,1
1237,10559,10248,bus,41,0,0,0,0,0,0,1
1301,10560,10248,bus,41,0,0,0,0,0,0,1
344,10613,9629,bus,42,1,1,1,1,1,0,0
363,10614,9629,bus,42,1,1,1,1,1,0,0
383,10615,9629,bus,42,1,1,1,1,1,0,0
415,10616,9629,bus,42,1,1,1,1,1,0,0
433,10617,9629,bus,42,1,1,1,1,1,0,0
460,10618,9629,bus,42,1,1,1,1,1,0,0
487,10619,9629,bus,42,1,1,1,1,1,0,0
508,10620,9629,bus,42,1,1,1,1,1,0,0
539,10621,9629,bus,42,1,1,1,1,1,0,0
587,10622,9629,bus,42,1,1,1,1,1,0,0
618,10623,9629,bus,42,1,1,1,1,1,0,0
663,10624,9629,bus,42,1,1,1,1,1,0,0
696,10625,9629,bus,42,1,1,1,1,1,0,0
734,10626,9629,bus,42,1,1,1,1,1,0,0
770,10627,9629,bus,42,1,1,1,1,1,0,0
804,10628,9629,bus,42,1,1,1,1,1,0,0
843,10629,9629,bus,42,1,1,1,1,1,0,0
875,10630,9629,bus,42,1,1,1,1,1,0,0
915,10631,9629,bus,42,1,1,1,1,1,0,0
951,10632,9629,bus,42,1,1,1,1,1,0,0
966,10633,9629,bus,42,1,1,1,1,1,0,0
992,10634,9629,bus,42,1,1,1,1,1,0,0
1021,10635,9629,bus,42,1,1,1,1,1,0,0
1046,10636,9629,bus,42,1,1,1,1,1,0,0
1069,10637,9629,bus,42,1,1,1,1,1,0,0
1093,10638,9629,bus,42,1,1,1,1,1,0,0
1120,10639,9629,bus,42,1,1,1,1,1,0,0
1171,10640,9629,bus,42,1,1,1,1,1,0,0
1206,10641,9629,bus,42,1,1,1,1,1,0,0
1247,10642,9629,bus,42,1,1,1,1,1,0,0
1276,10643,9629,bus,42,1,1,1,1,1,0,0
1318,10644,9629,bus,42,1,1,1,1,1,0,0
1354,10645,9629,bus,42,1,1,1,1,1,0,0
329,10646,9630,bus,42,0,0,0,0,0,1,0
362,10647,9630,bus,42,0,0,0,0,0,1,0
397,10648,9630,bus,42,0,0,0,0,0,1,0
436,10649,9630,bus,42,0,0,0,0,0,1,0
469,10650,9630,bus,42,0,0,0,0,0,1,0
510,10651,9630,bus,42,0,0,0,0,0,1,0
537,10652,9630,bus,42,0,0,0,0,0,1,0
606,10653,9630,bus,42,0,0,0,0,0,1,0
637,10654,9630,bus,42,0,0,0,0,0,1,0
674,10655,9630,bus,42,0,0,0,0,0,1,0
708,10656,9630,bus,42,0,0,0,0,0,1,0
742,10657,9630,bus,42,0,0,0,0,0,1,0
778,10658,9630,bus,42,0,0,0,0,0,1,0
811,10659,9630,bus,42,0,0,0,0,0,1,0
851,10660,9630,bus,42,0,0,0,0,0,1,0
884,10661,9630,bus,42,0,0,0,0,0,1,0
919,10662,9630,bus,42,0,0,0,0,0,1,0
952,10663,9630,bus,42,0,0,0,0,0,1,0
988,10664,9630,bus,42,0,0,0,0,0,1,0
1034,10665,9630,bus,42,0,0,0,0,0,1,0
1059,10666,9630,bus,42,0,0,0,0,0,1,0
1138,10667,9630,bus,42,0,0,0,0,0,1,0
1158,10668,9630,bus,42,0,0,0,0,0,1,0
1206,10669,9630,bus,42,0,0,0,0,0,1,0
1231,10670,9630,bus,42,0,0,0,0,0,1,0
1276,10671,9630,bus,42,0,0,0,0,0,1,0
1317,10672,9630,bus,42,0,0,0,0,0,1,0
1345,10673,9630,bus,42,0,0,0,0,0,1,0
397,10674,9631,bus,42,0,0,0,0,0,0,1
436,10675,9631,bus,42,0,0,0,0,0,0,1
469,10676,9631,bus,42,0,0,0,0,0,0,1
510,10677,9631,bus,42,0,0,0,0,0,0,1
537,10678,9631,bus,42,0,0,0,0,0,0,1
606,10679,9631,bus,42,0,0,0,0,0,0,1
637,10680,9631,bus,42,0,0,0,0,0,0,1
674,10681,9631,bus,42,0,0,0,0,0,0,1
708,10682,9631,bus,42,0,0,0,0,0,0,1
742,10683,9631,bus,42,0,0,0,0,0,0,1
778,10684,9631,bus,42,0,0,0,0,0,0,1
811,10685,9631,bus,42,0,0,0,0,0,0,1
851,10686,9631,bus,42,0,0,0,0,0,0,1
884,10687,9631,bus,42,0,0,0,0,0,0,1
919,10688,9631,bus,42,0,0,0,0,0,0,1
952,10689,9631,bus,42,0,0,0,0,0,0,1
988,10690,9631,bus,42,0,0,0,0,0,0,1
1034,10691,9631,bus,42,0,0,0,0,0,0,1
1059,10692,9631,bus,42,0,0,0,0,0,0,1
1138,10693,9631,bus,42,0,0,0,0,0,0,1
1158,10694,9631,bus,42,0,0,0,0,0,0,1
1206,10695,9631,bus,42,0,0,0,0,0,0,1
1231,10696,9631,bus,42,0,0,0,0,0,0,1
1276,10697,9631,bus,42,0,0,0,0,0,0,1
1317,10698,9631,bus,42,0,0,0,0,0,0,1
1345,10699,9631,bus,42,0,0,0,0,0,0,1
332,15246,10408,bus,78,1,1,1,1,1,0,0
350,15247,10408,bus,78,1,1,1,1,1,0,0
387,15248,10408,bus,78,1,1,1,1,1,0,0
418,15249,10408,bus,78,1,1,1,1,1,0,0
436,15250,10408,bus,78,1,1,1,1,1,0,0
472,15251,10408,bus,78,1,1,1,1,1,0,0
498,15252,10408,bus,78,1,1,1,1,1,0,0
525,15253,10408,bus,78,1,1,1,1,1,0,0
556,15254,10408,bus,78,1,1,1,1,1,0,0
608,15255,10408,bus,78,1,1,1,1,1,0,0
647,15256,10408,bus,78,1,1,1,1,1,0,0
687,15257,10408,bus,78,1,1,1,1,1,0,0
728,15258,10408,bus,78,1,1,1,1,1,0,0
765,15259,10408,bus,78,1,1,1,1,1,0,0
815,15260,10408,bus,78,1,1,1,1,1,0,0
850,15261,10408,bus,78,1,1,1,1,1,0,0
904,15262,10408,bus,78,1,1,1,1,1,0,0
941,15263,10408,bus,78,1,1,1,1,1,0,0
976,15264,10408,bus,78,1,1,1,1,1,0,0
1003,15265,10408,bus,78,1,1,1,1,1,0,0
1031,15266,10408,bus,78,1,1,1,1,1,0,0
1077,15267,10408,bus,78,1,1,1,1,1,0,0
1113,15268,10408,bus,78,1,1,1,1,1,0,0
1155,15269,10408,bus,78,1,1,1,1,1,0,0
1198,15270,10408,bus,78,1,1,1,1,1,0,0
1236,15271,10408,bus,78,1,1,1,1,1,0,0
1284,15272,10408,bus,78,1,1,1,1,1,0,0
1322,15273,10408,bus,78,1,1,1,1,1,0,0
1367,15274,10408,bus,78,1,1,1,1,1,0,0
335,15275,8037,bus,78,0,0,0,0,0,1,0
378,15276,8037,bus,78,0,0,0,0,0,1,0
418,15277,8037,bus,78,0,0,0,0,0,1,0
461,15278,8037,bus,78,0,0,0,0,0,1,0
502,15279,8037,bus,78,0,0,0,0,0,1,0
549,15280,8037,bus,78,0,0,0,0,0,1,0
618,15281,8037,bus,78,0,0,0,0,0,1,0
664,15282,8037,bus,78,0,0,0,0,0,1,0
701,15283,8037,bus,78,0,0,0,0,0,1,0
748,15284,8037,bus,78,0,0,0,0,0,1,0
790,15285,8037,bus,78,0,0,0,0,0,1,0
841,15286,8037,bus,78,0,0,0,0,0,1,0
878,15287,8037,bus,78,0,0,0,0,0,1,0
932,15288,8037,bus,78,0,0,0,0,0,1,0
970,15289,8037,bus,78,0,0,0,0,0,1,0
1015,15290,8037,bus,78,0,0,0,0,0,1,0
1083,15291,8037,bus,78,0,0,0,0,0,1,0
1127,15292,8037,bus,78,0,0,0,0,0,1,0
1166,15293,8037,bus,78,0,0,0,0,0,1,0
1210,15294,8037,bus,78,0,0,0,0,0,1,0
1252,15295,8037,bus,78,0,0,0,0,0,1,0
1292,15296,8037,bus,78,0,0,0,0,0,1,0
1336,15297,8037,bus,78,0,0,0,0,0,1,0
1373,15298,8037,bus,78,0,0,0,0,0,1,0
378,15299,8038,bus,78,0,0,0,0,0,0,1
418,15300,8038,bus,78,0,0,0,0,0,0,1
461,15301,8038,bus,78,0,0,0,0,0,0,1
502,15302,8038,bus,78,0,0,0,0,0,0,1
549,15303,8038,bus,78,0,0,0,0,0,0,1
618,15304,8038,bus,78,0,0,0,0,0,0,1
664,15305,8038,bus,78,0,0,0,0,0,0,1
701,15306,8038,bus,78,0,0,0,0,0,0,1
748,15307,8038,bus,78,0,0,0,0,0,0,1
790,15308,8038,bus,78,0,0,0,0,0,0,1
841,15309,8038,bus,78,0,0,0,0,0,0,1
878,15310,8038,bus,78,0,0,0,0,0,0,1
932,15311,8038,bus,78,0,0,0,0,0,0,1
970,15312,8038,bus,78,0,0,0,0,0,0,1
1015,15313,8038,bus,78,0,0,0,0,0,0,1
1083,15314,8038,bus,78,0,0,0,0,0,0,1
1127,15315,8038,bus,78,0,0,0,0,0,0,1
1166,15316,8038,bus,78,0,0,0,0,0,0,1
1210,15317,8038,bus,78,0,0,0,0,0,0,1
1252,15318,8038,bus,78,0,0,0,0,0,0,1
1292,15319,8038,bus,78,0,0,0,0,0,0,1
1336,15320,8038,bus,78,0,0,0,0,0,0,1
1373,15321,8038,bus,78,0,0,0,0,0,0,1
