timeInMin,trip_id,service_id,tipas,numeris,pirmadienis,antradienis,treciadienis,ketvirtadienis,penktadienis,sestadienis,sekmadienis 
372,1625,8395,bus,3,1,1,1,1,1,0,0
397,1626,8395,bus,3,1,1,1,1,1,0,0
442,1627,8395,bus,3,1,1,1,1,1,0,0
474,1628,8395,bus,3,1,1,1,1,1,0,0
514,1629,8395,bus,3,1,1,1,1,1,0,0
544,1630,8395,bus,3,1,1,1,1,1,0,0
570,1631,8395,bus,3,1,1,1,1,1,0,0
616,1632,8395,bus,3,1,1,1,1,1,0,0
697,1633,8395,bus,3,1,1,1,1,1,0,0
755,1634,8395,bus,3,1,1,1,1,1,0,0
792,1635,8395,bus,3,1,1,1,1,1,0,0
854,1636,8395,bus,3,1,1,1,1,1,0,0
905,1637,8395,bus,3,1,1,1,1,1,0,0
958,1638,8395,bus,3,1,1,1,1,1,0,0
982,1639,8395,bus,3,1,1,1,1,1,0,0
1018,1640,8395,bus,3,1,1,1,1,1,0,0
1066,1641,8395,bus,3,1,1,1,1,1,0,0
1096,1642,8395,bus,3,1,1,1,1,1,0,0
1122,1643,8395,bus,3,1,1,1,1,1,0,0
1196,1644,8395,bus,3,1,1,1,1,1,0,0
673,1645,8396,bus,3,0,0,0,0,0,1,0
769,1646,8396,bus,3,0,0,0,0,0,1,0
876,1647,8396,bus,3,0,0,0,0,0,1,0
980,1648,8396,bus,3,0,0,0,0,0,1,0
1126,1649,8396,bus,3,0,0,0,0,0,1,0
698,1650,8397,bus,3,0,0,0,0,0,0,1
805,1651,8397,bus,3,0,0,0,0,0,0,1
912,1652,8397,bus,3,0,0,0,0,0,0,1
1017,1653,8397,bus,3,0,0,0,0,0,0,1
1144,1654,8397,bus,3,0,0,0,0,0,0,1
1251,1655,8395,bus,3,1,1,1,1,1,0,0
1302,1656,8395,bus,3,1,1,1,1,1,0,0
1354,1657,8395,bus,3,1,1,1,1,1,0,0
355,1658,8396,bus,3,0,0,0,0,0,1,0
445,1659,8396,bus,3,0,0,0,0,0,1,0
541,1660,8396,bus,3,0,0,0,0,0,1,0
1235,1661,8396,bus,3,0,0,0,0,0,1,0
396,1662,8397,bus,3,0,0,0,0,0,0,1
493,1663,8397,bus,3,0,0,0,0,0,0,1
581,1664,8397,bus,3,0,0,0,0,0,0,1
1246,1665,8397,bus,3,0,0,0,0,0,0,1
365,15322,10408,bus,78,1,1,1,1,1,0,0
385,15323,10408,bus,78,1,1,1,1,1,0,0
422,15324,10408,bus,78,1,1,1,1,1,0,0
450,15325,10408,bus,78,1,1,1,1,1,0,0
468,15326,10408,bus,78,1,1,1,1,1,0,0
507,15327,10408,bus,78,1,1,1,1,1,0,0
534,15328,10408,bus,78,1,1,1,1,1,0,0
565,15329,10408,bus,78,1,1,1,1,1,0,0
598,15330,10408,bus,78,1,1,1,1,1,0,0
641,15331,10408,bus,78,1,1,1,1,1,0,0
681,15332,10408,bus,78,1,1,1,1,1,0,0
719,15333,10408,bus,78,1,1,1,1,1,0,0
763,15334,10408,bus,78,1,1,1,1,1,0,0
797,15335,10408,bus,78,1,1,1,1,1,0,0
851,15336,10408,bus,78,1,1,1,1,1,0,0
882,15337,10408,bus,78,1,1,1,1,1,0,0
940,15338,10408,bus,78,1,1,1,1,1,0,0
975,15339,10408,bus,78,1,1,1,1,1,0,0
1011,15340,10408,bus,78,1,1,1,1,1,0,0
1035,15341,10408,bus,78,1,1,1,1,1,0,0
1063,15342,10408,bus,78,1,1,1,1,1,0,0
1112,15343,10408,bus,78,1,1,1,1,1,0,0
1148,15344,10408,bus,78,1,1,1,1,1,0,0
1190,15345,10408,bus,78,1,1,1,1,1,0,0
1237,15346,10408,bus,78,1,1,1,1,1,0,0
1271,15347,10408,bus,78,1,1,1,1,1,0,0
1320,15348,10408,bus,78,1,1,1,1,1,0,0
1355,15349,10408,bus,78,1,1,1,1,1,0,0
1398,15350,10408,bus,78,1,1,1,1,1,0,0
370,15351,8037,bus,78,0,0,0,0,0,1,0
415,15352,8037,bus,78,0,0,0,0,0,1,0
455,15353,8037,bus,78,0,0,0,0,0,1,0
503,15354,8037,bus,78,0,0,0,0,0,1,0
539,15355,8037,bus,78,0,0,0,0,0,1,0
586,15356,8037,bus,78,0,0,0,0,0,1,0
655,15357,8037,bus,78,0,0,0,0,0,1,0
701,15358,8037,bus,78,0,0,0,0,0,1,0
744,15359,8037,bus,78,0,0,0,0,0,1,0
790,15360,8037,bus,78,0,0,0,0,0,1,0
827,15361,8037,bus,78,0,0,0,0,0,1,0
881,15362,8037,bus,78,0,0,0,0,0,1,0
923,15363,8037,bus,78,0,0,0,0,0,1,0
969,15364,8037,bus,78,0,0,0,0,0,1,0
1007,15365,8037,bus,78,0,0,0,0,0,1,0
1052,15366,8037,bus,78,0,0,0,0,0,1,0
1120,15367,8037,bus,78,0,0,0,0,0,1,0
1164,15368,8037,bus,78,0,0,0,0,0,1,0
1203,15369,8037,bus,78,0,0,0,0,0,1,0
1247,15370,8037,bus,78,0,0,0,0,0,1,0
1289,15371,8037,bus,78,0,0,0,0,0,1,0
1329,15372,8037,bus,78,0,0,0,0,0,1,0
1373,15373,8037,bus,78,0,0,0,0,0,1,0
1407,15374,8037,bus,78,0,0,0,0,0,1,0
415,15375,8038,bus,78,0,0,0,0,0,0,1
455,15376,8038,bus,78,0,0,0,0,0,0,1
503,15377,8038,bus,78,0,0,0,0,0,0,1
539,15378,8038,bus,78,0,0,0,0,0,0,1
586,15379,8038,bus,78,0,0,0,0,0,0,1
655,15380,8038,bus,78,0,0,0,0,0,0,1
701,15381,8038,bus,78,0,0,0,0,0,0,1
744,15382,8038,bus,78,0,0,0,0,0,0,1
790,15383,8038,bus,78,0,0,0,0,0,0,1
827,15384,8038,bus,78,0,0,0,0,0,0,1
881,15385,8038,bus,78,0,0,0,0,0,0,1
923,15386,8038,bus,78,0,0,0,0,0,0,1
969,15387,8038,bus,78,0,0,0,0,0,0,1
1007,15388,8038,bus,78,0,0,0,0,0,0,1
1052,15389,8038,bus,78,0,0,0,0,0,0,1
1120,15390,8038,bus,78,0,0,0,0,0,0,1
1164,15391,8038,bus,78,0,0,0,0,0,0,1
1203,15392,8038,bus,78,0,0,0,0,0,0,1
1247,15393,8038,bus,78,0,0,0,0,0,0,1
1289,15394,8038,bus,78,0,0,0,0,0,0,1
1329,15395,8038,bus,78,0,0,0,0,0,0,1
1373,15396,8038,bus,78,0,0,0,0,0,0,1
1407,15397,8038,bus,78,0,0,0,0,0,0,1
