timeInMin,trip_id,service_id,tipas,numeris,pirmadienis,antradienis,treciadienis,ketvirtadienis,penktadienis,sestadienis,sekmadienis 
359,11104,10383,bus,46,0,0,0,0,0,0,1
390,11105,10383,bus,46,0,0,0,0,0,0,1
410,11106,10383,bus,46,0,0,0,0,0,0,1
431,11107,10383,bus,46,0,0,0,0,0,0,1
453,11108,10383,bus,46,0,0,0,0,0,0,1
473,11109,10383,bus,46,0,0,0,0,0,0,1
494,11110,10383,bus,46,0,0,0,0,0,0,1
515,11111,10383,bus,46,0,0,0,0,0,0,1
535,11112,10383,bus,46,0,0,0,0,0,0,1
556,11113,10383,bus,46,0,0,0,0,0,0,1
596,11114,10383,bus,46,0,0,0,0,0,0,1
624,11115,10383,bus,46,0,0,0,0,0,0,1
645,11116,10383,bus,46,0,0,0,0,0,0,1
665,11117,10383,bus,46,0,0,0,0,0,0,1
685,11118,10383,bus,46,0,0,0,0,0,0,1
706,11119,10383,bus,46,0,0,0,0,0,0,1
728,11120,10383,bus,46,0,0,0,0,0,0,1
747,11121,10383,bus,46,0,0,0,0,0,0,1
768,11122,10383,bus,46,0,0,0,0,0,0,1
790,11123,10383,bus,46,0,0,0,0,0,0,1
809,11124,10383,bus,46,0,0,0,0,0,0,1
830,11125,10383,bus,46,0,0,0,0,0,0,1
852,11126,10383,bus,46,0,0,0,0,0,0,1
871,11127,10383,bus,46,0,0,0,0,0,0,1
892,11128,10383,bus,46,0,0,0,0,0,0,1
914,11129,10383,bus,46,0,0,0,0,0,0,1
933,11130,10383,bus,46,0,0,0,0,0,0,1
954,11131,10383,bus,46,0,0,0,0,0,0,1
977,11132,10383,bus,46,0,0,0,0,0,0,1
999,11133,10383,bus,46,0,0,0,0,0,0,1
1020,11134,10383,bus,46,0,0,0,0,0,0,1
1058,11135,10383,bus,46,0,0,0,0,0,0,1
1083,11136,10383,bus,46,0,0,0,0,0,0,1
1107,11137,10383,bus,46,0,0,0,0,0,0,1
1140,11138,10383,bus,46,0,0,0,0,0,0,1
1165,11139,10383,bus,46,0,0,0,0,0,0,1
1189,11140,10383,bus,46,0,0,0,0,0,0,1
1209,11141,10383,bus,46,0,0,0,0,0,0,1
1228,11142,10383,bus,46,0,0,0,0,0,0,1
1250,11143,10383,bus,46,0,0,0,0,0,0,1
1272,11144,10383,bus,46,0,0,0,0,0,0,1
1293,11145,10383,bus,46,0,0,0,0,0,0,1
1314,11146,10383,bus,46,0,0,0,0,0,0,1
1340,11147,10383,bus,46,0,0,0,0,0,0,1
1359,11148,10383,bus,46,0,0,0,0,0,0,1
1378,11149,10383,bus,46,0,0,0,0,0,0,1
323,11150,10381,bus,46,1,1,1,1,1,0,0
337,11151,10381,bus,46,1,1,1,1,1,0,0
351,11152,10381,bus,46,1,1,1,1,1,0,0
365,11153,10381,bus,46,1,1,1,1,1,0,0
378,11154,10381,bus,46,1,1,1,1,1,0,0
392,11155,10381,bus,46,1,1,1,1,1,0,0
405,11156,10381,bus,46,1,1,1,1,1,0,0
416,11157,10381,bus,46,1,1,1,1,1,0,0
427,11158,10381,bus,46,1,1,1,1,1,0,0
439,11159,10381,bus,46,1,1,1,1,1,0,0
450,11160,10381,bus,46,1,1,1,1,1,0,0
463,11161,10381,bus,46,1,1,1,1,1,0,0
477,11162,10381,bus,46,1,1,1,1,1,0,0
490,11163,10381,bus,46,1,1,1,1,1,0,0
502,11164,10381,bus,46,1,1,1,1,1,0,0
514,11165,10381,bus,46,1,1,1,1,1,0,0
525,11166,10381,bus,46,1,1,1,1,1,0,0
537,11167,10381,bus,46,1,1,1,1,1,0,0
551,11168,10381,bus,46,1,1,1,1,1,0,0
569,11169,10381,bus,46,1,1,1,1,1,0,0
595,11170,10381,bus,46,1,1,1,1,1,0,0
627,11171,10381,bus,46,1,1,1,1,1,0,0
646,11172,10381,bus,46,1,1,1,1,1,0,0
665,11173,10381,bus,46,1,1,1,1,1,0,0
685,11174,10381,bus,46,1,1,1,1,1,0,0
704,11175,10381,bus,46,1,1,1,1,1,0,0
722,11176,10381,bus,46,1,1,1,1,1,0,0
739,11177,10381,bus,46,1,1,1,1,1,0,0
757,11178,10381,bus,46,1,1,1,1,1,0,0
775,11179,10381,bus,46,1,1,1,1,1,0,0
793,11180,10381,bus,46,1,1,1,1,1,0,0
811,11181,10381,bus,46,1,1,1,1,1,0,0
829,11182,10381,bus,46,1,1,1,1,1,0,0
845,11183,10381,bus,46,1,1,1,1,1,0,0
863,11184,10381,bus,46,1,1,1,1,1,0,0
882,11185,10381,bus,46,1,1,1,1,1,0,0
900,11186,10381,bus,46,1,1,1,1,1,0,0
914,11187,10381,bus,46,1,1,1,1,1,0,0
927,11188,10381,bus,46,1,1,1,1,1,0,0
940,11189,10381,bus,46,1,1,1,1,1,0,0
952,11190,10381,bus,46,1,1,1,1,1,0,0
965,11191,10381,bus,46,1,1,1,1,1,0,0
979,11192,10381,bus,46,1,1,1,1,1,0,0
993,11193,10381,bus,46,1,1,1,1,1,0,0
1006,11194,10381,bus,46,1,1,1,1,1,0,0
1019,11195,10381,bus,46,1,1,1,1,1,0,0
1030,11196,10381,bus,46,1,1,1,1,1,0,0
1044,11197,10381,bus,46,1,1,1,1,1,0,0
1058,11198,10381,bus,46,1,1,1,1,1,0,0
1072,11199,10381,bus,46,1,1,1,1,1,0,0
1085,11200,10381,bus,46,1,1,1,1,1,0,0
1099,11201,10381,bus,46,1,1,1,1,1,0,0
1111,11202,10381,bus,46,1,1,1,1,1,0,0
1135,11203,10381,bus,46,1,1,1,1,1,0,0
1158,11204,10381,bus,46,1,1,1,1,1,0,0
1177,11205,10381,bus,46,1,1,1,1,1,0,0
1195,11206,10381,bus,46,1,1,1,1,1,0,0
1213,11207,10381,bus,46,1,1,1,1,1,0,0
1232,11208,10381,bus,46,1,1,1,1,1,0,0
1249,11209,10381,bus,46,1,1,1,1,1,0,0
1266,11210,10381,bus,46,1,1,1,1,1,0,0
1284,11211,10381,bus,46,1,1,1,1,1,0,0
1302,11212,10381,bus,46,1,1,1,1,1,0,0
1319,11213,10381,bus,46,1,1,1,1,1,0,0
1336,11214,10381,bus,46,1,1,1,1,1,0,0
1354,11215,10381,bus,46,1,1,1,1,1,0,0
1374,11216,10381,bus,46,1,1,1,1,1,0,0
327,11217,10382,bus,46,0,0,0,0,0,1,0
348,11218,10382,bus,46,0,0,0,0,0,1,0
369,11219,10382,bus,46,0,0,0,0,0,1,0
390,11220,10382,bus,46,0,0,0,0,0,1,0
410,11221,10382,bus,46,0,0,0,0,0,1,0
431,11222,10382,bus,46,0,0,0,0,0,1,0
453,11223,10382,bus,46,0,0,0,0,0,1,0
473,11224,10382,bus,46,0,0,0,0,0,1,0
494,11225,10382,bus,46,0,0,0,0,0,1,0
515,11226,10382,bus,46,0,0,0,0,0,1,0
535,11227,10382,bus,46,0,0,0,0,0,1,0
556,11228,10382,bus,46,0,0,0,0,0,1,0
596,11229,10382,bus,46,0,0,0,0,0,1,0
624,11230,10382,bus,46,0,0,0,0,0,1,0
645,11231,10382,bus,46,0,0,0,0,0,1,0
665,11232,10382,bus,46,0,0,0,0,0,1,0
685,11233,10382,bus,46,0,0,0,0,0,1,0
706,11234,10382,bus,46,0,0,0,0,0,1,0
728,11235,10382,bus,46,0,0,0,0,0,1,0
747,11236,10382,bus,46,0,0,0,0,0,1,0
768,11237,10382,bus,46,0,0,0,0,0,1,0
790,11238,10382,bus,46,0,0,0,0,0,1,0
809,11239,10382,bus,46,0,0,0,0,0,1,0
830,11240,10382,bus,46,0,0,0,0,0,1,0
852,11241,10382,bus,46,0,0,0,0,0,1,0
871,11242,10382,bus,46,0,0,0,0,0,1,0
892,11243,10382,bus,46,0,0,0,0,0,1,0
914,11244,10382,bus,46,0,0,0,0,0,1,0
933,11245,10382,bus,46,0,0,0,0,0,1,0
954,11246,10382,bus,46,0,0,0,0,0,1,0
977,11247,10382,bus,46,0,0,0,0,0,1,0
999,11248,10382,bus,46,0,0,0,0,0,1,0
1020,11249,10382,bus,46,0,0,0,0,0,1,0
1058,11250,10382,bus,46,0,0,0,0,0,1,0
1083,11251,10382,bus,46,0,0,0,0,0,1,0
1107,11252,10382,bus,46,0,0,0,0,0,1,0
1140,11253,10382,bus,46,0,0,0,0,0,1,0
1165,11254,10382,bus,46,0,0,0,0,0,1,0
1189,11255,10382,bus,46,0,0,0,0,0,1,0
1209,11256,10382,bus,46,0,0,0,0,0,1,0
1228,11257,10382,bus,46,0,0,0,0,0,1,0
1250,11258,10382,bus,46,0,0,0,0,0,1,0
1272,11259,10382,bus,46,0,0,0,0,0,1,0
1293,11260,10382,bus,46,0,0,0,0,0,1,0
1314,11261,10382,bus,46,0,0,0,0,0,1,0
1340,11262,10382,bus,46,0,0,0,0,0,1,0
1359,11263,10382,bus,46,0,0,0,0,0,1,0
1378,11264,10382,bus,46,0,0,0,0,0,1,0
1393,11426,10383,bus,46,0,0,0,0,0,0,1
1412,11427,10383,bus,46,0,0,0,0,0,0,1
1431,11428,10383,bus,46,0,0,0,0,0,0,1
1151,11429,10381,bus,46,1,1,1,1,1,0,0
1172,11430,10381,bus,46,1,1,1,1,1,0,0
1379,11431,10381,bus,46,1,1,1,1,1,0,0
1395,11432,10381,bus,46,1,1,1,1,1,0,0
1414,11433,10381,bus,46,1,1,1,1,1,0,0
1431,11434,10381,bus,46,1,1,1,1,1,0,0
1393,11435,10382,bus,46,0,0,0,0,0,1,0
1412,11436,10382,bus,46,0,0,0,0,0,1,0
1431,11437,10382,bus,46,0,0,0,0,0,1,0
1582,16392,9973,nightbus,105N,0,0,0,0,1,1,0
1621,16393,9973,nightbus,105N,0,0,0,0,1,1,0
