timeInMin,trip_id,service_id,tipas,numeris,pirmadienis,antradienis,treciadienis,ketvirtadienis,penktadienis,sestadienis,sekmadienis 
319,7679,10357,bus,26,1,1,1,1,1,0,0
373,7680,10357,bus,26,1,1,1,1,1,0,0
427,7681,10357,bus,26,1,1,1,1,1,0,0
480,7682,10357,bus,26,1,1,1,1,1,0,0
546,7683,10357,bus,26,1,1,1,1,1,0,0
630,7684,10357,bus,26,1,1,1,1,1,0,0
679,7685,10357,bus,26,1,1,1,1,1,0,0
733,7686,10357,bus,26,1,1,1,1,1,0,0
794,7687,10357,bus,26,1,1,1,1,1,0,0
855,7688,10357,bus,26,1,1,1,1,1,0,0
909,7689,10357,bus,26,1,1,1,1,1,0,0
966,7690,10357,bus,26,1,1,1,1,1,0,0
1019,7691,10357,bus,26,1,1,1,1,1,0,0
1077,7692,10357,bus,26,1,1,1,1,1,0,0
1152,7693,10357,bus,26,1,1,1,1,1,0,0
1203,7694,10357,bus,26,1,1,1,1,1,0,0
1260,7695,10357,bus,26,1,1,1,1,1,0,0
1306,7696,10357,bus,26,1,1,1,1,1,0,0
1358,7697,10357,bus,26,1,1,1,1,1,0,0
314,7698,10358,bus,26,0,0,0,0,0,1,0
364,7699,10358,bus,26,0,0,0,0,0,1,0
416,7700,10358,bus,26,0,0,0,0,0,1,0
474,7701,10358,bus,26,0,0,0,0,0,1,0
536,7702,10358,bus,26,0,0,0,0,0,1,0
618,7703,10358,bus,26,0,0,0,0,0,1,0
667,7704,10358,bus,26,0,0,0,0,0,1,0
722,7705,10358,bus,26,0,0,0,0,0,1,0
774,7706,10358,bus,26,0,0,0,0,0,1,0
821,7707,10358,bus,26,0,0,0,0,0,1,0
877,7708,10358,bus,26,0,0,0,0,0,1,0
933,7709,10358,bus,26,0,0,0,0,0,1,0
988,7710,10358,bus,26,0,0,0,0,0,1,0
1043,7711,10358,bus,26,0,0,0,0,0,1,0
1127,7712,10358,bus,26,0,0,0,0,0,1,0
1183,7713,10358,bus,26,0,0,0,0,0,1,0
1232,7714,10358,bus,26,0,0,0,0,0,1,0
1283,7715,10358,bus,26,0,0,0,0,0,1,0
1333,7716,10358,bus,26,0,0,0,0,0,1,0
1379,7717,10358,bus,26,0,0,0,0,0,1,0
364,7718,10359,bus,26,0,0,0,0,0,0,1
416,7719,10359,bus,26,0,0,0,0,0,0,1
474,7720,10359,bus,26,0,0,0,0,0,0,1
536,7721,10359,bus,26,0,0,0,0,0,0,1
618,7722,10359,bus,26,0,0,0,0,0,0,1
667,7723,10359,bus,26,0,0,0,0,0,0,1
722,7724,10359,bus,26,0,0,0,0,0,0,1
774,7725,10359,bus,26,0,0,0,0,0,0,1
821,7726,10359,bus,26,0,0,0,0,0,0,1
877,7727,10359,bus,26,0,0,0,0,0,0,1
933,7728,10359,bus,26,0,0,0,0,0,0,1
988,7729,10359,bus,26,0,0,0,0,0,0,1
1043,7730,10359,bus,26,0,0,0,0,0,0,1
1127,7731,10359,bus,26,0,0,0,0,0,0,1
1183,7732,10359,bus,26,0,0,0,0,0,0,1
1232,7733,10359,bus,26,0,0,0,0,0,0,1
1283,7734,10359,bus,26,0,0,0,0,0,0,1
1333,7735,10359,bus,26,0,0,0,0,0,0,1
1379,7736,10359,bus,26,0,0,0,0,0,0,1
313,11910,10612,bus,50,1,1,1,1,1,0,0
342,11911,10612,bus,50,1,1,1,1,1,0,0
359,11912,10612,bus,50,1,1,1,1,1,0,0
377,11913,10612,bus,50,1,1,1,1,1,0,0
391,11914,10612,bus,50,1,1,1,1,1,0,0
405,11915,10612,bus,50,1,1,1,1,1,0,0
420,11916,10612,bus,50,1,1,1,1,1,0,0
434,11917,10612,bus,50,1,1,1,1,1,0,0
451,11918,10612,bus,50,1,1,1,1,1,0,0
469,11919,10612,bus,50,1,1,1,1,1,0,0
486,11920,10612,bus,50,1,1,1,1,1,0,0
505,11921,10612,bus,50,1,1,1,1,1,0,0
523,11922,10612,bus,50,1,1,1,1,1,0,0
539,11923,10612,bus,50,1,1,1,1,1,0,0
555,11924,10612,bus,50,1,1,1,1,1,0,0
571,11925,10612,bus,50,1,1,1,1,1,0,0
594,11926,10612,bus,50,1,1,1,1,1,0,0
622,11927,10612,bus,50,1,1,1,1,1,0,0
656,11928,10612,bus,50,1,1,1,1,1,0,0
687,11929,10612,bus,50,1,1,1,1,1,0,0
716,11930,10612,bus,50,1,1,1,1,1,0,0
744,11931,10612,bus,50,1,1,1,1,1,0,0
770,11932,10612,bus,50,1,1,1,1,1,0,0
803,11933,10612,bus,50,1,1,1,1,1,0,0
827,11934,10612,bus,50,1,1,1,1,1,0,0
864,11935,10612,bus,50,1,1,1,1,1,0,0
897,11936,10612,bus,50,1,1,1,1,1,0,0
922,11937,10612,bus,50,1,1,1,1,1,0,0
942,11938,10612,bus,50,1,1,1,1,1,0,0
958,11939,10612,bus,50,1,1,1,1,1,0,0
973,11940,10612,bus,50,1,1,1,1,1,0,0
989,11941,10612,bus,50,1,1,1,1,1,0,0
1007,11942,10612,bus,50,1,1,1,1,1,0,0
1023,11943,10612,bus,50,1,1,1,1,1,0,0
1039,11944,10612,bus,50,1,1,1,1,1,0,0
1056,11945,10612,bus,50,1,1,1,1,1,0,0
1070,11946,10612,bus,50,1,1,1,1,1,0,0
1086,11947,10612,bus,50,1,1,1,1,1,0,0
1103,11948,10612,bus,50,1,1,1,1,1,0,0
1118,11949,10612,bus,50,1,1,1,1,1,0,0
1137,11950,10612,bus,50,1,1,1,1,1,0,0
1158,11951,10612,bus,50,1,1,1,1,1,0,0
1176,11952,10612,bus,50,1,1,1,1,1,0,0
1208,11953,10612,bus,50,1,1,1,1,1,0,0
1236,11954,10612,bus,50,1,1,1,1,1,0,0
1270,11955,10612,bus,50,1,1,1,1,1,0,0
1293,11956,10612,bus,50,1,1,1,1,1,0,0
1322,11957,10612,bus,50,1,1,1,1,1,0,0
1351,11958,10612,bus,50,1,1,1,1,1,0,0
1400,11959,10612,bus,50,1,1,1,1,1,0,0
328,11960,10389,bus,50,0,0,0,0,0,1,0
405,11961,10389,bus,50,0,0,0,0,0,1,0
484,11962,10389,bus,50,0,0,0,0,0,1,0
524,11963,10389,bus,50,0,0,0,0,0,1,0
569,11964,10389,bus,50,0,0,0,0,0,1,0
607,11965,10389,bus,50,0,0,0,0,0,1,0
648,11966,10389,bus,50,0,0,0,0,0,1,0
687,11967,10389,bus,50,0,0,0,0,0,1,0
713,11968,10389,bus,50,0,0,0,0,0,1,0
745,11969,10389,bus,50,0,0,0,0,0,1,0
797,11970,10389,bus,50,0,0,0,0,0,1,0
830,11971,10389,bus,50,0,0,0,0,0,1,0
857,11972,10389,bus,50,0,0,0,0,0,1,0
889,11973,10389,bus,50,0,0,0,0,0,1,0
914,11974,10389,bus,50,0,0,0,0,0,1,0
945,11975,10389,bus,50,0,0,0,0,0,1,0
975,11976,10389,bus,50,0,0,0,0,0,1,0
1003,11977,10389,bus,50,0,0,0,0,0,1,0
1027,11978,10389,bus,50,0,0,0,0,0,1,0
1063,11979,10389,bus,50,0,0,0,0,0,1,0
1108,11980,10389,bus,50,0,0,0,0,0,1,0
1169,11981,10389,bus,50,0,0,0,0,0,1,0
1247,11982,10389,bus,50,0,0,0,0,0,1,0
1321,11983,10389,bus,50,0,0,0,0,0,1,0
1392,11984,10389,bus,50,0,0,0,0,0,1,0
405,11985,10390,bus,50,0,0,0,0,0,0,1
484,11986,10390,bus,50,0,0,0,0,0,0,1
524,11987,10390,bus,50,0,0,0,0,0,0,1
569,11988,10390,bus,50,0,0,0,0,0,0,1
607,11989,10390,bus,50,0,0,0,0,0,0,1
648,11990,10390,bus,50,0,0,0,0,0,0,1
687,11991,10390,bus,50,0,0,0,0,0,0,1
713,11992,10390,bus,50,0,0,0,0,0,0,1
745,11993,10390,bus,50,0,0,0,0,0,0,1
797,11994,10390,bus,50,0,0,0,0,0,0,1
830,11995,10390,bus,50,0,0,0,0,0,0,1
857,11996,10390,bus,50,0,0,0,0,0,0,1
889,11997,10390,bus,50,0,0,0,0,0,0,1
914,11998,10390,bus,50,0,0,0,0,0,0,1
945,11999,10390,bus,50,0,0,0,0,0,0,1
975,12000,10390,bus,50,0,0,0,0,0,0,1
1003,12001,10390,bus,50,0,0,0,0,0,0,1
1027,12002,10390,bus,50,0,0,0,0,0,0,1
1063,12003,10390,bus,50,0,0,0,0,0,0,1
1108,12004,10390,bus,50,0,0,0,0,0,0,1
1169,12005,10390,bus,50,0,0,0,0,0,0,1
1247,12006,10390,bus,50,0,0,0,0,0,0,1
1321,12007,10390,bus,50,0,0,0,0,0,0,1
1392,12008,10390,bus,50,0,0,0,0,0,0,1
1368,12019,10612,bus,50,1,1,1,1,1,0,0
1426,12020,10612,bus,50,1,1,1,1,1,0,0
373,13365,10613,bus,57,1,1,1,1,1,0,0
431,13366,10613,bus,57,1,1,1,1,1,0,0
488,13367,10613,bus,57,1,1,1,1,1,0,0
545,13368,10613,bus,57,1,1,1,1,1,0,0
625,13369,10613,bus,57,1,1,1,1,1,0,0
682,13370,10613,bus,57,1,1,1,1,1,0,0
739,13371,10613,bus,57,1,1,1,1,1,0,0
799,13372,10613,bus,57,1,1,1,1,1,0,0
866,13373,10613,bus,57,1,1,1,1,1,0,0
924,13374,10613,bus,57,1,1,1,1,1,0,0
982,13375,10613,bus,57,1,1,1,1,1,0,0
1042,13376,10613,bus,57,1,1,1,1,1,0,0
1107,13377,10613,bus,57,1,1,1,1,1,0,0
1187,13378,10613,bus,57,1,1,1,1,1,0,0
1253,13379,10613,bus,57,1,1,1,1,1,0,0
1320,13380,10613,bus,57,1,1,1,1,1,0,0
1378,13381,10613,bus,57,1,1,1,1,1,0,0
388,13382,9652,bus,57,0,0,0,0,0,1,0
448,13383,9652,bus,57,0,0,0,0,0,1,0
508,13384,9652,bus,57,0,0,0,0,0,1,0
568,13385,9652,bus,57,0,0,0,0,0,1,0
648,13386,9652,bus,57,0,0,0,0,0,1,0
708,13387,9652,bus,57,0,0,0,0,0,1,0
768,13388,9652,bus,57,0,0,0,0,0,1,0
828,13389,9652,bus,57,0,0,0,0,0,1,0
888,13390,9652,bus,57,0,0,0,0,0,1,0
948,13391,9652,bus,57,0,0,0,0,0,1,0
1008,13392,9652,bus,57,0,0,0,0,0,1,0
1068,13393,9652,bus,57,0,0,0,0,0,1,0
1128,13394,9652,bus,57,0,0,0,0,0,1,0
1208,13395,9652,bus,57,0,0,0,0,0,1,0
1266,13396,9652,bus,57,0,0,0,0,0,1,0
1324,13397,9652,bus,57,0,0,0,0,0,1,0
1382,13398,9652,bus,57,0,0,0,0,0,1,0
448,13399,9653,bus,57,0,0,0,0,0,0,1
508,13400,9653,bus,57,0,0,0,0,0,0,1
568,13401,9653,bus,57,0,0,0,0,0,0,1
648,13402,9653,bus,57,0,0,0,0,0,0,1
708,13403,9653,bus,57,0,0,0,0,0,0,1
768,13404,9653,bus,57,0,0,0,0,0,0,1
828,13405,9653,bus,57,0,0,0,0,0,0,1
888,13406,9653,bus,57,0,0,0,0,0,0,1
948,13407,9653,bus,57,0,0,0,0,0,0,1
1008,13408,9653,bus,57,0,0,0,0,0,0,1
1068,13409,9653,bus,57,0,0,0,0,0,0,1
1128,13410,9653,bus,57,0,0,0,0,0,0,1
1208,13411,9653,bus,57,0,0,0,0,0,0,1
1266,13412,9653,bus,57,0,0,0,0,0,0,1
1324,13413,9653,bus,57,0,0,0,0,0,0,1
1382,13414,9653,bus,57,0,0,0,0,0,0,1
326,13415,10613,bus,57,1,1,1,1,1,0,0
383,13416,10613,bus,57,1,1,1,1,1,0,0
441,13417,10613,bus,57,1,1,1,1,1,0,0
499,13418,10613,bus,57,1,1,1,1,1,0,0
556,13419,10613,bus,57,1,1,1,1,1,0,0
636,13420,10613,bus,57,1,1,1,1,1,0,0
693,13421,10613,bus,57,1,1,1,1,1,0,0
750,13422,10613,bus,57,1,1,1,1,1,0,0
810,13423,10613,bus,57,1,1,1,1,1,0,0
877,13424,10613,bus,57,1,1,1,1,1,0,0
935,13425,10613,bus,57,1,1,1,1,1,0,0
993,13426,10613,bus,57,1,1,1,1,1,0,0
1053,13427,10613,bus,57,1,1,1,1,1,0,0
1118,13428,10613,bus,57,1,1,1,1,1,0,0
1198,13429,10613,bus,57,1,1,1,1,1,0,0
1264,13430,10613,bus,57,1,1,1,1,1,0,0
1331,13431,10613,bus,57,1,1,1,1,1,0,0
339,13432,9652,bus,57,0,0,0,0,0,1,0
399,13433,9652,bus,57,0,0,0,0,0,1,0
459,13434,9652,bus,57,0,0,0,0,0,1,0
519,13435,9652,bus,57,0,0,0,0,0,1,0
579,13436,9652,bus,57,0,0,0,0,0,1,0
659,13437,9652,bus,57,0,0,0,0,0,1,0
719,13438,9652,bus,57,0,0,0,0,0,1,0
779,13439,9652,bus,57,0,0,0,0,0,1,0
839,13440,9652,bus,57,0,0,0,0,0,1,0
899,13441,9652,bus,57,0,0,0,0,0,1,0
959,13442,9652,bus,57,0,0,0,0,0,1,0
1019,13443,9652,bus,57,0,0,0,0,0,1,0
1079,13444,9652,bus,57,0,0,0,0,0,1,0
1139,13445,9652,bus,57,0,0,0,0,0,1,0
1219,13446,9652,bus,57,0,0,0,0,0,1,0
1277,13447,9652,bus,57,0,0,0,0,0,1,0
1335,13448,9652,bus,57,0,0,0,0,0,1,0
399,13449,9653,bus,57,0,0,0,0,0,0,1
459,13450,9653,bus,57,0,0,0,0,0,0,1
519,13451,9653,bus,57,0,0,0,0,0,0,1
579,13452,9653,bus,57,0,0,0,0,0,0,1
659,13453,9653,bus,57,0,0,0,0,0,0,1
719,13454,9653,bus,57,0,0,0,0,0,0,1
779,13455,9653,bus,57,0,0,0,0,0,0,1
839,13456,9653,bus,57,0,0,0,0,0,0,1
899,13457,9653,bus,57,0,0,0,0,0,0,1
959,13458,9653,bus,57,0,0,0,0,0,0,1
1019,13459,9653,bus,57,0,0,0,0,0,0,1
1079,13460,9653,bus,57,0,0,0,0,0,0,1
1139,13461,9653,bus,57,0,0,0,0,0,0,1
1219,13462,9653,bus,57,0,0,0,0,0,0,1
1277,13463,9653,bus,57,0,0,0,0,0,0,1
1335,13464,9653,bus,57,0,0,0,0,0,0,1
1389,13465,10613,bus,57,1,1,1,1,1,0,0
1393,13466,9652,bus,57,0,0,0,0,0,1,0
1393,13467,9653,bus,57,0,0,0,0,0,0,1
315,13468,10613,bus,57,1,1,1,1,1,0,0
329,13469,9652,bus,57,0,0,0,0,0,1,0
389,13470,9653,bus,57,0,0,0,0,0,0,1
