timeInMin,trip_id,service_id,tipas,numeris,pirmadienis,antradienis,treciadienis,ketvirtadienis,penktadienis,sestadienis,sekmadienis 
339,15588,10409,bus,87,1,1,1,1,1,0,0
371,15589,10409,bus,87,1,1,1,1,1,0,0
410,15590,10409,bus,87,1,1,1,1,1,0,0
443,15591,10409,bus,87,1,1,1,1,1,0,0
476,15592,10409,bus,87,1,1,1,1,1,0,0
511,15593,10409,bus,87,1,1,1,1,1,0,0
543,15594,10409,bus,87,1,1,1,1,1,0,0
580,15595,10409,bus,87,1,1,1,1,1,0,0
635,15596,10409,bus,87,1,1,1,1,1,0,0
664,15597,10409,bus,87,1,1,1,1,1,0,0
694,15598,10409,bus,87,1,1,1,1,1,0,0
731,15599,10409,bus,87,1,1,1,1,1,0,0
766,15600,10409,bus,87,1,1,1,1,1,0,0
799,15601,10409,bus,87,1,1,1,1,1,0,0
830,15602,10409,bus,87,1,1,1,1,1,0,0
857,15603,10409,bus,87,1,1,1,1,1,0,0
911,15604,10409,bus,87,1,1,1,1,1,0,0
946,15605,10409,bus,87,1,1,1,1,1,0,0
977,15606,10409,bus,87,1,1,1,1,1,0,0
1010,15607,10409,bus,87,1,1,1,1,1,0,0
1044,15608,10409,bus,87,1,1,1,1,1,0,0
1084,15609,10409,bus,87,1,1,1,1,1,0,0
1133,15610,10409,bus,87,1,1,1,1,1,0,0
1166,15611,10409,bus,87,1,1,1,1,1,0,0
1202,15612,10409,bus,87,1,1,1,1,1,0,0
1238,15613,10409,bus,87,1,1,1,1,1,0,0
1286,15614,10409,bus,87,1,1,1,1,1,0,0
1325,15615,10409,bus,87,1,1,1,1,1,0,0
1359,15616,10409,bus,87,1,1,1,1,1,0,0
1389,15617,10409,bus,87,1,1,1,1,1,0,0
1412,15618,10409,bus,87,1,1,1,1,1,0,0
394,15619,10410,bus,87,0,0,0,0,0,1,1
455,15620,10410,bus,87,0,0,0,0,0,1,1
520,15621,10410,bus,87,0,0,0,0,0,1,1
585,15622,10410,bus,87,0,0,0,0,0,1,1
672,15623,10410,bus,87,0,0,0,0,0,1,1
738,15624,10410,bus,87,0,0,0,0,0,1,1
798,15625,10410,bus,87,0,0,0,0,0,1,1
864,15626,10410,bus,87,0,0,0,0,0,1,1
929,15627,10410,bus,87,0,0,0,0,0,1,1
995,15628,10410,bus,87,0,0,0,0,0,1,1
1055,15629,10410,bus,87,0,0,0,0,0,1,1
1121,15630,10410,bus,87,0,0,0,0,0,1,1
1206,15631,10410,bus,87,0,0,0,0,0,1,1
1272,15632,10410,bus,87,0,0,0,0,0,1,1
1333,15633,10410,bus,87,0,0,0,0,0,1,1
1411,15634,10410,bus,87,0,0,0,0,0,1,1
