timeInMin,trip_id,service_id,tipas,numeris,pirmadienis,antradienis,treciadienis,ketvirtadienis,penktadienis,sestadienis,sekmadienis 
316,15588,10409,bus,87,1,1,1,1,1,0,0
348,15589,10409,bus,87,1,1,1,1,1,0,0
387,15590,10409,bus,87,1,1,1,1,1,0,0
420,15591,10409,bus,87,1,1,1,1,1,0,0
453,15592,10409,bus,87,1,1,1,1,1,0,0
488,15593,10409,bus,87,1,1,1,1,1,0,0
520,15594,10409,bus,87,1,1,1,1,1,0,0
557,15595,10409,bus,87,1,1,1,1,1,0,0
612,15596,10409,bus,87,1,1,1,1,1,0,0
641,15597,10409,bus,87,1,1,1,1,1,0,0
671,15598,10409,bus,87,1,1,1,1,1,0,0
708,15599,10409,bus,87,1,1,1,1,1,0,0
743,15600,10409,bus,87,1,1,1,1,1,0,0
776,15601,10409,bus,87,1,1,1,1,1,0,0
807,15602,10409,bus,87,1,1,1,1,1,0,0
834,15603,10409,bus,87,1,1,1,1,1,0,0
888,15604,10409,bus,87,1,1,1,1,1,0,0
923,15605,10409,bus,87,1,1,1,1,1,0,0
954,15606,10409,bus,87,1,1,1,1,1,0,0
987,15607,10409,bus,87,1,1,1,1,1,0,0
1021,15608,10409,bus,87,1,1,1,1,1,0,0
1061,15609,10409,bus,87,1,1,1,1,1,0,0
1110,15610,10409,bus,87,1,1,1,1,1,0,0
1143,15611,10409,bus,87,1,1,1,1,1,0,0
1179,15612,10409,bus,87,1,1,1,1,1,0,0
1215,15613,10409,bus,87,1,1,1,1,1,0,0
1263,15614,10409,bus,87,1,1,1,1,1,0,0
1302,15615,10409,bus,87,1,1,1,1,1,0,0
1336,15616,10409,bus,87,1,1,1,1,1,0,0
1366,15617,10409,bus,87,1,1,1,1,1,0,0
1389,15618,10409,bus,87,1,1,1,1,1,0,0
371,15619,10410,bus,87,0,0,0,0,0,1,1
432,15620,10410,bus,87,0,0,0,0,0,1,1
497,15621,10410,bus,87,0,0,0,0,0,1,1
562,15622,10410,bus,87,0,0,0,0,0,1,1
649,15623,10410,bus,87,0,0,0,0,0,1,1
715,15624,10410,bus,87,0,0,0,0,0,1,1
775,15625,10410,bus,87,0,0,0,0,0,1,1
841,15626,10410,bus,87,0,0,0,0,0,1,1
906,15627,10410,bus,87,0,0,0,0,0,1,1
972,15628,10410,bus,87,0,0,0,0,0,1,1
1032,15629,10410,bus,87,0,0,0,0,0,1,1
1098,15630,10410,bus,87,0,0,0,0,0,1,1
1183,15631,10410,bus,87,0,0,0,0,0,1,1
1249,15632,10410,bus,87,0,0,0,0,0,1,1
1310,15633,10410,bus,87,0,0,0,0,0,1,1
1388,15634,10410,bus,87,0,0,0,0,0,1,1
