timeInMin,trip_id,service_id,tipas,numeris,pirmadienis,antradienis,treciadienis,ketvirtadienis,penktadienis,sestadienis,sekmadienis 
386,6752,10354,bus,21,1,1,1,1,1,0,0
413,6753,10354,bus,21,1,1,1,1,1,0,0
435,6754,10354,bus,21,1,1,1,1,1,0,0
460,6755,10354,bus,21,1,1,1,1,1,0,0
488,6756,10354,bus,21,1,1,1,1,1,0,0
509,6757,10354,bus,21,1,1,1,1,1,0,0
534,6758,10354,bus,21,1,1,1,1,1,0,0
562,6759,10354,bus,21,1,1,1,1,1,0,0
625,6760,10354,bus,21,1,1,1,1,1,0,0
664,6761,10354,bus,21,1,1,1,1,1,0,0
715,6762,10354,bus,21,1,1,1,1,1,0,0
754,6763,10354,bus,21,1,1,1,1,1,0,0
790,6764,10354,bus,21,1,1,1,1,1,0,0
830,6765,10354,bus,21,1,1,1,1,1,0,0
866,6766,10354,bus,21,1,1,1,1,1,0,0
903,6767,10354,bus,21,1,1,1,1,1,0,0
940,6768,10354,bus,21,1,1,1,1,1,0,0
979,6769,10354,bus,21,1,1,1,1,1,0,0
1013,6770,10354,bus,21,1,1,1,1,1,0,0
1036,6771,10354,bus,21,1,1,1,1,1,0,0
1060,6772,10354,bus,21,1,1,1,1,1,0,0
1087,6773,10354,bus,21,1,1,1,1,1,0,0
1113,6774,10354,bus,21,1,1,1,1,1,0,0
1136,6775,10354,bus,21,1,1,1,1,1,0,0
1181,6776,10354,bus,21,1,1,1,1,1,0,0
1230,6777,10354,bus,21,1,1,1,1,1,0,0
1283,6778,10354,bus,21,1,1,1,1,1,0,0
1322,6779,10354,bus,21,1,1,1,1,1,0,0
1355,6780,10354,bus,21,1,1,1,1,1,0,0
1393,6781,10354,bus,21,1,1,1,1,1,0,0
407,6782,9374,bus,21,0,0,0,0,0,1,0
479,6783,9374,bus,21,0,0,0,0,0,1,0
553,6784,9374,bus,21,0,0,0,0,0,1,0
639,6785,9374,bus,21,0,0,0,0,0,1,0
729,6786,9374,bus,21,0,0,0,0,0,1,0
795,6787,9374,bus,21,0,0,0,0,0,1,0
867,6788,9374,bus,21,0,0,0,0,0,1,0
938,6789,9374,bus,21,0,0,0,0,0,1,0
1008,6790,9374,bus,21,0,0,0,0,0,1,0
1079,6791,9374,bus,21,0,0,0,0,0,1,0
1165,6792,9374,bus,21,0,0,0,0,0,1,0
1251,6793,9374,bus,21,0,0,0,0,0,1,0
1317,6794,9374,bus,21,0,0,0,0,0,1,0
1383,6795,9374,bus,21,0,0,0,0,0,1,0
446,6796,9375,bus,21,0,0,0,0,0,0,1
520,6797,9375,bus,21,0,0,0,0,0,0,1
621,6798,9375,bus,21,0,0,0,0,0,0,1
693,6799,9375,bus,21,0,0,0,0,0,0,1
770,6800,9375,bus,21,0,0,0,0,0,0,1
841,6801,9375,bus,21,0,0,0,0,0,0,1
912,6802,9375,bus,21,0,0,0,0,0,0,1
983,6803,9375,bus,21,0,0,0,0,0,0,1
1054,6804,9375,bus,21,0,0,0,0,0,0,1
1155,6805,9375,bus,21,0,0,0,0,0,0,1
1226,6806,9375,bus,21,0,0,0,0,0,0,1
1297,6807,9375,bus,21,0,0,0,0,0,0,1
1368,6808,9375,bus,21,0,0,0,0,0,0,1
958,6809,10354,bus,21,1,1,1,1,1,0,0
324,6815,10354,bus,21,1,1,1,1,1,0,0
350,6816,10354,bus,21,1,1,1,1,1,0,0
371,6817,10354,bus,21,1,1,1,1,1,0,0
349,6818,9374,bus,21,0,0,0,0,0,1,0
388,6819,9375,bus,21,0,0,0,0,0,0,1
