timeInMin,trip_id,service_id,tipas,numeris,pirmadienis,antradienis,treciadienis,ketvirtadienis,penktadienis,sestadienis,sekmadienis 
374,6752,10354,bus,21,1,1,1,1,1,0,0
401,6753,10354,bus,21,1,1,1,1,1,0,0
423,6754,10354,bus,21,1,1,1,1,1,0,0
448,6755,10354,bus,21,1,1,1,1,1,0,0
476,6756,10354,bus,21,1,1,1,1,1,0,0
497,6757,10354,bus,21,1,1,1,1,1,0,0
522,6758,10354,bus,21,1,1,1,1,1,0,0
550,6759,10354,bus,21,1,1,1,1,1,0,0
613,6760,10354,bus,21,1,1,1,1,1,0,0
652,6761,10354,bus,21,1,1,1,1,1,0,0
703,6762,10354,bus,21,1,1,1,1,1,0,0
742,6763,10354,bus,21,1,1,1,1,1,0,0
779,6764,10354,bus,21,1,1,1,1,1,0,0
818,6765,10354,bus,21,1,1,1,1,1,0,0
854,6766,10354,bus,21,1,1,1,1,1,0,0
891,6767,10354,bus,21,1,1,1,1,1,0,0
928,6768,10354,bus,21,1,1,1,1,1,0,0
968,6769,10354,bus,21,1,1,1,1,1,0,0
1002,6770,10354,bus,21,1,1,1,1,1,0,0
1024,6771,10354,bus,21,1,1,1,1,1,0,0
1048,6772,10354,bus,21,1,1,1,1,1,0,0
1076,6773,10354,bus,21,1,1,1,1,1,0,0
1101,6774,10354,bus,21,1,1,1,1,1,0,0
1124,6775,10354,bus,21,1,1,1,1,1,0,0
1169,6776,10354,bus,21,1,1,1,1,1,0,0
1218,6777,10354,bus,21,1,1,1,1,1,0,0
1271,6778,10354,bus,21,1,1,1,1,1,0,0
1310,6779,10354,bus,21,1,1,1,1,1,0,0
1343,6780,10354,bus,21,1,1,1,1,1,0,0
1382,6781,10354,bus,21,1,1,1,1,1,0,0
397,6782,9374,bus,21,0,0,0,0,0,1,0
469,6783,9374,bus,21,0,0,0,0,0,1,0
543,6784,9374,bus,21,0,0,0,0,0,1,0
629,6785,9374,bus,21,0,0,0,0,0,1,0
719,6786,9374,bus,21,0,0,0,0,0,1,0
785,6787,9374,bus,21,0,0,0,0,0,1,0
857,6788,9374,bus,21,0,0,0,0,0,1,0
928,6789,9374,bus,21,0,0,0,0,0,1,0
998,6790,9374,bus,21,0,0,0,0,0,1,0
1069,6791,9374,bus,21,0,0,0,0,0,1,0
1155,6792,9374,bus,21,0,0,0,0,0,1,0
1241,6793,9374,bus,21,0,0,0,0,0,1,0
1307,6794,9374,bus,21,0,0,0,0,0,1,0
1373,6795,9374,bus,21,0,0,0,0,0,1,0
436,6796,9375,bus,21,0,0,0,0,0,0,1
510,6797,9375,bus,21,0,0,0,0,0,0,1
611,6798,9375,bus,21,0,0,0,0,0,0,1
683,6799,9375,bus,21,0,0,0,0,0,0,1
760,6800,9375,bus,21,0,0,0,0,0,0,1
831,6801,9375,bus,21,0,0,0,0,0,0,1
902,6802,9375,bus,21,0,0,0,0,0,0,1
973,6803,9375,bus,21,0,0,0,0,0,0,1
1044,6804,9375,bus,21,0,0,0,0,0,0,1
1145,6805,9375,bus,21,0,0,0,0,0,0,1
1216,6806,9375,bus,21,0,0,0,0,0,0,1
1287,6807,9375,bus,21,0,0,0,0,0,0,1
1358,6808,9375,bus,21,0,0,0,0,0,0,1
946,6809,10354,bus,21,1,1,1,1,1,0,0
1391,7618,9328,bus,25,1,1,1,1,1,0,0
1392,7619,9329,bus,25,0,0,0,0,0,1,0
378,12920,10494,bus,54,1,1,1,1,1,0,0
419,12921,10494,bus,54,1,1,1,1,1,0,0
467,12922,10494,bus,54,1,1,1,1,1,0,0
517,12923,10494,bus,54,1,1,1,1,1,0,0
558,12924,10494,bus,54,1,1,1,1,1,0,0
604,12925,10494,bus,54,1,1,1,1,1,0,0
673,12926,10494,bus,54,1,1,1,1,1,0,0
718,12927,10494,bus,54,1,1,1,1,1,0,0
763,12928,10494,bus,54,1,1,1,1,1,0,0
804,12929,10494,bus,54,1,1,1,1,1,0,0
848,12930,10494,bus,54,1,1,1,1,1,0,0
894,12931,10494,bus,54,1,1,1,1,1,0,0
943,12932,10494,bus,54,1,1,1,1,1,0,0
984,12933,10494,bus,54,1,1,1,1,1,0,0
1032,12934,10494,bus,54,1,1,1,1,1,0,0
1074,12935,10494,bus,54,1,1,1,1,1,0,0
1127,12936,10494,bus,54,1,1,1,1,1,0,0
1187,12937,10494,bus,54,1,1,1,1,1,0,0
1243,12938,10494,bus,54,1,1,1,1,1,0,0
1298,12939,10494,bus,54,1,1,1,1,1,0,0
1341,12940,10494,bus,54,1,1,1,1,1,0,0
378,12941,10495,bus,54,0,0,0,0,0,1,0
416,12942,10495,bus,54,0,0,0,0,0,1,0
471,12943,10495,bus,54,0,0,0,0,0,1,0
507,12944,10495,bus,54,0,0,0,0,0,1,0
557,12945,10495,bus,54,0,0,0,0,0,1,0
619,12946,10495,bus,54,0,0,0,0,0,1,0
675,12947,10495,bus,54,0,0,0,0,0,1,0
713,12948,10495,bus,54,0,0,0,0,0,1,0
760,12949,10495,bus,54,0,0,0,0,0,1,0
802,12950,10495,bus,54,0,0,0,0,0,1,0
848,12951,10495,bus,54,0,0,0,0,0,1,0
897,12952,10495,bus,54,0,0,0,0,0,1,0
940,12953,10495,bus,54,0,0,0,0,0,1,0
985,12954,10495,bus,54,0,0,0,0,0,1,0
1031,12955,10495,bus,54,0,0,0,0,0,1,0
1071,12956,10495,bus,54,0,0,0,0,0,1,0
1124,12957,10495,bus,54,0,0,0,0,0,1,0
1186,12958,10495,bus,54,0,0,0,0,0,1,0
1246,12959,10495,bus,54,0,0,0,0,0,1,0
1296,12960,10495,bus,54,0,0,0,0,0,1,0
1346,12961,10495,bus,54,0,0,0,0,0,1,0
416,12962,10496,bus,54,0,0,0,0,0,0,1
471,12963,10496,bus,54,0,0,0,0,0,0,1
507,12964,10496,bus,54,0,0,0,0,0,0,1
557,12965,10496,bus,54,0,0,0,0,0,0,1
619,12966,10496,bus,54,0,0,0,0,0,0,1
675,12967,10496,bus,54,0,0,0,0,0,0,1
713,12968,10496,bus,54,0,0,0,0,0,0,1
760,12969,10496,bus,54,0,0,0,0,0,0,1
802,12970,10496,bus,54,0,0,0,0,0,0,1
848,12971,10496,bus,54,0,0,0,0,0,0,1
897,12972,10496,bus,54,0,0,0,0,0,0,1
940,12973,10496,bus,54,0,0,0,0,0,0,1
985,12974,10496,bus,54,0,0,0,0,0,0,1
1031,12975,10496,bus,54,0,0,0,0,0,0,1
1071,12976,10496,bus,54,0,0,0,0,0,0,1
1124,12977,10496,bus,54,0,0,0,0,0,0,1
1186,12978,10496,bus,54,0,0,0,0,0,0,1
1246,12979,10496,bus,54,0,0,0,0,0,0,1
1296,12980,10496,bus,54,0,0,0,0,0,0,1
1346,12981,10496,bus,54,0,0,0,0,0,0,1
1377,12982,10494,bus,54,1,1,1,1,1,0,0
1425,12983,10494,bus,54,1,1,1,1,1,0,0
1377,12984,10495,bus,54,0,0,0,0,0,1,0
1433,12985,10495,bus,54,0,0,0,0,0,1,0
1377,12986,10496,bus,54,0,0,0,0,0,0,1
1433,12987,10496,bus,54,0,0,0,0,0,0,1
1470,16330,9969,nightbus,101N,0,0,0,0,1,1,0
1513,16331,9969,nightbus,101N,0,0,0,0,1,1,0
1561,16332,9969,nightbus,101N,0,0,0,0,1,1,0
1613,16333,9969,nightbus,101N,0,0,0,0,1,1,0
350,21215,10656,trol,13,1,1,1,1,1,0,0
380,21216,10656,trol,13,1,1,1,1,1,0,0
405,21217,10656,trol,13,1,1,1,1,1,0,0
426,21218,10656,trol,13,1,1,1,1,1,0,0
441,21219,10656,trol,13,1,1,1,1,1,0,0
459,21220,10656,trol,13,1,1,1,1,1,0,0
483,21221,10656,trol,13,1,1,1,1,1,0,0
504,21222,10656,trol,13,1,1,1,1,1,0,0
524,21223,10656,trol,13,1,1,1,1,1,0,0
544,21224,10656,trol,13,1,1,1,1,1,0,0
823,21225,10656,trol,13,1,1,1,1,1,0,0
842,21226,10656,trol,13,1,1,1,1,1,0,0
857,21227,10656,trol,13,1,1,1,1,1,0,0
878,21228,10656,trol,13,1,1,1,1,1,0,0
899,21229,10656,trol,13,1,1,1,1,1,0,0
909,21230,10656,trol,13,1,1,1,1,1,0,0
923,21231,10656,trol,13,1,1,1,1,1,0,0
940,21232,10656,trol,13,1,1,1,1,1,0,0
958,21233,10656,trol,13,1,1,1,1,1,0,0
978,21234,10656,trol,13,1,1,1,1,1,0,0
991,21235,10656,trol,13,1,1,1,1,1,0,0
1005,21236,10656,trol,13,1,1,1,1,1,0,0
1019,21237,10656,trol,13,1,1,1,1,1,0,0
1038,21238,10656,trol,13,1,1,1,1,1,0,0
1057,21239,10656,trol,13,1,1,1,1,1,0,0
1078,21240,10656,trol,13,1,1,1,1,1,0,0
341,21809,10466,trol,16,1,1,1,1,1,0,0
355,21810,10466,trol,16,1,1,1,1,1,0,0
363,21811,10466,trol,16,1,1,1,1,1,0,0
378,21812,10466,trol,16,1,1,1,1,1,0,0
390,21813,10466,trol,16,1,1,1,1,1,0,0
409,21814,10466,trol,16,1,1,1,1,1,0,0
420,21815,10466,trol,16,1,1,1,1,1,0,0
430,21816,10466,trol,16,1,1,1,1,1,0,0
442,21817,10466,trol,16,1,1,1,1,1,0,0
449,21818,10466,trol,16,1,1,1,1,1,0,0
457,21819,10466,trol,16,1,1,1,1,1,0,0
463,21820,10466,trol,16,1,1,1,1,1,0,0
469,21821,10466,trol,16,1,1,1,1,1,0,0
476,21822,10466,trol,16,1,1,1,1,1,0,0
483,21823,10466,trol,16,1,1,1,1,1,0,0
489,21824,10466,trol,16,1,1,1,1,1,0,0
494,21825,10466,trol,16,1,1,1,1,1,0,0
500,21826,10466,trol,16,1,1,1,1,1,0,0
505,21827,10466,trol,16,1,1,1,1,1,0,0
510,21828,10466,trol,16,1,1,1,1,1,0,0
516,21829,10466,trol,16,1,1,1,1,1,0,0
522,21830,10466,trol,16,1,1,1,1,1,0,0
528,21831,10466,trol,16,1,1,1,1,1,0,0
534,21832,10466,trol,16,1,1,1,1,1,0,0
540,21833,10466,trol,16,1,1,1,1,1,0,0
548,21834,10466,trol,16,1,1,1,1,1,0,0
556,21835,10466,trol,16,1,1,1,1,1,0,0
564,21836,10466,trol,16,1,1,1,1,1,0,0
572,21837,10466,trol,16,1,1,1,1,1,0,0
580,21838,10466,trol,16,1,1,1,1,1,0,0
589,21839,10466,trol,16,1,1,1,1,1,0,0
596,21840,10466,trol,16,1,1,1,1,1,0,0
602,21841,10466,trol,16,1,1,1,1,1,0,0
608,21842,10466,trol,16,1,1,1,1,1,0,0
615,21843,10466,trol,16,1,1,1,1,1,0,0
621,21844,10466,trol,16,1,1,1,1,1,0,0
629,21845,10466,trol,16,1,1,1,1,1,0,0
637,21846,10466,trol,16,1,1,1,1,1,0,0
649,21847,10466,trol,16,1,1,1,1,1,0,0
660,21848,10466,trol,16,1,1,1,1,1,0,0
669,21849,10466,trol,16,1,1,1,1,1,0,0
678,21850,10466,trol,16,1,1,1,1,1,0,0
687,21851,10466,trol,16,1,1,1,1,1,0,0
696,21852,10466,trol,16,1,1,1,1,1,0,0
702,21853,10466,trol,16,1,1,1,1,1,0,0
712,21854,10466,trol,16,1,1,1,1,1,0,0
720,21855,10466,trol,16,1,1,1,1,1,0,0
729,21856,10466,trol,16,1,1,1,1,1,0,0
737,21857,10466,trol,16,1,1,1,1,1,0,0
746,21858,10466,trol,16,1,1,1,1,1,0,0
755,21859,10466,trol,16,1,1,1,1,1,0,0
764,21860,10466,trol,16,1,1,1,1,1,0,0
773,21861,10466,trol,16,1,1,1,1,1,0,0
782,21862,10466,trol,16,1,1,1,1,1,0,0
791,21863,10466,trol,16,1,1,1,1,1,0,0
797,21864,10466,trol,16,1,1,1,1,1,0,0
806,21865,10466,trol,16,1,1,1,1,1,0,0
817,21866,10466,trol,16,1,1,1,1,1,0,0
826,21867,10466,trol,16,1,1,1,1,1,0,0
835,21868,10466,trol,16,1,1,1,1,1,0,0
844,21869,10466,trol,16,1,1,1,1,1,0,0
852,21870,10466,trol,16,1,1,1,1,1,0,0
861,21871,10466,trol,16,1,1,1,1,1,0,0
872,21872,10466,trol,16,1,1,1,1,1,0,0
880,21873,10466,trol,16,1,1,1,1,1,0,0
888,21874,10466,trol,16,1,1,1,1,1,0,0
894,21875,10466,trol,16,1,1,1,1,1,0,0
905,21876,10466,trol,16,1,1,1,1,1,0,0
914,21877,10466,trol,16,1,1,1,1,1,0,0
924,21878,10466,trol,16,1,1,1,1,1,0,0
930,21879,10466,trol,16,1,1,1,1,1,0,0
934,21880,10466,trol,16,1,1,1,1,1,0,0
943,21881,10466,trol,16,1,1,1,1,1,0,0
951,21882,10466,trol,16,1,1,1,1,1,0,0
958,21883,10466,trol,16,1,1,1,1,1,0,0
962,21884,10466,trol,16,1,1,1,1,1,0,0
966,21885,10466,trol,16,1,1,1,1,1,0,0
972,21886,10466,trol,16,1,1,1,1,1,0,0
976,21887,10466,trol,16,1,1,1,1,1,0,0
980,21888,10466,trol,16,1,1,1,1,1,0,0
987,21889,10466,trol,16,1,1,1,1,1,0,0
992,21890,10466,trol,16,1,1,1,1,1,0,0
1000,21891,10466,trol,16,1,1,1,1,1,0,0
1009,21892,10466,trol,16,1,1,1,1,1,0,0
1018,21893,10466,trol,16,1,1,1,1,1,0,0
1026,21894,10466,trol,16,1,1,1,1,1,0,0
1032,21895,10466,trol,16,1,1,1,1,1,0,0
1039,21896,10466,trol,16,1,1,1,1,1,0,0
1046,21897,10466,trol,16,1,1,1,1,1,0,0
1053,21898,10466,trol,16,1,1,1,1,1,0,0
1058,21899,10466,trol,16,1,1,1,1,1,0,0
1064,21900,10466,trol,16,1,1,1,1,1,0,0
1069,21901,10466,trol,16,1,1,1,1,1,0,0
1074,21902,10466,trol,16,1,1,1,1,1,0,0
1079,21903,10466,trol,16,1,1,1,1,1,0,0
1085,21904,10466,trol,16,1,1,1,1,1,0,0
1092,21905,10466,trol,16,1,1,1,1,1,0,0
1097,21906,10466,trol,16,1,1,1,1,1,0,0
1105,21907,10466,trol,16,1,1,1,1,1,0,0
1111,21908,10466,trol,16,1,1,1,1,1,0,0
1118,21909,10466,trol,16,1,1,1,1,1,0,0
1126,21910,10466,trol,16,1,1,1,1,1,0,0
1133,21911,10466,trol,16,1,1,1,1,1,0,0
1141,21912,10466,trol,16,1,1,1,1,1,0,0
1148,21913,10466,trol,16,1,1,1,1,1,0,0
1155,21914,10466,trol,16,1,1,1,1,1,0,0
1162,21915,10466,trol,16,1,1,1,1,1,0,0
1168,21916,10466,trol,16,1,1,1,1,1,0,0
1175,21917,10466,trol,16,1,1,1,1,1,0,0
1184,21918,10466,trol,16,1,1,1,1,1,0,0
1195,21919,10466,trol,16,1,1,1,1,1,0,0
1205,21920,10466,trol,16,1,1,1,1,1,0,0
1215,21921,10466,trol,16,1,1,1,1,1,0,0
1222,21922,10466,trol,16,1,1,1,1,1,0,0
1232,21923,10466,trol,16,1,1,1,1,1,0,0
1244,21924,10466,trol,16,1,1,1,1,1,0,0
1253,21925,10466,trol,16,1,1,1,1,1,0,0
1261,21926,10466,trol,16,1,1,1,1,1,0,0
1271,21927,10466,trol,16,1,1,1,1,1,0,0
1278,21928,10466,trol,16,1,1,1,1,1,0,0
1287,21929,10466,trol,16,1,1,1,1,1,0,0
1295,21930,10466,trol,16,1,1,1,1,1,0,0
1304,21931,10466,trol,16,1,1,1,1,1,0,0
1312,21932,10466,trol,16,1,1,1,1,1,0,0
1320,21933,10466,trol,16,1,1,1,1,1,0,0
1326,21934,10466,trol,16,1,1,1,1,1,0,0
1335,21935,10466,trol,16,1,1,1,1,1,0,0
1345,21936,10466,trol,16,1,1,1,1,1,0,0
1356,21937,10466,trol,16,1,1,1,1,1,0,0
1367,21938,10466,trol,16,1,1,1,1,1,0,0
1382,21939,10466,trol,16,1,1,1,1,1,0,0
1401,21940,10466,trol,16,1,1,1,1,1,0,0
1412,21941,10466,trol,16,1,1,1,1,1,0,0
348,21942,10467,trol,16,0,0,0,0,0,1,0
372,21943,10467,trol,16,0,0,0,0,0,1,0
398,21944,10467,trol,16,0,0,0,0,0,1,0
422,21945,10467,trol,16,0,0,0,0,0,1,0
437,21946,10467,trol,16,0,0,0,0,0,1,0
459,21947,10467,trol,16,0,0,0,0,0,1,0
469,21948,10467,trol,16,0,0,0,0,0,1,0
479,21949,10467,trol,16,0,0,0,0,0,1,0
492,21950,10467,trol,16,0,0,0,0,0,1,0
508,21951,10467,trol,16,0,0,0,0,0,1,0
516,21952,10467,trol,16,0,0,0,0,0,1,0
530,21953,10467,trol,16,0,0,0,0,0,1,0
545,21954,10467,trol,16,0,0,0,0,0,1,0
556,21955,10467,trol,16,0,0,0,0,0,1,0
567,21956,10467,trol,16,0,0,0,0,0,1,0
579,21957,10467,trol,16,0,0,0,0,0,1,0
593,21958,10467,trol,16,0,0,0,0,0,1,0
603,21959,10467,trol,16,0,0,0,0,0,1,0
612,21960,10467,trol,16,0,0,0,0,0,1,0
625,21961,10467,trol,16,0,0,0,0,0,1,0
635,21962,10467,trol,16,0,0,0,0,0,1,0
648,21963,10467,trol,16,0,0,0,0,0,1,0
656,21964,10467,trol,16,0,0,0,0,0,1,0
667,21965,10467,trol,16,0,0,0,0,0,1,0
680,21966,10467,trol,16,0,0,0,0,0,1,0
692,21967,10467,trol,16,0,0,0,0,0,1,0
702,21968,10467,trol,16,0,0,0,0,0,1,0
710,21969,10467,trol,16,0,0,0,0,0,1,0
718,21970,10467,trol,16,0,0,0,0,0,1,0
727,21971,10467,trol,16,0,0,0,0,0,1,0
737,21972,10467,trol,16,0,0,0,0,0,1,0
747,21973,10467,trol,16,0,0,0,0,0,1,0
759,21974,10467,trol,16,0,0,0,0,0,1,0
768,21975,10467,trol,16,0,0,0,0,0,1,0
777,21976,10467,trol,16,0,0,0,0,0,1,0
789,21977,10467,trol,16,0,0,0,0,0,1,0
800,21978,10467,trol,16,0,0,0,0,0,1,0
810,21979,10467,trol,16,0,0,0,0,0,1,0
818,21980,10467,trol,16,0,0,0,0,0,1,0
827,21981,10467,trol,16,0,0,0,0,0,1,0
839,21982,10467,trol,16,0,0,0,0,0,1,0
851,21983,10467,trol,16,0,0,0,0,0,1,0
863,21984,10467,trol,16,0,0,0,0,0,1,0
871,21985,10467,trol,16,0,0,0,0,0,1,0
882,21986,10467,trol,16,0,0,0,0,0,1,0
894,21987,10467,trol,16,0,0,0,0,0,1,0
902,21988,10467,trol,16,0,0,0,0,0,1,0
910,21989,10467,trol,16,0,0,0,0,0,1,0
920,21990,10467,trol,16,0,0,0,0,0,1,0
930,21991,10467,trol,16,0,0,0,0,0,1,0
936,21992,10467,trol,16,0,0,0,0,0,1,0
945,21993,10467,trol,16,0,0,0,0,0,1,0
956,21994,10467,trol,16,0,0,0,0,0,1,0
966,21995,10467,trol,16,0,0,0,0,0,1,0
976,21996,10467,trol,16,0,0,0,0,0,1,0
983,21997,10467,trol,16,0,0,0,0,0,1,0
993,21998,10467,trol,16,0,0,0,0,0,1,0
1003,21999,10467,trol,16,0,0,0,0,0,1,0
1014,22000,10467,trol,16,0,0,0,0,0,1,0
1022,22001,10467,trol,16,0,0,0,0,0,1,0
1031,22002,10467,trol,16,0,0,0,0,0,1,0
1046,22003,10467,trol,16,0,0,0,0,0,1,0
1057,22004,10467,trol,16,0,0,0,0,0,1,0
1066,22005,10467,trol,16,0,0,0,0,0,1,0
1079,22006,10467,trol,16,0,0,0,0,0,1,0
1095,22007,10467,trol,16,0,0,0,0,0,1,0
1114,22008,10467,trol,16,0,0,0,0,0,1,0
1124,22009,10467,trol,16,0,0,0,0,0,1,0
1138,22010,10467,trol,16,0,0,0,0,0,1,0
1153,22011,10467,trol,16,0,0,0,0,0,1,0
1172,22012,10467,trol,16,0,0,0,0,0,1,0
1184,22013,10467,trol,16,0,0,0,0,0,1,0
1200,22014,10467,trol,16,0,0,0,0,0,1,0
1212,22015,10467,trol,16,0,0,0,0,0,1,0
1226,22016,10467,trol,16,0,0,0,0,0,1,0
1236,22017,10467,trol,16,0,0,0,0,0,1,0
1249,22018,10467,trol,16,0,0,0,0,0,1,0
1263,22019,10467,trol,16,0,0,0,0,0,1,0
1275,22020,10467,trol,16,0,0,0,0,0,1,0
1289,22021,10467,trol,16,0,0,0,0,0,1,0
1302,22022,10467,trol,16,0,0,0,0,0,1,0
1320,22023,10467,trol,16,0,0,0,0,0,1,0
1334,22024,10467,trol,16,0,0,0,0,0,1,0
1358,22025,10467,trol,16,0,0,0,0,0,1,0
1386,22026,10467,trol,16,0,0,0,0,0,1,0
398,22027,10468,trol,16,0,0,0,0,0,0,1
422,22028,10468,trol,16,0,0,0,0,0,0,1
437,22029,10468,trol,16,0,0,0,0,0,0,1
459,22030,10468,trol,16,0,0,0,0,0,0,1
469,22031,10468,trol,16,0,0,0,0,0,0,1
479,22032,10468,trol,16,0,0,0,0,0,0,1
492,22033,10468,trol,16,0,0,0,0,0,0,1
508,22034,10468,trol,16,0,0,0,0,0,0,1
516,22035,10468,trol,16,0,0,0,0,0,0,1
530,22036,10468,trol,16,0,0,0,0,0,0,1
545,22037,10468,trol,16,0,0,0,0,0,0,1
556,22038,10468,trol,16,0,0,0,0,0,0,1
567,22039,10468,trol,16,0,0,0,0,0,0,1
579,22040,10468,trol,16,0,0,0,0,0,0,1
593,22041,10468,trol,16,0,0,0,0,0,0,1
603,22042,10468,trol,16,0,0,0,0,0,0,1
612,22043,10468,trol,16,0,0,0,0,0,0,1
625,22044,10468,trol,16,0,0,0,0,0,0,1
635,22045,10468,trol,16,0,0,0,0,0,0,1
648,22046,10468,trol,16,0,0,0,0,0,0,1
656,22047,10468,trol,16,0,0,0,0,0,0,1
667,22048,10468,trol,16,0,0,0,0,0,0,1
680,22049,10468,trol,16,0,0,0,0,0,0,1
692,22050,10468,trol,16,0,0,0,0,0,0,1
702,22051,10468,trol,16,0,0,0,0,0,0,1
710,22052,10468,trol,16,0,0,0,0,0,0,1
718,22053,10468,trol,16,0,0,0,0,0,0,1
727,22054,10468,trol,16,0,0,0,0,0,0,1
737,22055,10468,trol,16,0,0,0,0,0,0,1
747,22056,10468,trol,16,0,0,0,0,0,0,1
759,22057,10468,trol,16,0,0,0,0,0,0,1
768,22058,10468,trol,16,0,0,0,0,0,0,1
777,22059,10468,trol,16,0,0,0,0,0,0,1
789,22060,10468,trol,16,0,0,0,0,0,0,1
800,22061,10468,trol,16,0,0,0,0,0,0,1
810,22062,10468,trol,16,0,0,0,0,0,0,1
818,22063,10468,trol,16,0,0,0,0,0,0,1
827,22064,10468,trol,16,0,0,0,0,0,0,1
839,22065,10468,trol,16,0,0,0,0,0,0,1
851,22066,10468,trol,16,0,0,0,0,0,0,1
863,22067,10468,trol,16,0,0,0,0,0,0,1
871,22068,10468,trol,16,0,0,0,0,0,0,1
882,22069,10468,trol,16,0,0,0,0,0,0,1
894,22070,10468,trol,16,0,0,0,0,0,0,1
902,22071,10468,trol,16,0,0,0,0,0,0,1
910,22072,10468,trol,16,0,0,0,0,0,0,1
920,22073,10468,trol,16,0,0,0,0,0,0,1
930,22074,10468,trol,16,0,0,0,0,0,0,1
936,22075,10468,trol,16,0,0,0,0,0,0,1
945,22076,10468,trol,16,0,0,0,0,0,0,1
956,22077,10468,trol,16,0,0,0,0,0,0,1
966,22078,10468,trol,16,0,0,0,0,0,0,1
976,22079,10468,trol,16,0,0,0,0,0,0,1
983,22080,10468,trol,16,0,0,0,0,0,0,1
993,22081,10468,trol,16,0,0,0,0,0,0,1
1003,22082,10468,trol,16,0,0,0,0,0,0,1
1014,22083,10468,trol,16,0,0,0,0,0,0,1
1022,22084,10468,trol,16,0,0,0,0,0,0,1
1031,22085,10468,trol,16,0,0,0,0,0,0,1
1046,22086,10468,trol,16,0,0,0,0,0,0,1
1057,22087,10468,trol,16,0,0,0,0,0,0,1
1066,22088,10468,trol,16,0,0,0,0,0,0,1
1079,22089,10468,trol,16,0,0,0,0,0,0,1
1095,22090,10468,trol,16,0,0,0,0,0,0,1
1114,22091,10468,trol,16,0,0,0,0,0,0,1
1124,22092,10468,trol,16,0,0,0,0,0,0,1
1138,22093,10468,trol,16,0,0,0,0,0,0,1
1153,22094,10468,trol,16,0,0,0,0,0,0,1
1172,22095,10468,trol,16,0,0,0,0,0,0,1
1184,22096,10468,trol,16,0,0,0,0,0,0,1
1200,22097,10468,trol,16,0,0,0,0,0,0,1
1212,22098,10468,trol,16,0,0,0,0,0,0,1
1226,22099,10468,trol,16,0,0,0,0,0,0,1
1236,22100,10468,trol,16,0,0,0,0,0,0,1
1249,22101,10468,trol,16,0,0,0,0,0,0,1
1263,22102,10468,trol,16,0,0,0,0,0,0,1
1275,22103,10468,trol,16,0,0,0,0,0,0,1
1289,22104,10468,trol,16,0,0,0,0,0,0,1
1302,22105,10468,trol,16,0,0,0,0,0,0,1
1320,22106,10468,trol,16,0,0,0,0,0,0,1
1334,22107,10468,trol,16,0,0,0,0,0,0,1
1358,22108,10468,trol,16,0,0,0,0,0,0,1
1386,22109,10468,trol,16,0,0,0,0,0,0,1
1438,22146,10466,trol,16,1,1,1,1,1,0,0
1417,22147,10467,trol,16,0,0,0,0,0,1,0
1417,22148,10468,trol,16,0,0,0,0,0,0,1
358,22866,10655,trol,18,1,1,1,1,1,0,0
385,22867,10655,trol,18,1,1,1,1,1,0,0
402,22868,10654,trol,18,1,1,1,1,1,0,0
419,22869,10655,trol,18,1,1,1,1,1,0,0
437,22870,10656,trol,18,1,1,1,1,1,0,0
455,22871,10655,trol,18,1,1,1,1,1,0,0
472,22872,10655,trol,18,1,1,1,1,1,0,0
491,22873,10655,trol,18,1,1,1,1,1,0,0
511,22874,10654,trol,18,1,1,1,1,1,0,0
528,22875,10655,trol,18,1,1,1,1,1,0,0
547,22876,10656,trol,18,1,1,1,1,1,0,0
555,22877,10655,trol,18,1,1,1,1,1,0,0
573,22878,10655,trol,18,1,1,1,1,1,0,0
591,22879,10655,trol,18,1,1,1,1,1,0,0
623,22880,10655,trol,18,1,1,1,1,1,0,0
675,22881,10655,trol,18,1,1,1,1,1,0,0
710,22882,10655,trol,18,1,1,1,1,1,0,0
742,22883,10655,trol,18,1,1,1,1,1,0,0
771,22884,10655,trol,18,1,1,1,1,1,0,0
804,22885,10655,trol,18,1,1,1,1,1,0,0
835,22886,10655,trol,18,1,1,1,1,1,0,0
873,22887,10655,trol,18,1,1,1,1,1,0,0
904,22888,10655,trol,18,1,1,1,1,1,0,0
934,22889,10655,trol,18,1,1,1,1,1,0,0
953,22890,10655,trol,18,1,1,1,1,1,0,0
968,22891,10655,trol,18,1,1,1,1,1,0,0
999,22892,10655,trol,18,1,1,1,1,1,0,0
1029,22893,10655,trol,18,1,1,1,1,1,0,0
1051,22894,10655,trol,18,1,1,1,1,1,0,0
1070,22895,10655,trol,18,1,1,1,1,1,0,0
1108,22896,10655,trol,18,1,1,1,1,1,0,0
1131,22897,10655,trol,18,1,1,1,1,1,0,0
1165,22898,10655,trol,18,1,1,1,1,1,0,0
1192,22899,10655,trol,18,1,1,1,1,1,0,0
1233,22900,10655,trol,18,1,1,1,1,1,0,0
1264,22901,10655,trol,18,1,1,1,1,1,0,0
1297,22902,10655,trol,18,1,1,1,1,1,0,0
1345,22903,10655,trol,18,1,1,1,1,1,0,0
1399,22904,10655,trol,18,1,1,1,1,1,0,0
351,22905,10651,trol,18,0,0,0,0,0,1,0
428,22906,10652,trol,18,0,0,0,0,0,1,0
465,22907,10652,trol,18,0,0,0,0,0,1,0
519,22908,10652,trol,18,0,0,0,0,0,1,0
556,22909,10652,trol,18,0,0,0,0,0,1,0
610,22910,10652,trol,18,0,0,0,0,0,1,0
653,22911,10652,trol,18,0,0,0,0,0,1,0
686,22912,10652,trol,18,0,0,0,0,0,1,0
728,22913,10652,trol,18,0,0,0,0,0,1,0
759,22914,10652,trol,18,0,0,0,0,0,1,0
779,22915,10652,trol,18,0,0,0,0,0,1,0
823,22916,10652,trol,18,0,0,0,0,0,1,0
868,22917,10652,trol,18,0,0,0,0,0,1,0
892,22918,10652,trol,18,0,0,0,0,0,1,0
925,22919,10652,trol,18,0,0,0,0,0,1,0
963,22920,10652,trol,18,0,0,0,0,0,1,0
985,22921,10652,trol,18,0,0,0,0,0,1,0
1020,22922,10652,trol,18,0,0,0,0,0,1,0
1057,22923,10652,trol,18,0,0,0,0,0,1,0
1099,22924,10652,trol,18,0,0,0,0,0,1,0
1143,22925,10652,trol,18,0,0,0,0,0,1,0
1186,22926,10652,trol,18,0,0,0,0,0,1,0
1236,22927,10652,trol,18,0,0,0,0,0,1,0
1286,22928,10652,trol,18,0,0,0,0,0,1,0
1336,22929,10652,trol,18,0,0,0,0,0,1,0
1396,22930,10652,trol,18,0,0,0,0,0,1,0
406,22931,10474,trol,18,0,0,0,0,0,0,1
465,22932,10474,trol,18,0,0,0,0,0,0,1
514,22933,10474,trol,18,0,0,0,0,0,0,1
556,22934,10474,trol,18,0,0,0,0,0,0,1
610,22935,10474,trol,18,0,0,0,0,0,0,1
653,22936,10474,trol,18,0,0,0,0,0,0,1
686,22937,10474,trol,18,0,0,0,0,0,0,1
728,22938,10474,trol,18,0,0,0,0,0,0,1
759,22939,10474,trol,18,0,0,0,0,0,0,1
779,22940,10474,trol,18,0,0,0,0,0,0,1
823,22941,10474,trol,18,0,0,0,0,0,0,1
868,22942,10474,trol,18,0,0,0,0,0,0,1
892,22943,10474,trol,18,0,0,0,0,0,0,1
925,22944,10474,trol,18,0,0,0,0,0,0,1
963,22945,10474,trol,18,0,0,0,0,0,0,1
985,22946,10474,trol,18,0,0,0,0,0,0,1
1020,22947,10474,trol,18,0,0,0,0,0,0,1
1057,22948,10474,trol,18,0,0,0,0,0,0,1
1099,22949,10474,trol,18,0,0,0,0,0,0,1
1143,22950,10474,trol,18,0,0,0,0,0,0,1
1186,22951,10474,trol,18,0,0,0,0,0,0,1
1236,22952,10474,trol,18,0,0,0,0,0,0,1
1286,22953,10474,trol,18,0,0,0,0,0,0,1
1336,22954,10474,trol,18,0,0,0,0,0,0,1
1396,22955,10474,trol,18,0,0,0,0,0,0,1
