timeInMin,trip_id,service_id,tipas,numeris,pirmadienis,antradienis,treciadienis,ketvirtadienis,penktadienis,sestadienis,sekmadienis 
386,4710,10340,bus,10,0,0,0,0,0,0,1
409,4711,10340,bus,10,0,0,0,0,0,0,1
430,4712,10340,bus,10,0,0,0,0,0,0,1
453,4713,10340,bus,10,0,0,0,0,0,0,1
479,4714,10340,bus,10,0,0,0,0,0,0,1
502,4715,10340,bus,10,0,0,0,0,0,0,1
524,4716,10340,bus,10,0,0,0,0,0,0,1
544,4717,10340,bus,10,0,0,0,0,0,0,1
563,4718,10340,bus,10,0,0,0,0,0,0,1
579,4719,10340,bus,10,0,0,0,0,0,0,1
590,4720,10340,bus,10,0,0,0,0,0,0,1
603,4721,10340,bus,10,0,0,0,0,0,0,1
626,4722,10340,bus,10,0,0,0,0,0,0,1
636,4723,10340,bus,10,0,0,0,0,0,0,1
649,4724,10340,bus,10,0,0,0,0,0,0,1
663,4725,10340,bus,10,0,0,0,0,0,0,1
679,4726,10340,bus,10,0,0,0,0,0,0,1
688,4727,10340,bus,10,0,0,0,0,0,0,1
698,4728,10340,bus,10,0,0,0,0,0,0,1
720,4729,10340,bus,10,0,0,0,0,0,0,1
739,4730,10340,bus,10,0,0,0,0,0,0,1
754,4731,10340,bus,10,0,0,0,0,0,0,1
770,4732,10340,bus,10,0,0,0,0,0,0,1
783,4733,10340,bus,10,0,0,0,0,0,0,1
795,4734,10340,bus,10,0,0,0,0,0,0,1
807,4735,10340,bus,10,0,0,0,0,0,0,1
817,4736,10340,bus,10,0,0,0,0,0,0,1
837,4737,10340,bus,10,0,0,0,0,0,0,1
860,4738,10340,bus,10,0,0,0,0,0,0,1
874,4739,10340,bus,10,0,0,0,0,0,0,1
889,4740,10340,bus,10,0,0,0,0,0,0,1
903,4741,10340,bus,10,0,0,0,0,0,0,1
916,4742,10340,bus,10,0,0,0,0,0,0,1
927,4743,10340,bus,10,0,0,0,0,0,0,1
937,4744,10340,bus,10,0,0,0,0,0,0,1
956,4745,10340,bus,10,0,0,0,0,0,0,1
965,4746,10340,bus,10,0,0,0,0,0,0,1
981,4747,10340,bus,10,0,0,0,0,0,0,1
994,4748,10340,bus,10,0,0,0,0,0,0,1
1009,4749,10340,bus,10,0,0,0,0,0,0,1
1020,4750,10340,bus,10,0,0,0,0,0,0,1
1031,4751,10340,bus,10,0,0,0,0,0,0,1
1057,4752,10340,bus,10,0,0,0,0,0,0,1
1079,4753,10340,bus,10,0,0,0,0,0,0,1
1109,4754,10340,bus,10,0,0,0,0,0,0,1
1146,4755,10340,bus,10,0,0,0,0,0,0,1
1176,4756,10340,bus,10,0,0,0,0,0,0,1
1201,4757,10340,bus,10,0,0,0,0,0,0,1
1228,4758,10340,bus,10,0,0,0,0,0,0,1
1260,4759,10340,bus,10,0,0,0,0,0,0,1
1288,4760,10340,bus,10,0,0,0,0,0,0,1
1312,4761,10340,bus,10,0,0,0,0,0,0,1
1325,4762,10340,bus,10,0,0,0,0,0,0,1
1351,4763,10340,bus,10,0,0,0,0,0,0,1
1375,4764,10340,bus,10,0,0,0,0,0,0,1
1399,4765,10340,bus,10,0,0,0,0,0,0,1
1424,4766,10340,bus,10,0,0,0,0,0,0,1
353,4767,10338,bus,10,1,1,1,1,1,0,0
370,4768,10338,bus,10,1,1,1,1,1,0,0
388,4769,10338,bus,10,1,1,1,1,1,0,0
405,4770,10338,bus,10,1,1,1,1,1,0,0
417,4771,10338,bus,10,1,1,1,1,1,0,0
431,4772,10338,bus,10,1,1,1,1,1,0,0
446,4773,10338,bus,10,1,1,1,1,1,0,0
457,4774,10338,bus,10,1,1,1,1,1,0,0
465,4775,10338,bus,10,1,1,1,1,1,0,0
475,4776,10338,bus,10,1,1,1,1,1,0,0
490,4777,10338,bus,10,1,1,1,1,1,0,0
500,4778,10338,bus,10,1,1,1,1,1,0,0
510,4779,10338,bus,10,1,1,1,1,1,0,0
521,4780,10338,bus,10,1,1,1,1,1,0,0
531,4781,10338,bus,10,1,1,1,1,1,0,0
544,4782,10338,bus,10,1,1,1,1,1,0,0
554,4783,10338,bus,10,1,1,1,1,1,0,0
566,4784,10338,bus,10,1,1,1,1,1,0,0
578,4785,10338,bus,10,1,1,1,1,1,0,0
592,4786,10338,bus,10,1,1,1,1,1,0,0
607,4787,10338,bus,10,1,1,1,1,1,0,0
621,4788,10338,bus,10,1,1,1,1,1,0,0
635,4789,10338,bus,10,1,1,1,1,1,0,0
651,4790,10338,bus,10,1,1,1,1,1,0,0
665,4791,10338,bus,10,1,1,1,1,1,0,0
680,4792,10338,bus,10,1,1,1,1,1,0,0
698,4793,10338,bus,10,1,1,1,1,1,0,0
718,4794,10338,bus,10,1,1,1,1,1,0,0
738,4795,10338,bus,10,1,1,1,1,1,0,0
756,4796,10338,bus,10,1,1,1,1,1,0,0
772,4797,10338,bus,10,1,1,1,1,1,0,0
789,4798,10338,bus,10,1,1,1,1,1,0,0
806,4799,10338,bus,10,1,1,1,1,1,0,0
824,4800,10338,bus,10,1,1,1,1,1,0,0
842,4801,10338,bus,10,1,1,1,1,1,0,0
858,4802,10338,bus,10,1,1,1,1,1,0,0
876,4803,10338,bus,10,1,1,1,1,1,0,0
896,4804,10338,bus,10,1,1,1,1,1,0,0
917,4805,10338,bus,10,1,1,1,1,1,0,0
935,4806,10338,bus,10,1,1,1,1,1,0,0
945,4807,10338,bus,10,1,1,1,1,1,0,0
954,4808,10338,bus,10,1,1,1,1,1,0,0
963,4809,10338,bus,10,1,1,1,1,1,0,0
973,4810,10338,bus,10,1,1,1,1,1,0,0
983,4811,10338,bus,10,1,1,1,1,1,0,0
994,4812,10338,bus,10,1,1,1,1,1,0,0
1007,4813,10338,bus,10,1,1,1,1,1,0,0
1020,4814,10338,bus,10,1,1,1,1,1,0,0
1033,4815,10338,bus,10,1,1,1,1,1,0,0
1046,4816,10338,bus,10,1,1,1,1,1,0,0
1057,4817,10338,bus,10,1,1,1,1,1,0,0
1068,4818,10338,bus,10,1,1,1,1,1,0,0
1077,4819,10338,bus,10,1,1,1,1,1,0,0
1086,4820,10338,bus,10,1,1,1,1,1,0,0
1097,4821,10338,bus,10,1,1,1,1,1,0,0
1110,4822,10338,bus,10,1,1,1,1,1,0,0
1121,4823,10338,bus,10,1,1,1,1,1,0,0
1141,4824,10338,bus,10,1,1,1,1,1,0,0
1163,4825,10338,bus,10,1,1,1,1,1,0,0
1181,4826,10338,bus,10,1,1,1,1,1,0,0
1197,4827,10338,bus,10,1,1,1,1,1,0,0
1215,4828,10338,bus,10,1,1,1,1,1,0,0
1232,4829,10338,bus,10,1,1,1,1,1,0,0
1248,4830,10338,bus,10,1,1,1,1,1,0,0
1263,4831,10338,bus,10,1,1,1,1,1,0,0
1278,4832,10338,bus,10,1,1,1,1,1,0,0
1294,4833,10338,bus,10,1,1,1,1,1,0,0
1311,4834,10338,bus,10,1,1,1,1,1,0,0
1328,4835,10338,bus,10,1,1,1,1,1,0,0
1343,4836,10338,bus,10,1,1,1,1,1,0,0
1360,4837,10338,bus,10,1,1,1,1,1,0,0
1376,4838,10338,bus,10,1,1,1,1,1,0,0
1398,4839,10338,bus,10,1,1,1,1,1,0,0
1419,4840,10338,bus,10,1,1,1,1,1,0,0
339,4841,10339,bus,10,0,0,0,0,0,1,0
361,4842,10339,bus,10,0,0,0,0,0,1,0
386,4843,10339,bus,10,0,0,0,0,0,1,0
409,4844,10339,bus,10,0,0,0,0,0,1,0
430,4845,10339,bus,10,0,0,0,0,0,1,0
453,4846,10339,bus,10,0,0,0,0,0,1,0
479,4847,10339,bus,10,0,0,0,0,0,1,0
502,4848,10339,bus,10,0,0,0,0,0,1,0
524,4849,10339,bus,10,0,0,0,0,0,1,0
544,4850,10339,bus,10,0,0,0,0,0,1,0
563,4851,10339,bus,10,0,0,0,0,0,1,0
579,4852,10339,bus,10,0,0,0,0,0,1,0
590,4853,10339,bus,10,0,0,0,0,0,1,0
603,4854,10339,bus,10,0,0,0,0,0,1,0
626,4855,10339,bus,10,0,0,0,0,0,1,0
636,4856,10339,bus,10,0,0,0,0,0,1,0
649,4857,10339,bus,10,0,0,0,0,0,1,0
663,4858,10339,bus,10,0,0,0,0,0,1,0
679,4859,10339,bus,10,0,0,0,0,0,1,0
688,4860,10339,bus,10,0,0,0,0,0,1,0
698,4861,10339,bus,10,0,0,0,0,0,1,0
720,4862,10339,bus,10,0,0,0,0,0,1,0
739,4863,10339,bus,10,0,0,0,0,0,1,0
754,4864,10339,bus,10,0,0,0,0,0,1,0
770,4865,10339,bus,10,0,0,0,0,0,1,0
783,4866,10339,bus,10,0,0,0,0,0,1,0
795,4867,10339,bus,10,0,0,0,0,0,1,0
807,4868,10339,bus,10,0,0,0,0,0,1,0
817,4869,10339,bus,10,0,0,0,0,0,1,0
837,4870,10339,bus,10,0,0,0,0,0,1,0
860,4871,10339,bus,10,0,0,0,0,0,1,0
874,4872,10339,bus,10,0,0,0,0,0,1,0
889,4873,10339,bus,10,0,0,0,0,0,1,0
903,4874,10339,bus,10,0,0,0,0,0,1,0
916,4875,10339,bus,10,0,0,0,0,0,1,0
927,4876,10339,bus,10,0,0,0,0,0,1,0
937,4877,10339,bus,10,0,0,0,0,0,1,0
956,4878,10339,bus,10,0,0,0,0,0,1,0
965,4879,10339,bus,10,0,0,0,0,0,1,0
981,4880,10339,bus,10,0,0,0,0,0,1,0
994,4881,10339,bus,10,0,0,0,0,0,1,0
1009,4882,10339,bus,10,0,0,0,0,0,1,0
1020,4883,10339,bus,10,0,0,0,0,0,1,0
1031,4884,10339,bus,10,0,0,0,0,0,1,0
1057,4885,10339,bus,10,0,0,0,0,0,1,0
1079,4886,10339,bus,10,0,0,0,0,0,1,0
1109,4887,10339,bus,10,0,0,0,0,0,1,0
1146,4888,10339,bus,10,0,0,0,0,0,1,0
1176,4889,10339,bus,10,0,0,0,0,0,1,0
1201,4890,10339,bus,10,0,0,0,0,0,1,0
1228,4891,10339,bus,10,0,0,0,0,0,1,0
1260,4892,10339,bus,10,0,0,0,0,0,1,0
1288,4893,10339,bus,10,0,0,0,0,0,1,0
1312,4894,10339,bus,10,0,0,0,0,0,1,0
1325,4895,10339,bus,10,0,0,0,0,0,1,0
1351,4896,10339,bus,10,0,0,0,0,0,1,0
1375,4897,10339,bus,10,0,0,0,0,0,1,0
1399,4898,10339,bus,10,0,0,0,0,0,1,0
1424,4899,10339,bus,10,0,0,0,0,0,1,0
342,5129,10340,bus,10,0,0,0,0,0,0,1
364,5130,10340,bus,10,0,0,0,0,0,0,1
316,5131,10338,bus,10,1,1,1,1,1,0,0
335,5132,10338,bus,10,1,1,1,1,1,0,0
365,5133,10338,bus,10,1,1,1,1,1,0,0
386,5134,10338,bus,10,1,1,1,1,1,0,0
404,5135,10338,bus,10,1,1,1,1,1,0,0
321,5136,10339,bus,10,0,0,0,0,0,1,0
375,5137,10293,bus,11,0,0,0,0,0,0,1
434,5138,10293,bus,11,0,0,0,0,0,0,1
501,5139,10293,bus,11,0,0,0,0,0,0,1
538,5140,10293,bus,11,0,0,0,0,0,0,1
568,5141,10293,bus,11,0,0,0,0,0,0,1
605,5142,10293,bus,11,0,0,0,0,0,0,1
655,5143,10293,bus,11,0,0,0,0,0,0,1
692,5144,10293,bus,11,0,0,0,0,0,0,1
742,5145,10293,bus,11,0,0,0,0,0,0,1
779,5146,10293,bus,11,0,0,0,0,0,0,1
811,5147,10293,bus,11,0,0,0,0,0,0,1
846,5148,10293,bus,11,0,0,0,0,0,0,1
878,5149,10293,bus,11,0,0,0,0,0,0,1
913,5150,10293,bus,11,0,0,0,0,0,0,1
945,5151,10293,bus,11,0,0,0,0,0,0,1
980,5152,10293,bus,11,0,0,0,0,0,0,1
1012,5153,10293,bus,11,0,0,0,0,0,0,1
1079,5154,10293,bus,11,0,0,0,0,0,0,1
1166,5155,10293,bus,11,0,0,0,0,0,0,1
1227,5156,10293,bus,11,0,0,0,0,0,0,1
1286,5157,10293,bus,11,0,0,0,0,0,0,1
1345,5158,10293,bus,11,0,0,0,0,0,0,1
348,5159,9750,bus,11,1,1,1,1,1,0,0
374,5160,9750,bus,11,1,1,1,1,1,0,0
406,5161,9750,bus,11,1,1,1,1,1,0,0
437,5162,9750,bus,11,1,1,1,1,1,0,0
479,5163,9750,bus,11,1,1,1,1,1,0,0
515,5164,9750,bus,11,1,1,1,1,1,0,0
552,5165,9750,bus,11,1,1,1,1,1,0,0
582,5166,9750,bus,11,1,1,1,1,1,0,0
642,5167,9750,bus,11,1,1,1,1,1,0,0
681,5168,9750,bus,11,1,1,1,1,1,0,0
709,5169,9750,bus,11,1,1,1,1,1,0,0
749,5170,9750,bus,11,1,1,1,1,1,0,0
780,5171,9750,bus,11,1,1,1,1,1,0,0
816,5172,9750,bus,11,1,1,1,1,1,0,0
848,5173,9750,bus,11,1,1,1,1,1,0,0
883,5174,9750,bus,11,1,1,1,1,1,0,0
915,5175,9750,bus,11,1,1,1,1,1,0,0
956,5176,9750,bus,11,1,1,1,1,1,0,0
991,5177,9750,bus,11,1,1,1,1,1,0,0
1028,5178,9750,bus,11,1,1,1,1,1,0,0
1061,5179,9750,bus,11,1,1,1,1,1,0,0
1096,5180,9750,bus,11,1,1,1,1,1,0,0
1149,5181,9750,bus,11,1,1,1,1,1,0,0
1185,5182,9750,bus,11,1,1,1,1,1,0,0
1215,5183,9750,bus,11,1,1,1,1,1,0,0
1244,5184,9750,bus,11,1,1,1,1,1,0,0
1274,5185,9750,bus,11,1,1,1,1,1,0,0
1303,5186,9750,bus,11,1,1,1,1,1,0,0
1362,5187,9750,bus,11,1,1,1,1,1,0,0
375,5188,9413,bus,11,0,0,0,0,0,1,0
434,5189,9413,bus,11,0,0,0,0,0,1,0
501,5190,9413,bus,11,0,0,0,0,0,1,0
538,5191,9413,bus,11,0,0,0,0,0,1,0
568,5192,9413,bus,11,0,0,0,0,0,1,0
605,5193,9413,bus,11,0,0,0,0,0,1,0
655,5194,9413,bus,11,0,0,0,0,0,1,0
692,5195,9413,bus,11,0,0,0,0,0,1,0
742,5196,9413,bus,11,0,0,0,0,0,1,0
779,5197,9413,bus,11,0,0,0,0,0,1,0
811,5198,9413,bus,11,0,0,0,0,0,1,0
846,5199,9413,bus,11,0,0,0,0,0,1,0
878,5200,9413,bus,11,0,0,0,0,0,1,0
913,5201,9413,bus,11,0,0,0,0,0,1,0
945,5202,9413,bus,11,0,0,0,0,0,1,0
980,5203,9413,bus,11,0,0,0,0,0,1,0
1012,5204,9413,bus,11,0,0,0,0,0,1,0
1079,5205,9413,bus,11,0,0,0,0,0,1,0
1166,5206,9413,bus,11,0,0,0,0,0,1,0
1227,5207,9413,bus,11,0,0,0,0,0,1,0
1286,5208,9413,bus,11,0,0,0,0,0,1,0
1345,5209,9413,bus,11,0,0,0,0,0,1,0
315,5295,9750,bus,11,1,1,1,1,1,0,0
377,8998,10369,bus,33,0,0,0,0,0,0,1
455,8999,10369,bus,33,0,0,0,0,0,0,1
510,9000,10369,bus,33,0,0,0,0,0,0,1
558,9001,10369,bus,33,0,0,0,0,0,0,1
588,9002,10369,bus,33,0,0,0,0,0,0,1
661,9003,10369,bus,33,0,0,0,0,0,0,1
691,9004,10369,bus,33,0,0,0,0,0,0,1
739,9005,10369,bus,33,0,0,0,0,0,0,1
794,9006,10369,bus,33,0,0,0,0,0,0,1
824,9007,10369,bus,33,0,0,0,0,0,0,1
872,9008,10369,bus,33,0,0,0,0,0,0,1
907,9009,10369,bus,33,0,0,0,0,0,0,1
950,9010,10369,bus,33,0,0,0,0,0,0,1
985,9011,10369,bus,33,0,0,0,0,0,0,1
1028,9012,10369,bus,33,0,0,0,0,0,0,1
1088,9013,10369,bus,33,0,0,0,0,0,0,1
1191,9014,10369,bus,33,0,0,0,0,0,0,1
1280,9015,10369,bus,33,0,0,0,0,0,0,1
1366,9016,10369,bus,33,0,0,0,0,0,0,1
318,9017,10367,bus,33,1,1,1,1,1,0,0
346,9018,10367,bus,33,1,1,1,1,1,0,0
378,9019,10367,bus,33,1,1,1,1,1,0,0
410,9020,10367,bus,33,1,1,1,1,1,0,0
435,9021,10367,bus,33,1,1,1,1,1,0,0
463,9022,10367,bus,33,1,1,1,1,1,0,0
497,9023,10367,bus,33,1,1,1,1,1,0,0
537,9024,10367,bus,33,1,1,1,1,1,0,0
577,9025,10367,bus,33,1,1,1,1,1,0,0
614,9026,10367,bus,33,1,1,1,1,1,0,0
658,9027,10367,bus,33,1,1,1,1,1,0,0
697,9028,10367,bus,33,1,1,1,1,1,0,0
739,9029,10367,bus,33,1,1,1,1,1,0,0
780,9030,10367,bus,33,1,1,1,1,1,0,0
822,9031,10367,bus,33,1,1,1,1,1,0,0
865,9032,10367,bus,33,1,1,1,1,1,0,0
908,9033,10367,bus,33,1,1,1,1,1,0,0
946,9034,10367,bus,33,1,1,1,1,1,0,0
991,9035,10367,bus,33,1,1,1,1,1,0,0
1017,9036,10367,bus,33,1,1,1,1,1,0,0
1043,9037,10367,bus,33,1,1,1,1,1,0,0
1077,9038,10367,bus,33,1,1,1,1,1,0,0
1107,9039,10367,bus,33,1,1,1,1,1,0,0
1153,9040,10367,bus,33,1,1,1,1,1,0,0
1194,9041,10367,bus,33,1,1,1,1,1,0,0
1242,9042,10367,bus,33,1,1,1,1,1,0,0
1300,9043,10367,bus,33,1,1,1,1,1,0,0
1334,9044,10367,bus,33,1,1,1,1,1,0,0
1381,9045,10367,bus,33,1,1,1,1,1,0,0
377,9046,10368,bus,33,0,0,0,0,0,1,0
455,9047,10368,bus,33,0,0,0,0,0,1,0
510,9048,10368,bus,33,0,0,0,0,0,1,0
558,9049,10368,bus,33,0,0,0,0,0,1,0
588,9050,10368,bus,33,0,0,0,0,0,1,0
661,9051,10368,bus,33,0,0,0,0,0,1,0
691,9052,10368,bus,33,0,0,0,0,0,1,0
739,9053,10368,bus,33,0,0,0,0,0,1,0
794,9054,10368,bus,33,0,0,0,0,0,1,0
824,9055,10368,bus,33,0,0,0,0,0,1,0
872,9056,10368,bus,33,0,0,0,0,0,1,0
907,9057,10368,bus,33,0,0,0,0,0,1,0
950,9058,10368,bus,33,0,0,0,0,0,1,0
985,9059,10368,bus,33,0,0,0,0,0,1,0
1028,9060,10368,bus,33,0,0,0,0,0,1,0
1088,9061,10368,bus,33,0,0,0,0,0,1,0
1191,9062,10368,bus,33,0,0,0,0,0,1,0
1280,9063,10368,bus,33,0,0,0,0,0,1,0
1366,9064,10368,bus,33,0,0,0,0,0,1,0
304,9146,10367,bus,33,1,1,1,1,1,0,0
304,9147,10368,bus,33,0,0,0,0,0,1,0
1454,16343,9970,nightbus,102N,0,0,0,0,1,1,0
1492,16344,9970,nightbus,102N,0,0,0,0,1,1,0
1537,16345,9970,nightbus,102N,0,0,0,0,1,1,0
1581,16346,9970,nightbus,102N,0,0,0,0,1,1,0
