timeInMin,trip_id,service_id,tipas,numeris,pirmadienis,antradienis,treciadienis,ketvirtadienis,penktadienis,sestadienis,sekmadienis 
383,6752,10354,bus,21,1,1,1,1,1,0,0
410,6753,10354,bus,21,1,1,1,1,1,0,0
432,6754,10354,bus,21,1,1,1,1,1,0,0
457,6755,10354,bus,21,1,1,1,1,1,0,0
485,6756,10354,bus,21,1,1,1,1,1,0,0
506,6757,10354,bus,21,1,1,1,1,1,0,0
531,6758,10354,bus,21,1,1,1,1,1,0,0
559,6759,10354,bus,21,1,1,1,1,1,0,0
622,6760,10354,bus,21,1,1,1,1,1,0,0
661,6761,10354,bus,21,1,1,1,1,1,0,0
712,6762,10354,bus,21,1,1,1,1,1,0,0
751,6763,10354,bus,21,1,1,1,1,1,0,0
788,6764,10354,bus,21,1,1,1,1,1,0,0
827,6765,10354,bus,21,1,1,1,1,1,0,0
863,6766,10354,bus,21,1,1,1,1,1,0,0
900,6767,10354,bus,21,1,1,1,1,1,0,0
937,6768,10354,bus,21,1,1,1,1,1,0,0
977,6769,10354,bus,21,1,1,1,1,1,0,0
1011,6770,10354,bus,21,1,1,1,1,1,0,0
1034,6771,10354,bus,21,1,1,1,1,1,0,0
1058,6772,10354,bus,21,1,1,1,1,1,0,0
1085,6773,10354,bus,21,1,1,1,1,1,0,0
1110,6774,10354,bus,21,1,1,1,1,1,0,0
1133,6775,10354,bus,21,1,1,1,1,1,0,0
1178,6776,10354,bus,21,1,1,1,1,1,0,0
1227,6777,10354,bus,21,1,1,1,1,1,0,0
1280,6778,10354,bus,21,1,1,1,1,1,0,0
1319,6779,10354,bus,21,1,1,1,1,1,0,0
1352,6780,10354,bus,21,1,1,1,1,1,0,0
1391,6781,10354,bus,21,1,1,1,1,1,0,0
404,6782,9374,bus,21,0,0,0,0,0,1,0
476,6783,9374,bus,21,0,0,0,0,0,1,0
550,6784,9374,bus,21,0,0,0,0,0,1,0
636,6785,9374,bus,21,0,0,0,0,0,1,0
726,6786,9374,bus,21,0,0,0,0,0,1,0
792,6787,9374,bus,21,0,0,0,0,0,1,0
864,6788,9374,bus,21,0,0,0,0,0,1,0
935,6789,9374,bus,21,0,0,0,0,0,1,0
1005,6790,9374,bus,21,0,0,0,0,0,1,0
1076,6791,9374,bus,21,0,0,0,0,0,1,0
1162,6792,9374,bus,21,0,0,0,0,0,1,0
1248,6793,9374,bus,21,0,0,0,0,0,1,0
1314,6794,9374,bus,21,0,0,0,0,0,1,0
1380,6795,9374,bus,21,0,0,0,0,0,1,0
443,6796,9375,bus,21,0,0,0,0,0,0,1
517,6797,9375,bus,21,0,0,0,0,0,0,1
618,6798,9375,bus,21,0,0,0,0,0,0,1
690,6799,9375,bus,21,0,0,0,0,0,0,1
767,6800,9375,bus,21,0,0,0,0,0,0,1
838,6801,9375,bus,21,0,0,0,0,0,0,1
909,6802,9375,bus,21,0,0,0,0,0,0,1
980,6803,9375,bus,21,0,0,0,0,0,0,1
1051,6804,9375,bus,21,0,0,0,0,0,0,1
1152,6805,9375,bus,21,0,0,0,0,0,0,1
1223,6806,9375,bus,21,0,0,0,0,0,0,1
1294,6807,9375,bus,21,0,0,0,0,0,0,1
1365,6808,9375,bus,21,0,0,0,0,0,0,1
955,6809,10354,bus,21,1,1,1,1,1,0,0
322,6815,10354,bus,21,1,1,1,1,1,0,0
348,6816,10354,bus,21,1,1,1,1,1,0,0
369,6817,10354,bus,21,1,1,1,1,1,0,0
346,6818,9374,bus,21,0,0,0,0,0,1,0
385,6819,9375,bus,21,0,0,0,0,0,0,1
380,13067,10395,bus,55,1,1,1,1,1,0,0
430,13068,10395,bus,55,1,1,1,1,1,0,0
464,13069,10395,bus,55,1,1,1,1,1,0,0
499,13070,10395,bus,55,1,1,1,1,1,0,0
525,13071,10395,bus,55,1,1,1,1,1,0,0
553,13072,10395,bus,55,1,1,1,1,1,0,0
602,13073,10395,bus,55,1,1,1,1,1,0,0
646,13074,10395,bus,55,1,1,1,1,1,0,0
694,13075,10395,bus,55,1,1,1,1,1,0,0
727,13076,10395,bus,55,1,1,1,1,1,0,0
765,13077,10395,bus,55,1,1,1,1,1,0,0
807,13078,10395,bus,55,1,1,1,1,1,0,0
843,13079,10395,bus,55,1,1,1,1,1,0,0
881,13080,10395,bus,55,1,1,1,1,1,0,0
926,13081,10395,bus,55,1,1,1,1,1,0,0
963,13082,10395,bus,55,1,1,1,1,1,0,0
1002,13083,10395,bus,55,1,1,1,1,1,0,0
1027,13084,10395,bus,55,1,1,1,1,1,0,0
1051,13085,10395,bus,55,1,1,1,1,1,0,0
1081,13086,10395,bus,55,1,1,1,1,1,0,0
1119,13087,10395,bus,55,1,1,1,1,1,0,0
1147,13088,10395,bus,55,1,1,1,1,1,0,0
1195,13089,10395,bus,55,1,1,1,1,1,0,0
1234,13090,10395,bus,55,1,1,1,1,1,0,0
1267,13091,10395,bus,55,1,1,1,1,1,0,0
1308,13092,10395,bus,55,1,1,1,1,1,0,0
1347,13093,10395,bus,55,1,1,1,1,1,0,0
1380,13094,10395,bus,55,1,1,1,1,1,0,0
366,13095,10193,bus,55,0,0,0,0,0,1,0
419,13096,10193,bus,55,0,0,0,0,0,1,0
476,13097,10193,bus,55,0,0,0,0,0,1,0
529,13098,10193,bus,55,0,0,0,0,0,1,0
575,13099,10193,bus,55,0,0,0,0,0,1,0
623,13100,10193,bus,55,0,0,0,0,0,1,0
668,13101,10193,bus,55,0,0,0,0,0,1,0
711,13102,10193,bus,55,0,0,0,0,0,1,0
745,13103,10193,bus,55,0,0,0,0,0,1,0
782,13104,10193,bus,55,0,0,0,0,0,1,0
819,13105,10193,bus,55,0,0,0,0,0,1,0
858,13106,10193,bus,55,0,0,0,0,0,1,0
895,13107,10193,bus,55,0,0,0,0,0,1,0
927,13108,10193,bus,55,0,0,0,0,0,1,0
971,13109,10193,bus,55,0,0,0,0,0,1,0
1012,13110,10193,bus,55,0,0,0,0,0,1,0
1080,13111,10193,bus,55,0,0,0,0,0,1,0
1157,13112,10193,bus,55,0,0,0,0,0,1,0
1219,13113,10193,bus,55,0,0,0,0,0,1,0
1269,13114,10193,bus,55,0,0,0,0,0,1,0
1326,13115,10193,bus,55,0,0,0,0,0,1,0
1376,13116,10193,bus,55,0,0,0,0,0,1,0
419,13117,10194,bus,55,0,0,0,0,0,0,1
476,13118,10194,bus,55,0,0,0,0,0,0,1
529,13119,10194,bus,55,0,0,0,0,0,0,1
575,13120,10194,bus,55,0,0,0,0,0,0,1
623,13121,10194,bus,55,0,0,0,0,0,0,1
668,13122,10194,bus,55,0,0,0,0,0,0,1
711,13123,10194,bus,55,0,0,0,0,0,0,1
745,13124,10194,bus,55,0,0,0,0,0,0,1
782,13125,10194,bus,55,0,0,0,0,0,0,1
819,13126,10194,bus,55,0,0,0,0,0,0,1
858,13127,10194,bus,55,0,0,0,0,0,0,1
895,13128,10194,bus,55,0,0,0,0,0,0,1
927,13129,10194,bus,55,0,0,0,0,0,0,1
971,13130,10194,bus,55,0,0,0,0,0,0,1
1012,13131,10194,bus,55,0,0,0,0,0,0,1
1080,13132,10194,bus,55,0,0,0,0,0,0,1
1157,13133,10194,bus,55,0,0,0,0,0,0,1
1219,13134,10194,bus,55,0,0,0,0,0,0,1
1269,13135,10194,bus,55,0,0,0,0,0,0,1
1326,13136,10194,bus,55,0,0,0,0,0,0,1
1376,13137,10194,bus,55,0,0,0,0,0,0,1
319,13148,10395,bus,55,1,1,1,1,1,0,0
349,13149,10395,bus,55,1,1,1,1,1,0,0
406,13150,10395,bus,55,1,1,1,1,1,0,0
319,13151,10193,bus,55,0,0,0,0,0,1,0
372,13152,10194,bus,55,0,0,0,0,0,0,1
344,13640,10625,bus,59,1,1,1,1,1,0,0
396,13641,10625,bus,59,1,1,1,1,1,0,0
421,13642,10625,bus,59,1,1,1,1,1,0,0
448,13643,10625,bus,59,1,1,1,1,1,0,0
479,13644,10625,bus,59,1,1,1,1,1,0,0
500,13645,10625,bus,59,1,1,1,1,1,0,0
532,13646,10625,bus,59,1,1,1,1,1,0,0
562,13647,10625,bus,59,1,1,1,1,1,0,0
607,13648,10625,bus,59,1,1,1,1,1,0,0
664,13649,10625,bus,59,1,1,1,1,1,0,0
691,13650,10625,bus,59,1,1,1,1,1,0,0
741,13651,10625,bus,59,1,1,1,1,1,0,0
769,13652,10625,bus,59,1,1,1,1,1,0,0
819,13653,10625,bus,59,1,1,1,1,1,0,0
854,13654,10625,bus,59,1,1,1,1,1,0,0
909,13655,10625,bus,59,1,1,1,1,1,0,0
931,13656,10625,bus,59,1,1,1,1,1,0,0
953,13657,10625,bus,59,1,1,1,1,1,0,0
989,13658,10625,bus,59,1,1,1,1,1,0,0
1009,13659,10625,bus,59,1,1,1,1,1,0,0
1039,13660,10625,bus,59,1,1,1,1,1,0,0
1073,13661,10625,bus,59,1,1,1,1,1,0,0
1106,13662,10625,bus,59,1,1,1,1,1,0,0
1126,13663,10625,bus,59,1,1,1,1,1,0,0
1172,13664,10625,bus,59,1,1,1,1,1,0,0
1203,13665,10625,bus,59,1,1,1,1,1,0,0
1249,13666,10625,bus,59,1,1,1,1,1,0,0
1288,13667,10625,bus,59,1,1,1,1,1,0,0
1333,13668,10625,bus,59,1,1,1,1,1,0,0
1369,13669,10625,bus,59,1,1,1,1,1,0,0
424,13670,10133,bus,59,0,0,0,0,0,1,1
495,13671,10133,bus,59,0,0,0,0,0,1,1
564,13672,10133,bus,59,0,0,0,0,0,1,1
605,13673,10133,bus,59,0,0,0,0,0,1,1
648,13674,10133,bus,59,0,0,0,0,0,1,1
686,13675,10133,bus,59,0,0,0,0,0,1,1
744,13676,10133,bus,59,0,0,0,0,0,1,1
769,13677,10133,bus,59,0,0,0,0,0,1,1
818,13678,10133,bus,59,0,0,0,0,0,1,1
849,13679,10133,bus,59,0,0,0,0,0,1,1
912,13680,10133,bus,59,0,0,0,0,0,1,1
937,13681,10133,bus,59,0,0,0,0,0,1,1
986,13682,10133,bus,59,0,0,0,0,0,1,1
1024,13683,10133,bus,59,0,0,0,0,0,1,1
1059,13684,10133,bus,59,0,0,0,0,0,1,1
1129,13685,10133,bus,59,0,0,0,0,0,1,1
1203,13686,10133,bus,59,0,0,0,0,0,1,1
1277,13687,10133,bus,59,0,0,0,0,0,1,1
1352,13688,10133,bus,59,0,0,0,0,0,1,1
322,13694,10625,bus,59,1,1,1,1,1,0,0
369,13695,10625,bus,59,1,1,1,1,1,0,0
355,13696,10133,bus,59,0,0,0,0,0,1,1
363,16289,10411,bus,116,1,1,1,1,1,0,0
401,16290,10411,bus,116,1,1,1,1,1,0,0
435,16291,10411,bus,116,1,1,1,1,1,0,0
471,16292,10411,bus,116,1,1,1,1,1,0,0
506,16293,10411,bus,116,1,1,1,1,1,0,0
541,16294,10411,bus,116,1,1,1,1,1,0,0
609,16295,10411,bus,116,1,1,1,1,1,0,0
644,16296,10411,bus,116,1,1,1,1,1,0,0
682,16297,10411,bus,116,1,1,1,1,1,0,0
714,16298,10411,bus,116,1,1,1,1,1,0,0
752,16299,10411,bus,116,1,1,1,1,1,0,0
784,16300,10411,bus,116,1,1,1,1,1,0,0
822,16301,10411,bus,116,1,1,1,1,1,0,0
856,16302,10411,bus,116,1,1,1,1,1,0,0
890,16303,10411,bus,116,1,1,1,1,1,0,0
926,16304,10411,bus,116,1,1,1,1,1,0,0
962,16305,10411,bus,116,1,1,1,1,1,0,0
996,16306,10411,bus,116,1,1,1,1,1,0,0
1032,16307,10411,bus,116,1,1,1,1,1,0,0
1066,16308,10411,bus,116,1,1,1,1,1,0,0
1108,16309,10411,bus,116,1,1,1,1,1,0,0
1161,16310,10411,bus,116,1,1,1,1,1,0,0
1203,16311,10411,bus,116,1,1,1,1,1,0,0
1235,16312,10411,bus,116,1,1,1,1,1,0,0
1273,16313,10411,bus,116,1,1,1,1,1,0,0
1343,16314,10411,bus,116,1,1,1,1,1,0,0
371,16315,9366,bus,116,0,0,0,0,0,1,1
441,16316,9366,bus,116,0,0,0,0,0,1,1
511,16317,9366,bus,116,0,0,0,0,0,1,1
606,16318,9366,bus,116,0,0,0,0,0,1,1
679,16319,9366,bus,116,0,0,0,0,0,1,1
749,16320,9366,bus,116,0,0,0,0,0,1,1
819,16321,9366,bus,116,0,0,0,0,0,1,1
889,16322,9366,bus,116,0,0,0,0,0,1,1
959,16323,9366,bus,116,0,0,0,0,0,1,1
1029,16324,9366,bus,116,0,0,0,0,0,1,1
1124,16325,9366,bus,116,0,0,0,0,0,1,1
1194,16326,9366,bus,116,0,0,0,0,0,1,1
1264,16327,9366,bus,116,0,0,0,0,0,1,1
1334,16328,9366,bus,116,0,0,0,0,0,1,1
332,16329,10411,bus,116,1,1,1,1,1,0,0
