timeInMin,trip_id,service_id,tipas,numeris,pirmadienis,antradienis,treciadienis,ketvirtadienis,penktadienis,sestadienis,sekmadienis 
321,15588,10409,bus,87,1,1,1,1,1,0,0
353,15589,10409,bus,87,1,1,1,1,1,0,0
392,15590,10409,bus,87,1,1,1,1,1,0,0
425,15591,10409,bus,87,1,1,1,1,1,0,0
458,15592,10409,bus,87,1,1,1,1,1,0,0
493,15593,10409,bus,87,1,1,1,1,1,0,0
525,15594,10409,bus,87,1,1,1,1,1,0,0
562,15595,10409,bus,87,1,1,1,1,1,0,0
617,15596,10409,bus,87,1,1,1,1,1,0,0
646,15597,10409,bus,87,1,1,1,1,1,0,0
676,15598,10409,bus,87,1,1,1,1,1,0,0
713,15599,10409,bus,87,1,1,1,1,1,0,0
748,15600,10409,bus,87,1,1,1,1,1,0,0
781,15601,10409,bus,87,1,1,1,1,1,0,0
812,15602,10409,bus,87,1,1,1,1,1,0,0
839,15603,10409,bus,87,1,1,1,1,1,0,0
893,15604,10409,bus,87,1,1,1,1,1,0,0
928,15605,10409,bus,87,1,1,1,1,1,0,0
959,15606,10409,bus,87,1,1,1,1,1,0,0
992,15607,10409,bus,87,1,1,1,1,1,0,0
1026,15608,10409,bus,87,1,1,1,1,1,0,0
1066,15609,10409,bus,87,1,1,1,1,1,0,0
1115,15610,10409,bus,87,1,1,1,1,1,0,0
1148,15611,10409,bus,87,1,1,1,1,1,0,0
1184,15612,10409,bus,87,1,1,1,1,1,0,0
1220,15613,10409,bus,87,1,1,1,1,1,0,0
1268,15614,10409,bus,87,1,1,1,1,1,0,0
1307,15615,10409,bus,87,1,1,1,1,1,0,0
1341,15616,10409,bus,87,1,1,1,1,1,0,0
1371,15617,10409,bus,87,1,1,1,1,1,0,0
1394,15618,10409,bus,87,1,1,1,1,1,0,0
376,15619,10410,bus,87,0,0,0,0,0,1,1
437,15620,10410,bus,87,0,0,0,0,0,1,1
502,15621,10410,bus,87,0,0,0,0,0,1,1
567,15622,10410,bus,87,0,0,0,0,0,1,1
654,15623,10410,bus,87,0,0,0,0,0,1,1
720,15624,10410,bus,87,0,0,0,0,0,1,1
780,15625,10410,bus,87,0,0,0,0,0,1,1
846,15626,10410,bus,87,0,0,0,0,0,1,1
911,15627,10410,bus,87,0,0,0,0,0,1,1
977,15628,10410,bus,87,0,0,0,0,0,1,1
1037,15629,10410,bus,87,0,0,0,0,0,1,1
1103,15630,10410,bus,87,0,0,0,0,0,1,1
1188,15631,10410,bus,87,0,0,0,0,0,1,1
1254,15632,10410,bus,87,0,0,0,0,0,1,1
1315,15633,10410,bus,87,0,0,0,0,0,1,1
1393,15634,10410,bus,87,0,0,0,0,0,1,1
