timeInMin,trip_id,service_id,tipas,numeris,pirmadienis,antradienis,treciadienis,ketvirtadienis,penktadienis,sestadienis,sekmadienis 
352,8926,10488,bus,32,1,1,1,1,1,0,0
370,8927,10488,bus,32,1,1,1,1,1,0,0
394,8928,10488,bus,32,1,1,1,1,1,0,0
420,8929,10488,bus,32,1,1,1,1,1,0,0
440,8930,10488,bus,32,1,1,1,1,1,0,0
465,8931,10488,bus,32,1,1,1,1,1,0,0
492,8932,10488,bus,32,1,1,1,1,1,0,0
515,8933,10488,bus,32,1,1,1,1,1,0,0
549,8934,10488,bus,32,1,1,1,1,1,0,0
583,8935,10488,bus,32,1,1,1,1,1,0,0
603,8936,10488,bus,32,1,1,1,1,1,0,0
644,8937,10488,bus,32,1,1,1,1,1,0,0
674,8938,10488,bus,32,1,1,1,1,1,0,0
712,8939,10488,bus,32,1,1,1,1,1,0,0
744,8940,10488,bus,32,1,1,1,1,1,0,0
781,8941,10488,bus,32,1,1,1,1,1,0,0
816,8942,10488,bus,32,1,1,1,1,1,0,0
854,8943,10488,bus,32,1,1,1,1,1,0,0
893,8944,10488,bus,32,1,1,1,1,1,0,0
914,8945,10488,bus,32,1,1,1,1,1,0,0
940,8946,10488,bus,32,1,1,1,1,1,0,0
961,8947,10488,bus,32,1,1,1,1,1,0,0
987,8948,10488,bus,32,1,1,1,1,1,0,0
1013,8949,10488,bus,32,1,1,1,1,1,0,0
1032,8950,10488,bus,32,1,1,1,1,1,0,0
1062,8951,10488,bus,32,1,1,1,1,1,0,0
1087,8952,10488,bus,32,1,1,1,1,1,0,0
1129,8953,10488,bus,32,1,1,1,1,1,0,0
1181,8954,10488,bus,32,1,1,1,1,1,0,0
1211,8955,10488,bus,32,1,1,1,1,1,0,0
1249,8956,10488,bus,32,1,1,1,1,1,0,0
1282,8957,10488,bus,32,1,1,1,1,1,0,0
1316,8958,10488,bus,32,1,1,1,1,1,0,0
1353,8959,10488,bus,32,1,1,1,1,1,0,0
390,8960,10489,bus,32,0,0,0,0,0,1,0
456,8961,10489,bus,32,0,0,0,0,0,1,0
556,8962,10489,bus,32,0,0,0,0,0,1,0
621,8963,10489,bus,32,0,0,0,0,0,1,0
686,8964,10489,bus,32,0,0,0,0,0,1,0
755,8965,10489,bus,32,0,0,0,0,0,1,0
822,8966,10489,bus,32,0,0,0,0,0,1,0
892,8967,10489,bus,32,0,0,0,0,0,1,0
958,8968,10489,bus,32,0,0,0,0,0,1,0
1024,8969,10489,bus,32,0,0,0,0,0,1,0
1090,8970,10489,bus,32,0,0,0,0,0,1,0
1180,8971,10489,bus,32,0,0,0,0,0,1,0
1246,8972,10489,bus,32,0,0,0,0,0,1,0
1311,8973,10489,bus,32,0,0,0,0,0,1,0
390,8974,10490,bus,32,0,0,0,0,0,0,1
456,8975,10490,bus,32,0,0,0,0,0,0,1
556,8976,10490,bus,32,0,0,0,0,0,0,1
621,8977,10490,bus,32,0,0,0,0,0,0,1
686,8978,10490,bus,32,0,0,0,0,0,0,1
755,8979,10490,bus,32,0,0,0,0,0,0,1
822,8980,10490,bus,32,0,0,0,0,0,0,1
892,8981,10490,bus,32,0,0,0,0,0,0,1
958,8982,10490,bus,32,0,0,0,0,0,0,1
1024,8983,10490,bus,32,0,0,0,0,0,0,1
1090,8984,10490,bus,32,0,0,0,0,0,0,1
1180,8985,10490,bus,32,0,0,0,0,0,0,1
1246,8986,10490,bus,32,0,0,0,0,0,0,1
1311,8987,10490,bus,32,0,0,0,0,0,0,1
