timeInMin,trip_id,service_id,tipas,numeris,pirmadienis,antradienis,treciadienis,ketvirtadienis,penktadienis,sestadienis,sekmadienis 
336,8861,10488,bus,32,1,1,1,1,1,0,0
370,8862,10488,bus,32,1,1,1,1,1,0,0
403,8863,10488,bus,32,1,1,1,1,1,0,0
423,8864,10488,bus,32,1,1,1,1,1,0,0
449,8865,10488,bus,32,1,1,1,1,1,0,0
473,8866,10488,bus,32,1,1,1,1,1,0,0
493,8867,10488,bus,32,1,1,1,1,1,0,0
519,8868,10488,bus,32,1,1,1,1,1,0,0
547,8869,10488,bus,32,1,1,1,1,1,0,0
567,8870,10488,bus,32,1,1,1,1,1,0,0
601,8871,10488,bus,32,1,1,1,1,1,0,0
656,8872,10488,bus,32,1,1,1,1,1,0,0
696,8873,10488,bus,32,1,1,1,1,1,0,0
727,8874,10488,bus,32,1,1,1,1,1,0,0
765,8875,10488,bus,32,1,1,1,1,1,0,0
800,8876,10488,bus,32,1,1,1,1,1,0,0
835,8877,10488,bus,32,1,1,1,1,1,0,0
869,8878,10488,bus,32,1,1,1,1,1,0,0
897,8879,10488,bus,32,1,1,1,1,1,0,0
919,8880,10488,bus,32,1,1,1,1,1,0,0
945,8881,10488,bus,32,1,1,1,1,1,0,0
968,8882,10488,bus,32,1,1,1,1,1,0,0
995,8883,10488,bus,32,1,1,1,1,1,0,0
1015,8884,10488,bus,32,1,1,1,1,1,0,0
1044,8885,10488,bus,32,1,1,1,1,1,0,0
1068,8886,10488,bus,32,1,1,1,1,1,0,0
1085,8887,10488,bus,32,1,1,1,1,1,0,0
1127,8888,10488,bus,32,1,1,1,1,1,0,0
1164,8889,10488,bus,32,1,1,1,1,1,0,0
1184,8890,10488,bus,32,1,1,1,1,1,0,0
1233,8891,10488,bus,32,1,1,1,1,1,0,0
1266,8892,10488,bus,32,1,1,1,1,1,0,0
1299,8893,10488,bus,32,1,1,1,1,1,0,0
1334,8894,10488,bus,32,1,1,1,1,1,0,0
1368,8895,10488,bus,32,1,1,1,1,1,0,0
1403,8896,10488,bus,32,1,1,1,1,1,0,0
374,8897,10489,bus,32,0,0,0,0,0,1,0
440,8898,10489,bus,32,0,0,0,0,0,1,0
506,8899,10489,bus,32,0,0,0,0,0,1,0
605,8900,10489,bus,32,0,0,0,0,0,1,0
670,8901,10489,bus,32,0,0,0,0,0,1,0
737,8902,10489,bus,32,0,0,0,0,0,1,0
805,8903,10489,bus,32,0,0,0,0,0,1,0
876,8904,10489,bus,32,0,0,0,0,0,1,0
942,8905,10489,bus,32,0,0,0,0,0,1,0
1008,8906,10489,bus,32,0,0,0,0,0,1,0
1074,8907,10489,bus,32,0,0,0,0,0,1,0
1163,8908,10489,bus,32,0,0,0,0,0,1,0
1229,8909,10489,bus,32,0,0,0,0,0,1,0
1295,8910,10489,bus,32,0,0,0,0,0,1,0
1360,8911,10489,bus,32,0,0,0,0,0,1,0
440,8912,10490,bus,32,0,0,0,0,0,0,1
506,8913,10490,bus,32,0,0,0,0,0,0,1
605,8914,10490,bus,32,0,0,0,0,0,0,1
670,8915,10490,bus,32,0,0,0,0,0,0,1
737,8916,10490,bus,32,0,0,0,0,0,0,1
805,8917,10490,bus,32,0,0,0,0,0,0,1
876,8918,10490,bus,32,0,0,0,0,0,0,1
942,8919,10490,bus,32,0,0,0,0,0,0,1
1008,8920,10490,bus,32,0,0,0,0,0,0,1
1074,8921,10490,bus,32,0,0,0,0,0,0,1
1163,8922,10490,bus,32,0,0,0,0,0,0,1
1229,8923,10490,bus,32,0,0,0,0,0,0,1
1295,8924,10490,bus,32,0,0,0,0,0,0,1
1360,8925,10490,bus,32,0,0,0,0,0,0,1
