timeInMin,trip_id,service_id,tipas,numeris,pirmadienis,antradienis,treciadienis,ketvirtadienis,penktadienis,sestadienis,sekmadienis 
350,2472,10482,expressbus,4G,1,1,1,1,1,0,0
362,2473,10482,expressbus,4G,1,1,1,1,1,0,0
374,2474,10482,expressbus,4G,1,1,1,1,1,0,0
380,2475,10482,expressbus,4G,1,1,1,1,1,0,0
388,2476,10482,expressbus,4G,1,1,1,1,1,0,0
395,2477,10482,expressbus,4G,1,1,1,1,1,0,0
401,2478,10482,expressbus,4G,1,1,1,1,1,0,0
407,2479,10482,expressbus,4G,1,1,1,1,1,0,0
413,2480,10482,expressbus,4G,1,1,1,1,1,0,0
419,2481,10482,expressbus,4G,1,1,1,1,1,0,0
426,2482,10482,expressbus,4G,1,1,1,1,1,0,0
431,2483,10482,expressbus,4G,1,1,1,1,1,0,0
439,2484,10482,expressbus,4G,1,1,1,1,1,0,0
445,2485,10482,expressbus,4G,1,1,1,1,1,0,0
453,2486,10482,expressbus,4G,1,1,1,1,1,0,0
459,2487,10482,expressbus,4G,1,1,1,1,1,0,0
465,2488,10482,expressbus,4G,1,1,1,1,1,0,0
471,2489,10482,expressbus,4G,1,1,1,1,1,0,0
478,2490,10482,expressbus,4G,1,1,1,1,1,0,0
484,2491,10482,expressbus,4G,1,1,1,1,1,0,0
490,2492,10482,expressbus,4G,1,1,1,1,1,0,0
495,2493,10482,expressbus,4G,1,1,1,1,1,0,0
501,2494,10482,expressbus,4G,1,1,1,1,1,0,0
508,2495,10482,expressbus,4G,1,1,1,1,1,0,0
513,2496,10482,expressbus,4G,1,1,1,1,1,0,0
520,2497,10482,expressbus,4G,1,1,1,1,1,0,0
527,2498,10482,expressbus,4G,1,1,1,1,1,0,0
535,2499,10482,expressbus,4G,1,1,1,1,1,0,0
541,2500,10482,expressbus,4G,1,1,1,1,1,0,0
549,2501,10482,expressbus,4G,1,1,1,1,1,0,0
556,2502,10482,expressbus,4G,1,1,1,1,1,0,0
562,2503,10482,expressbus,4G,1,1,1,1,1,0,0
568,2504,10482,expressbus,4G,1,1,1,1,1,0,0
578,2505,10482,expressbus,4G,1,1,1,1,1,0,0
590,2506,10482,expressbus,4G,1,1,1,1,1,0,0
601,2507,10482,expressbus,4G,1,1,1,1,1,0,0
612,2508,10482,expressbus,4G,1,1,1,1,1,0,0
623,2509,10482,expressbus,4G,1,1,1,1,1,0,0
633,2510,10482,expressbus,4G,1,1,1,1,1,0,0
641,2511,10482,expressbus,4G,1,1,1,1,1,0,0
649,2512,10482,expressbus,4G,1,1,1,1,1,0,0
660,2513,10482,expressbus,4G,1,1,1,1,1,0,0
673,2514,10482,expressbus,4G,1,1,1,1,1,0,0
685,2515,10482,expressbus,4G,1,1,1,1,1,0,0
697,2516,10482,expressbus,4G,1,1,1,1,1,0,0
709,2517,10482,expressbus,4G,1,1,1,1,1,0,0
721,2518,10482,expressbus,4G,1,1,1,1,1,0,0
732,2519,10482,expressbus,4G,1,1,1,1,1,0,0
743,2520,10482,expressbus,4G,1,1,1,1,1,0,0
751,2521,10482,expressbus,4G,1,1,1,1,1,0,0
761,2522,10482,expressbus,4G,1,1,1,1,1,0,0
773,2523,10482,expressbus,4G,1,1,1,1,1,0,0
785,2524,10482,expressbus,4G,1,1,1,1,1,0,0
796,2525,10482,expressbus,4G,1,1,1,1,1,0,0
806,2526,10482,expressbus,4G,1,1,1,1,1,0,0
816,2527,10482,expressbus,4G,1,1,1,1,1,0,0
828,2528,10482,expressbus,4G,1,1,1,1,1,0,0
840,2529,10482,expressbus,4G,1,1,1,1,1,0,0
850,2530,10482,expressbus,4G,1,1,1,1,1,0,0
862,2531,10482,expressbus,4G,1,1,1,1,1,0,0
876,2532,10482,expressbus,4G,1,1,1,1,1,0,0
885,2533,10482,expressbus,4G,1,1,1,1,1,0,0
897,2534,10482,expressbus,4G,1,1,1,1,1,0,0
908,2535,10482,expressbus,4G,1,1,1,1,1,0,0
916,2536,10482,expressbus,4G,1,1,1,1,1,0,0
924,2537,10482,expressbus,4G,1,1,1,1,1,0,0
931,2538,10482,expressbus,4G,1,1,1,1,1,0,0
938,2539,10482,expressbus,4G,1,1,1,1,1,0,0
945,2540,10482,expressbus,4G,1,1,1,1,1,0,0
950,2541,10482,expressbus,4G,1,1,1,1,1,0,0
956,2542,10482,expressbus,4G,1,1,1,1,1,0,0
962,2543,10482,expressbus,4G,1,1,1,1,1,0,0
967,2544,10482,expressbus,4G,1,1,1,1,1,0,0
972,2545,10482,expressbus,4G,1,1,1,1,1,0,0
979,2546,10482,expressbus,4G,1,1,1,1,1,0,0
985,2547,10482,expressbus,4G,1,1,1,1,1,0,0
991,2548,10482,expressbus,4G,1,1,1,1,1,0,0
997,2549,10482,expressbus,4G,1,1,1,1,1,0,0
1003,2550,10482,expressbus,4G,1,1,1,1,1,0,0
1009,2551,10482,expressbus,4G,1,1,1,1,1,0,0
1015,2552,10482,expressbus,4G,1,1,1,1,1,0,0
1021,2553,10482,expressbus,4G,1,1,1,1,1,0,0
1028,2554,10482,expressbus,4G,1,1,1,1,1,0,0
1036,2555,10482,expressbus,4G,1,1,1,1,1,0,0
1043,2556,10482,expressbus,4G,1,1,1,1,1,0,0
1051,2557,10482,expressbus,4G,1,1,1,1,1,0,0
1057,2558,10482,expressbus,4G,1,1,1,1,1,0,0
1064,2559,10482,expressbus,4G,1,1,1,1,1,0,0
1071,2560,10482,expressbus,4G,1,1,1,1,1,0,0
1078,2561,10482,expressbus,4G,1,1,1,1,1,0,0
1084,2562,10482,expressbus,4G,1,1,1,1,1,0,0
1091,2563,10482,expressbus,4G,1,1,1,1,1,0,0
1099,2564,10482,expressbus,4G,1,1,1,1,1,0,0
1107,2565,10482,expressbus,4G,1,1,1,1,1,0,0
1116,2566,10482,expressbus,4G,1,1,1,1,1,0,0
1127,2567,10482,expressbus,4G,1,1,1,1,1,0,0
1136,2568,10482,expressbus,4G,1,1,1,1,1,0,0
1147,2569,10482,expressbus,4G,1,1,1,1,1,0,0
1160,2570,10482,expressbus,4G,1,1,1,1,1,0,0
1174,2571,10482,expressbus,4G,1,1,1,1,1,0,0
1187,2572,10482,expressbus,4G,1,1,1,1,1,0,0
1199,2573,10482,expressbus,4G,1,1,1,1,1,0,0
1209,2574,10482,expressbus,4G,1,1,1,1,1,0,0
1223,2575,10482,expressbus,4G,1,1,1,1,1,0,0
1237,2576,10482,expressbus,4G,1,1,1,1,1,0,0
1249,2577,10482,expressbus,4G,1,1,1,1,1,0,0
1260,2578,10482,expressbus,4G,1,1,1,1,1,0,0
1270,2579,10482,expressbus,4G,1,1,1,1,1,0,0
1280,2580,10482,expressbus,4G,1,1,1,1,1,0,0
1291,2581,10482,expressbus,4G,1,1,1,1,1,0,0
1302,2582,10482,expressbus,4G,1,1,1,1,1,0,0
1313,2583,10482,expressbus,4G,1,1,1,1,1,0,0
1323,2584,10482,expressbus,4G,1,1,1,1,1,0,0
1334,2585,10482,expressbus,4G,1,1,1,1,1,0,0
1346,2586,10482,expressbus,4G,1,1,1,1,1,0,0
1359,2587,10482,expressbus,4G,1,1,1,1,1,0,0
1371,2588,10482,expressbus,4G,1,1,1,1,1,0,0
1387,2589,10482,expressbus,4G,1,1,1,1,1,0,0
1409,2590,10482,expressbus,4G,1,1,1,1,1,0,0
348,2591,10483,expressbus,4G,0,0,0,0,0,1,0
368,2592,10483,expressbus,4G,0,0,0,0,0,1,0
393,2593,10483,expressbus,4G,0,0,0,0,0,1,0
408,2594,10483,expressbus,4G,0,0,0,0,0,1,0
424,2595,10483,expressbus,4G,0,0,0,0,0,1,0
439,2596,10483,expressbus,4G,0,0,0,0,0,1,0
457,2597,10483,expressbus,4G,0,0,0,0,0,1,0
471,2598,10483,expressbus,4G,0,0,0,0,0,1,0
487,2599,10483,expressbus,4G,0,0,0,0,0,1,0
502,2600,10483,expressbus,4G,0,0,0,0,0,1,0
518,2601,10483,expressbus,4G,0,0,0,0,0,1,0
531,2602,10483,expressbus,4G,0,0,0,0,0,1,0
548,2603,10483,expressbus,4G,0,0,0,0,0,1,0
563,2604,10483,expressbus,4G,0,0,0,0,0,1,0
580,2605,10483,expressbus,4G,0,0,0,0,0,1,0
594,2606,10483,expressbus,4G,0,0,0,0,0,1,0
610,2607,10483,expressbus,4G,0,0,0,0,0,1,0
624,2608,10483,expressbus,4G,0,0,0,0,0,1,0
638,2609,10483,expressbus,4G,0,0,0,0,0,1,0
652,2610,10483,expressbus,4G,0,0,0,0,0,1,0
664,2611,10483,expressbus,4G,0,0,0,0,0,1,0
679,2612,10483,expressbus,4G,0,0,0,0,0,1,0
691,2613,10483,expressbus,4G,0,0,0,0,0,1,0
706,2614,10483,expressbus,4G,0,0,0,0,0,1,0
718,2615,10483,expressbus,4G,0,0,0,0,0,1,0
730,2616,10483,expressbus,4G,0,0,0,0,0,1,0
742,2617,10483,expressbus,4G,0,0,0,0,0,1,0
754,2618,10483,expressbus,4G,0,0,0,0,0,1,0
769,2619,10483,expressbus,4G,0,0,0,0,0,1,0
785,2620,10483,expressbus,4G,0,0,0,0,0,1,0
798,2621,10483,expressbus,4G,0,0,0,0,0,1,0
809,2622,10483,expressbus,4G,0,0,0,0,0,1,0
822,2623,10483,expressbus,4G,0,0,0,0,0,1,0
835,2624,10483,expressbus,4G,0,0,0,0,0,1,0
849,2625,10483,expressbus,4G,0,0,0,0,0,1,0
861,2626,10483,expressbus,4G,0,0,0,0,0,1,0
871,2627,10483,expressbus,4G,0,0,0,0,0,1,0
885,2628,10483,expressbus,4G,0,0,0,0,0,1,0
898,2629,10483,expressbus,4G,0,0,0,0,0,1,0
909,2630,10483,expressbus,4G,0,0,0,0,0,1,0
921,2631,10483,expressbus,4G,0,0,0,0,0,1,0
933,2632,10483,expressbus,4G,0,0,0,0,0,1,0
946,2633,10483,expressbus,4G,0,0,0,0,0,1,0
960,2634,10483,expressbus,4G,0,0,0,0,0,1,0
971,2635,10483,expressbus,4G,0,0,0,0,0,1,0
983,2636,10483,expressbus,4G,0,0,0,0,0,1,0
995,2637,10483,expressbus,4G,0,0,0,0,0,1,0
1005,2638,10483,expressbus,4G,0,0,0,0,0,1,0
1017,2639,10483,expressbus,4G,0,0,0,0,0,1,0
1029,2640,10483,expressbus,4G,0,0,0,0,0,1,0
1040,2641,10483,expressbus,4G,0,0,0,0,0,1,0
1055,2642,10483,expressbus,4G,0,0,0,0,0,1,0
1070,2643,10483,expressbus,4G,0,0,0,0,0,1,0
1084,2644,10483,expressbus,4G,0,0,0,0,0,1,0
1098,2645,10483,expressbus,4G,0,0,0,0,0,1,0
1117,2646,10483,expressbus,4G,0,0,0,0,0,1,0
1138,2647,10483,expressbus,4G,0,0,0,0,0,1,0
1157,2648,10483,expressbus,4G,0,0,0,0,0,1,0
1174,2649,10483,expressbus,4G,0,0,0,0,0,1,0
1192,2650,10483,expressbus,4G,0,0,0,0,0,1,0
1216,2651,10483,expressbus,4G,0,0,0,0,0,1,0
1229,2652,10483,expressbus,4G,0,0,0,0,0,1,0
1245,2653,10483,expressbus,4G,0,0,0,0,0,1,0
1258,2654,10483,expressbus,4G,0,0,0,0,0,1,0
1278,2655,10483,expressbus,4G,0,0,0,0,0,1,0
1293,2656,10483,expressbus,4G,0,0,0,0,0,1,0
1310,2657,10483,expressbus,4G,0,0,0,0,0,1,0
1324,2658,10483,expressbus,4G,0,0,0,0,0,1,0
1339,2659,10483,expressbus,4G,0,0,0,0,0,1,0
1354,2660,10483,expressbus,4G,0,0,0,0,0,1,0
1370,2661,10483,expressbus,4G,0,0,0,0,0,1,0
1389,2662,10483,expressbus,4G,0,0,0,0,0,1,0
1410,2663,10483,expressbus,4G,0,0,0,0,0,1,0
393,2664,10484,expressbus,4G,0,0,0,0,0,0,1
408,2665,10484,expressbus,4G,0,0,0,0,0,0,1
424,2666,10484,expressbus,4G,0,0,0,0,0,0,1
439,2667,10484,expressbus,4G,0,0,0,0,0,0,1
457,2668,10484,expressbus,4G,0,0,0,0,0,0,1
471,2669,10484,expressbus,4G,0,0,0,0,0,0,1
487,2670,10484,expressbus,4G,0,0,0,0,0,0,1
502,2671,10484,expressbus,4G,0,0,0,0,0,0,1
518,2672,10484,expressbus,4G,0,0,0,0,0,0,1
531,2673,10484,expressbus,4G,0,0,0,0,0,0,1
548,2674,10484,expressbus,4G,0,0,0,0,0,0,1
563,2675,10484,expressbus,4G,0,0,0,0,0,0,1
580,2676,10484,expressbus,4G,0,0,0,0,0,0,1
594,2677,10484,expressbus,4G,0,0,0,0,0,0,1
610,2678,10484,expressbus,4G,0,0,0,0,0,0,1
624,2679,10484,expressbus,4G,0,0,0,0,0,0,1
638,2680,10484,expressbus,4G,0,0,0,0,0,0,1
652,2681,10484,expressbus,4G,0,0,0,0,0,0,1
664,2682,10484,expressbus,4G,0,0,0,0,0,0,1
679,2683,10484,expressbus,4G,0,0,0,0,0,0,1
691,2684,10484,expressbus,4G,0,0,0,0,0,0,1
706,2685,10484,expressbus,4G,0,0,0,0,0,0,1
718,2686,10484,expressbus,4G,0,0,0,0,0,0,1
730,2687,10484,expressbus,4G,0,0,0,0,0,0,1
742,2688,10484,expressbus,4G,0,0,0,0,0,0,1
754,2689,10484,expressbus,4G,0,0,0,0,0,0,1
769,2690,10484,expressbus,4G,0,0,0,0,0,0,1
785,2691,10484,expressbus,4G,0,0,0,0,0,0,1
798,2692,10484,expressbus,4G,0,0,0,0,0,0,1
809,2693,10484,expressbus,4G,0,0,0,0,0,0,1
822,2694,10484,expressbus,4G,0,0,0,0,0,0,1
835,2695,10484,expressbus,4G,0,0,0,0,0,0,1
849,2696,10484,expressbus,4G,0,0,0,0,0,0,1
861,2697,10484,expressbus,4G,0,0,0,0,0,0,1
871,2698,10484,expressbus,4G,0,0,0,0,0,0,1
885,2699,10484,expressbus,4G,0,0,0,0,0,0,1
898,2700,10484,expressbus,4G,0,0,0,0,0,0,1
909,2701,10484,expressbus,4G,0,0,0,0,0,0,1
921,2702,10484,expressbus,4G,0,0,0,0,0,0,1
933,2703,10484,expressbus,4G,0,0,0,0,0,0,1
946,2704,10484,expressbus,4G,0,0,0,0,0,0,1
960,2705,10484,expressbus,4G,0,0,0,0,0,0,1
971,2706,10484,expressbus,4G,0,0,0,0,0,0,1
983,2707,10484,expressbus,4G,0,0,0,0,0,0,1
995,2708,10484,expressbus,4G,0,0,0,0,0,0,1
1005,2709,10484,expressbus,4G,0,0,0,0,0,0,1
1017,2710,10484,expressbus,4G,0,0,0,0,0,0,1
1029,2711,10484,expressbus,4G,0,0,0,0,0,0,1
1040,2712,10484,expressbus,4G,0,0,0,0,0,0,1
1055,2713,10484,expressbus,4G,0,0,0,0,0,0,1
1070,2714,10484,expressbus,4G,0,0,0,0,0,0,1
1084,2715,10484,expressbus,4G,0,0,0,0,0,0,1
1098,2716,10484,expressbus,4G,0,0,0,0,0,0,1
1117,2717,10484,expressbus,4G,0,0,0,0,0,0,1
1138,2718,10484,expressbus,4G,0,0,0,0,0,0,1
1157,2719,10484,expressbus,4G,0,0,0,0,0,0,1
1174,2720,10484,expressbus,4G,0,0,0,0,0,0,1
1192,2721,10484,expressbus,4G,0,0,0,0,0,0,1
1216,2722,10484,expressbus,4G,0,0,0,0,0,0,1
1229,2723,10484,expressbus,4G,0,0,0,0,0,0,1
1245,2724,10484,expressbus,4G,0,0,0,0,0,0,1
1258,2725,10484,expressbus,4G,0,0,0,0,0,0,1
1278,2726,10484,expressbus,4G,0,0,0,0,0,0,1
1293,2727,10484,expressbus,4G,0,0,0,0,0,0,1
1310,2728,10484,expressbus,4G,0,0,0,0,0,0,1
1324,2729,10484,expressbus,4G,0,0,0,0,0,0,1
1339,2730,10484,expressbus,4G,0,0,0,0,0,0,1
1354,2731,10484,expressbus,4G,0,0,0,0,0,0,1
1370,2732,10484,expressbus,4G,0,0,0,0,0,0,1
1389,2733,10484,expressbus,4G,0,0,0,0,0,0,1
1410,2734,10484,expressbus,4G,0,0,0,0,0,0,1
317,3061,10482,expressbus,4G,1,1,1,1,1,0,0
335,3062,10482,expressbus,4G,1,1,1,1,1,0,0
322,3063,10483,expressbus,4G,0,0,0,0,0,1,0
368,3064,10484,expressbus,4G,0,0,0,0,0,0,1
349,3243,10330,expressbus,5G,1,1,1,1,1,0,0
361,3244,10330,expressbus,5G,1,1,1,1,1,0,0
373,3245,10330,expressbus,5G,1,1,1,1,1,0,0
384,3246,10330,expressbus,5G,1,1,1,1,1,0,0
395,3247,10330,expressbus,5G,1,1,1,1,1,0,0
403,3248,10330,expressbus,5G,1,1,1,1,1,0,0
410,3249,10330,expressbus,5G,1,1,1,1,1,0,0
417,3250,10330,expressbus,5G,1,1,1,1,1,0,0
425,3251,10330,expressbus,5G,1,1,1,1,1,0,0
432,3252,10330,expressbus,5G,1,1,1,1,1,0,0
438,3253,10330,expressbus,5G,1,1,1,1,1,0,0
447,3254,10330,expressbus,5G,1,1,1,1,1,0,0
452,3255,10330,expressbus,5G,1,1,1,1,1,0,0
458,3256,10330,expressbus,5G,1,1,1,1,1,0,0
465,3257,10330,expressbus,5G,1,1,1,1,1,0,0
471,3258,10330,expressbus,5G,1,1,1,1,1,0,0
477,3259,10330,expressbus,5G,1,1,1,1,1,0,0
483,3260,10330,expressbus,5G,1,1,1,1,1,0,0
489,3261,10330,expressbus,5G,1,1,1,1,1,0,0
495,3262,10330,expressbus,5G,1,1,1,1,1,0,0
502,3263,10330,expressbus,5G,1,1,1,1,1,0,0
510,3264,10330,expressbus,5G,1,1,1,1,1,0,0
518,3265,10330,expressbus,5G,1,1,1,1,1,0,0
526,3266,10330,expressbus,5G,1,1,1,1,1,0,0
533,3267,10330,expressbus,5G,1,1,1,1,1,0,0
539,3268,10330,expressbus,5G,1,1,1,1,1,0,0
546,3269,10330,expressbus,5G,1,1,1,1,1,0,0
553,3270,10330,expressbus,5G,1,1,1,1,1,0,0
559,3271,10330,expressbus,5G,1,1,1,1,1,0,0
565,3272,10330,expressbus,5G,1,1,1,1,1,0,0
569,3273,10330,expressbus,5G,1,1,1,1,1,0,0
575,3274,10330,expressbus,5G,1,1,1,1,1,0,0
581,3275,10330,expressbus,5G,1,1,1,1,1,0,0
585,3276,10330,expressbus,5G,1,1,1,1,1,0,0
591,3277,10330,expressbus,5G,1,1,1,1,1,0,0
598,3278,10330,expressbus,5G,1,1,1,1,1,0,0
605,3279,10330,expressbus,5G,1,1,1,1,1,0,0
613,3280,10330,expressbus,5G,1,1,1,1,1,0,0
621,3281,10330,expressbus,5G,1,1,1,1,1,0,0
628,3282,10330,expressbus,5G,1,1,1,1,1,0,0
634,3283,10330,expressbus,5G,1,1,1,1,1,0,0
641,3284,10330,expressbus,5G,1,1,1,1,1,0,0
650,3285,10330,expressbus,5G,1,1,1,1,1,0,0
660,3286,10330,expressbus,5G,1,1,1,1,1,0,0
668,3287,10330,expressbus,5G,1,1,1,1,1,0,0
677,3288,10330,expressbus,5G,1,1,1,1,1,0,0
686,3289,10330,expressbus,5G,1,1,1,1,1,0,0
694,3290,10330,expressbus,5G,1,1,1,1,1,0,0
704,3291,10330,expressbus,5G,1,1,1,1,1,0,0
713,3292,10330,expressbus,5G,1,1,1,1,1,0,0
723,3293,10330,expressbus,5G,1,1,1,1,1,0,0
734,3294,10330,expressbus,5G,1,1,1,1,1,0,0
745,3295,10330,expressbus,5G,1,1,1,1,1,0,0
758,3296,10330,expressbus,5G,1,1,1,1,1,0,0
769,3297,10330,expressbus,5G,1,1,1,1,1,0,0
780,3298,10330,expressbus,5G,1,1,1,1,1,0,0
789,3299,10330,expressbus,5G,1,1,1,1,1,0,0
797,3300,10330,expressbus,5G,1,1,1,1,1,0,0
806,3301,10330,expressbus,5G,1,1,1,1,1,0,0
816,3302,10330,expressbus,5G,1,1,1,1,1,0,0
827,3303,10330,expressbus,5G,1,1,1,1,1,0,0
838,3304,10330,expressbus,5G,1,1,1,1,1,0,0
851,3305,10330,expressbus,5G,1,1,1,1,1,0,0
862,3306,10330,expressbus,5G,1,1,1,1,1,0,0
873,3307,10330,expressbus,5G,1,1,1,1,1,0,0
882,3308,10330,expressbus,5G,1,1,1,1,1,0,0
890,3309,10330,expressbus,5G,1,1,1,1,1,0,0
899,3310,10330,expressbus,5G,1,1,1,1,1,0,0
909,3311,10330,expressbus,5G,1,1,1,1,1,0,0
920,3312,10330,expressbus,5G,1,1,1,1,1,0,0
931,3313,10330,expressbus,5G,1,1,1,1,1,0,0
944,3314,10330,expressbus,5G,1,1,1,1,1,0,0
955,3315,10330,expressbus,5G,1,1,1,1,1,0,0
966,3316,10330,expressbus,5G,1,1,1,1,1,0,0
975,3317,10330,expressbus,5G,1,1,1,1,1,0,0
983,3318,10330,expressbus,5G,1,1,1,1,1,0,0
989,3319,10330,expressbus,5G,1,1,1,1,1,0,0
996,3320,10330,expressbus,5G,1,1,1,1,1,0,0
1002,3321,10330,expressbus,5G,1,1,1,1,1,0,0
1008,3322,10330,expressbus,5G,1,1,1,1,1,0,0
1014,3323,10330,expressbus,5G,1,1,1,1,1,0,0
1020,3324,10330,expressbus,5G,1,1,1,1,1,0,0
1026,3325,10330,expressbus,5G,1,1,1,1,1,0,0
1032,3326,10330,expressbus,5G,1,1,1,1,1,0,0
1038,3327,10330,expressbus,5G,1,1,1,1,1,0,0
1044,3328,10330,expressbus,5G,1,1,1,1,1,0,0
1051,3329,10330,expressbus,5G,1,1,1,1,1,0,0
1058,3330,10330,expressbus,5G,1,1,1,1,1,0,0
1065,3331,10330,expressbus,5G,1,1,1,1,1,0,0
1073,3332,10330,expressbus,5G,1,1,1,1,1,0,0
1081,3333,10330,expressbus,5G,1,1,1,1,1,0,0
1089,3334,10330,expressbus,5G,1,1,1,1,1,0,0
1095,3335,10330,expressbus,5G,1,1,1,1,1,0,0
1100,3336,10330,expressbus,5G,1,1,1,1,1,0,0
1108,3337,10330,expressbus,5G,1,1,1,1,1,0,0
1115,3338,10330,expressbus,5G,1,1,1,1,1,0,0
1122,3339,10330,expressbus,5G,1,1,1,1,1,0,0
1128,3340,10330,expressbus,5G,1,1,1,1,1,0,0
1134,3341,10330,expressbus,5G,1,1,1,1,1,0,0
1140,3342,10330,expressbus,5G,1,1,1,1,1,0,0
1145,3343,10330,expressbus,5G,1,1,1,1,1,0,0
1152,3344,10330,expressbus,5G,1,1,1,1,1,0,0
1159,3345,10330,expressbus,5G,1,1,1,1,1,0,0
1170,3346,10330,expressbus,5G,1,1,1,1,1,0,0
1184,3347,10330,expressbus,5G,1,1,1,1,1,0,0
1194,3348,10330,expressbus,5G,1,1,1,1,1,0,0
1209,3349,10330,expressbus,5G,1,1,1,1,1,0,0
1218,3350,10330,expressbus,5G,1,1,1,1,1,0,0
1230,3351,10330,expressbus,5G,1,1,1,1,1,0,0
1243,3352,10330,expressbus,5G,1,1,1,1,1,0,0
1254,3353,10330,expressbus,5G,1,1,1,1,1,0,0
1264,3354,10330,expressbus,5G,1,1,1,1,1,0,0
1275,3355,10330,expressbus,5G,1,1,1,1,1,0,0
1285,3356,10330,expressbus,5G,1,1,1,1,1,0,0
1294,3357,10330,expressbus,5G,1,1,1,1,1,0,0
1305,3358,10330,expressbus,5G,1,1,1,1,1,0,0
1312,3359,10330,expressbus,5G,1,1,1,1,1,0,0
1321,3360,10330,expressbus,5G,1,1,1,1,1,0,0
1332,3361,10330,expressbus,5G,1,1,1,1,1,0,0
1342,3362,10330,expressbus,5G,1,1,1,1,1,0,0
1352,3363,10330,expressbus,5G,1,1,1,1,1,0,0
1363,3364,10330,expressbus,5G,1,1,1,1,1,0,0
1373,3365,10330,expressbus,5G,1,1,1,1,1,0,0
1385,3366,10330,expressbus,5G,1,1,1,1,1,0,0
1396,3367,10330,expressbus,5G,1,1,1,1,1,0,0
1409,3368,10330,expressbus,5G,1,1,1,1,1,0,0
1420,3369,10330,expressbus,5G,1,1,1,1,1,0,0
339,3370,10331,expressbus,5G,0,0,0,0,0,1,0
355,3371,10331,expressbus,5G,0,0,0,0,0,1,0
372,3372,10331,expressbus,5G,0,0,0,0,0,1,0
386,3373,10331,expressbus,5G,0,0,0,0,0,1,0
400,3374,10331,expressbus,5G,0,0,0,0,0,1,0
414,3375,10331,expressbus,5G,0,0,0,0,0,1,0
428,3376,10331,expressbus,5G,0,0,0,0,0,1,0
441,3377,10331,expressbus,5G,0,0,0,0,0,1,0
452,3378,10331,expressbus,5G,0,0,0,0,0,1,0
464,3379,10331,expressbus,5G,0,0,0,0,0,1,0
477,3380,10331,expressbus,5G,0,0,0,0,0,1,0
489,3381,10331,expressbus,5G,0,0,0,0,0,1,0
503,3382,10331,expressbus,5G,0,0,0,0,0,1,0
516,3383,10331,expressbus,5G,0,0,0,0,0,1,0
529,3384,10331,expressbus,5G,0,0,0,0,0,1,0
542,3385,10331,expressbus,5G,0,0,0,0,0,1,0
554,3386,10331,expressbus,5G,0,0,0,0,0,1,0
566,3387,10331,expressbus,5G,0,0,0,0,0,1,0
578,3388,10331,expressbus,5G,0,0,0,0,0,1,0
591,3389,10331,expressbus,5G,0,0,0,0,0,1,0
606,3390,10331,expressbus,5G,0,0,0,0,0,1,0
620,3391,10331,expressbus,5G,0,0,0,0,0,1,0
633,3392,10331,expressbus,5G,0,0,0,0,0,1,0
644,3393,10331,expressbus,5G,0,0,0,0,0,1,0
655,3394,10331,expressbus,5G,0,0,0,0,0,1,0
665,3395,10331,expressbus,5G,0,0,0,0,0,1,0
677,3396,10331,expressbus,5G,0,0,0,0,0,1,0
685,3397,10331,expressbus,5G,0,0,0,0,0,1,0
694,3398,10331,expressbus,5G,0,0,0,0,0,1,0
702,3399,10331,expressbus,5G,0,0,0,0,0,1,0
711,3400,10331,expressbus,5G,0,0,0,0,0,1,0
722,3401,10331,expressbus,5G,0,0,0,0,0,1,0
736,3402,10331,expressbus,5G,0,0,0,0,0,1,0
751,3403,10331,expressbus,5G,0,0,0,0,0,1,0
765,3404,10331,expressbus,5G,0,0,0,0,0,1,0
775,3405,10331,expressbus,5G,0,0,0,0,0,1,0
783,3406,10331,expressbus,5G,0,0,0,0,0,1,0
793,3407,10331,expressbus,5G,0,0,0,0,0,1,0
803,3408,10331,expressbus,5G,0,0,0,0,0,1,0
811,3409,10331,expressbus,5G,0,0,0,0,0,1,0
819,3410,10331,expressbus,5G,0,0,0,0,0,1,0
827,3411,10331,expressbus,5G,0,0,0,0,0,1,0
835,3412,10331,expressbus,5G,0,0,0,0,0,1,0
846,3413,10331,expressbus,5G,0,0,0,0,0,1,0
858,3414,10331,expressbus,5G,0,0,0,0,0,1,0
869,3415,10331,expressbus,5G,0,0,0,0,0,1,0
878,3416,10331,expressbus,5G,0,0,0,0,0,1,0
892,3417,10331,expressbus,5G,0,0,0,0,0,1,0
908,3418,10331,expressbus,5G,0,0,0,0,0,1,0
915,3419,10331,expressbus,5G,0,0,0,0,0,1,0
922,3420,10331,expressbus,5G,0,0,0,0,0,1,0
929,3421,10331,expressbus,5G,0,0,0,0,0,1,0
938,3422,10331,expressbus,5G,0,0,0,0,0,1,0
946,3423,10331,expressbus,5G,0,0,0,0,0,1,0
956,3424,10331,expressbus,5G,0,0,0,0,0,1,0
967,3425,10331,expressbus,5G,0,0,0,0,0,1,0
977,3426,10331,expressbus,5G,0,0,0,0,0,1,0
985,3427,10331,expressbus,5G,0,0,0,0,0,1,0
994,3428,10331,expressbus,5G,0,0,0,0,0,1,0
1002,3429,10331,expressbus,5G,0,0,0,0,0,1,0
1009,3430,10331,expressbus,5G,0,0,0,0,0,1,0
1017,3431,10331,expressbus,5G,0,0,0,0,0,1,0
1026,3432,10331,expressbus,5G,0,0,0,0,0,1,0
1035,3433,10331,expressbus,5G,0,0,0,0,0,1,0
1043,3434,10331,expressbus,5G,0,0,0,0,0,1,0
1053,3435,10331,expressbus,5G,0,0,0,0,0,1,0
1062,3436,10331,expressbus,5G,0,0,0,0,0,1,0
1072,3437,10331,expressbus,5G,0,0,0,0,0,1,0
1082,3438,10331,expressbus,5G,0,0,0,0,0,1,0
1092,3439,10331,expressbus,5G,0,0,0,0,0,1,0
1099,3440,10331,expressbus,5G,0,0,0,0,0,1,0
1108,3441,10331,expressbus,5G,0,0,0,0,0,1,0
1118,3442,10331,expressbus,5G,0,0,0,0,0,1,0
1128,3443,10331,expressbus,5G,0,0,0,0,0,1,0
1138,3444,10331,expressbus,5G,0,0,0,0,0,1,0
1150,3445,10331,expressbus,5G,0,0,0,0,0,1,0
1168,3446,10331,expressbus,5G,0,0,0,0,0,1,0
1183,3447,10331,expressbus,5G,0,0,0,0,0,1,0
1198,3448,10331,expressbus,5G,0,0,0,0,0,1,0
1216,3449,10331,expressbus,5G,0,0,0,0,0,1,0
1236,3450,10331,expressbus,5G,0,0,0,0,0,1,0
1252,3451,10331,expressbus,5G,0,0,0,0,0,1,0
1268,3452,10331,expressbus,5G,0,0,0,0,0,1,0
1281,3453,10331,expressbus,5G,0,0,0,0,0,1,0
1297,3454,10331,expressbus,5G,0,0,0,0,0,1,0
1314,3455,10331,expressbus,5G,0,0,0,0,0,1,0
1325,3456,10331,expressbus,5G,0,0,0,0,0,1,0
1339,3457,10331,expressbus,5G,0,0,0,0,0,1,0
1353,3458,10331,expressbus,5G,0,0,0,0,0,1,0
1368,3459,10331,expressbus,5G,0,0,0,0,0,1,0
1380,3460,10331,expressbus,5G,0,0,0,0,0,1,0
1396,3461,10331,expressbus,5G,0,0,0,0,0,1,0
372,3462,10332,expressbus,5G,0,0,0,0,0,0,1
386,3463,10332,expressbus,5G,0,0,0,0,0,0,1
400,3464,10332,expressbus,5G,0,0,0,0,0,0,1
414,3465,10332,expressbus,5G,0,0,0,0,0,0,1
428,3466,10332,expressbus,5G,0,0,0,0,0,0,1
441,3467,10332,expressbus,5G,0,0,0,0,0,0,1
452,3468,10332,expressbus,5G,0,0,0,0,0,0,1
464,3469,10332,expressbus,5G,0,0,0,0,0,0,1
477,3470,10332,expressbus,5G,0,0,0,0,0,0,1
489,3471,10332,expressbus,5G,0,0,0,0,0,0,1
503,3472,10332,expressbus,5G,0,0,0,0,0,0,1
516,3473,10332,expressbus,5G,0,0,0,0,0,0,1
529,3474,10332,expressbus,5G,0,0,0,0,0,0,1
542,3475,10332,expressbus,5G,0,0,0,0,0,0,1
554,3476,10332,expressbus,5G,0,0,0,0,0,0,1
566,3477,10332,expressbus,5G,0,0,0,0,0,0,1
578,3478,10332,expressbus,5G,0,0,0,0,0,0,1
591,3479,10332,expressbus,5G,0,0,0,0,0,0,1
606,3480,10332,expressbus,5G,0,0,0,0,0,0,1
620,3481,10332,expressbus,5G,0,0,0,0,0,0,1
633,3482,10332,expressbus,5G,0,0,0,0,0,0,1
644,3483,10332,expressbus,5G,0,0,0,0,0,0,1
655,3484,10332,expressbus,5G,0,0,0,0,0,0,1
665,3485,10332,expressbus,5G,0,0,0,0,0,0,1
677,3486,10332,expressbus,5G,0,0,0,0,0,0,1
685,3487,10332,expressbus,5G,0,0,0,0,0,0,1
694,3488,10332,expressbus,5G,0,0,0,0,0,0,1
702,3489,10332,expressbus,5G,0,0,0,0,0,0,1
711,3490,10332,expressbus,5G,0,0,0,0,0,0,1
722,3491,10332,expressbus,5G,0,0,0,0,0,0,1
736,3492,10332,expressbus,5G,0,0,0,0,0,0,1
751,3493,10332,expressbus,5G,0,0,0,0,0,0,1
765,3494,10332,expressbus,5G,0,0,0,0,0,0,1
775,3495,10332,expressbus,5G,0,0,0,0,0,0,1
783,3496,10332,expressbus,5G,0,0,0,0,0,0,1
793,3497,10332,expressbus,5G,0,0,0,0,0,0,1
803,3498,10332,expressbus,5G,0,0,0,0,0,0,1
811,3499,10332,expressbus,5G,0,0,0,0,0,0,1
819,3500,10332,expressbus,5G,0,0,0,0,0,0,1
827,3501,10332,expressbus,5G,0,0,0,0,0,0,1
835,3502,10332,expressbus,5G,0,0,0,0,0,0,1
846,3503,10332,expressbus,5G,0,0,0,0,0,0,1
858,3504,10332,expressbus,5G,0,0,0,0,0,0,1
869,3505,10332,expressbus,5G,0,0,0,0,0,0,1
878,3506,10332,expressbus,5G,0,0,0,0,0,0,1
892,3507,10332,expressbus,5G,0,0,0,0,0,0,1
908,3508,10332,expressbus,5G,0,0,0,0,0,0,1
915,3509,10332,expressbus,5G,0,0,0,0,0,0,1
922,3510,10332,expressbus,5G,0,0,0,0,0,0,1
929,3511,10332,expressbus,5G,0,0,0,0,0,0,1
938,3512,10332,expressbus,5G,0,0,0,0,0,0,1
946,3513,10332,expressbus,5G,0,0,0,0,0,0,1
956,3514,10332,expressbus,5G,0,0,0,0,0,0,1
967,3515,10332,expressbus,5G,0,0,0,0,0,0,1
977,3516,10332,expressbus,5G,0,0,0,0,0,0,1
985,3517,10332,expressbus,5G,0,0,0,0,0,0,1
994,3518,10332,expressbus,5G,0,0,0,0,0,0,1
1002,3519,10332,expressbus,5G,0,0,0,0,0,0,1
1009,3520,10332,expressbus,5G,0,0,0,0,0,0,1
1017,3521,10332,expressbus,5G,0,0,0,0,0,0,1
1026,3522,10332,expressbus,5G,0,0,0,0,0,0,1
1035,3523,10332,expressbus,5G,0,0,0,0,0,0,1
1043,3524,10332,expressbus,5G,0,0,0,0,0,0,1
1053,3525,10332,expressbus,5G,0,0,0,0,0,0,1
1062,3526,10332,expressbus,5G,0,0,0,0,0,0,1
1072,3527,10332,expressbus,5G,0,0,0,0,0,0,1
1082,3528,10332,expressbus,5G,0,0,0,0,0,0,1
1092,3529,10332,expressbus,5G,0,0,0,0,0,0,1
1099,3530,10332,expressbus,5G,0,0,0,0,0,0,1
1108,3531,10332,expressbus,5G,0,0,0,0,0,0,1
1118,3532,10332,expressbus,5G,0,0,0,0,0,0,1
1128,3533,10332,expressbus,5G,0,0,0,0,0,0,1
1138,3534,10332,expressbus,5G,0,0,0,0,0,0,1
1150,3535,10332,expressbus,5G,0,0,0,0,0,0,1
1168,3536,10332,expressbus,5G,0,0,0,0,0,0,1
1183,3537,10332,expressbus,5G,0,0,0,0,0,0,1
1198,3538,10332,expressbus,5G,0,0,0,0,0,0,1
1216,3539,10332,expressbus,5G,0,0,0,0,0,0,1
1236,3540,10332,expressbus,5G,0,0,0,0,0,0,1
1252,3541,10332,expressbus,5G,0,0,0,0,0,0,1
1268,3542,10332,expressbus,5G,0,0,0,0,0,0,1
1281,3543,10332,expressbus,5G,0,0,0,0,0,0,1
1297,3544,10332,expressbus,5G,0,0,0,0,0,0,1
1314,3545,10332,expressbus,5G,0,0,0,0,0,0,1
1325,3546,10332,expressbus,5G,0,0,0,0,0,0,1
1339,3547,10332,expressbus,5G,0,0,0,0,0,0,1
1353,3548,10332,expressbus,5G,0,0,0,0,0,0,1
1368,3549,10332,expressbus,5G,0,0,0,0,0,0,1
1380,3550,10332,expressbus,5G,0,0,0,0,0,0,1
1396,3551,10332,expressbus,5G,0,0,0,0,0,0,1
317,3905,10330,expressbus,5G,1,1,1,1,1,0,0
331,3906,10330,expressbus,5G,1,1,1,1,1,0,0
343,3907,10330,expressbus,5G,1,1,1,1,1,0,0
904,3908,10330,expressbus,5G,1,1,1,1,1,0,0
922,3909,10330,expressbus,5G,1,1,1,1,1,0,0
934,3910,10330,expressbus,5G,1,1,1,1,1,0,0
946,3911,10330,expressbus,5G,1,1,1,1,1,0,0
959,3912,10330,expressbus,5G,1,1,1,1,1,0,0
971,3913,10330,expressbus,5G,1,1,1,1,1,0,0
317,3914,10331,expressbus,5G,0,0,0,0,0,1,0
331,3915,10331,expressbus,5G,0,0,0,0,0,1,0
548,3916,10331,expressbus,5G,0,0,0,0,0,1,0
562,3917,10331,expressbus,5G,0,0,0,0,0,1,0
621,3918,10331,expressbus,5G,0,0,0,0,0,1,0
345,3919,10332,expressbus,5G,0,0,0,0,0,0,1
359,3920,10332,expressbus,5G,0,0,0,0,0,0,1
548,3921,10332,expressbus,5G,0,0,0,0,0,0,1
562,3922,10332,expressbus,5G,0,0,0,0,0,0,1
621,3923,10332,expressbus,5G,0,0,0,0,0,0,1
397,5663,10343,bus,15,1,1,1,1,1,1,0
456,5664,10343,bus,15,1,1,1,1,1,1,0
512,5665,10343,bus,15,1,1,1,1,1,1,0
566,5666,10343,bus,15,1,1,1,1,1,1,0
670,5667,10343,bus,15,1,1,1,1,1,1,0
726,5668,10343,bus,15,1,1,1,1,1,1,0
782,5669,10343,bus,15,1,1,1,1,1,1,0
843,5670,10343,bus,15,1,1,1,1,1,1,0
899,5671,10343,bus,15,1,1,1,1,1,1,0
957,5672,10343,bus,15,1,1,1,1,1,1,0
1013,5673,10343,bus,15,1,1,1,1,1,1,0
1101,5674,10343,bus,15,1,1,1,1,1,1,0
1156,5675,10343,bus,15,1,1,1,1,1,1,0
1214,5676,10343,bus,15,1,1,1,1,1,1,0
1285,5677,10343,bus,15,1,1,1,1,1,1,0
456,5678,10344,bus,15,0,0,0,0,0,0,1
512,5679,10344,bus,15,0,0,0,0,0,0,1
566,5680,10344,bus,15,0,0,0,0,0,0,1
670,5681,10344,bus,15,0,0,0,0,0,0,1
726,5682,10344,bus,15,0,0,0,0,0,0,1
782,5683,10344,bus,15,0,0,0,0,0,0,1
843,5684,10344,bus,15,0,0,0,0,0,0,1
899,5685,10344,bus,15,0,0,0,0,0,0,1
957,5686,10344,bus,15,0,0,0,0,0,0,1
1013,5687,10344,bus,15,0,0,0,0,0,0,1
1101,5688,10344,bus,15,0,0,0,0,0,0,1
1156,5689,10344,bus,15,0,0,0,0,0,0,1
1214,5690,10344,bus,15,0,0,0,0,0,0,1
1285,5691,10344,bus,15,0,0,0,0,0,0,1
322,5894,10345,bus,17,1,1,1,1,1,0,0
356,5895,10345,bus,17,1,1,1,1,1,0,0
386,5896,10345,bus,17,1,1,1,1,1,0,0
420,5897,10345,bus,17,1,1,1,1,1,0,0
450,5898,10345,bus,17,1,1,1,1,1,0,0
484,5899,10345,bus,17,1,1,1,1,1,0,0
517,5900,10345,bus,17,1,1,1,1,1,0,0
574,5901,10345,bus,17,1,1,1,1,1,0,0
640,5902,10345,bus,17,1,1,1,1,1,0,0
708,5903,10345,bus,17,1,1,1,1,1,0,0
783,5904,10345,bus,17,1,1,1,1,1,0,0
847,5905,10345,bus,17,1,1,1,1,1,0,0
911,5906,10345,bus,17,1,1,1,1,1,0,0
951,5907,10345,bus,17,1,1,1,1,1,0,0
975,5908,10345,bus,17,1,1,1,1,1,0,0
1015,5909,10345,bus,17,1,1,1,1,1,0,0
1048,5910,10345,bus,17,1,1,1,1,1,0,0
1079,5911,10345,bus,17,1,1,1,1,1,0,0
1139,5912,10345,bus,17,1,1,1,1,1,0,0
1203,5913,10345,bus,17,1,1,1,1,1,0,0
1257,5914,10345,bus,17,1,1,1,1,1,0,0
1313,5915,10345,bus,17,1,1,1,1,1,0,0
1369,5916,10345,bus,17,1,1,1,1,1,0,0
333,5917,10346,bus,17,0,0,0,0,0,1,0
395,5918,10346,bus,17,0,0,0,0,0,1,0
459,5919,10346,bus,17,0,0,0,0,0,1,0
556,5920,10346,bus,17,0,0,0,0,0,1,0
625,5921,10346,bus,17,0,0,0,0,0,1,0
689,5922,10346,bus,17,0,0,0,0,0,1,0
753,5923,10346,bus,17,0,0,0,0,0,1,0
817,5924,10346,bus,17,0,0,0,0,0,1,0
881,5925,10346,bus,17,0,0,0,0,0,1,0
946,5926,10346,bus,17,0,0,0,0,0,1,0
1010,5927,10346,bus,17,0,0,0,0,0,1,0
1081,5928,10346,bus,17,0,0,0,0,0,1,0
1175,5929,10346,bus,17,0,0,0,0,0,1,0
1258,5930,10346,bus,17,0,0,0,0,0,1,0
1314,5931,10346,bus,17,0,0,0,0,0,1,0
1370,5932,10346,bus,17,0,0,0,0,0,1,0
395,5933,10347,bus,17,0,0,0,0,0,0,1
459,5934,10347,bus,17,0,0,0,0,0,0,1
556,5935,10347,bus,17,0,0,0,0,0,0,1
625,5936,10347,bus,17,0,0,0,0,0,0,1
689,5937,10347,bus,17,0,0,0,0,0,0,1
753,5938,10347,bus,17,0,0,0,0,0,0,1
817,5939,10347,bus,17,0,0,0,0,0,0,1
881,5940,10347,bus,17,0,0,0,0,0,0,1
946,5941,10347,bus,17,0,0,0,0,0,0,1
1010,5942,10347,bus,17,0,0,0,0,0,0,1
1081,5943,10347,bus,17,0,0,0,0,0,0,1
1175,5944,10347,bus,17,0,0,0,0,0,0,1
1258,5945,10347,bus,17,0,0,0,0,0,0,1
1314,5946,10347,bus,17,0,0,0,0,0,0,1
1370,5947,10347,bus,17,0,0,0,0,0,0,1
297,6011,10348,bus,18,1,1,1,1,1,0,0
335,6012,10348,bus,18,1,1,1,1,1,0,0
356,6013,10348,bus,18,1,1,1,1,1,0,0
372,6014,10348,bus,18,1,1,1,1,1,0,0
395,6015,10348,bus,18,1,1,1,1,1,0,0
411,6016,10348,bus,18,1,1,1,1,1,0,0
430,6017,10348,bus,18,1,1,1,1,1,0,0
449,6018,10348,bus,18,1,1,1,1,1,0,0
464,6019,10348,bus,18,1,1,1,1,1,0,0
488,6020,10348,bus,18,1,1,1,1,1,0,0
505,6021,10348,bus,18,1,1,1,1,1,0,0
527,6022,10348,bus,18,1,1,1,1,1,0,0
550,6023,10348,bus,18,1,1,1,1,1,0,0
584,6024,10348,bus,18,1,1,1,1,1,0,0
613,6025,10348,bus,18,1,1,1,1,1,0,0
649,6026,10348,bus,18,1,1,1,1,1,0,0
678,6027,10348,bus,18,1,1,1,1,1,0,0
706,6028,10348,bus,18,1,1,1,1,1,0,0
742,6029,10348,bus,18,1,1,1,1,1,0,0
771,6030,10348,bus,18,1,1,1,1,1,0,0
804,6031,10348,bus,18,1,1,1,1,1,0,0
844,6032,10348,bus,18,1,1,1,1,1,0,0
872,6033,10348,bus,18,1,1,1,1,1,0,0
906,6034,10348,bus,18,1,1,1,1,1,0,0
938,6035,10348,bus,18,1,1,1,1,1,0,0
966,6036,10348,bus,18,1,1,1,1,1,0,0
982,6037,10348,bus,18,1,1,1,1,1,0,0
999,6038,10348,bus,18,1,1,1,1,1,0,0
1012,6039,10348,bus,18,1,1,1,1,1,0,0
1034,6040,10348,bus,18,1,1,1,1,1,0,0
1059,6041,10348,bus,18,1,1,1,1,1,0,0
1075,6042,10348,bus,18,1,1,1,1,1,0,0
1105,6043,10348,bus,18,1,1,1,1,1,0,0
1129,6044,10348,bus,18,1,1,1,1,1,0,0
1158,6045,10348,bus,18,1,1,1,1,1,0,0
1189,6046,10348,bus,18,1,1,1,1,1,0,0
1249,6047,10348,bus,18,1,1,1,1,1,0,0
1281,6048,10348,bus,18,1,1,1,1,1,0,0
1309,6049,10348,bus,18,1,1,1,1,1,0,0
1340,6050,10348,bus,18,1,1,1,1,1,0,0
1370,6051,10348,bus,18,1,1,1,1,1,0,0
327,6052,10349,bus,18,0,0,0,0,0,1,0
359,6053,10349,bus,18,0,0,0,0,0,1,0
390,6054,10349,bus,18,0,0,0,0,0,1,0
421,6055,10349,bus,18,0,0,0,0,0,1,0
452,6056,10349,bus,18,0,0,0,0,0,1,0
484,6057,10349,bus,18,0,0,0,0,0,1,0
515,6058,10349,bus,18,0,0,0,0,0,1,0
573,6059,10349,bus,18,0,0,0,0,0,1,0
605,6060,10349,bus,18,0,0,0,0,0,1,0
636,6061,10349,bus,18,0,0,0,0,0,1,0
694,6062,10349,bus,18,0,0,0,0,0,1,0
726,6063,10349,bus,18,0,0,0,0,0,1,0
757,6064,10349,bus,18,0,0,0,0,0,1,0
788,6065,10349,bus,18,0,0,0,0,0,1,0
820,6066,10349,bus,18,0,0,0,0,0,1,0
851,6067,10349,bus,18,0,0,0,0,0,1,0
887,6068,10349,bus,18,0,0,0,0,0,1,0
919,6069,10349,bus,18,0,0,0,0,0,1,0
950,6070,10349,bus,18,0,0,0,0,0,1,0
981,6071,10349,bus,18,0,0,0,0,0,1,0
1013,6072,10349,bus,18,0,0,0,0,0,1,0
1044,6073,10349,bus,18,0,0,0,0,0,1,0
1075,6074,10349,bus,18,0,0,0,0,0,1,0
1134,6075,10349,bus,18,0,0,0,0,0,1,0
1165,6076,10349,bus,18,0,0,0,0,0,1,0
1196,6077,10349,bus,18,0,0,0,0,0,1,0
1255,6078,10349,bus,18,0,0,0,0,0,1,0
1286,6079,10349,bus,18,0,0,0,0,0,1,0
1317,6080,10349,bus,18,0,0,0,0,0,1,0
1347,6081,10349,bus,18,0,0,0,0,0,1,0
1378,6082,10349,bus,18,0,0,0,0,0,1,0
359,6083,10350,bus,18,0,0,0,0,0,0,1
390,6084,10350,bus,18,0,0,0,0,0,0,1
421,6085,10350,bus,18,0,0,0,0,0,0,1
452,6086,10350,bus,18,0,0,0,0,0,0,1
484,6087,10350,bus,18,0,0,0,0,0,0,1
515,6088,10350,bus,18,0,0,0,0,0,0,1
573,6089,10350,bus,18,0,0,0,0,0,0,1
605,6090,10350,bus,18,0,0,0,0,0,0,1
636,6091,10350,bus,18,0,0,0,0,0,0,1
694,6092,10350,bus,18,0,0,0,0,0,0,1
726,6093,10350,bus,18,0,0,0,0,0,0,1
757,6094,10350,bus,18,0,0,0,0,0,0,1
788,6095,10350,bus,18,0,0,0,0,0,0,1
820,6096,10350,bus,18,0,0,0,0,0,0,1
851,6097,10350,bus,18,0,0,0,0,0,0,1
887,6098,10350,bus,18,0,0,0,0,0,0,1
919,6099,10350,bus,18,0,0,0,0,0,0,1
950,6100,10350,bus,18,0,0,0,0,0,0,1
981,6101,10350,bus,18,0,0,0,0,0,0,1
1013,6102,10350,bus,18,0,0,0,0,0,0,1
1044,6103,10350,bus,18,0,0,0,0,0,0,1
1075,6104,10350,bus,18,0,0,0,0,0,0,1
1134,6105,10350,bus,18,0,0,0,0,0,0,1
1165,6106,10350,bus,18,0,0,0,0,0,0,1
1196,6107,10350,bus,18,0,0,0,0,0,0,1
1255,6108,10350,bus,18,0,0,0,0,0,0,1
1286,6109,10350,bus,18,0,0,0,0,0,0,1
1317,6110,10350,bus,18,0,0,0,0,0,0,1
1347,6111,10350,bus,18,0,0,0,0,0,0,1
1378,6112,10350,bus,18,0,0,0,0,0,0,1
311,6236,10349,bus,18,0,0,0,0,0,1,0
340,6237,10350,bus,18,0,0,0,0,0,0,1
321,9784,10375,bus,38,1,1,1,1,1,0,0
351,9785,10375,bus,38,1,1,1,1,1,0,0
383,9786,10375,bus,38,1,1,1,1,1,0,0
419,9787,10375,bus,38,1,1,1,1,1,0,0
445,9788,10375,bus,38,1,1,1,1,1,0,0
481,9789,10375,bus,38,1,1,1,1,1,0,0
510,9790,10375,bus,38,1,1,1,1,1,0,0
575,9791,10375,bus,38,1,1,1,1,1,0,0
599,9792,10375,bus,38,1,1,1,1,1,0,0
637,9793,10375,bus,38,1,1,1,1,1,0,0
667,9794,10375,bus,38,1,1,1,1,1,0,0
699,9795,10375,bus,38,1,1,1,1,1,0,0
729,9796,10375,bus,38,1,1,1,1,1,0,0
763,9797,10375,bus,38,1,1,1,1,1,0,0
795,9798,10375,bus,38,1,1,1,1,1,0,0
830,9799,10375,bus,38,1,1,1,1,1,0,0
862,9800,10375,bus,38,1,1,1,1,1,0,0
892,9801,10375,bus,38,1,1,1,1,1,0,0
924,9802,10375,bus,38,1,1,1,1,1,0,0
954,9803,10375,bus,38,1,1,1,1,1,0,0
986,9804,10375,bus,38,1,1,1,1,1,0,0
1022,9805,10375,bus,38,1,1,1,1,1,0,0
1054,9806,10375,bus,38,1,1,1,1,1,0,0
1111,9807,10375,bus,38,1,1,1,1,1,0,0
1143,9808,10375,bus,38,1,1,1,1,1,0,0
1176,9809,10375,bus,38,1,1,1,1,1,0,0
1205,9810,10375,bus,38,1,1,1,1,1,0,0
1238,9811,10375,bus,38,1,1,1,1,1,0,0
1267,9812,10375,bus,38,1,1,1,1,1,0,0
1300,9813,10375,bus,38,1,1,1,1,1,0,0
1330,9814,10375,bus,38,1,1,1,1,1,0,0
350,9815,10376,bus,38,0,0,0,0,0,1,0
411,9816,10376,bus,38,0,0,0,0,0,1,0
473,9817,10376,bus,38,0,0,0,0,0,1,0
561,9818,10376,bus,38,0,0,0,0,0,1,0
622,9819,10376,bus,38,0,0,0,0,0,1,0
683,9820,10376,bus,38,0,0,0,0,0,1,0
744,9821,10376,bus,38,0,0,0,0,0,1,0
805,9822,10376,bus,38,0,0,0,0,0,1,0
871,9823,10376,bus,38,0,0,0,0,0,1,0
932,9824,10376,bus,38,0,0,0,0,0,1,0
993,9825,10376,bus,38,0,0,0,0,0,1,0
1054,9826,10376,bus,38,0,0,0,0,0,1,0
1142,9827,10376,bus,38,0,0,0,0,0,1,0
1203,9828,10376,bus,38,0,0,0,0,0,1,0
1291,9829,10376,bus,38,0,0,0,0,0,1,0
1353,9830,10376,bus,38,0,0,0,0,0,1,0
350,9831,10377,bus,38,0,0,0,0,0,0,1
411,9832,10377,bus,38,0,0,0,0,0,0,1
473,9833,10377,bus,38,0,0,0,0,0,0,1
561,9834,10377,bus,38,0,0,0,0,0,0,1
622,9835,10377,bus,38,0,0,0,0,0,0,1
683,9836,10377,bus,38,0,0,0,0,0,0,1
744,9837,10377,bus,38,0,0,0,0,0,0,1
805,9838,10377,bus,38,0,0,0,0,0,0,1
871,9839,10377,bus,38,0,0,0,0,0,0,1
932,9840,10377,bus,38,0,0,0,0,0,0,1
993,9841,10377,bus,38,0,0,0,0,0,0,1
1054,9842,10377,bus,38,0,0,0,0,0,0,1
1142,9843,10377,bus,38,0,0,0,0,0,0,1
1203,9844,10377,bus,38,0,0,0,0,0,0,1
1291,9845,10377,bus,38,0,0,0,0,0,0,1
1353,9846,10377,bus,38,0,0,0,0,0,0,1
296,9913,10375,bus,38,1,1,1,1,1,0,0
295,9914,10376,bus,38,0,0,0,0,0,1,0
309,9915,7892,bus,39,1,1,1,1,1,0,0
373,9916,7892,bus,39,1,1,1,1,1,0,0
437,9917,7892,bus,39,1,1,1,1,1,0,0
501,9918,7892,bus,39,1,1,1,1,1,0,0
607,9919,7892,bus,39,1,1,1,1,1,0,0
671,9920,7892,bus,39,1,1,1,1,1,0,0
735,9921,7892,bus,39,1,1,1,1,1,0,0
804,9922,7892,bus,39,1,1,1,1,1,0,0
868,9923,7892,bus,39,1,1,1,1,1,0,0
932,9924,7892,bus,39,1,1,1,1,1,0,0
1002,9925,7892,bus,39,1,1,1,1,1,0,0
1093,9926,7892,bus,39,1,1,1,1,1,0,0
1157,9927,7892,bus,39,1,1,1,1,1,0,0
1221,9928,7892,bus,39,1,1,1,1,1,0,0
1281,9929,7892,bus,39,1,1,1,1,1,0,0
363,9930,7440,bus,39,0,0,0,0,0,1,0
429,9931,7440,bus,39,0,0,0,0,0,1,0
506,9932,7440,bus,39,0,0,0,0,0,1,0
600,9933,7440,bus,39,0,0,0,0,0,1,0
662,9934,7440,bus,39,0,0,0,0,0,1,0
724,9935,7440,bus,39,0,0,0,0,0,1,0
786,9936,7440,bus,39,0,0,0,0,0,1,0
853,9937,7440,bus,39,0,0,0,0,0,1,0
915,9938,7440,bus,39,0,0,0,0,0,1,0
977,9939,7440,bus,39,0,0,0,0,0,1,0
1039,9940,7440,bus,39,0,0,0,0,0,1,0
1129,9941,7440,bus,39,0,0,0,0,0,1,0
1191,9942,7440,bus,39,0,0,0,0,0,1,0
1246,9943,7440,bus,39,0,0,0,0,0,1,0
1300,9944,7440,bus,39,0,0,0,0,0,1,0
429,9945,7441,bus,39,0,0,0,0,0,0,1
506,9946,7441,bus,39,0,0,0,0,0,0,1
600,9947,7441,bus,39,0,0,0,0,0,0,1
662,9948,7441,bus,39,0,0,0,0,0,0,1
724,9949,7441,bus,39,0,0,0,0,0,0,1
786,9950,7441,bus,39,0,0,0,0,0,0,1
853,9951,7441,bus,39,0,0,0,0,0,0,1
915,9952,7441,bus,39,0,0,0,0,0,0,1
977,9953,7441,bus,39,0,0,0,0,0,0,1
1039,9954,7441,bus,39,0,0,0,0,0,0,1
1129,9955,7441,bus,39,0,0,0,0,0,0,1
1191,9956,7441,bus,39,0,0,0,0,0,0,1
1246,9957,7441,bus,39,0,0,0,0,0,0,1
1300,9958,7441,bus,39,0,0,0,0,0,0,1
1500,16334,9969,nightbus,101N,0,0,0,0,1,1,0
1560,16335,9969,nightbus,101N,0,0,0,0,1,1,0
1606,16336,9969,nightbus,101N,0,0,0,0,1,1,0
1424,16340,9969,nightbus,101N,0,0,0,0,1,1,0
1467,16341,9969,nightbus,101N,0,0,0,0,1,1,0
395,17126,10439,trol,2,0,0,0,0,0,0,1
409,17127,10439,trol,2,0,0,0,0,0,0,1
428,17128,10439,trol,2,0,0,0,0,0,0,1
443,17129,10439,trol,2,0,0,0,0,0,0,1
455,17130,10439,trol,2,0,0,0,0,0,0,1
471,17131,10439,trol,2,0,0,0,0,0,0,1
487,17132,10439,trol,2,0,0,0,0,0,0,1
503,17133,10439,trol,2,0,0,0,0,0,0,1
512,17134,10439,trol,2,0,0,0,0,0,0,1
521,17135,10439,trol,2,0,0,0,0,0,0,1
530,17136,10439,trol,2,0,0,0,0,0,0,1
539,17137,10439,trol,2,0,0,0,0,0,0,1
548,17138,10439,trol,2,0,0,0,0,0,0,1
557,17139,10439,trol,2,0,0,0,0,0,0,1
567,17140,10439,trol,2,0,0,0,0,0,0,1
576,17141,10439,trol,2,0,0,0,0,0,0,1
584,17142,10439,trol,2,0,0,0,0,0,0,1
594,17143,10439,trol,2,0,0,0,0,0,0,1
603,17144,10439,trol,2,0,0,0,0,0,0,1
613,17145,10439,trol,2,0,0,0,0,0,0,1
623,17146,10439,trol,2,0,0,0,0,0,0,1
633,17147,10439,trol,2,0,0,0,0,0,0,1
643,17148,10439,trol,2,0,0,0,0,0,0,1
652,17149,10439,trol,2,0,0,0,0,0,0,1
660,17150,10439,trol,2,0,0,0,0,0,0,1
669,17151,10439,trol,2,0,0,0,0,0,0,1
677,17152,10439,trol,2,0,0,0,0,0,0,1
684,17153,10439,trol,2,0,0,0,0,0,0,1
693,17154,10439,trol,2,0,0,0,0,0,0,1
702,17155,10439,trol,2,0,0,0,0,0,0,1
710,17156,10439,trol,2,0,0,0,0,0,0,1
719,17157,10439,trol,2,0,0,0,0,0,0,1
728,17158,10439,trol,2,0,0,0,0,0,0,1
738,17159,10439,trol,2,0,0,0,0,0,0,1
747,17160,10439,trol,2,0,0,0,0,0,0,1
756,17161,10439,trol,2,0,0,0,0,0,0,1
769,17162,10439,trol,2,0,0,0,0,0,0,1
779,17163,10439,trol,2,0,0,0,0,0,0,1
787,17164,10439,trol,2,0,0,0,0,0,0,1
795,17165,10439,trol,2,0,0,0,0,0,0,1
803,17166,10439,trol,2,0,0,0,0,0,0,1
811,17167,10439,trol,2,0,0,0,0,0,0,1
819,17168,10439,trol,2,0,0,0,0,0,0,1
829,17169,10439,trol,2,0,0,0,0,0,0,1
839,17170,10439,trol,2,0,0,0,0,0,0,1
849,17171,10439,trol,2,0,0,0,0,0,0,1
856,17172,10439,trol,2,0,0,0,0,0,0,1
864,17173,10439,trol,2,0,0,0,0,0,0,1
871,17174,10439,trol,2,0,0,0,0,0,0,1
876,17175,10439,trol,2,0,0,0,0,0,0,1
885,17176,10439,trol,2,0,0,0,0,0,0,1
894,17177,10439,trol,2,0,0,0,0,0,0,1
903,17178,10439,trol,2,0,0,0,0,0,0,1
912,17179,10439,trol,2,0,0,0,0,0,0,1
919,17180,10439,trol,2,0,0,0,0,0,0,1
927,17181,10439,trol,2,0,0,0,0,0,0,1
935,17182,10439,trol,2,0,0,0,0,0,0,1
943,17183,10439,trol,2,0,0,0,0,0,0,1
951,17184,10439,trol,2,0,0,0,0,0,0,1
958,17185,10439,trol,2,0,0,0,0,0,0,1
966,17186,10439,trol,2,0,0,0,0,0,0,1
974,17187,10439,trol,2,0,0,0,0,0,0,1
982,17188,10439,trol,2,0,0,0,0,0,0,1
992,17189,10439,trol,2,0,0,0,0,0,0,1
999,17190,10439,trol,2,0,0,0,0,0,0,1
1007,17191,10439,trol,2,0,0,0,0,0,0,1
1015,17192,10439,trol,2,0,0,0,0,0,0,1
1023,17193,10439,trol,2,0,0,0,0,0,0,1
1031,17194,10439,trol,2,0,0,0,0,0,0,1
1039,17195,10439,trol,2,0,0,0,0,0,0,1
1046,17196,10439,trol,2,0,0,0,0,0,0,1
1054,17197,10439,trol,2,0,0,0,0,0,0,1
1062,17198,10439,trol,2,0,0,0,0,0,0,1
1071,17199,10439,trol,2,0,0,0,0,0,0,1
1081,17200,10439,trol,2,0,0,0,0,0,0,1
1091,17201,10439,trol,2,0,0,0,0,0,0,1
1100,17202,10439,trol,2,0,0,0,0,0,0,1
1109,17203,10439,trol,2,0,0,0,0,0,0,1
1119,17204,10439,trol,2,0,0,0,0,0,0,1
1128,17205,10439,trol,2,0,0,0,0,0,0,1
1140,17206,10439,trol,2,0,0,0,0,0,0,1
1148,17207,10439,trol,2,0,0,0,0,0,0,1
1156,17208,10439,trol,2,0,0,0,0,0,0,1
1165,17209,10439,trol,2,0,0,0,0,0,0,1
1174,17210,10439,trol,2,0,0,0,0,0,0,1
1182,17211,10439,trol,2,0,0,0,0,0,0,1
1192,17212,10439,trol,2,0,0,0,0,0,0,1
1201,17213,10439,trol,2,0,0,0,0,0,0,1
1212,17214,10439,trol,2,0,0,0,0,0,0,1
1222,17215,10439,trol,2,0,0,0,0,0,0,1
1232,17216,10439,trol,2,0,0,0,0,0,0,1
1242,17217,10439,trol,2,0,0,0,0,0,0,1
1251,17218,10439,trol,2,0,0,0,0,0,0,1
1260,17219,10439,trol,2,0,0,0,0,0,0,1
1269,17220,10439,trol,2,0,0,0,0,0,0,1
1278,17221,10439,trol,2,0,0,0,0,0,0,1
1287,17222,10439,trol,2,0,0,0,0,0,0,1
1296,17223,10439,trol,2,0,0,0,0,0,0,1
1305,17224,10439,trol,2,0,0,0,0,0,0,1
1314,17225,10439,trol,2,0,0,0,0,0,0,1
1324,17226,10439,trol,2,0,0,0,0,0,0,1
1333,17227,10439,trol,2,0,0,0,0,0,0,1
1342,17228,10439,trol,2,0,0,0,0,0,0,1
1351,17229,10439,trol,2,0,0,0,0,0,0,1
1360,17230,10439,trol,2,0,0,0,0,0,0,1
1370,17231,10439,trol,2,0,0,0,0,0,0,1
1380,17232,10439,trol,2,0,0,0,0,0,0,1
1393,17233,10439,trol,2,0,0,0,0,0,0,1
1407,17234,10439,trol,2,0,0,0,0,0,0,1
1419,17235,10439,trol,2,0,0,0,0,0,0,1
1433,17236,10439,trol,2,0,0,0,0,0,0,1
346,17237,10437,trol,2,1,1,1,1,1,0,0
366,17238,10437,trol,2,1,1,1,1,1,0,0
384,17239,10437,trol,2,1,1,1,1,1,0,0
393,17240,10437,trol,2,1,1,1,1,1,0,0
402,17241,10437,trol,2,1,1,1,1,1,0,0
410,17242,10437,trol,2,1,1,1,1,1,0,0
416,17243,10437,trol,2,1,1,1,1,1,0,0
424,17244,10437,trol,2,1,1,1,1,1,0,0
429,17245,10437,trol,2,1,1,1,1,1,0,0
435,17246,10437,trol,2,1,1,1,1,1,0,0
444,17247,10437,trol,2,1,1,1,1,1,0,0
449,17248,10437,trol,2,1,1,1,1,1,0,0
454,17249,10437,trol,2,1,1,1,1,1,0,0
459,17250,10437,trol,2,1,1,1,1,1,0,0
464,17251,10437,trol,2,1,1,1,1,1,0,0
470,17252,10437,trol,2,1,1,1,1,1,0,0
477,17253,10437,trol,2,1,1,1,1,1,0,0
483,17254,10437,trol,2,1,1,1,1,1,0,0
488,17255,10437,trol,2,1,1,1,1,1,0,0
495,17256,10437,trol,2,1,1,1,1,1,0,0
500,17257,10437,trol,2,1,1,1,1,1,0,0
504,17258,10437,trol,2,1,1,1,1,1,0,0
510,17259,10437,trol,2,1,1,1,1,1,0,0
517,17260,10437,trol,2,1,1,1,1,1,0,0
523,17261,10437,trol,2,1,1,1,1,1,0,0
530,17262,10437,trol,2,1,1,1,1,1,0,0
536,17263,10437,trol,2,1,1,1,1,1,0,0
542,17264,10437,trol,2,1,1,1,1,1,0,0
548,17265,10437,trol,2,1,1,1,1,1,0,0
551,17266,10437,trol,2,1,1,1,1,1,0,0
556,17267,10437,trol,2,1,1,1,1,1,0,0
561,17268,10437,trol,2,1,1,1,1,1,0,0
566,17269,10437,trol,2,1,1,1,1,1,0,0
572,17270,10437,trol,2,1,1,1,1,1,0,0
577,17271,10437,trol,2,1,1,1,1,1,0,0
584,17272,10437,trol,2,1,1,1,1,1,0,0
588,17273,10437,trol,2,1,1,1,1,1,0,0
593,17274,10437,trol,2,1,1,1,1,1,0,0
599,17275,10437,trol,2,1,1,1,1,1,0,0
606,17276,10437,trol,2,1,1,1,1,1,0,0
614,17277,10437,trol,2,1,1,1,1,1,0,0
621,17278,10437,trol,2,1,1,1,1,1,0,0
628,17279,10437,trol,2,1,1,1,1,1,0,0
634,17280,10437,trol,2,1,1,1,1,1,0,0
640,17281,10437,trol,2,1,1,1,1,1,0,0
650,17282,10437,trol,2,1,1,1,1,1,0,0
657,17283,10437,trol,2,1,1,1,1,1,0,0
664,17284,10437,trol,2,1,1,1,1,1,0,0
672,17285,10437,trol,2,1,1,1,1,1,0,0
683,17286,10437,trol,2,1,1,1,1,1,0,0
693,17287,10437,trol,2,1,1,1,1,1,0,0
701,17288,10437,trol,2,1,1,1,1,1,0,0
709,17289,10437,trol,2,1,1,1,1,1,0,0
716,17290,10437,trol,2,1,1,1,1,1,0,0
723,17291,10437,trol,2,1,1,1,1,1,0,0
729,17292,10437,trol,2,1,1,1,1,1,0,0
736,17293,10437,trol,2,1,1,1,1,1,0,0
741,17294,10437,trol,2,1,1,1,1,1,0,0
749,17295,10437,trol,2,1,1,1,1,1,0,0
755,17296,10437,trol,2,1,1,1,1,1,0,0
760,17297,10437,trol,2,1,1,1,1,1,0,0
769,17298,10437,trol,2,1,1,1,1,1,0,0
773,17299,10437,trol,2,1,1,1,1,1,0,0
779,17300,10437,trol,2,1,1,1,1,1,0,0
785,17301,10437,trol,2,1,1,1,1,1,0,0
793,17302,10437,trol,2,1,1,1,1,1,0,0
799,17303,10437,trol,2,1,1,1,1,1,0,0
806,17304,10437,trol,2,1,1,1,1,1,0,0
811,17305,10437,trol,2,1,1,1,1,1,0,0
817,17306,10437,trol,2,1,1,1,1,1,0,0
822,17307,10437,trol,2,1,1,1,1,1,0,0
828,17308,10437,trol,2,1,1,1,1,1,0,0
835,17309,10437,trol,2,1,1,1,1,1,0,0
841,17310,10437,trol,2,1,1,1,1,1,0,0
848,17311,10437,trol,2,1,1,1,1,1,0,0
856,17312,10437,trol,2,1,1,1,1,1,0,0
860,17313,10437,trol,2,1,1,1,1,1,0,0
866,17314,10437,trol,2,1,1,1,1,1,0,0
871,17315,10437,trol,2,1,1,1,1,1,0,0
879,17316,10437,trol,2,1,1,1,1,1,0,0
886,17317,10437,trol,2,1,1,1,1,1,0,0
892,17318,10437,trol,2,1,1,1,1,1,0,0
899,17319,10437,trol,2,1,1,1,1,1,0,0
906,17320,10437,trol,2,1,1,1,1,1,0,0
911,17321,10437,trol,2,1,1,1,1,1,0,0
918,17322,10437,trol,2,1,1,1,1,1,0,0
924,17323,10437,trol,2,1,1,1,1,1,0,0
929,17324,10437,trol,2,1,1,1,1,1,0,0
935,17325,10437,trol,2,1,1,1,1,1,0,0
942,17326,10437,trol,2,1,1,1,1,1,0,0
947,17327,10437,trol,2,1,1,1,1,1,0,0
952,17328,10437,trol,2,1,1,1,1,1,0,0
958,17329,10437,trol,2,1,1,1,1,1,0,0
965,17330,10437,trol,2,1,1,1,1,1,0,0
971,17331,10437,trol,2,1,1,1,1,1,0,0
978,17332,10437,trol,2,1,1,1,1,1,0,0
983,17333,10437,trol,2,1,1,1,1,1,0,0
988,17334,10437,trol,2,1,1,1,1,1,0,0
993,17335,10437,trol,2,1,1,1,1,1,0,0
999,17336,10437,trol,2,1,1,1,1,1,0,0
1007,17337,10437,trol,2,1,1,1,1,1,0,0
1013,17338,10437,trol,2,1,1,1,1,1,0,0
1019,17339,10437,trol,2,1,1,1,1,1,0,0
1024,17340,10437,trol,2,1,1,1,1,1,0,0
1029,17341,10437,trol,2,1,1,1,1,1,0,0
1036,17342,10437,trol,2,1,1,1,1,1,0,0
1041,17343,10437,trol,2,1,1,1,1,1,0,0
1046,17344,10437,trol,2,1,1,1,1,1,0,0
1051,17345,10437,trol,2,1,1,1,1,1,0,0
1058,17346,10437,trol,2,1,1,1,1,1,0,0
1064,17347,10437,trol,2,1,1,1,1,1,0,0
1070,17348,10437,trol,2,1,1,1,1,1,0,0
1076,17349,10437,trol,2,1,1,1,1,1,0,0
1082,17350,10437,trol,2,1,1,1,1,1,0,0
1087,17351,10437,trol,2,1,1,1,1,1,0,0
1093,17352,10437,trol,2,1,1,1,1,1,0,0
1099,17353,10437,trol,2,1,1,1,1,1,0,0
1106,17354,10437,trol,2,1,1,1,1,1,0,0
1111,17355,10437,trol,2,1,1,1,1,1,0,0
1118,17356,10437,trol,2,1,1,1,1,1,0,0
1125,17357,10437,trol,2,1,1,1,1,1,0,0
1134,17358,10437,trol,2,1,1,1,1,1,0,0
1141,17359,10437,trol,2,1,1,1,1,1,0,0
1150,17360,10437,trol,2,1,1,1,1,1,0,0
1154,17361,10437,trol,2,1,1,1,1,1,0,0
1160,17362,10437,trol,2,1,1,1,1,1,0,0
1164,17363,10437,trol,2,1,1,1,1,1,0,0
1170,17364,10437,trol,2,1,1,1,1,1,0,0
1178,17365,10437,trol,2,1,1,1,1,1,0,0
1184,17366,10437,trol,2,1,1,1,1,1,0,0
1189,17367,10437,trol,2,1,1,1,1,1,0,0
1194,17368,10437,trol,2,1,1,1,1,1,0,0
1200,17369,10437,trol,2,1,1,1,1,1,0,0
1206,17370,10437,trol,2,1,1,1,1,1,0,0
1214,17371,10437,trol,2,1,1,1,1,1,0,0
1222,17372,10437,trol,2,1,1,1,1,1,0,0
1230,17373,10437,trol,2,1,1,1,1,1,0,0
1238,17374,10437,trol,2,1,1,1,1,1,0,0
1245,17375,10437,trol,2,1,1,1,1,1,0,0
1251,17376,10437,trol,2,1,1,1,1,1,0,0
1256,17377,10437,trol,2,1,1,1,1,1,0,0
1262,17378,10437,trol,2,1,1,1,1,1,0,0
1269,17379,10437,trol,2,1,1,1,1,1,0,0
1275,17380,10437,trol,2,1,1,1,1,1,0,0
1282,17381,10437,trol,2,1,1,1,1,1,0,0
1288,17382,10437,trol,2,1,1,1,1,1,0,0
1295,17383,10437,trol,2,1,1,1,1,1,0,0
1302,17384,10437,trol,2,1,1,1,1,1,0,0
1308,17385,10437,trol,2,1,1,1,1,1,0,0
1314,17386,10437,trol,2,1,1,1,1,1,0,0
1321,17387,10437,trol,2,1,1,1,1,1,0,0
1327,17388,10437,trol,2,1,1,1,1,1,0,0
1333,17389,10437,trol,2,1,1,1,1,1,0,0
1340,17390,10437,trol,2,1,1,1,1,1,0,0
1349,17391,10437,trol,2,1,1,1,1,1,0,0
1356,17392,10437,trol,2,1,1,1,1,1,0,0
1364,17393,10437,trol,2,1,1,1,1,1,0,0
1371,17394,10437,trol,2,1,1,1,1,1,0,0
1380,17395,10437,trol,2,1,1,1,1,1,0,0
1389,17396,10437,trol,2,1,1,1,1,1,0,0
1400,17397,10437,trol,2,1,1,1,1,1,0,0
1411,17398,10437,trol,2,1,1,1,1,1,0,0
1420,17399,10437,trol,2,1,1,1,1,1,0,0
1433,17400,10437,trol,2,1,1,1,1,1,0,0
355,17401,10438,trol,2,0,0,0,0,0,1,0
379,17402,10438,trol,2,0,0,0,0,0,1,0
395,17403,10438,trol,2,0,0,0,0,0,1,0
409,17404,10438,trol,2,0,0,0,0,0,1,0
428,17405,10438,trol,2,0,0,0,0,0,1,0
443,17406,10438,trol,2,0,0,0,0,0,1,0
455,17407,10438,trol,2,0,0,0,0,0,1,0
471,17408,10438,trol,2,0,0,0,0,0,1,0
487,17409,10438,trol,2,0,0,0,0,0,1,0
503,17410,10438,trol,2,0,0,0,0,0,1,0
512,17411,10438,trol,2,0,0,0,0,0,1,0
521,17412,10438,trol,2,0,0,0,0,0,1,0
530,17413,10438,trol,2,0,0,0,0,0,1,0
539,17414,10438,trol,2,0,0,0,0,0,1,0
548,17415,10438,trol,2,0,0,0,0,0,1,0
557,17416,10438,trol,2,0,0,0,0,0,1,0
567,17417,10438,trol,2,0,0,0,0,0,1,0
576,17418,10438,trol,2,0,0,0,0,0,1,0
584,17419,10438,trol,2,0,0,0,0,0,1,0
594,17420,10438,trol,2,0,0,0,0,0,1,0
603,17421,10438,trol,2,0,0,0,0,0,1,0
613,17422,10438,trol,2,0,0,0,0,0,1,0
623,17423,10438,trol,2,0,0,0,0,0,1,0
633,17424,10438,trol,2,0,0,0,0,0,1,0
643,17425,10438,trol,2,0,0,0,0,0,1,0
652,17426,10438,trol,2,0,0,0,0,0,1,0
660,17427,10438,trol,2,0,0,0,0,0,1,0
669,17428,10438,trol,2,0,0,0,0,0,1,0
677,17429,10438,trol,2,0,0,0,0,0,1,0
684,17430,10438,trol,2,0,0,0,0,0,1,0
693,17431,10438,trol,2,0,0,0,0,0,1,0
702,17432,10438,trol,2,0,0,0,0,0,1,0
710,17433,10438,trol,2,0,0,0,0,0,1,0
719,17434,10438,trol,2,0,0,0,0,0,1,0
728,17435,10438,trol,2,0,0,0,0,0,1,0
738,17436,10438,trol,2,0,0,0,0,0,1,0
747,17437,10438,trol,2,0,0,0,0,0,1,0
756,17438,10438,trol,2,0,0,0,0,0,1,0
769,17439,10438,trol,2,0,0,0,0,0,1,0
779,17440,10438,trol,2,0,0,0,0,0,1,0
787,17441,10438,trol,2,0,0,0,0,0,1,0
795,17442,10438,trol,2,0,0,0,0,0,1,0
803,17443,10438,trol,2,0,0,0,0,0,1,0
811,17444,10438,trol,2,0,0,0,0,0,1,0
819,17445,10438,trol,2,0,0,0,0,0,1,0
829,17446,10438,trol,2,0,0,0,0,0,1,0
839,17447,10438,trol,2,0,0,0,0,0,1,0
849,17448,10438,trol,2,0,0,0,0,0,1,0
856,17449,10438,trol,2,0,0,0,0,0,1,0
864,17450,10438,trol,2,0,0,0,0,0,1,0
871,17451,10438,trol,2,0,0,0,0,0,1,0
876,17452,10438,trol,2,0,0,0,0,0,1,0
885,17453,10438,trol,2,0,0,0,0,0,1,0
894,17454,10438,trol,2,0,0,0,0,0,1,0
903,17455,10438,trol,2,0,0,0,0,0,1,0
912,17456,10438,trol,2,0,0,0,0,0,1,0
919,17457,10438,trol,2,0,0,0,0,0,1,0
927,17458,10438,trol,2,0,0,0,0,0,1,0
935,17459,10438,trol,2,0,0,0,0,0,1,0
943,17460,10438,trol,2,0,0,0,0,0,1,0
951,17461,10438,trol,2,0,0,0,0,0,1,0
958,17462,10438,trol,2,0,0,0,0,0,1,0
966,17463,10438,trol,2,0,0,0,0,0,1,0
974,17464,10438,trol,2,0,0,0,0,0,1,0
982,17465,10438,trol,2,0,0,0,0,0,1,0
992,17466,10438,trol,2,0,0,0,0,0,1,0
999,17467,10438,trol,2,0,0,0,0,0,1,0
1007,17468,10438,trol,2,0,0,0,0,0,1,0
1015,17469,10438,trol,2,0,0,0,0,0,1,0
1023,17470,10438,trol,2,0,0,0,0,0,1,0
1031,17471,10438,trol,2,0,0,0,0,0,1,0
1039,17472,10438,trol,2,0,0,0,0,0,1,0
1046,17473,10438,trol,2,0,0,0,0,0,1,0
1054,17474,10438,trol,2,0,0,0,0,0,1,0
1062,17475,10438,trol,2,0,0,0,0,0,1,0
1071,17476,10438,trol,2,0,0,0,0,0,1,0
1081,17477,10438,trol,2,0,0,0,0,0,1,0
1091,17478,10438,trol,2,0,0,0,0,0,1,0
1100,17479,10438,trol,2,0,0,0,0,0,1,0
1109,17480,10438,trol,2,0,0,0,0,0,1,0
1119,17481,10438,trol,2,0,0,0,0,0,1,0
1128,17482,10438,trol,2,0,0,0,0,0,1,0
1140,17483,10438,trol,2,0,0,0,0,0,1,0
1148,17484,10438,trol,2,0,0,0,0,0,1,0
1156,17485,10438,trol,2,0,0,0,0,0,1,0
1165,17486,10438,trol,2,0,0,0,0,0,1,0
1174,17487,10438,trol,2,0,0,0,0,0,1,0
1182,17488,10438,trol,2,0,0,0,0,0,1,0
1192,17489,10438,trol,2,0,0,0,0,0,1,0
1201,17490,10438,trol,2,0,0,0,0,0,1,0
1212,17491,10438,trol,2,0,0,0,0,0,1,0
1222,17492,10438,trol,2,0,0,0,0,0,1,0
1232,17493,10438,trol,2,0,0,0,0,0,1,0
1242,17494,10438,trol,2,0,0,0,0,0,1,0
1251,17495,10438,trol,2,0,0,0,0,0,1,0
1260,17496,10438,trol,2,0,0,0,0,0,1,0
1269,17497,10438,trol,2,0,0,0,0,0,1,0
1278,17498,10438,trol,2,0,0,0,0,0,1,0
1287,17499,10438,trol,2,0,0,0,0,0,1,0
1296,17500,10438,trol,2,0,0,0,0,0,1,0
1305,17501,10438,trol,2,0,0,0,0,0,1,0
1314,17502,10438,trol,2,0,0,0,0,0,1,0
1324,17503,10438,trol,2,0,0,0,0,0,1,0
1333,17504,10438,trol,2,0,0,0,0,0,1,0
1342,17505,10438,trol,2,0,0,0,0,0,1,0
1351,17506,10438,trol,2,0,0,0,0,0,1,0
1360,17507,10438,trol,2,0,0,0,0,0,1,0
1370,17508,10438,trol,2,0,0,0,0,0,1,0
1380,17509,10438,trol,2,0,0,0,0,0,1,0
1393,17510,10438,trol,2,0,0,0,0,0,1,0
1407,17511,10438,trol,2,0,0,0,0,0,1,0
1419,17512,10438,trol,2,0,0,0,0,0,1,0
1433,17513,10438,trol,2,0,0,0,0,0,1,0
339,17550,10439,trol,2,0,0,0,0,0,0,1
358,17551,10439,trol,2,0,0,0,0,0,0,1
371,17552,10439,trol,2,0,0,0,0,0,0,1
383,17553,10439,trol,2,0,0,0,0,0,0,1
440,17554,10439,trol,2,0,0,0,0,0,0,1
467,17555,10439,trol,2,0,0,0,0,0,0,1
483,17556,10439,trol,2,0,0,0,0,0,0,1
500,17557,10439,trol,2,0,0,0,0,0,0,1
509,17558,10439,trol,2,0,0,0,0,0,0,1
309,17559,10437,trol,2,1,1,1,1,1,0,0
318,17560,10437,trol,2,1,1,1,1,1,0,0
327,17561,10437,trol,2,1,1,1,1,1,0,0
335,17562,10437,trol,2,1,1,1,1,1,0,0
341,17563,10437,trol,2,1,1,1,1,1,0,0
349,17564,10437,trol,2,1,1,1,1,1,0,0
359,17565,10437,trol,2,1,1,1,1,1,0,0
363,17566,10437,trol,2,1,1,1,1,1,0,0
378,17567,10437,trol,2,1,1,1,1,1,0,0
381,17568,10437,trol,2,1,1,1,1,1,0,0
395,17569,10437,trol,2,1,1,1,1,1,0,0
405,17570,10437,trol,2,1,1,1,1,1,0,0
414,17571,10437,trol,2,1,1,1,1,1,0,0
309,17572,10438,trol,2,0,0,0,0,0,1,0
325,17573,10438,trol,2,0,0,0,0,0,1,0
339,17574,10438,trol,2,0,0,0,0,0,1,0
371,17575,10438,trol,2,0,0,0,0,0,1,0
440,17576,10438,trol,2,0,0,0,0,0,1,0
467,17577,10438,trol,2,0,0,0,0,0,1,0
483,17578,10438,trol,2,0,0,0,0,0,1,0
500,17579,10438,trol,2,0,0,0,0,0,1,0
509,17580,10438,trol,2,0,0,0,0,0,1,0
414,20586,10457,trol,10,0,0,0,0,0,0,1
442,20587,10457,trol,10,0,0,0,0,0,0,1
473,20588,10457,trol,10,0,0,0,0,0,0,1
495,20589,10457,trol,10,0,0,0,0,0,0,1
513,20590,10457,trol,10,0,0,0,0,0,0,1
541,20591,10457,trol,10,0,0,0,0,0,0,1
569,20592,10457,trol,10,0,0,0,0,0,0,1
593,20593,10457,trol,10,0,0,0,0,0,0,1
613,20594,10457,trol,10,0,0,0,0,0,0,1
630,20595,10457,trol,10,0,0,0,0,0,0,1
650,20596,10457,trol,10,0,0,0,0,0,0,1
668,20597,10457,trol,10,0,0,0,0,0,0,1
686,20598,10457,trol,10,0,0,0,0,0,0,1
703,20599,10457,trol,10,0,0,0,0,0,0,1
718,20600,10457,trol,10,0,0,0,0,0,0,1
731,20601,10457,trol,10,0,0,0,0,0,0,1
744,20602,10457,trol,10,0,0,0,0,0,0,1
760,20603,10457,trol,10,0,0,0,0,0,0,1
776,20604,10457,trol,10,0,0,0,0,0,0,1
792,20605,10457,trol,10,0,0,0,0,0,0,1
809,20606,10457,trol,10,0,0,0,0,0,0,1
825,20607,10457,trol,10,0,0,0,0,0,0,1
841,20608,10457,trol,10,0,0,0,0,0,0,1
858,20609,10457,trol,10,0,0,0,0,0,0,1
878,20610,10457,trol,10,0,0,0,0,0,0,1
896,20611,10457,trol,10,0,0,0,0,0,0,1
912,20612,10457,trol,10,0,0,0,0,0,0,1
923,20613,10457,trol,10,0,0,0,0,0,0,1
939,20614,10457,trol,10,0,0,0,0,0,0,1
949,20615,10457,trol,10,0,0,0,0,0,0,1
967,20616,10457,trol,10,0,0,0,0,0,0,1
981,20617,10457,trol,10,0,0,0,0,0,0,1
997,20618,10457,trol,10,0,0,0,0,0,0,1
1012,20619,10457,trol,10,0,0,0,0,0,0,1
1025,20620,10457,trol,10,0,0,0,0,0,0,1
1043,20621,10457,trol,10,0,0,0,0,0,0,1
1053,20622,10457,trol,10,0,0,0,0,0,0,1
1064,20623,10457,trol,10,0,0,0,0,0,0,1
1079,20624,10457,trol,10,0,0,0,0,0,0,1
1097,20625,10457,trol,10,0,0,0,0,0,0,1
1111,20626,10457,trol,10,0,0,0,0,0,0,1
1126,20627,10457,trol,10,0,0,0,0,0,0,1
1140,20628,10457,trol,10,0,0,0,0,0,0,1
1177,20629,10457,trol,10,0,0,0,0,0,0,1
1205,20630,10457,trol,10,0,0,0,0,0,0,1
1237,20631,10457,trol,10,0,0,0,0,0,0,1
1263,20632,10457,trol,10,0,0,0,0,0,0,1
1285,20633,10457,trol,10,0,0,0,0,0,0,1
1308,20634,10457,trol,10,0,0,0,0,0,0,1
1332,20635,10457,trol,10,0,0,0,0,0,0,1
1356,20636,10457,trol,10,0,0,0,0,0,0,1
1384,20637,10457,trol,10,0,0,0,0,0,0,1
1413,20638,10457,trol,10,0,0,0,0,0,0,1
374,20639,10455,trol,10,1,1,1,1,1,0,0
392,20640,10455,trol,10,1,1,1,1,1,0,0
409,20641,10455,trol,10,1,1,1,1,1,0,0
424,20642,10455,trol,10,1,1,1,1,1,0,0
446,20643,10455,trol,10,1,1,1,1,1,0,0
461,20644,10455,trol,10,1,1,1,1,1,0,0
472,20645,10455,trol,10,1,1,1,1,1,0,0
482,20646,10455,trol,10,1,1,1,1,1,0,0
492,20647,10455,trol,10,1,1,1,1,1,0,0
505,20648,10455,trol,10,1,1,1,1,1,0,0
517,20649,10455,trol,10,1,1,1,1,1,0,0
526,20650,10455,trol,10,1,1,1,1,1,0,0
537,20651,10455,trol,10,1,1,1,1,1,0,0
552,20652,10455,trol,10,1,1,1,1,1,0,0
560,20653,10455,trol,10,1,1,1,1,1,0,0
577,20654,10455,trol,10,1,1,1,1,1,0,0
593,20655,10455,trol,10,1,1,1,1,1,0,0
603,20656,10455,trol,10,1,1,1,1,1,0,0
620,20657,10455,trol,10,1,1,1,1,1,0,0
633,20658,10455,trol,10,1,1,1,1,1,0,0
646,20659,10455,trol,10,1,1,1,1,1,0,0
657,20660,10455,trol,10,1,1,1,1,1,0,0
665,20661,10455,trol,10,1,1,1,1,1,0,0
677,20662,10455,trol,10,1,1,1,1,1,0,0
694,20663,10455,trol,10,1,1,1,1,1,0,0
714,20664,10455,trol,10,1,1,1,1,1,0,0
727,20665,10455,trol,10,1,1,1,1,1,0,0
742,20666,10455,trol,10,1,1,1,1,1,0,0
756,20667,10455,trol,10,1,1,1,1,1,0,0
774,20668,10455,trol,10,1,1,1,1,1,0,0
790,20669,10455,trol,10,1,1,1,1,1,0,0
804,20670,10455,trol,10,1,1,1,1,1,0,0
820,20671,10455,trol,10,1,1,1,1,1,0,0
840,20672,10455,trol,10,1,1,1,1,1,0,0
856,20673,10455,trol,10,1,1,1,1,1,0,0
873,20674,10455,trol,10,1,1,1,1,1,0,0
892,20675,10455,trol,10,1,1,1,1,1,0,0
902,20676,10455,trol,10,1,1,1,1,1,0,0
923,20677,10455,trol,10,1,1,1,1,1,0,0
939,20678,10455,trol,10,1,1,1,1,1,0,0
955,20679,10455,trol,10,1,1,1,1,1,0,0
972,20680,10455,trol,10,1,1,1,1,1,0,0
986,20681,10455,trol,10,1,1,1,1,1,0,0
1006,20682,10455,trol,10,1,1,1,1,1,0,0
1018,20683,10455,trol,10,1,1,1,1,1,0,0
1029,20684,10455,trol,10,1,1,1,1,1,0,0
1041,20685,10455,trol,10,1,1,1,1,1,0,0
1052,20686,10455,trol,10,1,1,1,1,1,0,0
1061,20687,10455,trol,10,1,1,1,1,1,0,0
1076,20688,10455,trol,10,1,1,1,1,1,0,0
1085,20689,10455,trol,10,1,1,1,1,1,0,0
1096,20690,10455,trol,10,1,1,1,1,1,0,0
1107,20691,10455,trol,10,1,1,1,1,1,0,0
1126,20692,10455,trol,10,1,1,1,1,1,0,0
1141,20693,10455,trol,10,1,1,1,1,1,0,0
1149,20694,10455,trol,10,1,1,1,1,1,0,0
1158,20695,10455,trol,10,1,1,1,1,1,0,0
1173,20696,10455,trol,10,1,1,1,1,1,0,0
1185,20697,10455,trol,10,1,1,1,1,1,0,0
1200,20698,10455,trol,10,1,1,1,1,1,0,0
1215,20699,10455,trol,10,1,1,1,1,1,0,0
1228,20700,10455,trol,10,1,1,1,1,1,0,0
1242,20701,10455,trol,10,1,1,1,1,1,0,0
1263,20702,10455,trol,10,1,1,1,1,1,0,0
1282,20703,10455,trol,10,1,1,1,1,1,0,0
1292,20704,10455,trol,10,1,1,1,1,1,0,0
1303,20705,10455,trol,10,1,1,1,1,1,0,0
1317,20706,10455,trol,10,1,1,1,1,1,0,0
1328,20707,10455,trol,10,1,1,1,1,1,0,0
1349,20708,10455,trol,10,1,1,1,1,1,0,0
1363,20709,10455,trol,10,1,1,1,1,1,0,0
1382,20710,10455,trol,10,1,1,1,1,1,0,0
1398,20711,10455,trol,10,1,1,1,1,1,0,0
1410,20712,10455,trol,10,1,1,1,1,1,0,0
371,20713,10456,trol,10,0,0,0,0,0,1,0
414,20714,10456,trol,10,0,0,0,0,0,1,0
442,20715,10456,trol,10,0,0,0,0,0,1,0
473,20716,10456,trol,10,0,0,0,0,0,1,0
495,20717,10456,trol,10,0,0,0,0,0,1,0
513,20718,10456,trol,10,0,0,0,0,0,1,0
541,20719,10456,trol,10,0,0,0,0,0,1,0
569,20720,10456,trol,10,0,0,0,0,0,1,0
593,20721,10456,trol,10,0,0,0,0,0,1,0
613,20722,10456,trol,10,0,0,0,0,0,1,0
630,20723,10456,trol,10,0,0,0,0,0,1,0
650,20724,10456,trol,10,0,0,0,0,0,1,0
668,20725,10456,trol,10,0,0,0,0,0,1,0
686,20726,10456,trol,10,0,0,0,0,0,1,0
703,20727,10456,trol,10,0,0,0,0,0,1,0
718,20728,10456,trol,10,0,0,0,0,0,1,0
731,20729,10456,trol,10,0,0,0,0,0,1,0
744,20730,10456,trol,10,0,0,0,0,0,1,0
760,20731,10456,trol,10,0,0,0,0,0,1,0
776,20732,10456,trol,10,0,0,0,0,0,1,0
792,20733,10456,trol,10,0,0,0,0,0,1,0
809,20734,10456,trol,10,0,0,0,0,0,1,0
825,20735,10456,trol,10,0,0,0,0,0,1,0
841,20736,10456,trol,10,0,0,0,0,0,1,0
858,20737,10456,trol,10,0,0,0,0,0,1,0
878,20738,10456,trol,10,0,0,0,0,0,1,0
896,20739,10456,trol,10,0,0,0,0,0,1,0
912,20740,10456,trol,10,0,0,0,0,0,1,0
923,20741,10456,trol,10,0,0,0,0,0,1,0
939,20742,10456,trol,10,0,0,0,0,0,1,0
949,20743,10456,trol,10,0,0,0,0,0,1,0
967,20744,10456,trol,10,0,0,0,0,0,1,0
981,20745,10456,trol,10,0,0,0,0,0,1,0
997,20746,10456,trol,10,0,0,0,0,0,1,0
1012,20747,10456,trol,10,0,0,0,0,0,1,0
1025,20748,10456,trol,10,0,0,0,0,0,1,0
1043,20749,10456,trol,10,0,0,0,0,0,1,0
1053,20750,10456,trol,10,0,0,0,0,0,1,0
1064,20751,10456,trol,10,0,0,0,0,0,1,0
1079,20752,10456,trol,10,0,0,0,0,0,1,0
1097,20753,10456,trol,10,0,0,0,0,0,1,0
1111,20754,10456,trol,10,0,0,0,0,0,1,0
1126,20755,10456,trol,10,0,0,0,0,0,1,0
1140,20756,10456,trol,10,0,0,0,0,0,1,0
1177,20757,10456,trol,10,0,0,0,0,0,1,0
1205,20758,10456,trol,10,0,0,0,0,0,1,0
1237,20759,10456,trol,10,0,0,0,0,0,1,0
1263,20760,10456,trol,10,0,0,0,0,0,1,0
1285,20761,10456,trol,10,0,0,0,0,0,1,0
1308,20762,10456,trol,10,0,0,0,0,0,1,0
1332,20763,10456,trol,10,0,0,0,0,0,1,0
1356,20764,10456,trol,10,0,0,0,0,0,1,0
1384,20765,10456,trol,10,0,0,0,0,0,1,0
1413,20766,10456,trol,10,0,0,0,0,0,1,0
919,20767,10455,trol,10,1,1,1,1,1,0,0
935,20768,10455,trol,10,1,1,1,1,1,0,0
963,20769,10455,trol,10,1,1,1,1,1,0,0
351,20794,10457,trol,10,0,0,0,0,0,0,1
381,20795,10457,trol,10,0,0,0,0,0,0,1
402,20796,10457,trol,10,0,0,0,0,0,0,1
531,20797,10457,trol,10,0,0,0,0,0,0,1
554,20798,10457,trol,10,0,0,0,0,0,0,1
588,20799,10457,trol,10,0,0,0,0,0,0,1
312,20800,10455,trol,10,1,1,1,1,1,0,0
328,20801,10455,trol,10,1,1,1,1,1,0,0
347,20802,10455,trol,10,1,1,1,1,1,0,0
363,20803,10455,trol,10,1,1,1,1,1,0,0
371,20804,10455,trol,10,1,1,1,1,1,0,0
389,20805,10455,trol,10,1,1,1,1,1,0,0
421,20806,10455,trol,10,1,1,1,1,1,0,0
443,20807,10455,trol,10,1,1,1,1,1,0,0
325,20808,10456,trol,10,0,0,0,0,0,1,0
351,20809,10456,trol,10,0,0,0,0,0,1,0
402,20810,10456,trol,10,0,0,0,0,0,1,0
531,20811,10456,trol,10,0,0,0,0,0,1,0
554,20812,10456,trol,10,0,0,0,0,0,1,0
588,20813,10456,trol,10,0,0,0,0,0,1,0
442,21352,10464,trol,14,0,0,0,0,0,0,1
472,21353,10464,trol,14,0,0,0,0,0,0,1
505,21354,10464,trol,14,0,0,0,0,0,0,1
538,21355,10464,trol,14,0,0,0,0,0,0,1
576,21356,10464,trol,14,0,0,0,0,0,0,1
606,21357,10464,trol,14,0,0,0,0,0,0,1
660,21358,10464,trol,14,0,0,0,0,0,0,1
696,21359,10464,trol,14,0,0,0,0,0,0,1
727,21360,10464,trol,14,0,0,0,0,0,0,1
759,21361,10464,trol,14,0,0,0,0,0,0,1
794,21362,10464,trol,14,0,0,0,0,0,0,1
826,21363,10464,trol,14,0,0,0,0,0,0,1
862,21364,10464,trol,14,0,0,0,0,0,0,1
892,21365,10464,trol,14,0,0,0,0,0,0,1
927,21366,10464,trol,14,0,0,0,0,0,0,1
962,21367,10464,trol,14,0,0,0,0,0,0,1
993,21368,10464,trol,14,0,0,0,0,0,0,1
1027,21369,10464,trol,14,0,0,0,0,0,0,1
1064,21370,10464,trol,14,0,0,0,0,0,0,1
1090,21371,10464,trol,14,0,0,0,0,0,0,1
1122,21372,10464,trol,14,0,0,0,0,0,0,1
1159,21373,10464,trol,14,0,0,0,0,0,0,1
1192,21374,10464,trol,14,0,0,0,0,0,0,1
1242,21375,10464,trol,14,0,0,0,0,0,0,1
1278,21376,10464,trol,14,0,0,0,0,0,0,1
1312,21377,10464,trol,14,0,0,0,0,0,0,1
1338,21378,10464,trol,14,0,0,0,0,0,0,1
1372,21379,10464,trol,14,0,0,0,0,0,0,1
369,21380,10462,trol,14,1,1,1,1,1,0,0
410,21381,10462,trol,14,1,1,1,1,1,0,0
434,21382,10462,trol,14,1,1,1,1,1,0,0
458,21383,10462,trol,14,1,1,1,1,1,0,0
482,21384,10462,trol,14,1,1,1,1,1,0,0
502,21385,10462,trol,14,1,1,1,1,1,0,0
522,21386,10462,trol,14,1,1,1,1,1,0,0
544,21387,10462,trol,14,1,1,1,1,1,0,0
568,21388,10462,trol,14,1,1,1,1,1,0,0
590,21389,10462,trol,14,1,1,1,1,1,0,0
613,21390,10462,trol,14,1,1,1,1,1,0,0
651,21391,10462,trol,14,1,1,1,1,1,0,0
679,21392,10462,trol,14,1,1,1,1,1,0,0
721,21393,10462,trol,14,1,1,1,1,1,0,0
754,21394,10462,trol,14,1,1,1,1,1,0,0
785,21395,10462,trol,14,1,1,1,1,1,0,0
824,21396,10462,trol,14,1,1,1,1,1,0,0
858,21397,10462,trol,14,1,1,1,1,1,0,0
891,21398,10462,trol,14,1,1,1,1,1,0,0
931,21399,10462,trol,14,1,1,1,1,1,0,0
963,21400,10462,trol,14,1,1,1,1,1,0,0
984,21401,10462,trol,14,1,1,1,1,1,0,0
1004,21402,10462,trol,14,1,1,1,1,1,0,0
1025,21403,10462,trol,14,1,1,1,1,1,0,0
1047,21404,10462,trol,14,1,1,1,1,1,0,0
1074,21405,10462,trol,14,1,1,1,1,1,0,0
1095,21406,10462,trol,14,1,1,1,1,1,0,0
1114,21407,10462,trol,14,1,1,1,1,1,0,0
1138,21408,10462,trol,14,1,1,1,1,1,0,0
1158,21409,10462,trol,14,1,1,1,1,1,0,0
1176,21410,10462,trol,14,1,1,1,1,1,0,0
1214,21411,10462,trol,14,1,1,1,1,1,0,0
1280,21412,10462,trol,14,1,1,1,1,1,0,0
1310,21413,10462,trol,14,1,1,1,1,1,0,0
1344,21414,10462,trol,14,1,1,1,1,1,0,0
1379,21415,10462,trol,14,1,1,1,1,1,0,0
1410,21416,10462,trol,14,1,1,1,1,1,0,0
408,21417,10463,trol,14,0,0,0,0,0,1,0
442,21418,10463,trol,14,0,0,0,0,0,1,0
472,21419,10463,trol,14,0,0,0,0,0,1,0
505,21420,10463,trol,14,0,0,0,0,0,1,0
538,21421,10463,trol,14,0,0,0,0,0,1,0
576,21422,10463,trol,14,0,0,0,0,0,1,0
606,21423,10463,trol,14,0,0,0,0,0,1,0
660,21424,10463,trol,14,0,0,0,0,0,1,0
696,21425,10463,trol,14,0,0,0,0,0,1,0
727,21426,10463,trol,14,0,0,0,0,0,1,0
759,21427,10463,trol,14,0,0,0,0,0,1,0
794,21428,10463,trol,14,0,0,0,0,0,1,0
826,21429,10463,trol,14,0,0,0,0,0,1,0
862,21430,10463,trol,14,0,0,0,0,0,1,0
892,21431,10463,trol,14,0,0,0,0,0,1,0
927,21432,10463,trol,14,0,0,0,0,0,1,0
962,21433,10463,trol,14,0,0,0,0,0,1,0
993,21434,10463,trol,14,0,0,0,0,0,1,0
1027,21435,10463,trol,14,0,0,0,0,0,1,0
1064,21436,10463,trol,14,0,0,0,0,0,1,0
1090,21437,10463,trol,14,0,0,0,0,0,1,0
1122,21438,10463,trol,14,0,0,0,0,0,1,0
1159,21439,10463,trol,14,0,0,0,0,0,1,0
1192,21440,10463,trol,14,0,0,0,0,0,1,0
1242,21441,10463,trol,14,0,0,0,0,0,1,0
1278,21442,10463,trol,14,0,0,0,0,0,1,0
1312,21443,10463,trol,14,0,0,0,0,0,1,0
1338,21444,10463,trol,14,0,0,0,0,0,1,0
1372,21445,10463,trol,14,0,0,0,0,0,1,0
356,21457,10464,trol,14,0,0,0,0,0,0,1
385,21458,10464,trol,14,0,0,0,0,0,0,1
418,21459,10464,trol,14,0,0,0,0,0,0,1
319,21460,10462,trol,14,1,1,1,1,1,0,0
342,21461,10462,trol,14,1,1,1,1,1,0,0
364,21462,10462,trol,14,1,1,1,1,1,0,0
404,21463,10462,trol,14,1,1,1,1,1,0,0
322,21464,10463,trol,14,0,0,0,0,0,1,0
356,21465,10463,trol,14,0,0,0,0,0,1,0
385,21466,10463,trol,14,0,0,0,0,0,1,0
361,22980,10475,trol,19,1,1,1,1,1,0,0
375,22981,10475,trol,19,1,1,1,1,1,0,0
386,22982,10475,trol,19,1,1,1,1,1,0,0
397,22983,10475,trol,19,1,1,1,1,1,0,0
407,22984,10475,trol,19,1,1,1,1,1,0,0
418,22985,10475,trol,19,1,1,1,1,1,0,0
427,22986,10475,trol,19,1,1,1,1,1,0,0
434,22987,10475,trol,19,1,1,1,1,1,0,0
442,22988,10475,trol,19,1,1,1,1,1,0,0
449,22989,10475,trol,19,1,1,1,1,1,0,0
457,22990,10475,trol,19,1,1,1,1,1,0,0
466,22991,10475,trol,19,1,1,1,1,1,0,0
474,22992,10475,trol,19,1,1,1,1,1,0,0
481,22993,10475,trol,19,1,1,1,1,1,0,0
485,22994,10475,trol,19,1,1,1,1,1,0,0
493,22995,10475,trol,19,1,1,1,1,1,0,0
501,22996,10475,trol,19,1,1,1,1,1,0,0
507,22997,10475,trol,19,1,1,1,1,1,0,0
512,22998,10475,trol,19,1,1,1,1,1,0,0
519,22999,10475,trol,19,1,1,1,1,1,0,0
527,23000,10475,trol,19,1,1,1,1,1,0,0
535,23001,10475,trol,19,1,1,1,1,1,0,0
543,23002,10475,trol,19,1,1,1,1,1,0,0
552,23003,10475,trol,19,1,1,1,1,1,0,0
559,23004,10475,trol,19,1,1,1,1,1,0,0
569,23005,10475,trol,19,1,1,1,1,1,0,0
576,23006,10475,trol,19,1,1,1,1,1,0,0
585,23007,10475,trol,19,1,1,1,1,1,0,0
594,23008,10475,trol,19,1,1,1,1,1,0,0
601,23009,10475,trol,19,1,1,1,1,1,0,0
611,23010,10475,trol,19,1,1,1,1,1,0,0
619,23011,10475,trol,19,1,1,1,1,1,0,0
627,23012,10475,trol,19,1,1,1,1,1,0,0
632,23013,10475,trol,19,1,1,1,1,1,0,0
640,23014,10475,trol,19,1,1,1,1,1,0,0
647,23015,10475,trol,19,1,1,1,1,1,0,0
656,23016,10475,trol,19,1,1,1,1,1,0,0
667,23017,10475,trol,19,1,1,1,1,1,0,0
674,23018,10475,trol,19,1,1,1,1,1,0,0
685,23019,10475,trol,19,1,1,1,1,1,0,0
698,23020,10475,trol,19,1,1,1,1,1,0,0
706,23021,10475,trol,19,1,1,1,1,1,0,0
717,23022,10475,trol,19,1,1,1,1,1,0,0
732,23023,10475,trol,19,1,1,1,1,1,0,0
741,23024,10475,trol,19,1,1,1,1,1,0,0
750,23025,10475,trol,19,1,1,1,1,1,0,0
758,23026,10475,trol,19,1,1,1,1,1,0,0
768,23027,10475,trol,19,1,1,1,1,1,0,0
780,23028,10475,trol,19,1,1,1,1,1,0,0
789,23029,10475,trol,19,1,1,1,1,1,0,0
800,23030,10475,trol,19,1,1,1,1,1,0,0
813,23031,10475,trol,19,1,1,1,1,1,0,0
823,23032,10475,trol,19,1,1,1,1,1,0,0
835,23033,10475,trol,19,1,1,1,1,1,0,0
847,23034,10475,trol,19,1,1,1,1,1,0,0
857,23035,10475,trol,19,1,1,1,1,1,0,0
865,23036,10475,trol,19,1,1,1,1,1,0,0
876,23037,10475,trol,19,1,1,1,1,1,0,0
884,23038,10475,trol,19,1,1,1,1,1,0,0
895,23039,10475,trol,19,1,1,1,1,1,0,0
906,23040,10475,trol,19,1,1,1,1,1,0,0
916,23041,10475,trol,19,1,1,1,1,1,0,0
928,23042,10475,trol,19,1,1,1,1,1,0,0
939,23043,10475,trol,19,1,1,1,1,1,0,0
946,23044,10475,trol,19,1,1,1,1,1,0,0
954,23045,10475,trol,19,1,1,1,1,1,0,0
963,23046,10475,trol,19,1,1,1,1,1,0,0
970,23047,10475,trol,19,1,1,1,1,1,0,0
974,23048,10475,trol,19,1,1,1,1,1,0,0
983,23049,10475,trol,19,1,1,1,1,1,0,0
988,23050,10475,trol,19,1,1,1,1,1,0,0
995,23051,10475,trol,19,1,1,1,1,1,0,0
1002,23052,10475,trol,19,1,1,1,1,1,0,0
1008,23053,10475,trol,19,1,1,1,1,1,0,0
1016,23054,10475,trol,19,1,1,1,1,1,0,0
1024,23055,10475,trol,19,1,1,1,1,1,0,0
1031,23056,10475,trol,19,1,1,1,1,1,0,0
1039,23057,10475,trol,19,1,1,1,1,1,0,0
1047,23058,10475,trol,19,1,1,1,1,1,0,0
1054,23059,10475,trol,19,1,1,1,1,1,0,0
1059,23060,10475,trol,19,1,1,1,1,1,0,0
1066,23061,10475,trol,19,1,1,1,1,1,0,0
1073,23062,10475,trol,19,1,1,1,1,1,0,0
1082,23063,10475,trol,19,1,1,1,1,1,0,0
1091,23064,10475,trol,19,1,1,1,1,1,0,0
1099,23065,10475,trol,19,1,1,1,1,1,0,0
1108,23066,10475,trol,19,1,1,1,1,1,0,0
1117,23067,10475,trol,19,1,1,1,1,1,0,0
1124,23068,10475,trol,19,1,1,1,1,1,0,0
1130,23069,10475,trol,19,1,1,1,1,1,0,0
1143,23070,10475,trol,19,1,1,1,1,1,0,0
1155,23071,10475,trol,19,1,1,1,1,1,0,0
1162,23072,10475,trol,19,1,1,1,1,1,0,0
1171,23073,10475,trol,19,1,1,1,1,1,0,0
1177,23074,10475,trol,19,1,1,1,1,1,0,0
1184,23075,10475,trol,19,1,1,1,1,1,0,0
1195,23076,10475,trol,19,1,1,1,1,1,0,0
1206,23077,10475,trol,19,1,1,1,1,1,0,0
1217,23078,10475,trol,19,1,1,1,1,1,0,0
1229,23079,10475,trol,19,1,1,1,1,1,0,0
1237,23080,10475,trol,19,1,1,1,1,1,0,0
1250,23081,10475,trol,19,1,1,1,1,1,0,0
1263,23082,10475,trol,19,1,1,1,1,1,0,0
1270,23083,10475,trol,19,1,1,1,1,1,0,0
1280,23084,10475,trol,19,1,1,1,1,1,0,0
1288,23085,10475,trol,19,1,1,1,1,1,0,0
1298,23086,10475,trol,19,1,1,1,1,1,0,0
1311,23087,10475,trol,19,1,1,1,1,1,0,0
1324,23088,10475,trol,19,1,1,1,1,1,0,0
1332,23089,10475,trol,19,1,1,1,1,1,0,0
1344,23090,10475,trol,19,1,1,1,1,1,0,0
1357,23091,10475,trol,19,1,1,1,1,1,0,0
1370,23092,10475,trol,19,1,1,1,1,1,0,0
1380,23093,10475,trol,19,1,1,1,1,1,0,0
1402,23094,10475,trol,19,1,1,1,1,1,0,0
1419,23095,10475,trol,19,1,1,1,1,1,0,0
356,23096,10476,trol,19,0,0,0,0,0,1,0
383,23097,10476,trol,19,0,0,0,0,0,1,0
408,23098,10476,trol,19,0,0,0,0,0,1,0
423,23099,10476,trol,19,0,0,0,0,0,1,0
440,23100,10476,trol,19,0,0,0,0,0,1,0
455,23101,10476,trol,19,0,0,0,0,0,1,0
471,23102,10476,trol,19,0,0,0,0,0,1,0
483,23103,10476,trol,19,0,0,0,0,0,1,0
497,23104,10476,trol,19,0,0,0,0,0,1,0
509,23105,10476,trol,19,0,0,0,0,0,1,0
519,23106,10476,trol,19,0,0,0,0,0,1,0
530,23107,10476,trol,19,0,0,0,0,0,1,0
544,23108,10476,trol,19,0,0,0,0,0,1,0
556,23109,10476,trol,19,0,0,0,0,0,1,0
573,23110,10476,trol,19,0,0,0,0,0,1,0
589,23111,10476,trol,19,0,0,0,0,0,1,0
605,23112,10476,trol,19,0,0,0,0,0,1,0
619,23113,10476,trol,19,0,0,0,0,0,1,0
636,23114,10476,trol,19,0,0,0,0,0,1,0
653,23115,10476,trol,19,0,0,0,0,0,1,0
665,23116,10476,trol,19,0,0,0,0,0,1,0
678,23117,10476,trol,19,0,0,0,0,0,1,0
692,23118,10476,trol,19,0,0,0,0,0,1,0
703,23119,10476,trol,19,0,0,0,0,0,1,0
712,23120,10476,trol,19,0,0,0,0,0,1,0
726,23121,10476,trol,19,0,0,0,0,0,1,0
740,23122,10476,trol,19,0,0,0,0,0,1,0
754,23123,10476,trol,19,0,0,0,0,0,1,0
766,23124,10476,trol,19,0,0,0,0,0,1,0
777,23125,10476,trol,19,0,0,0,0,0,1,0
786,23126,10476,trol,19,0,0,0,0,0,1,0
799,23127,10476,trol,19,0,0,0,0,0,1,0
807,23128,10476,trol,19,0,0,0,0,0,1,0
821,23129,10476,trol,19,0,0,0,0,0,1,0
831,23130,10476,trol,19,0,0,0,0,0,1,0
844,23131,10476,trol,19,0,0,0,0,0,1,0
860,23132,10476,trol,19,0,0,0,0,0,1,0
870,23133,10476,trol,19,0,0,0,0,0,1,0
882,23134,10476,trol,19,0,0,0,0,0,1,0
899,23135,10476,trol,19,0,0,0,0,0,1,0
907,23136,10476,trol,19,0,0,0,0,0,1,0
919,23137,10476,trol,19,0,0,0,0,0,1,0
931,23138,10476,trol,19,0,0,0,0,0,1,0
945,23139,10476,trol,19,0,0,0,0,0,1,0
955,23140,10476,trol,19,0,0,0,0,0,1,0
969,23141,10476,trol,19,0,0,0,0,0,1,0
984,23142,10476,trol,19,0,0,0,0,0,1,0
995,23143,10476,trol,19,0,0,0,0,0,1,0
1007,23144,10476,trol,19,0,0,0,0,0,1,0
1016,23145,10476,trol,19,0,0,0,0,0,1,0
1027,23146,10476,trol,19,0,0,0,0,0,1,0
1038,23147,10476,trol,19,0,0,0,0,0,1,0
1051,23148,10476,trol,19,0,0,0,0,0,1,0
1065,23149,10476,trol,19,0,0,0,0,0,1,0
1080,23150,10476,trol,19,0,0,0,0,0,1,0
1094,23151,10476,trol,19,0,0,0,0,0,1,0
1110,23152,10476,trol,19,0,0,0,0,0,1,0
1124,23153,10476,trol,19,0,0,0,0,0,1,0
1139,23154,10476,trol,19,0,0,0,0,0,1,0
1152,23155,10476,trol,19,0,0,0,0,0,1,0
1170,23156,10476,trol,19,0,0,0,0,0,1,0
1188,23157,10476,trol,19,0,0,0,0,0,1,0
1199,23158,10476,trol,19,0,0,0,0,0,1,0
1215,23159,10476,trol,19,0,0,0,0,0,1,0
1229,23160,10476,trol,19,0,0,0,0,0,1,0
1243,23161,10476,trol,19,0,0,0,0,0,1,0
1250,23162,10476,trol,19,0,0,0,0,0,1,0
1266,23163,10476,trol,19,0,0,0,0,0,1,0
1277,23164,10476,trol,19,0,0,0,0,0,1,0
1290,23165,10476,trol,19,0,0,0,0,0,1,0
1300,23166,10476,trol,19,0,0,0,0,0,1,0
1310,23167,10476,trol,19,0,0,0,0,0,1,0
1325,23168,10476,trol,19,0,0,0,0,0,1,0
1338,23169,10476,trol,19,0,0,0,0,0,1,0
1352,23170,10476,trol,19,0,0,0,0,0,1,0
1367,23171,10476,trol,19,0,0,0,0,0,1,0
1378,23172,10476,trol,19,0,0,0,0,0,1,0
1391,23173,10476,trol,19,0,0,0,0,0,1,0
1406,23174,10476,trol,19,0,0,0,0,0,1,0
1425,23175,10476,trol,19,0,0,0,0,0,1,0
408,23176,10477,trol,19,0,0,0,0,0,0,1
423,23177,10477,trol,19,0,0,0,0,0,0,1
440,23178,10477,trol,19,0,0,0,0,0,0,1
455,23179,10477,trol,19,0,0,0,0,0,0,1
471,23180,10477,trol,19,0,0,0,0,0,0,1
483,23181,10477,trol,19,0,0,0,0,0,0,1
497,23182,10477,trol,19,0,0,0,0,0,0,1
509,23183,10477,trol,19,0,0,0,0,0,0,1
519,23184,10477,trol,19,0,0,0,0,0,0,1
530,23185,10477,trol,19,0,0,0,0,0,0,1
544,23186,10477,trol,19,0,0,0,0,0,0,1
556,23187,10477,trol,19,0,0,0,0,0,0,1
573,23188,10477,trol,19,0,0,0,0,0,0,1
589,23189,10477,trol,19,0,0,0,0,0,0,1
605,23190,10477,trol,19,0,0,0,0,0,0,1
619,23191,10477,trol,19,0,0,0,0,0,0,1
636,23192,10477,trol,19,0,0,0,0,0,0,1
653,23193,10477,trol,19,0,0,0,0,0,0,1
665,23194,10477,trol,19,0,0,0,0,0,0,1
678,23195,10477,trol,19,0,0,0,0,0,0,1
692,23196,10477,trol,19,0,0,0,0,0,0,1
703,23197,10477,trol,19,0,0,0,0,0,0,1
712,23198,10477,trol,19,0,0,0,0,0,0,1
726,23199,10477,trol,19,0,0,0,0,0,0,1
740,23200,10477,trol,19,0,0,0,0,0,0,1
754,23201,10477,trol,19,0,0,0,0,0,0,1
766,23202,10477,trol,19,0,0,0,0,0,0,1
777,23203,10477,trol,19,0,0,0,0,0,0,1
786,23204,10477,trol,19,0,0,0,0,0,0,1
799,23205,10477,trol,19,0,0,0,0,0,0,1
807,23206,10477,trol,19,0,0,0,0,0,0,1
821,23207,10477,trol,19,0,0,0,0,0,0,1
831,23208,10477,trol,19,0,0,0,0,0,0,1
844,23209,10477,trol,19,0,0,0,0,0,0,1
860,23210,10477,trol,19,0,0,0,0,0,0,1
870,23211,10477,trol,19,0,0,0,0,0,0,1
882,23212,10477,trol,19,0,0,0,0,0,0,1
899,23213,10477,trol,19,0,0,0,0,0,0,1
907,23214,10477,trol,19,0,0,0,0,0,0,1
919,23215,10477,trol,19,0,0,0,0,0,0,1
931,23216,10477,trol,19,0,0,0,0,0,0,1
945,23217,10477,trol,19,0,0,0,0,0,0,1
955,23218,10477,trol,19,0,0,0,0,0,0,1
969,23219,10477,trol,19,0,0,0,0,0,0,1
984,23220,10477,trol,19,0,0,0,0,0,0,1
995,23221,10477,trol,19,0,0,0,0,0,0,1
1007,23222,10477,trol,19,0,0,0,0,0,0,1
1016,23223,10477,trol,19,0,0,0,0,0,0,1
1027,23224,10477,trol,19,0,0,0,0,0,0,1
1038,23225,10477,trol,19,0,0,0,0,0,0,1
1051,23226,10477,trol,19,0,0,0,0,0,0,1
1065,23227,10477,trol,19,0,0,0,0,0,0,1
1080,23228,10477,trol,19,0,0,0,0,0,0,1
1094,23229,10477,trol,19,0,0,0,0,0,0,1
1110,23230,10477,trol,19,0,0,0,0,0,0,1
1124,23231,10477,trol,19,0,0,0,0,0,0,1
1139,23232,10477,trol,19,0,0,0,0,0,0,1
1152,23233,10477,trol,19,0,0,0,0,0,0,1
1170,23234,10477,trol,19,0,0,0,0,0,0,1
1188,23235,10477,trol,19,0,0,0,0,0,0,1
1199,23236,10477,trol,19,0,0,0,0,0,0,1
1215,23237,10477,trol,19,0,0,0,0,0,0,1
1229,23238,10477,trol,19,0,0,0,0,0,0,1
1243,23239,10477,trol,19,0,0,0,0,0,0,1
1250,23240,10477,trol,19,0,0,0,0,0,0,1
1266,23241,10477,trol,19,0,0,0,0,0,0,1
1277,23242,10477,trol,19,0,0,0,0,0,0,1
1290,23243,10477,trol,19,0,0,0,0,0,0,1
1300,23244,10477,trol,19,0,0,0,0,0,0,1
1310,23245,10477,trol,19,0,0,0,0,0,0,1
1325,23246,10477,trol,19,0,0,0,0,0,0,1
1338,23247,10477,trol,19,0,0,0,0,0,0,1
1352,23248,10477,trol,19,0,0,0,0,0,0,1
1367,23249,10477,trol,19,0,0,0,0,0,0,1
1378,23250,10477,trol,19,0,0,0,0,0,0,1
1391,23251,10477,trol,19,0,0,0,0,0,0,1
1406,23252,10477,trol,19,0,0,0,0,0,0,1
1425,23253,10477,trol,19,0,0,0,0,0,0,1
923,23528,10475,trol,19,1,1,1,1,1,0,0
938,23529,10475,trol,19,1,1,1,1,1,0,0
330,23566,10475,trol,19,1,1,1,1,1,0,0
341,23567,10475,trol,19,1,1,1,1,1,0,0
348,23568,10475,trol,19,1,1,1,1,1,0,0
357,23569,10475,trol,19,1,1,1,1,1,0,0
383,23570,10475,trol,19,1,1,1,1,1,0,0
400,23571,10475,trol,19,1,1,1,1,1,0,0
415,23572,10475,trol,19,1,1,1,1,1,0,0
332,23573,10476,trol,19,0,0,0,0,0,1,0
374,23574,10476,trol,19,0,0,0,0,0,1,0
398,23575,10476,trol,19,0,0,0,0,0,1,0
405,23576,10476,trol,19,0,0,0,0,0,1,0
451,23577,10476,trol,19,0,0,0,0,0,1,0
374,23578,10477,trol,19,0,0,0,0,0,0,1
398,23579,10477,trol,19,0,0,0,0,0,0,1
405,23580,10477,trol,19,0,0,0,0,0,0,1
451,23581,10477,trol,19,0,0,0,0,0,0,1
356,23598,10477,trol,19,0,0,0,0,0,0,1
383,23599,10477,trol,19,0,0,0,0,0,0,1
369,23992,10480,trol,21,1,1,1,1,1,0,0
396,23993,10480,trol,21,1,1,1,1,1,0,0
429,23994,10480,trol,21,1,1,1,1,1,0,0
450,23995,10480,trol,21,1,1,1,1,1,0,0
474,23996,10480,trol,21,1,1,1,1,1,0,0
497,23997,10480,trol,21,1,1,1,1,1,0,0
522,23998,10480,trol,21,1,1,1,1,1,0,0
552,23999,10480,trol,21,1,1,1,1,1,0,0
590,24000,10480,trol,21,1,1,1,1,1,0,0
620,24001,10480,trol,21,1,1,1,1,1,0,0
654,24002,10480,trol,21,1,1,1,1,1,0,0
689,24003,10480,trol,21,1,1,1,1,1,0,0
719,24004,10480,trol,21,1,1,1,1,1,0,0
755,24005,10480,trol,21,1,1,1,1,1,0,0
786,24006,10480,trol,21,1,1,1,1,1,0,0
820,24007,10480,trol,21,1,1,1,1,1,0,0
859,24008,10480,trol,21,1,1,1,1,1,0,0
877,24009,10480,trol,21,1,1,1,1,1,0,0
898,24010,10480,trol,21,1,1,1,1,1,0,0
924,24011,10480,trol,21,1,1,1,1,1,0,0
944,24012,10480,trol,21,1,1,1,1,1,0,0
966,24013,10480,trol,21,1,1,1,1,1,0,0
990,24014,10480,trol,21,1,1,1,1,1,0,0
1013,24015,10480,trol,21,1,1,1,1,1,0,0
1035,24016,10480,trol,21,1,1,1,1,1,0,0
1063,24017,10480,trol,21,1,1,1,1,1,0,0
1085,24018,10480,trol,21,1,1,1,1,1,0,0
1110,24019,10480,trol,21,1,1,1,1,1,0,0
1157,24020,10480,trol,21,1,1,1,1,1,0,0
1201,24021,10480,trol,21,1,1,1,1,1,0,0
1227,24022,10480,trol,21,1,1,1,1,1,0,0
1261,24023,10480,trol,21,1,1,1,1,1,0,0
1291,24024,10480,trol,21,1,1,1,1,1,0,0
1324,24025,10480,trol,21,1,1,1,1,1,0,0
393,24026,10481,trol,21,0,0,0,0,0,1,1
449,24027,10481,trol,21,0,0,0,0,0,1,1
511,24028,10481,trol,21,0,0,0,0,0,1,1
570,24029,10481,trol,21,0,0,0,0,0,1,1
660,24030,10481,trol,21,0,0,0,0,0,1,1
720,24031,10481,trol,21,0,0,0,0,0,1,1
778,24032,10481,trol,21,0,0,0,0,0,1,1
835,24033,10481,trol,21,0,0,0,0,0,1,1
896,24034,10481,trol,21,0,0,0,0,0,1,1
952,24035,10481,trol,21,0,0,0,0,0,1,1
1009,24036,10481,trol,21,0,0,0,0,0,1,1
1097,24037,10481,trol,21,0,0,0,0,0,1,1
1154,24038,10481,trol,21,0,0,0,0,0,1,1
1211,24039,10481,trol,21,0,0,0,0,0,1,1
1268,24040,10481,trol,21,0,0,0,0,0,1,1
1324,24041,10481,trol,21,0,0,0,0,0,1,1
387,24046,10480,trol,21,1,1,1,1,1,0,0
