timeInMin,trip_id,service_id,tipas,numeris,pirmadienis,antradienis,treciadienis,ketvirtadienis,penktadienis,sestadienis,sekmadienis 
351,36,10571,bus,1,1,1,1,1,1,1,0
401,37,10571,bus,1,1,1,1,1,1,1,0
453,38,10571,bus,1,1,1,1,1,1,1,0
513,39,10571,bus,1,1,1,1,1,1,1,0
596,40,10571,bus,1,1,1,1,1,1,1,0
665,41,10571,bus,1,1,1,1,1,1,1,0
717,42,10571,bus,1,1,1,1,1,1,1,0
770,43,10571,bus,1,1,1,1,1,1,1,0
822,44,10571,bus,1,1,1,1,1,1,1,0
879,45,10571,bus,1,1,1,1,1,1,1,0
944,46,10571,bus,1,1,1,1,1,1,1,0
996,47,10571,bus,1,1,1,1,1,1,1,0
1049,48,10571,bus,1,1,1,1,1,1,1,0
1133,49,10571,bus,1,1,1,1,1,1,1,0
1186,50,10571,bus,1,1,1,1,1,1,1,0
1238,51,10571,bus,1,1,1,1,1,1,1,0
1290,52,10571,bus,1,1,1,1,1,1,1,0
1342,53,10571,bus,1,1,1,1,1,1,1,0
401,54,10572,bus,1,0,0,0,0,0,0,1
453,55,10572,bus,1,0,0,0,0,0,0,1
513,56,10572,bus,1,0,0,0,0,0,0,1
596,57,10572,bus,1,0,0,0,0,0,0,1
665,58,10572,bus,1,0,0,0,0,0,0,1
717,59,10572,bus,1,0,0,0,0,0,0,1
770,60,10572,bus,1,0,0,0,0,0,0,1
822,61,10572,bus,1,0,0,0,0,0,0,1
879,62,10572,bus,1,0,0,0,0,0,0,1
944,63,10572,bus,1,0,0,0,0,0,0,1
996,64,10572,bus,1,0,0,0,0,0,0,1
1049,65,10572,bus,1,0,0,0,0,0,0,1
1133,66,10572,bus,1,0,0,0,0,0,0,1
1186,67,10572,bus,1,0,0,0,0,0,0,1
1238,68,10572,bus,1,0,0,0,0,0,0,1
1290,69,10572,bus,1,0,0,0,0,0,0,1
1342,70,10572,bus,1,0,0,0,0,0,0,1
399,1625,8395,bus,3,1,1,1,1,1,0,0
424,1626,8395,bus,3,1,1,1,1,1,0,0
469,1627,8395,bus,3,1,1,1,1,1,0,0
501,1628,8395,bus,3,1,1,1,1,1,0,0
541,1629,8395,bus,3,1,1,1,1,1,0,0
571,1630,8395,bus,3,1,1,1,1,1,0,0
597,1631,8395,bus,3,1,1,1,1,1,0,0
643,1632,8395,bus,3,1,1,1,1,1,0,0
724,1633,8395,bus,3,1,1,1,1,1,0,0
783,1634,8395,bus,3,1,1,1,1,1,0,0
819,1635,8395,bus,3,1,1,1,1,1,0,0
881,1636,8395,bus,3,1,1,1,1,1,0,0
932,1637,8395,bus,3,1,1,1,1,1,0,0
985,1638,8395,bus,3,1,1,1,1,1,0,0
1009,1639,8395,bus,3,1,1,1,1,1,0,0
1045,1640,8395,bus,3,1,1,1,1,1,0,0
1093,1641,8395,bus,3,1,1,1,1,1,0,0
1123,1642,8395,bus,3,1,1,1,1,1,0,0
1149,1643,8395,bus,3,1,1,1,1,1,0,0
1223,1644,8395,bus,3,1,1,1,1,1,0,0
700,1645,8396,bus,3,0,0,0,0,0,1,0
796,1646,8396,bus,3,0,0,0,0,0,1,0
903,1647,8396,bus,3,0,0,0,0,0,1,0
1007,1648,8396,bus,3,0,0,0,0,0,1,0
1153,1649,8396,bus,3,0,0,0,0,0,1,0
725,1650,8397,bus,3,0,0,0,0,0,0,1
832,1651,8397,bus,3,0,0,0,0,0,0,1
939,1652,8397,bus,3,0,0,0,0,0,0,1
1044,1653,8397,bus,3,0,0,0,0,0,0,1
1171,1654,8397,bus,3,0,0,0,0,0,0,1
1273,1655,8395,bus,3,1,1,1,1,1,0,0
1324,1656,8395,bus,3,1,1,1,1,1,0,0
1376,1657,8395,bus,3,1,1,1,1,1,0,0
377,1658,8396,bus,3,0,0,0,0,0,1,0
467,1659,8396,bus,3,0,0,0,0,0,1,0
563,1660,8396,bus,3,0,0,0,0,0,1,0
1257,1661,8396,bus,3,0,0,0,0,0,1,0
418,1662,8397,bus,3,0,0,0,0,0,0,1
515,1663,8397,bus,3,0,0,0,0,0,0,1
603,1664,8397,bus,3,0,0,0,0,0,0,1
1268,1665,8397,bus,3,0,0,0,0,0,0,1
391,1999,10329,expressbus,3G,0,0,0,0,0,0,1
405,2000,10329,expressbus,3G,0,0,0,0,0,0,1
419,2001,10329,expressbus,3G,0,0,0,0,0,0,1
432,2002,10329,expressbus,3G,0,0,0,0,0,0,1
443,2003,10329,expressbus,3G,0,0,0,0,0,0,1
456,2004,10329,expressbus,3G,0,0,0,0,0,0,1
468,2005,10329,expressbus,3G,0,0,0,0,0,0,1
480,2006,10329,expressbus,3G,0,0,0,0,0,0,1
491,2007,10329,expressbus,3G,0,0,0,0,0,0,1
504,2008,10329,expressbus,3G,0,0,0,0,0,0,1
516,2009,10329,expressbus,3G,0,0,0,0,0,0,1
529,2010,10329,expressbus,3G,0,0,0,0,0,0,1
542,2011,10329,expressbus,3G,0,0,0,0,0,0,1
554,2012,10329,expressbus,3G,0,0,0,0,0,0,1
568,2013,10329,expressbus,3G,0,0,0,0,0,0,1
580,2014,10329,expressbus,3G,0,0,0,0,0,0,1
594,2015,10329,expressbus,3G,0,0,0,0,0,0,1
604,2016,10329,expressbus,3G,0,0,0,0,0,0,1
614,2017,10329,expressbus,3G,0,0,0,0,0,0,1
623,2018,10329,expressbus,3G,0,0,0,0,0,0,1
635,2019,10329,expressbus,3G,0,0,0,0,0,0,1
646,2020,10329,expressbus,3G,0,0,0,0,0,0,1
658,2021,10329,expressbus,3G,0,0,0,0,0,0,1
669,2022,10329,expressbus,3G,0,0,0,0,0,0,1
681,2023,10329,expressbus,3G,0,0,0,0,0,0,1
693,2024,10329,expressbus,3G,0,0,0,0,0,0,1
703,2025,10329,expressbus,3G,0,0,0,0,0,0,1
712,2026,10329,expressbus,3G,0,0,0,0,0,0,1
724,2027,10329,expressbus,3G,0,0,0,0,0,0,1
735,2028,10329,expressbus,3G,0,0,0,0,0,0,1
743,2029,10329,expressbus,3G,0,0,0,0,0,0,1
751,2030,10329,expressbus,3G,0,0,0,0,0,0,1
758,2031,10329,expressbus,3G,0,0,0,0,0,0,1
765,2032,10329,expressbus,3G,0,0,0,0,0,0,1
776,2033,10329,expressbus,3G,0,0,0,0,0,0,1
787,2034,10329,expressbus,3G,0,0,0,0,0,0,1
801,2035,10329,expressbus,3G,0,0,0,0,0,0,1
812,2036,10329,expressbus,3G,0,0,0,0,0,0,1
824,2037,10329,expressbus,3G,0,0,0,0,0,0,1
839,2038,10329,expressbus,3G,0,0,0,0,0,0,1
849,2039,10329,expressbus,3G,0,0,0,0,0,0,1
858,2040,10329,expressbus,3G,0,0,0,0,0,0,1
865,2041,10329,expressbus,3G,0,0,0,0,0,0,1
873,2042,10329,expressbus,3G,0,0,0,0,0,0,1
880,2043,10329,expressbus,3G,0,0,0,0,0,0,1
890,2044,10329,expressbus,3G,0,0,0,0,0,0,1
903,2045,10329,expressbus,3G,0,0,0,0,0,0,1
916,2046,10329,expressbus,3G,0,0,0,0,0,0,1
928,2047,10329,expressbus,3G,0,0,0,0,0,0,1
939,2048,10329,expressbus,3G,0,0,0,0,0,0,1
950,2049,10329,expressbus,3G,0,0,0,0,0,0,1
957,2050,10329,expressbus,3G,0,0,0,0,0,0,1
965,2051,10329,expressbus,3G,0,0,0,0,0,0,1
972,2052,10329,expressbus,3G,0,0,0,0,0,0,1
979,2053,10329,expressbus,3G,0,0,0,0,0,0,1
986,2054,10329,expressbus,3G,0,0,0,0,0,0,1
998,2055,10329,expressbus,3G,0,0,0,0,0,0,1
1008,2056,10329,expressbus,3G,0,0,0,0,0,0,1
1018,2057,10329,expressbus,3G,0,0,0,0,0,0,1
1029,2058,10329,expressbus,3G,0,0,0,0,0,0,1
1039,2059,10329,expressbus,3G,0,0,0,0,0,0,1
1049,2060,10329,expressbus,3G,0,0,0,0,0,0,1
1059,2061,10329,expressbus,3G,0,0,0,0,0,0,1
1072,2062,10329,expressbus,3G,0,0,0,0,0,0,1
1082,2063,10329,expressbus,3G,0,0,0,0,0,0,1
1097,2064,10329,expressbus,3G,0,0,0,0,0,0,1
1111,2065,10329,expressbus,3G,0,0,0,0,0,0,1
1125,2066,10329,expressbus,3G,0,0,0,0,0,0,1
1140,2067,10329,expressbus,3G,0,0,0,0,0,0,1
1154,2068,10329,expressbus,3G,0,0,0,0,0,0,1
1170,2069,10329,expressbus,3G,0,0,0,0,0,0,1
1185,2070,10329,expressbus,3G,0,0,0,0,0,0,1
1199,2071,10329,expressbus,3G,0,0,0,0,0,0,1
1213,2072,10329,expressbus,3G,0,0,0,0,0,0,1
1224,2073,10329,expressbus,3G,0,0,0,0,0,0,1
1234,2074,10329,expressbus,3G,0,0,0,0,0,0,1
1247,2075,10329,expressbus,3G,0,0,0,0,0,0,1
1258,2076,10329,expressbus,3G,0,0,0,0,0,0,1
1272,2077,10329,expressbus,3G,0,0,0,0,0,0,1
1284,2078,10329,expressbus,3G,0,0,0,0,0,0,1
1298,2079,10329,expressbus,3G,0,0,0,0,0,0,1
1309,2080,10329,expressbus,3G,0,0,0,0,0,0,1
1320,2081,10329,expressbus,3G,0,0,0,0,0,0,1
1333,2082,10329,expressbus,3G,0,0,0,0,0,0,1
1348,2083,10329,expressbus,3G,0,0,0,0,0,0,1
1365,2084,10329,expressbus,3G,0,0,0,0,0,0,1
1381,2085,10329,expressbus,3G,0,0,0,0,0,0,1
1398,2086,10329,expressbus,3G,0,0,0,0,0,0,1
1413,2087,10329,expressbus,3G,0,0,0,0,0,0,1
318,2088,10327,expressbus,3G,1,1,1,1,1,0,0
330,2089,10327,expressbus,3G,1,1,1,1,1,0,0
340,2090,10327,expressbus,3G,1,1,1,1,1,0,0
350,2091,10327,expressbus,3G,1,1,1,1,1,0,0
358,2092,10327,expressbus,3G,1,1,1,1,1,0,0
366,2093,10327,expressbus,3G,1,1,1,1,1,0,0
374,2094,10327,expressbus,3G,1,1,1,1,1,0,0
384,2095,10327,expressbus,3G,1,1,1,1,1,0,0
394,2096,10327,expressbus,3G,1,1,1,1,1,0,0
402,2097,10327,expressbus,3G,1,1,1,1,1,0,0
408,2098,10327,expressbus,3G,1,1,1,1,1,0,0
414,2099,10327,expressbus,3G,1,1,1,1,1,0,0
420,2100,10327,expressbus,3G,1,1,1,1,1,0,0
427,2101,10327,expressbus,3G,1,1,1,1,1,0,0
431,2102,10327,expressbus,3G,1,1,1,1,1,0,0
437,2103,10327,expressbus,3G,1,1,1,1,1,0,0
442,2104,10327,expressbus,3G,1,1,1,1,1,0,0
447,2105,10327,expressbus,3G,1,1,1,1,1,0,0
452,2106,10327,expressbus,3G,1,1,1,1,1,0,0
458,2107,10327,expressbus,3G,1,1,1,1,1,0,0
466,2108,10327,expressbus,3G,1,1,1,1,1,0,0
471,2109,10327,expressbus,3G,1,1,1,1,1,0,0
476,2110,10327,expressbus,3G,1,1,1,1,1,0,0
481,2111,10327,expressbus,3G,1,1,1,1,1,0,0
487,2112,10327,expressbus,3G,1,1,1,1,1,0,0
493,2113,10327,expressbus,3G,1,1,1,1,1,0,0
498,2114,10327,expressbus,3G,1,1,1,1,1,0,0
503,2115,10327,expressbus,3G,1,1,1,1,1,0,0
508,2116,10327,expressbus,3G,1,1,1,1,1,0,0
514,2117,10327,expressbus,3G,1,1,1,1,1,0,0
519,2118,10327,expressbus,3G,1,1,1,1,1,0,0
524,2119,10327,expressbus,3G,1,1,1,1,1,0,0
529,2120,10327,expressbus,3G,1,1,1,1,1,0,0
535,2121,10327,expressbus,3G,1,1,1,1,1,0,0
541,2122,10327,expressbus,3G,1,1,1,1,1,0,0
546,2123,10327,expressbus,3G,1,1,1,1,1,0,0
551,2124,10327,expressbus,3G,1,1,1,1,1,0,0
556,2125,10327,expressbus,3G,1,1,1,1,1,0,0
561,2126,10327,expressbus,3G,1,1,1,1,1,0,0
567,2127,10327,expressbus,3G,1,1,1,1,1,0,0
573,2128,10327,expressbus,3G,1,1,1,1,1,0,0
578,2129,10327,expressbus,3G,1,1,1,1,1,0,0
583,2130,10327,expressbus,3G,1,1,1,1,1,0,0
588,2131,10327,expressbus,3G,1,1,1,1,1,0,0
593,2132,10327,expressbus,3G,1,1,1,1,1,0,0
598,2133,10327,expressbus,3G,1,1,1,1,1,0,0
603,2134,10327,expressbus,3G,1,1,1,1,1,0,0
610,2135,10327,expressbus,3G,1,1,1,1,1,0,0
616,2136,10327,expressbus,3G,1,1,1,1,1,0,0
623,2137,10327,expressbus,3G,1,1,1,1,1,0,0
631,2138,10327,expressbus,3G,1,1,1,1,1,0,0
639,2139,10327,expressbus,3G,1,1,1,1,1,0,0
647,2140,10327,expressbus,3G,1,1,1,1,1,0,0
657,2141,10327,expressbus,3G,1,1,1,1,1,0,0
668,2142,10327,expressbus,3G,1,1,1,1,1,0,0
679,2143,10327,expressbus,3G,1,1,1,1,1,0,0
690,2144,10327,expressbus,3G,1,1,1,1,1,0,0
700,2145,10327,expressbus,3G,1,1,1,1,1,0,0
710,2146,10327,expressbus,3G,1,1,1,1,1,0,0
719,2147,10327,expressbus,3G,1,1,1,1,1,0,0
729,2148,10327,expressbus,3G,1,1,1,1,1,0,0
738,2149,10327,expressbus,3G,1,1,1,1,1,0,0
745,2150,10327,expressbus,3G,1,1,1,1,1,0,0
752,2151,10327,expressbus,3G,1,1,1,1,1,0,0
760,2152,10327,expressbus,3G,1,1,1,1,1,0,0
768,2153,10327,expressbus,3G,1,1,1,1,1,0,0
776,2154,10327,expressbus,3G,1,1,1,1,1,0,0
786,2155,10327,expressbus,3G,1,1,1,1,1,0,0
795,2156,10327,expressbus,3G,1,1,1,1,1,0,0
802,2157,10327,expressbus,3G,1,1,1,1,1,0,0
812,2158,10327,expressbus,3G,1,1,1,1,1,0,0
821,2159,10327,expressbus,3G,1,1,1,1,1,0,0
831,2160,10327,expressbus,3G,1,1,1,1,1,0,0
840,2161,10327,expressbus,3G,1,1,1,1,1,0,0
847,2162,10327,expressbus,3G,1,1,1,1,1,0,0
854,2163,10327,expressbus,3G,1,1,1,1,1,0,0
863,2164,10327,expressbus,3G,1,1,1,1,1,0,0
873,2165,10327,expressbus,3G,1,1,1,1,1,0,0
881,2166,10327,expressbus,3G,1,1,1,1,1,0,0
888,2167,10327,expressbus,3G,1,1,1,1,1,0,0
897,2168,10327,expressbus,3G,1,1,1,1,1,0,0
905,2169,10327,expressbus,3G,1,1,1,1,1,0,0
915,2170,10327,expressbus,3G,1,1,1,1,1,0,0
924,2171,10327,expressbus,3G,1,1,1,1,1,0,0
933,2172,10327,expressbus,3G,1,1,1,1,1,0,0
942,2173,10327,expressbus,3G,1,1,1,1,1,0,0
949,2174,10327,expressbus,3G,1,1,1,1,1,0,0
956,2175,10327,expressbus,3G,1,1,1,1,1,0,0
961,2176,10327,expressbus,3G,1,1,1,1,1,0,0
967,2177,10327,expressbus,3G,1,1,1,1,1,0,0
973,2178,10327,expressbus,3G,1,1,1,1,1,0,0
979,2179,10327,expressbus,3G,1,1,1,1,1,0,0
984,2180,10327,expressbus,3G,1,1,1,1,1,0,0
990,2181,10327,expressbus,3G,1,1,1,1,1,0,0
995,2182,10327,expressbus,3G,1,1,1,1,1,0,0
1000,2183,10327,expressbus,3G,1,1,1,1,1,0,0
1005,2184,10327,expressbus,3G,1,1,1,1,1,0,0
1010,2185,10327,expressbus,3G,1,1,1,1,1,0,0
1015,2186,10327,expressbus,3G,1,1,1,1,1,0,0
1021,2187,10327,expressbus,3G,1,1,1,1,1,0,0
1026,2188,10327,expressbus,3G,1,1,1,1,1,0,0
1031,2189,10327,expressbus,3G,1,1,1,1,1,0,0
1037,2190,10327,expressbus,3G,1,1,1,1,1,0,0
1042,2191,10327,expressbus,3G,1,1,1,1,1,0,0
1048,2192,10327,expressbus,3G,1,1,1,1,1,0,0
1054,2193,10327,expressbus,3G,1,1,1,1,1,0,0
1060,2194,10327,expressbus,3G,1,1,1,1,1,0,0
1065,2195,10327,expressbus,3G,1,1,1,1,1,0,0
1070,2196,10327,expressbus,3G,1,1,1,1,1,0,0
1076,2197,10327,expressbus,3G,1,1,1,1,1,0,0
1083,2198,10327,expressbus,3G,1,1,1,1,1,0,0
1089,2199,10327,expressbus,3G,1,1,1,1,1,0,0
1095,2200,10327,expressbus,3G,1,1,1,1,1,0,0
1100,2201,10327,expressbus,3G,1,1,1,1,1,0,0
1105,2202,10327,expressbus,3G,1,1,1,1,1,0,0
1110,2203,10327,expressbus,3G,1,1,1,1,1,0,0
1115,2204,10327,expressbus,3G,1,1,1,1,1,0,0
1120,2205,10327,expressbus,3G,1,1,1,1,1,0,0
1125,2206,10327,expressbus,3G,1,1,1,1,1,0,0
1131,2207,10327,expressbus,3G,1,1,1,1,1,0,0
1136,2208,10327,expressbus,3G,1,1,1,1,1,0,0
1144,2209,10327,expressbus,3G,1,1,1,1,1,0,0
1153,2210,10327,expressbus,3G,1,1,1,1,1,0,0
1163,2211,10327,expressbus,3G,1,1,1,1,1,0,0
1172,2212,10327,expressbus,3G,1,1,1,1,1,0,0
1180,2213,10327,expressbus,3G,1,1,1,1,1,0,0
1189,2214,10327,expressbus,3G,1,1,1,1,1,0,0
1196,2215,10327,expressbus,3G,1,1,1,1,1,0,0
1205,2216,10327,expressbus,3G,1,1,1,1,1,0,0
1214,2217,10327,expressbus,3G,1,1,1,1,1,0,0
1222,2218,10327,expressbus,3G,1,1,1,1,1,0,0
1231,2219,10327,expressbus,3G,1,1,1,1,1,0,0
1238,2220,10327,expressbus,3G,1,1,1,1,1,0,0
1245,2221,10327,expressbus,3G,1,1,1,1,1,0,0
1253,2222,10327,expressbus,3G,1,1,1,1,1,0,0
1261,2223,10327,expressbus,3G,1,1,1,1,1,0,0
1269,2224,10327,expressbus,3G,1,1,1,1,1,0,0
1277,2225,10327,expressbus,3G,1,1,1,1,1,0,0
1285,2226,10327,expressbus,3G,1,1,1,1,1,0,0
1293,2227,10327,expressbus,3G,1,1,1,1,1,0,0
1302,2228,10327,expressbus,3G,1,1,1,1,1,0,0
1312,2229,10327,expressbus,3G,1,1,1,1,1,0,0
1320,2230,10327,expressbus,3G,1,1,1,1,1,0,0
1328,2231,10327,expressbus,3G,1,1,1,1,1,0,0
1336,2232,10327,expressbus,3G,1,1,1,1,1,0,0
1344,2233,10327,expressbus,3G,1,1,1,1,1,0,0
1354,2234,10327,expressbus,3G,1,1,1,1,1,0,0
1365,2235,10327,expressbus,3G,1,1,1,1,1,0,0
1377,2236,10327,expressbus,3G,1,1,1,1,1,0,0
1390,2237,10327,expressbus,3G,1,1,1,1,1,0,0
1406,2238,10327,expressbus,3G,1,1,1,1,1,0,0
353,2239,10328,expressbus,3G,0,0,0,0,0,1,0
375,2240,10328,expressbus,3G,0,0,0,0,0,1,0
391,2241,10328,expressbus,3G,0,0,0,0,0,1,0
405,2242,10328,expressbus,3G,0,0,0,0,0,1,0
419,2243,10328,expressbus,3G,0,0,0,0,0,1,0
432,2244,10328,expressbus,3G,0,0,0,0,0,1,0
443,2245,10328,expressbus,3G,0,0,0,0,0,1,0
456,2246,10328,expressbus,3G,0,0,0,0,0,1,0
468,2247,10328,expressbus,3G,0,0,0,0,0,1,0
480,2248,10328,expressbus,3G,0,0,0,0,0,1,0
491,2249,10328,expressbus,3G,0,0,0,0,0,1,0
504,2250,10328,expressbus,3G,0,0,0,0,0,1,0
516,2251,10328,expressbus,3G,0,0,0,0,0,1,0
529,2252,10328,expressbus,3G,0,0,0,0,0,1,0
542,2253,10328,expressbus,3G,0,0,0,0,0,1,0
554,2254,10328,expressbus,3G,0,0,0,0,0,1,0
568,2255,10328,expressbus,3G,0,0,0,0,0,1,0
580,2256,10328,expressbus,3G,0,0,0,0,0,1,0
594,2257,10328,expressbus,3G,0,0,0,0,0,1,0
604,2258,10328,expressbus,3G,0,0,0,0,0,1,0
614,2259,10328,expressbus,3G,0,0,0,0,0,1,0
623,2260,10328,expressbus,3G,0,0,0,0,0,1,0
635,2261,10328,expressbus,3G,0,0,0,0,0,1,0
646,2262,10328,expressbus,3G,0,0,0,0,0,1,0
658,2263,10328,expressbus,3G,0,0,0,0,0,1,0
669,2264,10328,expressbus,3G,0,0,0,0,0,1,0
681,2265,10328,expressbus,3G,0,0,0,0,0,1,0
693,2266,10328,expressbus,3G,0,0,0,0,0,1,0
703,2267,10328,expressbus,3G,0,0,0,0,0,1,0
712,2268,10328,expressbus,3G,0,0,0,0,0,1,0
724,2269,10328,expressbus,3G,0,0,0,0,0,1,0
735,2270,10328,expressbus,3G,0,0,0,0,0,1,0
743,2271,10328,expressbus,3G,0,0,0,0,0,1,0
751,2272,10328,expressbus,3G,0,0,0,0,0,1,0
758,2273,10328,expressbus,3G,0,0,0,0,0,1,0
765,2274,10328,expressbus,3G,0,0,0,0,0,1,0
776,2275,10328,expressbus,3G,0,0,0,0,0,1,0
787,2276,10328,expressbus,3G,0,0,0,0,0,1,0
801,2277,10328,expressbus,3G,0,0,0,0,0,1,0
812,2278,10328,expressbus,3G,0,0,0,0,0,1,0
824,2279,10328,expressbus,3G,0,0,0,0,0,1,0
839,2280,10328,expressbus,3G,0,0,0,0,0,1,0
849,2281,10328,expressbus,3G,0,0,0,0,0,1,0
858,2282,10328,expressbus,3G,0,0,0,0,0,1,0
865,2283,10328,expressbus,3G,0,0,0,0,0,1,0
873,2284,10328,expressbus,3G,0,0,0,0,0,1,0
880,2285,10328,expressbus,3G,0,0,0,0,0,1,0
890,2286,10328,expressbus,3G,0,0,0,0,0,1,0
903,2287,10328,expressbus,3G,0,0,0,0,0,1,0
916,2288,10328,expressbus,3G,0,0,0,0,0,1,0
928,2289,10328,expressbus,3G,0,0,0,0,0,1,0
939,2290,10328,expressbus,3G,0,0,0,0,0,1,0
950,2291,10328,expressbus,3G,0,0,0,0,0,1,0
957,2292,10328,expressbus,3G,0,0,0,0,0,1,0
965,2293,10328,expressbus,3G,0,0,0,0,0,1,0
972,2294,10328,expressbus,3G,0,0,0,0,0,1,0
979,2295,10328,expressbus,3G,0,0,0,0,0,1,0
986,2296,10328,expressbus,3G,0,0,0,0,0,1,0
998,2297,10328,expressbus,3G,0,0,0,0,0,1,0
1008,2298,10328,expressbus,3G,0,0,0,0,0,1,0
1018,2299,10328,expressbus,3G,0,0,0,0,0,1,0
1029,2300,10328,expressbus,3G,0,0,0,0,0,1,0
1039,2301,10328,expressbus,3G,0,0,0,0,0,1,0
1049,2302,10328,expressbus,3G,0,0,0,0,0,1,0
1059,2303,10328,expressbus,3G,0,0,0,0,0,1,0
1072,2304,10328,expressbus,3G,0,0,0,0,0,1,0
1082,2305,10328,expressbus,3G,0,0,0,0,0,1,0
1097,2306,10328,expressbus,3G,0,0,0,0,0,1,0
1111,2307,10328,expressbus,3G,0,0,0,0,0,1,0
1125,2308,10328,expressbus,3G,0,0,0,0,0,1,0
1140,2309,10328,expressbus,3G,0,0,0,0,0,1,0
1154,2310,10328,expressbus,3G,0,0,0,0,0,1,0
1170,2311,10328,expressbus,3G,0,0,0,0,0,1,0
1185,2312,10328,expressbus,3G,0,0,0,0,0,1,0
1199,2313,10328,expressbus,3G,0,0,0,0,0,1,0
1213,2314,10328,expressbus,3G,0,0,0,0,0,1,0
1224,2315,10328,expressbus,3G,0,0,0,0,0,1,0
1234,2316,10328,expressbus,3G,0,0,0,0,0,1,0
1247,2317,10328,expressbus,3G,0,0,0,0,0,1,0
1258,2318,10328,expressbus,3G,0,0,0,0,0,1,0
1272,2319,10328,expressbus,3G,0,0,0,0,0,1,0
1284,2320,10328,expressbus,3G,0,0,0,0,0,1,0
1298,2321,10328,expressbus,3G,0,0,0,0,0,1,0
1309,2322,10328,expressbus,3G,0,0,0,0,0,1,0
1320,2323,10328,expressbus,3G,0,0,0,0,0,1,0
1333,2324,10328,expressbus,3G,0,0,0,0,0,1,0
1348,2325,10328,expressbus,3G,0,0,0,0,0,1,0
1365,2326,10328,expressbus,3G,0,0,0,0,0,1,0
1381,2327,10328,expressbus,3G,0,0,0,0,0,1,0
1398,2328,10328,expressbus,3G,0,0,0,0,0,1,0
1413,2329,10328,expressbus,3G,0,0,0,0,0,1,0
367,2439,8111,bus,4,1,1,1,1,1,0,0
434,2440,8111,bus,4,1,1,1,1,1,0,0
505,2441,8111,bus,4,1,1,1,1,1,0,0
602,2442,8111,bus,4,1,1,1,1,1,0,0
667,2443,8111,bus,4,1,1,1,1,1,0,0
728,2444,8111,bus,4,1,1,1,1,1,0,0
788,2445,8111,bus,4,1,1,1,1,1,0,0
849,2446,8111,bus,4,1,1,1,1,1,0,0
927,2447,8111,bus,4,1,1,1,1,1,0,0
997,2448,8111,bus,4,1,1,1,1,1,0,0
1074,2449,8111,bus,4,1,1,1,1,1,0,0
1166,2450,8111,bus,4,1,1,1,1,1,0,0
1240,2451,8111,bus,4,1,1,1,1,1,0,0
1299,2452,8111,bus,4,1,1,1,1,1,0,0
1358,2453,8111,bus,4,1,1,1,1,1,0,0
447,2454,8114,bus,4,0,0,0,0,0,1,1
512,2455,8114,bus,4,0,0,0,0,0,1,1
613,2456,8114,bus,4,0,0,0,0,0,1,1
673,2457,8114,bus,4,0,0,0,0,0,1,1
737,2458,8114,bus,4,0,0,0,0,0,1,1
797,2459,8114,bus,4,0,0,0,0,0,1,1
862,2460,8114,bus,4,0,0,0,0,0,1,1
930,2461,8114,bus,4,0,0,0,0,0,1,1
996,2462,8114,bus,4,0,0,0,0,0,1,1
1059,2463,8114,bus,4,0,0,0,0,0,1,1
1163,2464,8114,bus,4,0,0,0,0,0,1,1
1227,2465,8114,bus,4,0,0,0,0,0,1,1
1285,2466,8114,bus,4,0,0,0,0,0,1,1
1346,2467,8114,bus,4,0,0,0,0,0,1,1
369,10561,8030,bus,41,1,1,1,1,1,0,0
449,10562,8030,bus,41,1,1,1,1,1,0,0
510,10563,8030,bus,41,1,1,1,1,1,0,0
570,10564,8030,bus,41,1,1,1,1,1,0,0
655,10565,8030,bus,41,1,1,1,1,1,0,0
714,10566,8030,bus,41,1,1,1,1,1,0,0
769,10567,8030,bus,41,1,1,1,1,1,0,0
825,10568,8030,bus,41,1,1,1,1,1,0,0
890,10569,8030,bus,41,1,1,1,1,1,0,0
950,10570,8030,bus,41,1,1,1,1,1,0,0
1007,10571,8030,bus,41,1,1,1,1,1,0,0
1065,10572,8030,bus,41,1,1,1,1,1,0,0
1123,10573,8030,bus,41,1,1,1,1,1,0,0
1208,10574,8030,bus,41,1,1,1,1,1,0,0
1261,10575,8030,bus,41,1,1,1,1,1,0,0
1316,10576,8030,bus,41,1,1,1,1,1,0,0
1370,10577,8030,bus,41,1,1,1,1,1,0,0
381,10578,8031,bus,41,0,0,0,0,0,1,0
449,10579,8031,bus,41,0,0,0,0,0,1,0
510,10580,8031,bus,41,0,0,0,0,0,1,0
613,10581,8031,bus,41,0,0,0,0,0,1,0
683,10582,8031,bus,41,0,0,0,0,0,1,0
741,10583,8031,bus,41,0,0,0,0,0,1,0
800,10584,8031,bus,41,0,0,0,0,0,1,0
866,10585,8031,bus,41,0,0,0,0,0,1,0
927,10586,8031,bus,41,0,0,0,0,0,1,0
990,10587,8031,bus,41,0,0,0,0,0,1,0
1051,10588,8031,bus,41,0,0,0,0,0,1,0
1144,10589,8031,bus,41,0,0,0,0,0,1,0
1205,10590,8031,bus,41,0,0,0,0,0,1,0
1268,10591,8031,bus,41,0,0,0,0,0,1,0
1327,10592,8031,bus,41,0,0,0,0,0,1,0
449,10593,10248,bus,41,0,0,0,0,0,0,1
510,10594,10248,bus,41,0,0,0,0,0,0,1
613,10595,10248,bus,41,0,0,0,0,0,0,1
683,10596,10248,bus,41,0,0,0,0,0,0,1
741,10597,10248,bus,41,0,0,0,0,0,0,1
800,10598,10248,bus,41,0,0,0,0,0,0,1
866,10599,10248,bus,41,0,0,0,0,0,0,1
927,10600,10248,bus,41,0,0,0,0,0,0,1
990,10601,10248,bus,41,0,0,0,0,0,0,1
1051,10602,10248,bus,41,0,0,0,0,0,0,1
1144,10603,10248,bus,41,0,0,0,0,0,0,1
1205,10604,10248,bus,41,0,0,0,0,0,0,1
1268,10605,10248,bus,41,0,0,0,0,0,0,1
1327,10606,10248,bus,41,0,0,0,0,0,0,1
334,10700,9629,bus,42,1,1,1,1,1,0,0
381,10701,9629,bus,42,1,1,1,1,1,0,0
399,10702,9629,bus,42,1,1,1,1,1,0,0
426,10703,9629,bus,42,1,1,1,1,1,0,0
453,10704,9629,bus,42,1,1,1,1,1,0,0
472,10705,9629,bus,42,1,1,1,1,1,0,0
502,10706,9629,bus,42,1,1,1,1,1,0,0
525,10707,9629,bus,42,1,1,1,1,1,0,0
545,10708,9629,bus,42,1,1,1,1,1,0,0
577,10709,9629,bus,42,1,1,1,1,1,0,0
626,10710,9629,bus,42,1,1,1,1,1,0,0
664,10711,9629,bus,42,1,1,1,1,1,0,0
703,10712,9629,bus,42,1,1,1,1,1,0,0
734,10713,9629,bus,42,1,1,1,1,1,0,0
771,10714,9629,bus,42,1,1,1,1,1,0,0
808,10715,9629,bus,42,1,1,1,1,1,0,0
840,10716,9629,bus,42,1,1,1,1,1,0,0
881,10717,9629,bus,42,1,1,1,1,1,0,0
911,10718,9629,bus,42,1,1,1,1,1,0,0
952,10719,9629,bus,42,1,1,1,1,1,0,0
987,10720,9629,bus,42,1,1,1,1,1,0,0
1010,10721,9629,bus,42,1,1,1,1,1,0,0
1033,10722,9629,bus,42,1,1,1,1,1,0,0
1059,10723,9629,bus,42,1,1,1,1,1,0,0
1082,10724,9629,bus,42,1,1,1,1,1,0,0
1107,10725,9629,bus,42,1,1,1,1,1,0,0
1129,10726,9629,bus,42,1,1,1,1,1,0,0
1160,10727,9629,bus,42,1,1,1,1,1,0,0
1211,10728,9629,bus,42,1,1,1,1,1,0,0
1246,10729,9629,bus,42,1,1,1,1,1,0,0
1285,10730,9629,bus,42,1,1,1,1,1,0,0
1314,10731,9629,bus,42,1,1,1,1,1,0,0
1351,10732,9629,bus,42,1,1,1,1,1,0,0
1396,10733,9629,bus,42,1,1,1,1,1,0,0
366,10734,9630,bus,42,0,0,0,0,0,1,0
400,10735,9630,bus,42,0,0,0,0,0,1,0
438,10736,9630,bus,42,0,0,0,0,0,1,0
477,10737,9630,bus,42,0,0,0,0,0,1,0
507,10738,9630,bus,42,0,0,0,0,0,1,0
548,10739,9630,bus,42,0,0,0,0,0,1,0
574,10740,9630,bus,42,0,0,0,0,0,1,0
644,10741,9630,bus,42,0,0,0,0,0,1,0
678,10742,9630,bus,42,0,0,0,0,0,1,0
712,10743,9630,bus,42,0,0,0,0,0,1,0
748,10744,9630,bus,42,0,0,0,0,0,1,0
780,10745,9630,bus,42,0,0,0,0,0,1,0
816,10746,9630,bus,42,0,0,0,0,0,1,0
849,10747,9630,bus,42,0,0,0,0,0,1,0
889,10748,9630,bus,42,0,0,0,0,0,1,0
922,10749,9630,bus,42,0,0,0,0,0,1,0
957,10750,9630,bus,42,0,0,0,0,0,1,0
995,10751,9630,bus,42,0,0,0,0,0,1,0
1029,10752,9630,bus,42,0,0,0,0,0,1,0
1074,10753,9630,bus,42,0,0,0,0,0,1,0
1097,10754,9630,bus,42,0,0,0,0,0,1,0
1176,10755,9630,bus,42,0,0,0,0,0,1,0
1200,10756,9630,bus,42,0,0,0,0,0,1,0
1246,10757,9630,bus,42,0,0,0,0,0,1,0
1280,10758,9630,bus,42,0,0,0,0,0,1,0
1314,10759,9630,bus,42,0,0,0,0,0,1,0
1356,10760,9630,bus,42,0,0,0,0,0,1,0
1383,10761,9630,bus,42,0,0,0,0,0,1,0
438,10762,9631,bus,42,0,0,0,0,0,0,1
477,10763,9631,bus,42,0,0,0,0,0,0,1
507,10764,9631,bus,42,0,0,0,0,0,0,1
548,10765,9631,bus,42,0,0,0,0,0,0,1
574,10766,9631,bus,42,0,0,0,0,0,0,1
644,10767,9631,bus,42,0,0,0,0,0,0,1
678,10768,9631,bus,42,0,0,0,0,0,0,1
712,10769,9631,bus,42,0,0,0,0,0,0,1
748,10770,9631,bus,42,0,0,0,0,0,0,1
780,10771,9631,bus,42,0,0,0,0,0,0,1
816,10772,9631,bus,42,0,0,0,0,0,0,1
849,10773,9631,bus,42,0,0,0,0,0,0,1
889,10774,9631,bus,42,0,0,0,0,0,0,1
922,10775,9631,bus,42,0,0,0,0,0,0,1
957,10776,9631,bus,42,0,0,0,0,0,0,1
995,10777,9631,bus,42,0,0,0,0,0,0,1
1029,10778,9631,bus,42,0,0,0,0,0,0,1
1074,10779,9631,bus,42,0,0,0,0,0,0,1
1097,10780,9631,bus,42,0,0,0,0,0,0,1
1176,10781,9631,bus,42,0,0,0,0,0,0,1
1200,10782,9631,bus,42,0,0,0,0,0,0,1
1246,10783,9631,bus,42,0,0,0,0,0,0,1
1280,10784,9631,bus,42,0,0,0,0,0,0,1
1314,10785,9631,bus,42,0,0,0,0,0,0,1
1356,10786,9631,bus,42,0,0,0,0,0,0,1
1383,10787,9631,bus,42,0,0,0,0,0,0,1
382,15322,10408,bus,78,1,1,1,1,1,0,0
402,15323,10408,bus,78,1,1,1,1,1,0,0
439,15324,10408,bus,78,1,1,1,1,1,0,0
467,15325,10408,bus,78,1,1,1,1,1,0,0
485,15326,10408,bus,78,1,1,1,1,1,0,0
524,15327,10408,bus,78,1,1,1,1,1,0,0
551,15328,10408,bus,78,1,1,1,1,1,0,0
582,15329,10408,bus,78,1,1,1,1,1,0,0
615,15330,10408,bus,78,1,1,1,1,1,0,0
658,15331,10408,bus,78,1,1,1,1,1,0,0
698,15332,10408,bus,78,1,1,1,1,1,0,0
736,15333,10408,bus,78,1,1,1,1,1,0,0
780,15334,10408,bus,78,1,1,1,1,1,0,0
814,15335,10408,bus,78,1,1,1,1,1,0,0
868,15336,10408,bus,78,1,1,1,1,1,0,0
899,15337,10408,bus,78,1,1,1,1,1,0,0
957,15338,10408,bus,78,1,1,1,1,1,0,0
992,15339,10408,bus,78,1,1,1,1,1,0,0
1028,15340,10408,bus,78,1,1,1,1,1,0,0
1052,15341,10408,bus,78,1,1,1,1,1,0,0
1080,15342,10408,bus,78,1,1,1,1,1,0,0
1129,15343,10408,bus,78,1,1,1,1,1,0,0
1165,15344,10408,bus,78,1,1,1,1,1,0,0
1207,15345,10408,bus,78,1,1,1,1,1,0,0
1254,15346,10408,bus,78,1,1,1,1,1,0,0
1288,15347,10408,bus,78,1,1,1,1,1,0,0
1337,15348,10408,bus,78,1,1,1,1,1,0,0
1372,15349,10408,bus,78,1,1,1,1,1,0,0
1414,15350,10408,bus,78,1,1,1,1,1,0,0
387,15351,8037,bus,78,0,0,0,0,0,1,0
432,15352,8037,bus,78,0,0,0,0,0,1,0
472,15353,8037,bus,78,0,0,0,0,0,1,0
520,15354,8037,bus,78,0,0,0,0,0,1,0
556,15355,8037,bus,78,0,0,0,0,0,1,0
603,15356,8037,bus,78,0,0,0,0,0,1,0
672,15357,8037,bus,78,0,0,0,0,0,1,0
718,15358,8037,bus,78,0,0,0,0,0,1,0
761,15359,8037,bus,78,0,0,0,0,0,1,0
807,15360,8037,bus,78,0,0,0,0,0,1,0
844,15361,8037,bus,78,0,0,0,0,0,1,0
898,15362,8037,bus,78,0,0,0,0,0,1,0
940,15363,8037,bus,78,0,0,0,0,0,1,0
986,15364,8037,bus,78,0,0,0,0,0,1,0
1024,15365,8037,bus,78,0,0,0,0,0,1,0
1069,15366,8037,bus,78,0,0,0,0,0,1,0
1137,15367,8037,bus,78,0,0,0,0,0,1,0
1181,15368,8037,bus,78,0,0,0,0,0,1,0
1220,15369,8037,bus,78,0,0,0,0,0,1,0
1264,15370,8037,bus,78,0,0,0,0,0,1,0
1306,15371,8037,bus,78,0,0,0,0,0,1,0
1346,15372,8037,bus,78,0,0,0,0,0,1,0
1390,15373,8037,bus,78,0,0,0,0,0,1,0
1423,15374,8037,bus,78,0,0,0,0,0,1,0
432,15375,8038,bus,78,0,0,0,0,0,0,1
472,15376,8038,bus,78,0,0,0,0,0,0,1
520,15377,8038,bus,78,0,0,0,0,0,0,1
556,15378,8038,bus,78,0,0,0,0,0,0,1
603,15379,8038,bus,78,0,0,0,0,0,0,1
672,15380,8038,bus,78,0,0,0,0,0,0,1
718,15381,8038,bus,78,0,0,0,0,0,0,1
761,15382,8038,bus,78,0,0,0,0,0,0,1
807,15383,8038,bus,78,0,0,0,0,0,0,1
844,15384,8038,bus,78,0,0,0,0,0,0,1
898,15385,8038,bus,78,0,0,0,0,0,0,1
940,15386,8038,bus,78,0,0,0,0,0,0,1
986,15387,8038,bus,78,0,0,0,0,0,0,1
1024,15388,8038,bus,78,0,0,0,0,0,0,1
1069,15389,8038,bus,78,0,0,0,0,0,0,1
1137,15390,8038,bus,78,0,0,0,0,0,0,1
1181,15391,8038,bus,78,0,0,0,0,0,0,1
1220,15392,8038,bus,78,0,0,0,0,0,0,1
1264,15393,8038,bus,78,0,0,0,0,0,0,1
1306,15394,8038,bus,78,0,0,0,0,0,0,1
1346,15395,8038,bus,78,0,0,0,0,0,0,1
1390,15396,8038,bus,78,0,0,0,0,0,0,1
1423,15397,8038,bus,78,0,0,0,0,0,0,1
374,15692,9847,bus,88,0,0,0,0,0,0,1
407,15693,9847,bus,88,0,0,0,0,0,0,1
450,15694,9847,bus,88,0,0,0,0,0,0,1
484,15695,9847,bus,88,0,0,0,0,0,0,1
527,15696,9847,bus,88,0,0,0,0,0,0,1
563,15697,9847,bus,88,0,0,0,0,0,0,1
731,15698,9847,bus,88,0,0,0,0,0,0,1
771,15699,9847,bus,88,0,0,0,0,0,0,1
808,15700,9847,bus,88,0,0,0,0,0,0,1
848,15701,9847,bus,88,0,0,0,0,0,0,1
885,15702,9847,bus,88,0,0,0,0,0,0,1
925,15703,9847,bus,88,0,0,0,0,0,0,1
962,15704,9847,bus,88,0,0,0,0,0,0,1
1002,15705,9847,bus,88,0,0,0,0,0,0,1
1039,15706,9847,bus,88,0,0,0,0,0,0,1
1079,15707,9847,bus,88,0,0,0,0,0,0,1
1238,15708,9847,bus,88,0,0,0,0,0,0,1
1278,15709,9847,bus,88,0,0,0,0,0,0,1
1313,15710,9847,bus,88,0,0,0,0,0,0,1
1353,15711,9847,bus,88,0,0,0,0,0,0,1
1388,15712,9847,bus,88,0,0,0,0,0,0,1
325,15713,10244,bus,88,1,1,1,1,1,0,0
349,15714,10244,bus,88,1,1,1,1,1,0,0
376,15715,10244,bus,88,1,1,1,1,1,0,0
401,15716,10244,bus,88,1,1,1,1,1,0,0
425,15717,10244,bus,88,1,1,1,1,1,0,0
452,15718,10244,bus,88,1,1,1,1,1,0,0
480,15719,10244,bus,88,1,1,1,1,1,0,0
503,15720,10244,bus,88,1,1,1,1,1,0,0
656,15721,10244,bus,88,1,1,1,1,1,0,0
685,15722,10244,bus,88,1,1,1,1,1,0,0
715,15723,10244,bus,88,1,1,1,1,1,0,0
738,15724,10244,bus,88,1,1,1,1,1,0,0
762,15725,10244,bus,88,1,1,1,1,1,0,0
792,15726,10244,bus,88,1,1,1,1,1,0,0
815,15727,10244,bus,88,1,1,1,1,1,0,0
839,15728,10244,bus,88,1,1,1,1,1,0,0
869,15729,10244,bus,88,1,1,1,1,1,0,0
892,15730,10244,bus,88,1,1,1,1,1,0,0
916,15731,10244,bus,88,1,1,1,1,1,0,0
946,15732,10244,bus,88,1,1,1,1,1,0,0
969,15733,10244,bus,88,1,1,1,1,1,0,0
993,15734,10244,bus,88,1,1,1,1,1,0,0
1024,15735,10244,bus,88,1,1,1,1,1,0,0
1049,15736,10244,bus,88,1,1,1,1,1,0,0
1074,15737,10244,bus,88,1,1,1,1,1,0,0
1103,15738,10244,bus,88,1,1,1,1,1,0,0
1252,15739,10244,bus,88,1,1,1,1,1,0,0
1278,15740,10244,bus,88,1,1,1,1,1,0,0
1307,15741,10244,bus,88,1,1,1,1,1,0,0
1332,15742,10244,bus,88,1,1,1,1,1,0,0
1355,15743,10244,bus,88,1,1,1,1,1,0,0
1388,15744,10244,bus,88,1,1,1,1,1,0,0
325,15745,9846,bus,88,0,0,0,0,0,1,0
364,15746,9846,bus,88,0,0,0,0,0,1,0
401,15747,9846,bus,88,0,0,0,0,0,1,0
440,15748,9846,bus,88,0,0,0,0,0,1,0
478,15749,9846,bus,88,0,0,0,0,0,1,0
519,15750,9846,bus,88,0,0,0,0,0,1,0
684,15751,9846,bus,88,0,0,0,0,0,1,0
731,15752,9846,bus,88,0,0,0,0,0,1,0
770,15753,9846,bus,88,0,0,0,0,0,1,0
808,15754,9846,bus,88,0,0,0,0,0,1,0
847,15755,9846,bus,88,0,0,0,0,0,1,0
885,15756,9846,bus,88,0,0,0,0,0,1,0
927,15757,9846,bus,88,0,0,0,0,0,1,0
962,15758,9846,bus,88,0,0,0,0,0,1,0
1005,15759,9846,bus,88,0,0,0,0,0,1,0
1039,15760,9846,bus,88,0,0,0,0,0,1,0
1083,15761,9846,bus,88,0,0,0,0,0,1,0
1115,15762,9846,bus,88,0,0,0,0,0,1,0
1285,15763,9846,bus,88,0,0,0,0,0,1,0
1313,15764,9846,bus,88,0,0,0,0,0,1,0
1360,15765,9846,bus,88,0,0,0,0,0,1,0
1388,15766,9846,bus,88,0,0,0,0,0,1,0
604,15767,9847,bus,88,0,0,0,0,0,0,1
642,15768,9847,bus,88,0,0,0,0,0,0,1
1115,15769,9847,bus,88,0,0,0,0,0,0,1
1155,15770,9847,bus,88,0,0,0,0,0,0,1
530,15771,10244,bus,88,1,1,1,1,1,0,0
559,15772,10244,bus,88,1,1,1,1,1,0,0
584,15773,10244,bus,88,1,1,1,1,1,0,0
1128,15774,10244,bus,88,1,1,1,1,1,0,0
1152,15775,10244,bus,88,1,1,1,1,1,0,0
1185,15776,10244,bus,88,1,1,1,1,1,0,0
557,15777,9846,bus,88,0,0,0,0,0,1,0
602,15778,9846,bus,88,0,0,0,0,0,1,0
1162,15779,9846,bus,88,0,0,0,0,0,1,0
1191,15780,9846,bus,88,0,0,0,0,0,1,0
