timeInMin,trip_id,service_id,tipas,numeris,pirmadienis,antradienis,treciadienis,ketvirtadienis,penktadienis,sestadienis,sekmadienis 
406,1999,10329,expressbus,3G,0,0,0,0,0,0,1
420,2000,10329,expressbus,3G,0,0,0,0,0,0,1
434,2001,10329,expressbus,3G,0,0,0,0,0,0,1
447,2002,10329,expressbus,3G,0,0,0,0,0,0,1
458,2003,10329,expressbus,3G,0,0,0,0,0,0,1
471,2004,10329,expressbus,3G,0,0,0,0,0,0,1
483,2005,10329,expressbus,3G,0,0,0,0,0,0,1
498,2006,10329,expressbus,3G,0,0,0,0,0,0,1
509,2007,10329,expressbus,3G,0,0,0,0,0,0,1
522,2008,10329,expressbus,3G,0,0,0,0,0,0,1
534,2009,10329,expressbus,3G,0,0,0,0,0,0,1
547,2010,10329,expressbus,3G,0,0,0,0,0,0,1
560,2011,10329,expressbus,3G,0,0,0,0,0,0,1
572,2012,10329,expressbus,3G,0,0,0,0,0,0,1
586,2013,10329,expressbus,3G,0,0,0,0,0,0,1
598,2014,10329,expressbus,3G,0,0,0,0,0,0,1
612,2015,10329,expressbus,3G,0,0,0,0,0,0,1
622,2016,10329,expressbus,3G,0,0,0,0,0,0,1
632,2017,10329,expressbus,3G,0,0,0,0,0,0,1
641,2018,10329,expressbus,3G,0,0,0,0,0,0,1
653,2019,10329,expressbus,3G,0,0,0,0,0,0,1
664,2020,10329,expressbus,3G,0,0,0,0,0,0,1
676,2021,10329,expressbus,3G,0,0,0,0,0,0,1
687,2022,10329,expressbus,3G,0,0,0,0,0,0,1
699,2023,10329,expressbus,3G,0,0,0,0,0,0,1
711,2024,10329,expressbus,3G,0,0,0,0,0,0,1
721,2025,10329,expressbus,3G,0,0,0,0,0,0,1
730,2026,10329,expressbus,3G,0,0,0,0,0,0,1
742,2027,10329,expressbus,3G,0,0,0,0,0,0,1
753,2028,10329,expressbus,3G,0,0,0,0,0,0,1
761,2029,10329,expressbus,3G,0,0,0,0,0,0,1
769,2030,10329,expressbus,3G,0,0,0,0,0,0,1
776,2031,10329,expressbus,3G,0,0,0,0,0,0,1
783,2032,10329,expressbus,3G,0,0,0,0,0,0,1
794,2033,10329,expressbus,3G,0,0,0,0,0,0,1
805,2034,10329,expressbus,3G,0,0,0,0,0,0,1
819,2035,10329,expressbus,3G,0,0,0,0,0,0,1
830,2036,10329,expressbus,3G,0,0,0,0,0,0,1
842,2037,10329,expressbus,3G,0,0,0,0,0,0,1
857,2038,10329,expressbus,3G,0,0,0,0,0,0,1
867,2039,10329,expressbus,3G,0,0,0,0,0,0,1
876,2040,10329,expressbus,3G,0,0,0,0,0,0,1
883,2041,10329,expressbus,3G,0,0,0,0,0,0,1
891,2042,10329,expressbus,3G,0,0,0,0,0,0,1
898,2043,10329,expressbus,3G,0,0,0,0,0,0,1
908,2044,10329,expressbus,3G,0,0,0,0,0,0,1
921,2045,10329,expressbus,3G,0,0,0,0,0,0,1
934,2046,10329,expressbus,3G,0,0,0,0,0,0,1
946,2047,10329,expressbus,3G,0,0,0,0,0,0,1
957,2048,10329,expressbus,3G,0,0,0,0,0,0,1
968,2049,10329,expressbus,3G,0,0,0,0,0,0,1
975,2050,10329,expressbus,3G,0,0,0,0,0,0,1
983,2051,10329,expressbus,3G,0,0,0,0,0,0,1
990,2052,10329,expressbus,3G,0,0,0,0,0,0,1
997,2053,10329,expressbus,3G,0,0,0,0,0,0,1
1004,2054,10329,expressbus,3G,0,0,0,0,0,0,1
1016,2055,10329,expressbus,3G,0,0,0,0,0,0,1
1026,2056,10329,expressbus,3G,0,0,0,0,0,0,1
1036,2057,10329,expressbus,3G,0,0,0,0,0,0,1
1047,2058,10329,expressbus,3G,0,0,0,0,0,0,1
1057,2059,10329,expressbus,3G,0,0,0,0,0,0,1
1067,2060,10329,expressbus,3G,0,0,0,0,0,0,1
1077,2061,10329,expressbus,3G,0,0,0,0,0,0,1
1090,2062,10329,expressbus,3G,0,0,0,0,0,0,1
1100,2063,10329,expressbus,3G,0,0,0,0,0,0,1
1115,2064,10329,expressbus,3G,0,0,0,0,0,0,1
1129,2065,10329,expressbus,3G,0,0,0,0,0,0,1
1142,2066,10329,expressbus,3G,0,0,0,0,0,0,1
1155,2067,10329,expressbus,3G,0,0,0,0,0,0,1
1169,2068,10329,expressbus,3G,0,0,0,0,0,0,1
1185,2069,10329,expressbus,3G,0,0,0,0,0,0,1
1200,2070,10329,expressbus,3G,0,0,0,0,0,0,1
1214,2071,10329,expressbus,3G,0,0,0,0,0,0,1
1228,2072,10329,expressbus,3G,0,0,0,0,0,0,1
1239,2073,10329,expressbus,3G,0,0,0,0,0,0,1
1249,2074,10329,expressbus,3G,0,0,0,0,0,0,1
1262,2075,10329,expressbus,3G,0,0,0,0,0,0,1
1273,2076,10329,expressbus,3G,0,0,0,0,0,0,1
1287,2077,10329,expressbus,3G,0,0,0,0,0,0,1
1299,2078,10329,expressbus,3G,0,0,0,0,0,0,1
1313,2079,10329,expressbus,3G,0,0,0,0,0,0,1
1324,2080,10329,expressbus,3G,0,0,0,0,0,0,1
1335,2081,10329,expressbus,3G,0,0,0,0,0,0,1
1348,2082,10329,expressbus,3G,0,0,0,0,0,0,1
1363,2083,10329,expressbus,3G,0,0,0,0,0,0,1
1380,2084,10329,expressbus,3G,0,0,0,0,0,0,1
1396,2085,10329,expressbus,3G,0,0,0,0,0,0,1
1413,2086,10329,expressbus,3G,0,0,0,0,0,0,1
1428,2087,10329,expressbus,3G,0,0,0,0,0,0,1
335,2088,10327,expressbus,3G,1,1,1,1,1,0,0
347,2089,10327,expressbus,3G,1,1,1,1,1,0,0
357,2090,10327,expressbus,3G,1,1,1,1,1,0,0
367,2091,10327,expressbus,3G,1,1,1,1,1,0,0
375,2092,10327,expressbus,3G,1,1,1,1,1,0,0
383,2093,10327,expressbus,3G,1,1,1,1,1,0,0
391,2094,10327,expressbus,3G,1,1,1,1,1,0,0
401,2095,10327,expressbus,3G,1,1,1,1,1,0,0
411,2096,10327,expressbus,3G,1,1,1,1,1,0,0
419,2097,10327,expressbus,3G,1,1,1,1,1,0,0
427,2098,10327,expressbus,3G,1,1,1,1,1,0,0
433,2099,10327,expressbus,3G,1,1,1,1,1,0,0
439,2100,10327,expressbus,3G,1,1,1,1,1,0,0
446,2101,10327,expressbus,3G,1,1,1,1,1,0,0
450,2102,10327,expressbus,3G,1,1,1,1,1,0,0
456,2103,10327,expressbus,3G,1,1,1,1,1,0,0
461,2104,10327,expressbus,3G,1,1,1,1,1,0,0
466,2105,10327,expressbus,3G,1,1,1,1,1,0,0
471,2106,10327,expressbus,3G,1,1,1,1,1,0,0
477,2107,10327,expressbus,3G,1,1,1,1,1,0,0
485,2108,10327,expressbus,3G,1,1,1,1,1,0,0
490,2109,10327,expressbus,3G,1,1,1,1,1,0,0
495,2110,10327,expressbus,3G,1,1,1,1,1,0,0
500,2111,10327,expressbus,3G,1,1,1,1,1,0,0
506,2112,10327,expressbus,3G,1,1,1,1,1,0,0
512,2113,10327,expressbus,3G,1,1,1,1,1,0,0
517,2114,10327,expressbus,3G,1,1,1,1,1,0,0
522,2115,10327,expressbus,3G,1,1,1,1,1,0,0
527,2116,10327,expressbus,3G,1,1,1,1,1,0,0
533,2117,10327,expressbus,3G,1,1,1,1,1,0,0
538,2118,10327,expressbus,3G,1,1,1,1,1,0,0
543,2119,10327,expressbus,3G,1,1,1,1,1,0,0
548,2120,10327,expressbus,3G,1,1,1,1,1,0,0
554,2121,10327,expressbus,3G,1,1,1,1,1,0,0
560,2122,10327,expressbus,3G,1,1,1,1,1,0,0
565,2123,10327,expressbus,3G,1,1,1,1,1,0,0
570,2124,10327,expressbus,3G,1,1,1,1,1,0,0
575,2125,10327,expressbus,3G,1,1,1,1,1,0,0
580,2126,10327,expressbus,3G,1,1,1,1,1,0,0
586,2127,10327,expressbus,3G,1,1,1,1,1,0,0
592,2128,10327,expressbus,3G,1,1,1,1,1,0,0
597,2129,10327,expressbus,3G,1,1,1,1,1,0,0
602,2130,10327,expressbus,3G,1,1,1,1,1,0,0
607,2131,10327,expressbus,3G,1,1,1,1,1,0,0
612,2132,10327,expressbus,3G,1,1,1,1,1,0,0
617,2133,10327,expressbus,3G,1,1,1,1,1,0,0
622,2134,10327,expressbus,3G,1,1,1,1,1,0,0
629,2135,10327,expressbus,3G,1,1,1,1,1,0,0
635,2136,10327,expressbus,3G,1,1,1,1,1,0,0
642,2137,10327,expressbus,3G,1,1,1,1,1,0,0
650,2138,10327,expressbus,3G,1,1,1,1,1,0,0
658,2139,10327,expressbus,3G,1,1,1,1,1,0,0
666,2140,10327,expressbus,3G,1,1,1,1,1,0,0
676,2141,10327,expressbus,3G,1,1,1,1,1,0,0
687,2142,10327,expressbus,3G,1,1,1,1,1,0,0
698,2143,10327,expressbus,3G,1,1,1,1,1,0,0
709,2144,10327,expressbus,3G,1,1,1,1,1,0,0
719,2145,10327,expressbus,3G,1,1,1,1,1,0,0
729,2146,10327,expressbus,3G,1,1,1,1,1,0,0
738,2147,10327,expressbus,3G,1,1,1,1,1,0,0
748,2148,10327,expressbus,3G,1,1,1,1,1,0,0
757,2149,10327,expressbus,3G,1,1,1,1,1,0,0
764,2150,10327,expressbus,3G,1,1,1,1,1,0,0
771,2151,10327,expressbus,3G,1,1,1,1,1,0,0
779,2152,10327,expressbus,3G,1,1,1,1,1,0,0
787,2153,10327,expressbus,3G,1,1,1,1,1,0,0
795,2154,10327,expressbus,3G,1,1,1,1,1,0,0
805,2155,10327,expressbus,3G,1,1,1,1,1,0,0
814,2156,10327,expressbus,3G,1,1,1,1,1,0,0
821,2157,10327,expressbus,3G,1,1,1,1,1,0,0
831,2158,10327,expressbus,3G,1,1,1,1,1,0,0
840,2159,10327,expressbus,3G,1,1,1,1,1,0,0
850,2160,10327,expressbus,3G,1,1,1,1,1,0,0
859,2161,10327,expressbus,3G,1,1,1,1,1,0,0
866,2162,10327,expressbus,3G,1,1,1,1,1,0,0
873,2163,10327,expressbus,3G,1,1,1,1,1,0,0
882,2164,10327,expressbus,3G,1,1,1,1,1,0,0
892,2165,10327,expressbus,3G,1,1,1,1,1,0,0
900,2166,10327,expressbus,3G,1,1,1,1,1,0,0
907,2167,10327,expressbus,3G,1,1,1,1,1,0,0
916,2168,10327,expressbus,3G,1,1,1,1,1,0,0
924,2169,10327,expressbus,3G,1,1,1,1,1,0,0
934,2170,10327,expressbus,3G,1,1,1,1,1,0,0
943,2171,10327,expressbus,3G,1,1,1,1,1,0,0
952,2172,10327,expressbus,3G,1,1,1,1,1,0,0
961,2173,10327,expressbus,3G,1,1,1,1,1,0,0
969,2174,10327,expressbus,3G,1,1,1,1,1,0,0
979,2175,10327,expressbus,3G,1,1,1,1,1,0,0
984,2176,10327,expressbus,3G,1,1,1,1,1,0,0
990,2177,10327,expressbus,3G,1,1,1,1,1,0,0
996,2178,10327,expressbus,3G,1,1,1,1,1,0,0
1002,2179,10327,expressbus,3G,1,1,1,1,1,0,0
1007,2180,10327,expressbus,3G,1,1,1,1,1,0,0
1013,2181,10327,expressbus,3G,1,1,1,1,1,0,0
1018,2182,10327,expressbus,3G,1,1,1,1,1,0,0
1023,2183,10327,expressbus,3G,1,1,1,1,1,0,0
1028,2184,10327,expressbus,3G,1,1,1,1,1,0,0
1033,2185,10327,expressbus,3G,1,1,1,1,1,0,0
1038,2186,10327,expressbus,3G,1,1,1,1,1,0,0
1043,2187,10327,expressbus,3G,1,1,1,1,1,0,0
1048,2188,10327,expressbus,3G,1,1,1,1,1,0,0
1053,2189,10327,expressbus,3G,1,1,1,1,1,0,0
1059,2190,10327,expressbus,3G,1,1,1,1,1,0,0
1064,2191,10327,expressbus,3G,1,1,1,1,1,0,0
1070,2192,10327,expressbus,3G,1,1,1,1,1,0,0
1076,2193,10327,expressbus,3G,1,1,1,1,1,0,0
1081,2194,10327,expressbus,3G,1,1,1,1,1,0,0
1085,2195,10327,expressbus,3G,1,1,1,1,1,0,0
1090,2196,10327,expressbus,3G,1,1,1,1,1,0,0
1096,2197,10327,expressbus,3G,1,1,1,1,1,0,0
1103,2198,10327,expressbus,3G,1,1,1,1,1,0,0
1109,2199,10327,expressbus,3G,1,1,1,1,1,0,0
1115,2200,10327,expressbus,3G,1,1,1,1,1,0,0
1120,2201,10327,expressbus,3G,1,1,1,1,1,0,0
1125,2202,10327,expressbus,3G,1,1,1,1,1,0,0
1130,2203,10327,expressbus,3G,1,1,1,1,1,0,0
1135,2204,10327,expressbus,3G,1,1,1,1,1,0,0
1140,2205,10327,expressbus,3G,1,1,1,1,1,0,0
1145,2206,10327,expressbus,3G,1,1,1,1,1,0,0
1149,2207,10327,expressbus,3G,1,1,1,1,1,0,0
1153,2208,10327,expressbus,3G,1,1,1,1,1,0,0
1161,2209,10327,expressbus,3G,1,1,1,1,1,0,0
1171,2210,10327,expressbus,3G,1,1,1,1,1,0,0
1181,2211,10327,expressbus,3G,1,1,1,1,1,0,0
1190,2212,10327,expressbus,3G,1,1,1,1,1,0,0
1198,2213,10327,expressbus,3G,1,1,1,1,1,0,0
1207,2214,10327,expressbus,3G,1,1,1,1,1,0,0
1214,2215,10327,expressbus,3G,1,1,1,1,1,0,0
1223,2216,10327,expressbus,3G,1,1,1,1,1,0,0
1232,2217,10327,expressbus,3G,1,1,1,1,1,0,0
1240,2218,10327,expressbus,3G,1,1,1,1,1,0,0
1249,2219,10327,expressbus,3G,1,1,1,1,1,0,0
1256,2220,10327,expressbus,3G,1,1,1,1,1,0,0
1263,2221,10327,expressbus,3G,1,1,1,1,1,0,0
1271,2222,10327,expressbus,3G,1,1,1,1,1,0,0
1279,2223,10327,expressbus,3G,1,1,1,1,1,0,0
1287,2224,10327,expressbus,3G,1,1,1,1,1,0,0
1295,2225,10327,expressbus,3G,1,1,1,1,1,0,0
1303,2226,10327,expressbus,3G,1,1,1,1,1,0,0
1311,2227,10327,expressbus,3G,1,1,1,1,1,0,0
1320,2228,10327,expressbus,3G,1,1,1,1,1,0,0
1330,2229,10327,expressbus,3G,1,1,1,1,1,0,0
1338,2230,10327,expressbus,3G,1,1,1,1,1,0,0
1346,2231,10327,expressbus,3G,1,1,1,1,1,0,0
1354,2232,10327,expressbus,3G,1,1,1,1,1,0,0
1362,2233,10327,expressbus,3G,1,1,1,1,1,0,0
1372,2234,10327,expressbus,3G,1,1,1,1,1,0,0
1383,2235,10327,expressbus,3G,1,1,1,1,1,0,0
1395,2236,10327,expressbus,3G,1,1,1,1,1,0,0
1408,2237,10327,expressbus,3G,1,1,1,1,1,0,0
1424,2238,10327,expressbus,3G,1,1,1,1,1,0,0
368,2239,10328,expressbus,3G,0,0,0,0,0,1,0
390,2240,10328,expressbus,3G,0,0,0,0,0,1,0
406,2241,10328,expressbus,3G,0,0,0,0,0,1,0
420,2242,10328,expressbus,3G,0,0,0,0,0,1,0
434,2243,10328,expressbus,3G,0,0,0,0,0,1,0
447,2244,10328,expressbus,3G,0,0,0,0,0,1,0
458,2245,10328,expressbus,3G,0,0,0,0,0,1,0
471,2246,10328,expressbus,3G,0,0,0,0,0,1,0
483,2247,10328,expressbus,3G,0,0,0,0,0,1,0
498,2248,10328,expressbus,3G,0,0,0,0,0,1,0
509,2249,10328,expressbus,3G,0,0,0,0,0,1,0
522,2250,10328,expressbus,3G,0,0,0,0,0,1,0
534,2251,10328,expressbus,3G,0,0,0,0,0,1,0
547,2252,10328,expressbus,3G,0,0,0,0,0,1,0
560,2253,10328,expressbus,3G,0,0,0,0,0,1,0
572,2254,10328,expressbus,3G,0,0,0,0,0,1,0
586,2255,10328,expressbus,3G,0,0,0,0,0,1,0
598,2256,10328,expressbus,3G,0,0,0,0,0,1,0
612,2257,10328,expressbus,3G,0,0,0,0,0,1,0
622,2258,10328,expressbus,3G,0,0,0,0,0,1,0
632,2259,10328,expressbus,3G,0,0,0,0,0,1,0
641,2260,10328,expressbus,3G,0,0,0,0,0,1,0
653,2261,10328,expressbus,3G,0,0,0,0,0,1,0
664,2262,10328,expressbus,3G,0,0,0,0,0,1,0
676,2263,10328,expressbus,3G,0,0,0,0,0,1,0
687,2264,10328,expressbus,3G,0,0,0,0,0,1,0
699,2265,10328,expressbus,3G,0,0,0,0,0,1,0
711,2266,10328,expressbus,3G,0,0,0,0,0,1,0
721,2267,10328,expressbus,3G,0,0,0,0,0,1,0
730,2268,10328,expressbus,3G,0,0,0,0,0,1,0
742,2269,10328,expressbus,3G,0,0,0,0,0,1,0
753,2270,10328,expressbus,3G,0,0,0,0,0,1,0
761,2271,10328,expressbus,3G,0,0,0,0,0,1,0
769,2272,10328,expressbus,3G,0,0,0,0,0,1,0
776,2273,10328,expressbus,3G,0,0,0,0,0,1,0
783,2274,10328,expressbus,3G,0,0,0,0,0,1,0
794,2275,10328,expressbus,3G,0,0,0,0,0,1,0
805,2276,10328,expressbus,3G,0,0,0,0,0,1,0
819,2277,10328,expressbus,3G,0,0,0,0,0,1,0
830,2278,10328,expressbus,3G,0,0,0,0,0,1,0
842,2279,10328,expressbus,3G,0,0,0,0,0,1,0
857,2280,10328,expressbus,3G,0,0,0,0,0,1,0
867,2281,10328,expressbus,3G,0,0,0,0,0,1,0
876,2282,10328,expressbus,3G,0,0,0,0,0,1,0
883,2283,10328,expressbus,3G,0,0,0,0,0,1,0
891,2284,10328,expressbus,3G,0,0,0,0,0,1,0
898,2285,10328,expressbus,3G,0,0,0,0,0,1,0
908,2286,10328,expressbus,3G,0,0,0,0,0,1,0
921,2287,10328,expressbus,3G,0,0,0,0,0,1,0
934,2288,10328,expressbus,3G,0,0,0,0,0,1,0
946,2289,10328,expressbus,3G,0,0,0,0,0,1,0
957,2290,10328,expressbus,3G,0,0,0,0,0,1,0
968,2291,10328,expressbus,3G,0,0,0,0,0,1,0
975,2292,10328,expressbus,3G,0,0,0,0,0,1,0
983,2293,10328,expressbus,3G,0,0,0,0,0,1,0
990,2294,10328,expressbus,3G,0,0,0,0,0,1,0
997,2295,10328,expressbus,3G,0,0,0,0,0,1,0
1004,2296,10328,expressbus,3G,0,0,0,0,0,1,0
1016,2297,10328,expressbus,3G,0,0,0,0,0,1,0
1026,2298,10328,expressbus,3G,0,0,0,0,0,1,0
1036,2299,10328,expressbus,3G,0,0,0,0,0,1,0
1047,2300,10328,expressbus,3G,0,0,0,0,0,1,0
1057,2301,10328,expressbus,3G,0,0,0,0,0,1,0
1067,2302,10328,expressbus,3G,0,0,0,0,0,1,0
1077,2303,10328,expressbus,3G,0,0,0,0,0,1,0
1090,2304,10328,expressbus,3G,0,0,0,0,0,1,0
1100,2305,10328,expressbus,3G,0,0,0,0,0,1,0
1115,2306,10328,expressbus,3G,0,0,0,0,0,1,0
1129,2307,10328,expressbus,3G,0,0,0,0,0,1,0
1142,2308,10328,expressbus,3G,0,0,0,0,0,1,0
1155,2309,10328,expressbus,3G,0,0,0,0,0,1,0
1169,2310,10328,expressbus,3G,0,0,0,0,0,1,0
1185,2311,10328,expressbus,3G,0,0,0,0,0,1,0
1200,2312,10328,expressbus,3G,0,0,0,0,0,1,0
1214,2313,10328,expressbus,3G,0,0,0,0,0,1,0
1228,2314,10328,expressbus,3G,0,0,0,0,0,1,0
1239,2315,10328,expressbus,3G,0,0,0,0,0,1,0
1249,2316,10328,expressbus,3G,0,0,0,0,0,1,0
1262,2317,10328,expressbus,3G,0,0,0,0,0,1,0
1273,2318,10328,expressbus,3G,0,0,0,0,0,1,0
1287,2319,10328,expressbus,3G,0,0,0,0,0,1,0
1299,2320,10328,expressbus,3G,0,0,0,0,0,1,0
1313,2321,10328,expressbus,3G,0,0,0,0,0,1,0
1324,2322,10328,expressbus,3G,0,0,0,0,0,1,0
1335,2323,10328,expressbus,3G,0,0,0,0,0,1,0
1348,2324,10328,expressbus,3G,0,0,0,0,0,1,0
1363,2325,10328,expressbus,3G,0,0,0,0,0,1,0
1380,2326,10328,expressbus,3G,0,0,0,0,0,1,0
1396,2327,10328,expressbus,3G,0,0,0,0,0,1,0
1413,2328,10328,expressbus,3G,0,0,0,0,0,1,0
1428,2329,10328,expressbus,3G,0,0,0,0,0,1,0
348,2735,10482,expressbus,4G,1,1,1,1,1,0,0
366,2736,10482,expressbus,4G,1,1,1,1,1,0,0
384,2737,10482,expressbus,4G,1,1,1,1,1,0,0
396,2738,10482,expressbus,4G,1,1,1,1,1,0,0
408,2739,10482,expressbus,4G,1,1,1,1,1,0,0
415,2740,10482,expressbus,4G,1,1,1,1,1,0,0
422,2741,10482,expressbus,4G,1,1,1,1,1,0,0
429,2742,10482,expressbus,4G,1,1,1,1,1,0,0
436,2743,10482,expressbus,4G,1,1,1,1,1,0,0
444,2744,10482,expressbus,4G,1,1,1,1,1,0,0
451,2745,10482,expressbus,4G,1,1,1,1,1,0,0
458,2746,10482,expressbus,4G,1,1,1,1,1,0,0
465,2747,10482,expressbus,4G,1,1,1,1,1,0,0
472,2748,10482,expressbus,4G,1,1,1,1,1,0,0
478,2749,10482,expressbus,4G,1,1,1,1,1,0,0
487,2750,10482,expressbus,4G,1,1,1,1,1,0,0
495,2751,10482,expressbus,4G,1,1,1,1,1,0,0
500,2752,10482,expressbus,4G,1,1,1,1,1,0,0
506,2753,10482,expressbus,4G,1,1,1,1,1,0,0
512,2754,10482,expressbus,4G,1,1,1,1,1,0,0
519,2755,10482,expressbus,4G,1,1,1,1,1,0,0
526,2756,10482,expressbus,4G,1,1,1,1,1,0,0
531,2757,10482,expressbus,4G,1,1,1,1,1,0,0
536,2758,10482,expressbus,4G,1,1,1,1,1,0,0
542,2759,10482,expressbus,4G,1,1,1,1,1,0,0
547,2760,10482,expressbus,4G,1,1,1,1,1,0,0
553,2761,10482,expressbus,4G,1,1,1,1,1,0,0
559,2762,10482,expressbus,4G,1,1,1,1,1,0,0
566,2763,10482,expressbus,4G,1,1,1,1,1,0,0
574,2764,10482,expressbus,4G,1,1,1,1,1,0,0
580,2765,10482,expressbus,4G,1,1,1,1,1,0,0
592,2766,10482,expressbus,4G,1,1,1,1,1,0,0
602,2767,10482,expressbus,4G,1,1,1,1,1,0,0
613,2768,10482,expressbus,4G,1,1,1,1,1,0,0
625,2769,10482,expressbus,4G,1,1,1,1,1,0,0
635,2770,10482,expressbus,4G,1,1,1,1,1,0,0
647,2771,10482,expressbus,4G,1,1,1,1,1,0,0
657,2772,10482,expressbus,4G,1,1,1,1,1,0,0
667,2773,10482,expressbus,4G,1,1,1,1,1,0,0
675,2774,10482,expressbus,4G,1,1,1,1,1,0,0
687,2775,10482,expressbus,4G,1,1,1,1,1,0,0
698,2776,10482,expressbus,4G,1,1,1,1,1,0,0
709,2777,10482,expressbus,4G,1,1,1,1,1,0,0
719,2778,10482,expressbus,4G,1,1,1,1,1,0,0
731,2779,10482,expressbus,4G,1,1,1,1,1,0,0
743,2780,10482,expressbus,4G,1,1,1,1,1,0,0
755,2781,10482,expressbus,4G,1,1,1,1,1,0,0
767,2782,10482,expressbus,4G,1,1,1,1,1,0,0
779,2783,10482,expressbus,4G,1,1,1,1,1,0,0
788,2784,10482,expressbus,4G,1,1,1,1,1,0,0
798,2785,10482,expressbus,4G,1,1,1,1,1,0,0
810,2786,10482,expressbus,4G,1,1,1,1,1,0,0
819,2787,10482,expressbus,4G,1,1,1,1,1,0,0
830,2788,10482,expressbus,4G,1,1,1,1,1,0,0
842,2789,10482,expressbus,4G,1,1,1,1,1,0,0
854,2790,10482,expressbus,4G,1,1,1,1,1,0,0
867,2791,10482,expressbus,4G,1,1,1,1,1,0,0
878,2792,10482,expressbus,4G,1,1,1,1,1,0,0
889,2793,10482,expressbus,4G,1,1,1,1,1,0,0
896,2794,10482,expressbus,4G,1,1,1,1,1,0,0
903,2795,10482,expressbus,4G,1,1,1,1,1,0,0
913,2796,10482,expressbus,4G,1,1,1,1,1,0,0
921,2797,10482,expressbus,4G,1,1,1,1,1,0,0
929,2798,10482,expressbus,4G,1,1,1,1,1,0,0
937,2799,10482,expressbus,4G,1,1,1,1,1,0,0
945,2800,10482,expressbus,4G,1,1,1,1,1,0,0
952,2801,10482,expressbus,4G,1,1,1,1,1,0,0
960,2802,10482,expressbus,4G,1,1,1,1,1,0,0
969,2803,10482,expressbus,4G,1,1,1,1,1,0,0
976,2804,10482,expressbus,4G,1,1,1,1,1,0,0
984,2805,10482,expressbus,4G,1,1,1,1,1,0,0
989,2806,10482,expressbus,4G,1,1,1,1,1,0,0
996,2807,10482,expressbus,4G,1,1,1,1,1,0,0
1002,2808,10482,expressbus,4G,1,1,1,1,1,0,0
1008,2809,10482,expressbus,4G,1,1,1,1,1,0,0
1013,2810,10482,expressbus,4G,1,1,1,1,1,0,0
1020,2811,10482,expressbus,4G,1,1,1,1,1,0,0
1025,2812,10482,expressbus,4G,1,1,1,1,1,0,0
1031,2813,10482,expressbus,4G,1,1,1,1,1,0,0
1038,2814,10482,expressbus,4G,1,1,1,1,1,0,0
1045,2815,10482,expressbus,4G,1,1,1,1,1,0,0
1051,2816,10482,expressbus,4G,1,1,1,1,1,0,0
1058,2817,10482,expressbus,4G,1,1,1,1,1,0,0
1064,2818,10482,expressbus,4G,1,1,1,1,1,0,0
1070,2819,10482,expressbus,4G,1,1,1,1,1,0,0
1079,2820,10482,expressbus,4G,1,1,1,1,1,0,0
1085,2821,10482,expressbus,4G,1,1,1,1,1,0,0
1092,2822,10482,expressbus,4G,1,1,1,1,1,0,0
1097,2823,10482,expressbus,4G,1,1,1,1,1,0,0
1104,2824,10482,expressbus,4G,1,1,1,1,1,0,0
1111,2825,10482,expressbus,4G,1,1,1,1,1,0,0
1117,2826,10482,expressbus,4G,1,1,1,1,1,0,0
1123,2827,10482,expressbus,4G,1,1,1,1,1,0,0
1129,2828,10482,expressbus,4G,1,1,1,1,1,0,0
1138,2829,10482,expressbus,4G,1,1,1,1,1,0,0
1147,2830,10482,expressbus,4G,1,1,1,1,1,0,0
1157,2831,10482,expressbus,4G,1,1,1,1,1,0,0
1166,2832,10482,expressbus,4G,1,1,1,1,1,0,0
1176,2833,10482,expressbus,4G,1,1,1,1,1,0,0
1187,2834,10482,expressbus,4G,1,1,1,1,1,0,0
1198,2835,10482,expressbus,4G,1,1,1,1,1,0,0
1213,2836,10482,expressbus,4G,1,1,1,1,1,0,0
1224,2837,10482,expressbus,4G,1,1,1,1,1,0,0
1236,2838,10482,expressbus,4G,1,1,1,1,1,0,0
1248,2839,10482,expressbus,4G,1,1,1,1,1,0,0
1259,2840,10482,expressbus,4G,1,1,1,1,1,0,0
1271,2841,10482,expressbus,4G,1,1,1,1,1,0,0
1283,2842,10482,expressbus,4G,1,1,1,1,1,0,0
1294,2843,10482,expressbus,4G,1,1,1,1,1,0,0
1304,2844,10482,expressbus,4G,1,1,1,1,1,0,0
1318,2845,10482,expressbus,4G,1,1,1,1,1,0,0
1328,2846,10482,expressbus,4G,1,1,1,1,1,0,0
1336,2847,10482,expressbus,4G,1,1,1,1,1,0,0
1347,2848,10482,expressbus,4G,1,1,1,1,1,0,0
1358,2849,10482,expressbus,4G,1,1,1,1,1,0,0
1368,2850,10482,expressbus,4G,1,1,1,1,1,0,0
1384,2851,10482,expressbus,4G,1,1,1,1,1,0,0
1396,2852,10482,expressbus,4G,1,1,1,1,1,0,0
1409,2853,10482,expressbus,4G,1,1,1,1,1,0,0
1421,2854,10482,expressbus,4G,1,1,1,1,1,0,0
351,2855,10483,expressbus,4G,0,0,0,0,0,1,0
379,2856,10483,expressbus,4G,0,0,0,0,0,1,0
399,2857,10483,expressbus,4G,0,0,0,0,0,1,0
424,2858,10483,expressbus,4G,0,0,0,0,0,1,0
441,2859,10483,expressbus,4G,0,0,0,0,0,1,0
457,2860,10483,expressbus,4G,0,0,0,0,0,1,0
471,2861,10483,expressbus,4G,0,0,0,0,0,1,0
489,2862,10483,expressbus,4G,0,0,0,0,0,1,0
506,2863,10483,expressbus,4G,0,0,0,0,0,1,0
522,2864,10483,expressbus,4G,0,0,0,0,0,1,0
535,2865,10483,expressbus,4G,0,0,0,0,0,1,0
550,2866,10483,expressbus,4G,0,0,0,0,0,1,0
564,2867,10483,expressbus,4G,0,0,0,0,0,1,0
583,2868,10483,expressbus,4G,0,0,0,0,0,1,0
599,2869,10483,expressbus,4G,0,0,0,0,0,1,0
613,2870,10483,expressbus,4G,0,0,0,0,0,1,0
627,2871,10483,expressbus,4G,0,0,0,0,0,1,0
643,2872,10483,expressbus,4G,0,0,0,0,0,1,0
659,2873,10483,expressbus,4G,0,0,0,0,0,1,0
670,2874,10483,expressbus,4G,0,0,0,0,0,1,0
684,2875,10483,expressbus,4G,0,0,0,0,0,1,0
696,2876,10483,expressbus,4G,0,0,0,0,0,1,0
711,2877,10483,expressbus,4G,0,0,0,0,0,1,0
727,2878,10483,expressbus,4G,0,0,0,0,0,1,0
741,2879,10483,expressbus,4G,0,0,0,0,0,1,0
752,2880,10483,expressbus,4G,0,0,0,0,0,1,0
765,2881,10483,expressbus,4G,0,0,0,0,0,1,0
774,2882,10483,expressbus,4G,0,0,0,0,0,1,0
787,2883,10483,expressbus,4G,0,0,0,0,0,1,0
804,2884,10483,expressbus,4G,0,0,0,0,0,1,0
818,2885,10483,expressbus,4G,0,0,0,0,0,1,0
831,2886,10483,expressbus,4G,0,0,0,0,0,1,0
841,2887,10483,expressbus,4G,0,0,0,0,0,1,0
854,2888,10483,expressbus,4G,0,0,0,0,0,1,0
871,2889,10483,expressbus,4G,0,0,0,0,0,1,0
886,2890,10483,expressbus,4G,0,0,0,0,0,1,0
901,2891,10483,expressbus,4G,0,0,0,0,0,1,0
911,2892,10483,expressbus,4G,0,0,0,0,0,1,0
922,2893,10483,expressbus,4G,0,0,0,0,0,1,0
936,2894,10483,expressbus,4G,0,0,0,0,0,1,0
947,2895,10483,expressbus,4G,0,0,0,0,0,1,0
957,2896,10483,expressbus,4G,0,0,0,0,0,1,0
971,2897,10483,expressbus,4G,0,0,0,0,0,1,0
983,2898,10483,expressbus,4G,0,0,0,0,0,1,0
996,2899,10483,expressbus,4G,0,0,0,0,0,1,0
1005,2900,10483,expressbus,4G,0,0,0,0,0,1,0
1017,2901,10483,expressbus,4G,0,0,0,0,0,1,0
1033,2902,10483,expressbus,4G,0,0,0,0,0,1,0
1043,2903,10483,expressbus,4G,0,0,0,0,0,1,0
1053,2904,10483,expressbus,4G,0,0,0,0,0,1,0
1061,2905,10483,expressbus,4G,0,0,0,0,0,1,0
1073,2906,10483,expressbus,4G,0,0,0,0,0,1,0
1090,2907,10483,expressbus,4G,0,0,0,0,0,1,0
1105,2908,10483,expressbus,4G,0,0,0,0,0,1,0
1118,2909,10483,expressbus,4G,0,0,0,0,0,1,0
1131,2910,10483,expressbus,4G,0,0,0,0,0,1,0
1149,2911,10483,expressbus,4G,0,0,0,0,0,1,0
1170,2912,10483,expressbus,4G,0,0,0,0,0,1,0
1191,2913,10483,expressbus,4G,0,0,0,0,0,1,0
1208,2914,10483,expressbus,4G,0,0,0,0,0,1,0
1224,2915,10483,expressbus,4G,0,0,0,0,0,1,0
1247,2916,10483,expressbus,4G,0,0,0,0,0,1,0
1266,2917,10483,expressbus,4G,0,0,0,0,0,1,0
1280,2918,10483,expressbus,4G,0,0,0,0,0,1,0
1295,2919,10483,expressbus,4G,0,0,0,0,0,1,0
1309,2920,10483,expressbus,4G,0,0,0,0,0,1,0
1327,2921,10483,expressbus,4G,0,0,0,0,0,1,0
1343,2922,10483,expressbus,4G,0,0,0,0,0,1,0
1358,2923,10483,expressbus,4G,0,0,0,0,0,1,0
1374,2924,10483,expressbus,4G,0,0,0,0,0,1,0
1387,2925,10483,expressbus,4G,0,0,0,0,0,1,0
1402,2926,10483,expressbus,4G,0,0,0,0,0,1,0
1420,2927,10483,expressbus,4G,0,0,0,0,0,1,0
399,2928,10484,expressbus,4G,0,0,0,0,0,0,1
424,2929,10484,expressbus,4G,0,0,0,0,0,0,1
441,2930,10484,expressbus,4G,0,0,0,0,0,0,1
457,2931,10484,expressbus,4G,0,0,0,0,0,0,1
471,2932,10484,expressbus,4G,0,0,0,0,0,0,1
489,2933,10484,expressbus,4G,0,0,0,0,0,0,1
506,2934,10484,expressbus,4G,0,0,0,0,0,0,1
522,2935,10484,expressbus,4G,0,0,0,0,0,0,1
535,2936,10484,expressbus,4G,0,0,0,0,0,0,1
550,2937,10484,expressbus,4G,0,0,0,0,0,0,1
564,2938,10484,expressbus,4G,0,0,0,0,0,0,1
583,2939,10484,expressbus,4G,0,0,0,0,0,0,1
599,2940,10484,expressbus,4G,0,0,0,0,0,0,1
613,2941,10484,expressbus,4G,0,0,0,0,0,0,1
627,2942,10484,expressbus,4G,0,0,0,0,0,0,1
643,2943,10484,expressbus,4G,0,0,0,0,0,0,1
659,2944,10484,expressbus,4G,0,0,0,0,0,0,1
670,2945,10484,expressbus,4G,0,0,0,0,0,0,1
684,2946,10484,expressbus,4G,0,0,0,0,0,0,1
696,2947,10484,expressbus,4G,0,0,0,0,0,0,1
711,2948,10484,expressbus,4G,0,0,0,0,0,0,1
727,2949,10484,expressbus,4G,0,0,0,0,0,0,1
741,2950,10484,expressbus,4G,0,0,0,0,0,0,1
752,2951,10484,expressbus,4G,0,0,0,0,0,0,1
765,2952,10484,expressbus,4G,0,0,0,0,0,0,1
774,2953,10484,expressbus,4G,0,0,0,0,0,0,1
787,2954,10484,expressbus,4G,0,0,0,0,0,0,1
804,2955,10484,expressbus,4G,0,0,0,0,0,0,1
818,2956,10484,expressbus,4G,0,0,0,0,0,0,1
831,2957,10484,expressbus,4G,0,0,0,0,0,0,1
841,2958,10484,expressbus,4G,0,0,0,0,0,0,1
854,2959,10484,expressbus,4G,0,0,0,0,0,0,1
871,2960,10484,expressbus,4G,0,0,0,0,0,0,1
886,2961,10484,expressbus,4G,0,0,0,0,0,0,1
901,2962,10484,expressbus,4G,0,0,0,0,0,0,1
911,2963,10484,expressbus,4G,0,0,0,0,0,0,1
922,2964,10484,expressbus,4G,0,0,0,0,0,0,1
936,2965,10484,expressbus,4G,0,0,0,0,0,0,1
947,2966,10484,expressbus,4G,0,0,0,0,0,0,1
957,2967,10484,expressbus,4G,0,0,0,0,0,0,1
971,2968,10484,expressbus,4G,0,0,0,0,0,0,1
983,2969,10484,expressbus,4G,0,0,0,0,0,0,1
996,2970,10484,expressbus,4G,0,0,0,0,0,0,1
1005,2971,10484,expressbus,4G,0,0,0,0,0,0,1
1017,2972,10484,expressbus,4G,0,0,0,0,0,0,1
1033,2973,10484,expressbus,4G,0,0,0,0,0,0,1
1043,2974,10484,expressbus,4G,0,0,0,0,0,0,1
1053,2975,10484,expressbus,4G,0,0,0,0,0,0,1
1061,2976,10484,expressbus,4G,0,0,0,0,0,0,1
1073,2977,10484,expressbus,4G,0,0,0,0,0,0,1
1090,2978,10484,expressbus,4G,0,0,0,0,0,0,1
1105,2979,10484,expressbus,4G,0,0,0,0,0,0,1
1118,2980,10484,expressbus,4G,0,0,0,0,0,0,1
1131,2981,10484,expressbus,4G,0,0,0,0,0,0,1
1149,2982,10484,expressbus,4G,0,0,0,0,0,0,1
1170,2983,10484,expressbus,4G,0,0,0,0,0,0,1
1191,2984,10484,expressbus,4G,0,0,0,0,0,0,1
1208,2985,10484,expressbus,4G,0,0,0,0,0,0,1
1224,2986,10484,expressbus,4G,0,0,0,0,0,0,1
1247,2987,10484,expressbus,4G,0,0,0,0,0,0,1
1266,2988,10484,expressbus,4G,0,0,0,0,0,0,1
1280,2989,10484,expressbus,4G,0,0,0,0,0,0,1
1295,2990,10484,expressbus,4G,0,0,0,0,0,0,1
1309,2991,10484,expressbus,4G,0,0,0,0,0,0,1
1327,2992,10484,expressbus,4G,0,0,0,0,0,0,1
1343,2993,10484,expressbus,4G,0,0,0,0,0,0,1
1358,2994,10484,expressbus,4G,0,0,0,0,0,0,1
1374,2995,10484,expressbus,4G,0,0,0,0,0,0,1
1387,2996,10484,expressbus,4G,0,0,0,0,0,0,1
1402,2997,10484,expressbus,4G,0,0,0,0,0,0,1
1420,2998,10484,expressbus,4G,0,0,0,0,0,0,1
1440,3029,10482,expressbus,4G,1,1,1,1,1,0,0
1441,3030,10483,expressbus,4G,0,0,0,0,0,1,0
1441,3031,10484,expressbus,4G,0,0,0,0,0,0,1
349,5290,10293,bus,11,0,0,0,0,0,0,1
511,5291,10293,bus,11,0,0,0,0,0,0,1
320,5292,9750,bus,11,1,1,1,1,1,0,0
349,5293,9413,bus,11,0,0,0,0,0,1,0
511,5294,9413,bus,11,0,0,0,0,0,1,0
312,8463,10485,bus,30,1,1,1,1,1,0,0
330,8464,10485,bus,30,1,1,1,1,1,0,0
354,8465,10485,bus,30,1,1,1,1,1,0,0
374,8466,10485,bus,30,1,1,1,1,1,0,0
392,8467,10485,bus,30,1,1,1,1,1,0,0
405,8468,10485,bus,30,1,1,1,1,1,0,0
424,8469,10485,bus,30,1,1,1,1,1,0,0
439,8470,10485,bus,30,1,1,1,1,1,0,0
459,8471,10485,bus,30,1,1,1,1,1,0,0
479,8472,10485,bus,30,1,1,1,1,1,0,0
494,8473,10485,bus,30,1,1,1,1,1,0,0
513,8474,10485,bus,30,1,1,1,1,1,0,0
529,8475,10485,bus,30,1,1,1,1,1,0,0
550,8476,10485,bus,30,1,1,1,1,1,0,0
576,8477,10485,bus,30,1,1,1,1,1,0,0
597,8478,10485,bus,30,1,1,1,1,1,0,0
625,8479,10485,bus,30,1,1,1,1,1,0,0
648,8480,10485,bus,30,1,1,1,1,1,0,0
677,8481,10485,bus,30,1,1,1,1,1,0,0
705,8482,10485,bus,30,1,1,1,1,1,0,0
731,8483,10485,bus,30,1,1,1,1,1,0,0
757,8484,10485,bus,30,1,1,1,1,1,0,0
787,8485,10485,bus,30,1,1,1,1,1,0,0
812,8486,10485,bus,30,1,1,1,1,1,0,0
842,8487,10485,bus,30,1,1,1,1,1,0,0
876,8488,10485,bus,30,1,1,1,1,1,0,0
897,8489,10485,bus,30,1,1,1,1,1,0,0
910,8490,10485,bus,30,1,1,1,1,1,0,0
925,8491,10485,bus,30,1,1,1,1,1,0,0
938,8492,10485,bus,30,1,1,1,1,1,0,0
958,8493,10485,bus,30,1,1,1,1,1,0,0
979,8494,10485,bus,30,1,1,1,1,1,0,0
995,8495,10485,bus,30,1,1,1,1,1,0,0
1012,8496,10485,bus,30,1,1,1,1,1,0,0
1026,8497,10485,bus,30,1,1,1,1,1,0,0
1048,8498,10485,bus,30,1,1,1,1,1,0,0
1070,8499,10485,bus,30,1,1,1,1,1,0,0
1090,8500,10485,bus,30,1,1,1,1,1,0,0
1115,8501,10485,bus,30,1,1,1,1,1,0,0
1136,8502,10485,bus,30,1,1,1,1,1,0,0
1161,8503,10485,bus,30,1,1,1,1,1,0,0
1192,8504,10485,bus,30,1,1,1,1,1,0,0
1217,8505,10485,bus,30,1,1,1,1,1,0,0
1248,8506,10485,bus,30,1,1,1,1,1,0,0
1273,8507,10485,bus,30,1,1,1,1,1,0,0
1303,8508,10485,bus,30,1,1,1,1,1,0,0
1328,8509,10485,bus,30,1,1,1,1,1,0,0
1358,8510,10485,bus,30,1,1,1,1,1,0,0
309,8511,10486,bus,30,0,0,0,0,0,1,0
349,8512,10486,bus,30,0,0,0,0,0,1,0
388,8513,10486,bus,30,0,0,0,0,0,1,0
426,8514,10486,bus,30,0,0,0,0,0,1,0
465,8515,10486,bus,30,0,0,0,0,0,1,0
502,8516,10486,bus,30,0,0,0,0,0,1,0
534,8517,10486,bus,30,0,0,0,0,0,1,0
574,8518,10486,bus,30,0,0,0,0,0,1,0
608,8519,10486,bus,30,0,0,0,0,0,1,0
631,8520,10486,bus,30,0,0,0,0,0,1,0
656,8521,10486,bus,30,0,0,0,0,0,1,0
688,8522,10486,bus,30,0,0,0,0,0,1,0
718,8523,10486,bus,30,0,0,0,0,0,1,0
735,8524,10486,bus,30,0,0,0,0,0,1,0
773,8525,10486,bus,30,0,0,0,0,0,1,0
812,8526,10486,bus,30,0,0,0,0,0,1,0
833,8527,10486,bus,30,0,0,0,0,0,1,0
861,8528,10486,bus,30,0,0,0,0,0,1,0
892,8529,10486,bus,30,0,0,0,0,0,1,0
920,8530,10486,bus,30,0,0,0,0,0,1,0
946,8531,10486,bus,30,0,0,0,0,0,1,0
972,8532,10486,bus,30,0,0,0,0,0,1,0
1001,8533,10486,bus,30,0,0,0,0,0,1,0
1023,8534,10486,bus,30,0,0,0,0,0,1,0
1055,8535,10486,bus,30,0,0,0,0,0,1,0
1101,8536,10486,bus,30,0,0,0,0,0,1,0
1154,8537,10486,bus,30,0,0,0,0,0,1,0
1206,8538,10486,bus,30,0,0,0,0,0,1,0
1234,8539,10486,bus,30,0,0,0,0,0,1,0
1282,8540,10486,bus,30,0,0,0,0,0,1,0
1315,8541,10486,bus,30,0,0,0,0,0,1,0
1359,8542,10486,bus,30,0,0,0,0,0,1,0
349,8543,10487,bus,30,0,0,0,0,0,0,1
388,8544,10487,bus,30,0,0,0,0,0,0,1
426,8545,10487,bus,30,0,0,0,0,0,0,1
465,8546,10487,bus,30,0,0,0,0,0,0,1
502,8547,10487,bus,30,0,0,0,0,0,0,1
534,8548,10487,bus,30,0,0,0,0,0,0,1
574,8549,10487,bus,30,0,0,0,0,0,0,1
608,8550,10487,bus,30,0,0,0,0,0,0,1
631,8551,10487,bus,30,0,0,0,0,0,0,1
656,8552,10487,bus,30,0,0,0,0,0,0,1
688,8553,10487,bus,30,0,0,0,0,0,0,1
718,8554,10487,bus,30,0,0,0,0,0,0,1
735,8555,10487,bus,30,0,0,0,0,0,0,1
773,8556,10487,bus,30,0,0,0,0,0,0,1
812,8557,10487,bus,30,0,0,0,0,0,0,1
833,8558,10487,bus,30,0,0,0,0,0,0,1
861,8559,10487,bus,30,0,0,0,0,0,0,1
892,8560,10487,bus,30,0,0,0,0,0,0,1
920,8561,10487,bus,30,0,0,0,0,0,0,1
946,8562,10487,bus,30,0,0,0,0,0,0,1
972,8563,10487,bus,30,0,0,0,0,0,0,1
1001,8564,10487,bus,30,0,0,0,0,0,0,1
1023,8565,10487,bus,30,0,0,0,0,0,0,1
1055,8566,10487,bus,30,0,0,0,0,0,0,1
1101,8567,10487,bus,30,0,0,0,0,0,0,1
1154,8568,10487,bus,30,0,0,0,0,0,0,1
1206,8569,10487,bus,30,0,0,0,0,0,0,1
1234,8570,10487,bus,30,0,0,0,0,0,0,1
1282,8571,10487,bus,30,0,0,0,0,0,0,1
1315,8572,10487,bus,30,0,0,0,0,0,0,1
1359,8573,10487,bus,30,0,0,0,0,0,0,1
337,10939,10596,bus,43,1,1,1,1,1,0,0
357,10940,10596,bus,43,1,1,1,1,1,0,0
373,10941,10596,bus,43,1,1,1,1,1,0,0
394,10942,10596,bus,43,1,1,1,1,1,0,0
412,10943,10596,bus,43,1,1,1,1,1,0,0
427,10944,10596,bus,43,1,1,1,1,1,0,0
440,10945,10596,bus,43,1,1,1,1,1,0,0
457,10946,10596,bus,43,1,1,1,1,1,0,0
475,10947,10596,bus,43,1,1,1,1,1,0,0
491,10948,10596,bus,43,1,1,1,1,1,0,0
509,10949,10596,bus,43,1,1,1,1,1,0,0
523,10950,10596,bus,43,1,1,1,1,1,0,0
538,10951,10596,bus,43,1,1,1,1,1,0,0
554,10952,10596,bus,43,1,1,1,1,1,0,0
572,10953,10596,bus,43,1,1,1,1,1,0,0
587,10954,10596,bus,43,1,1,1,1,1,0,0
605,10955,10596,bus,43,1,1,1,1,1,0,0
624,10956,10596,bus,43,1,1,1,1,1,0,0
642,10957,10596,bus,43,1,1,1,1,1,0,0
662,10958,10596,bus,43,1,1,1,1,1,0,0
683,10959,10596,bus,43,1,1,1,1,1,0,0
702,10960,10596,bus,43,1,1,1,1,1,0,0
723,10961,10596,bus,43,1,1,1,1,1,0,0
742,10962,10596,bus,43,1,1,1,1,1,0,0
761,10963,10596,bus,43,1,1,1,1,1,0,0
779,10964,10596,bus,43,1,1,1,1,1,0,0
802,10965,10596,bus,43,1,1,1,1,1,0,0
819,10966,10596,bus,43,1,1,1,1,1,0,0
839,10967,10596,bus,43,1,1,1,1,1,0,0
862,10968,10596,bus,43,1,1,1,1,1,0,0
884,10969,10596,bus,43,1,1,1,1,1,0,0
907,10970,10596,bus,43,1,1,1,1,1,0,0
924,10971,10596,bus,43,1,1,1,1,1,0,0
940,10972,10596,bus,43,1,1,1,1,1,0,0
955,10973,10596,bus,43,1,1,1,1,1,0,0
970,10974,10596,bus,43,1,1,1,1,1,0,0
985,10975,10596,bus,43,1,1,1,1,1,0,0
995,10976,10596,bus,43,1,1,1,1,1,0,0
1012,10977,10596,bus,43,1,1,1,1,1,0,0
1024,10978,10596,bus,43,1,1,1,1,1,0,0
1041,10979,10596,bus,43,1,1,1,1,1,0,0
1057,10980,10596,bus,43,1,1,1,1,1,0,0
1071,10981,10596,bus,43,1,1,1,1,1,0,0
1085,10982,10596,bus,43,1,1,1,1,1,0,0
1098,10983,10596,bus,43,1,1,1,1,1,0,0
1117,10984,10596,bus,43,1,1,1,1,1,0,0
1133,10985,10596,bus,43,1,1,1,1,1,0,0
1150,10986,10596,bus,43,1,1,1,1,1,0,0
1168,10987,10596,bus,43,1,1,1,1,1,0,0
1192,10988,10596,bus,43,1,1,1,1,1,0,0
1209,10989,10596,bus,43,1,1,1,1,1,0,0
1231,10990,10596,bus,43,1,1,1,1,1,0,0
1252,10991,10596,bus,43,1,1,1,1,1,0,0
1270,10992,10596,bus,43,1,1,1,1,1,0,0
1290,10993,10596,bus,43,1,1,1,1,1,0,0
1306,10994,10596,bus,43,1,1,1,1,1,0,0
1328,10995,10596,bus,43,1,1,1,1,1,0,0
1348,10996,10596,bus,43,1,1,1,1,1,0,0
1365,10997,10596,bus,43,1,1,1,1,1,0,0
1383,10998,10596,bus,43,1,1,1,1,1,0,0
1401,10999,10596,bus,43,1,1,1,1,1,0,0
404,11000,10598,bus,43,0,0,0,0,0,0,1
441,11001,10598,bus,43,0,0,0,0,0,0,1
475,11002,10598,bus,43,0,0,0,0,0,0,1
512,11003,10598,bus,43,0,0,0,0,0,0,1
548,11004,10598,bus,43,0,0,0,0,0,0,1
581,11005,10598,bus,43,0,0,0,0,0,0,1
608,11006,10598,bus,43,0,0,0,0,0,0,1
626,11007,10598,bus,43,0,0,0,0,0,0,1
652,11008,10598,bus,43,0,0,0,0,0,0,1
669,11009,10598,bus,43,0,0,0,0,0,0,1
689,11010,10598,bus,43,0,0,0,0,0,0,1
703,11011,10598,bus,43,0,0,0,0,0,0,1
731,11012,10598,bus,43,0,0,0,0,0,0,1
757,11013,10598,bus,43,0,0,0,0,0,0,1
776,11014,10598,bus,43,0,0,0,0,0,0,1
799,11015,10598,bus,43,0,0,0,0,0,0,1
824,11016,10598,bus,43,0,0,0,0,0,0,1
850,11017,10598,bus,43,0,0,0,0,0,0,1
868,11018,10598,bus,43,0,0,0,0,0,0,1
887,11019,10598,bus,43,0,0,0,0,0,0,1
904,11020,10598,bus,43,0,0,0,0,0,0,1
928,11021,10598,bus,43,0,0,0,0,0,0,1
953,11022,10598,bus,43,0,0,0,0,0,0,1
979,11023,10598,bus,43,0,0,0,0,0,0,1
998,11024,10598,bus,43,0,0,0,0,0,0,1
1020,11025,10598,bus,43,0,0,0,0,0,0,1
1036,11026,10598,bus,43,0,0,0,0,0,0,1
1056,11027,10598,bus,43,0,0,0,0,0,0,1
1078,11028,10598,bus,43,0,0,0,0,0,0,1
1103,11029,10598,bus,43,0,0,0,0,0,0,1
1154,11030,10598,bus,43,0,0,0,0,0,0,1
1201,11031,10598,bus,43,0,0,0,0,0,0,1
1237,11032,10598,bus,43,0,0,0,0,0,0,1
1270,11033,10598,bus,43,0,0,0,0,0,0,1
1307,11034,10598,bus,43,0,0,0,0,0,0,1
1347,11035,10598,bus,43,0,0,0,0,0,0,1
1385,11036,10598,bus,43,0,0,0,0,0,0,1
333,11037,10597,bus,43,0,0,0,0,0,1,0
363,11038,10597,bus,43,0,0,0,0,0,1,0
404,11039,10597,bus,43,0,0,0,0,0,1,0
441,11040,10597,bus,43,0,0,0,0,0,1,0
475,11041,10597,bus,43,0,0,0,0,0,1,0
512,11042,10597,bus,43,0,0,0,0,0,1,0
548,11043,10597,bus,43,0,0,0,0,0,1,0
581,11044,10597,bus,43,0,0,0,0,0,1,0
608,11045,10597,bus,43,0,0,0,0,0,1,0
626,11046,10597,bus,43,0,0,0,0,0,1,0
652,11047,10597,bus,43,0,0,0,0,0,1,0
669,11048,10597,bus,43,0,0,0,0,0,1,0
689,11049,10597,bus,43,0,0,0,0,0,1,0
703,11050,10597,bus,43,0,0,0,0,0,1,0
731,11051,10597,bus,43,0,0,0,0,0,1,0
757,11052,10597,bus,43,0,0,0,0,0,1,0
776,11053,10597,bus,43,0,0,0,0,0,1,0
799,11054,10597,bus,43,0,0,0,0,0,1,0
824,11055,10597,bus,43,0,0,0,0,0,1,0
850,11056,10597,bus,43,0,0,0,0,0,1,0
868,11057,10597,bus,43,0,0,0,0,0,1,0
887,11058,10597,bus,43,0,0,0,0,0,1,0
904,11059,10597,bus,43,0,0,0,0,0,1,0
928,11060,10597,bus,43,0,0,0,0,0,1,0
953,11061,10597,bus,43,0,0,0,0,0,1,0
979,11062,10597,bus,43,0,0,0,0,0,1,0
998,11063,10597,bus,43,0,0,0,0,0,1,0
1020,11064,10597,bus,43,0,0,0,0,0,1,0
1036,11065,10597,bus,43,0,0,0,0,0,1,0
1056,11066,10597,bus,43,0,0,0,0,0,1,0
1078,11067,10597,bus,43,0,0,0,0,0,1,0
1103,11068,10597,bus,43,0,0,0,0,0,1,0
1154,11069,10597,bus,43,0,0,0,0,0,1,0
1201,11070,10597,bus,43,0,0,0,0,0,1,0
1237,11071,10597,bus,43,0,0,0,0,0,1,0
1270,11072,10597,bus,43,0,0,0,0,0,1,0
1307,11073,10597,bus,43,0,0,0,0,0,1,0
1347,11074,10597,bus,43,0,0,0,0,0,1,0
1385,11075,10597,bus,43,0,0,0,0,0,1,0
1422,11087,10596,bus,43,1,1,1,1,1,0,0
1419,11088,10598,bus,43,0,0,0,0,0,0,1
1419,11089,10597,bus,43,0,0,0,0,0,1,0
384,11265,10383,bus,46,0,0,0,0,0,0,1
415,11266,10383,bus,46,0,0,0,0,0,0,1
435,11267,10383,bus,46,0,0,0,0,0,0,1
456,11268,10383,bus,46,0,0,0,0,0,0,1
478,11269,10383,bus,46,0,0,0,0,0,0,1
498,11270,10383,bus,46,0,0,0,0,0,0,1
519,11271,10383,bus,46,0,0,0,0,0,0,1
540,11272,10383,bus,46,0,0,0,0,0,0,1
560,11273,10383,bus,46,0,0,0,0,0,0,1
581,11274,10383,bus,46,0,0,0,0,0,0,1
621,11275,10383,bus,46,0,0,0,0,0,0,1
649,11276,10383,bus,46,0,0,0,0,0,0,1
670,11277,10383,bus,46,0,0,0,0,0,0,1
690,11278,10383,bus,46,0,0,0,0,0,0,1
710,11279,10383,bus,46,0,0,0,0,0,0,1
731,11280,10383,bus,46,0,0,0,0,0,0,1
753,11281,10383,bus,46,0,0,0,0,0,0,1
772,11282,10383,bus,46,0,0,0,0,0,0,1
793,11283,10383,bus,46,0,0,0,0,0,0,1
815,11284,10383,bus,46,0,0,0,0,0,0,1
834,11285,10383,bus,46,0,0,0,0,0,0,1
855,11286,10383,bus,46,0,0,0,0,0,0,1
877,11287,10383,bus,46,0,0,0,0,0,0,1
896,11288,10383,bus,46,0,0,0,0,0,0,1
917,11289,10383,bus,46,0,0,0,0,0,0,1
939,11290,10383,bus,46,0,0,0,0,0,0,1
958,11291,10383,bus,46,0,0,0,0,0,0,1
979,11292,10383,bus,46,0,0,0,0,0,0,1
1002,11293,10383,bus,46,0,0,0,0,0,0,1
1024,11294,10383,bus,46,0,0,0,0,0,0,1
1045,11295,10383,bus,46,0,0,0,0,0,0,1
1083,11296,10383,bus,46,0,0,0,0,0,0,1
1108,11297,10383,bus,46,0,0,0,0,0,0,1
1132,11298,10383,bus,46,0,0,0,0,0,0,1
1165,11299,10383,bus,46,0,0,0,0,0,0,1
1190,11300,10383,bus,46,0,0,0,0,0,0,1
1214,11301,10383,bus,46,0,0,0,0,0,0,1
1234,11302,10383,bus,46,0,0,0,0,0,0,1
1253,11303,10383,bus,46,0,0,0,0,0,0,1
1275,11304,10383,bus,46,0,0,0,0,0,0,1
1297,11305,10383,bus,46,0,0,0,0,0,0,1
1318,11306,10383,bus,46,0,0,0,0,0,0,1
1339,11307,10383,bus,46,0,0,0,0,0,0,1
1365,11308,10383,bus,46,0,0,0,0,0,0,1
1384,11309,10383,bus,46,0,0,0,0,0,0,1
1403,11310,10383,bus,46,0,0,0,0,0,0,1
352,11311,10381,bus,46,1,1,1,1,1,0,0
366,11312,10381,bus,46,1,1,1,1,1,0,0
380,11313,10381,bus,46,1,1,1,1,1,0,0
395,11314,10381,bus,46,1,1,1,1,1,0,0
408,11315,10381,bus,46,1,1,1,1,1,0,0
424,11316,10381,bus,46,1,1,1,1,1,0,0
437,11317,10381,bus,46,1,1,1,1,1,0,0
448,11318,10381,bus,46,1,1,1,1,1,0,0
459,11319,10381,bus,46,1,1,1,1,1,0,0
471,11320,10381,bus,46,1,1,1,1,1,0,0
482,11321,10381,bus,46,1,1,1,1,1,0,0
495,11322,10381,bus,46,1,1,1,1,1,0,0
509,11323,10381,bus,46,1,1,1,1,1,0,0
522,11324,10381,bus,46,1,1,1,1,1,0,0
533,11325,10381,bus,46,1,1,1,1,1,0,0
545,11326,10381,bus,46,1,1,1,1,1,0,0
556,11327,10381,bus,46,1,1,1,1,1,0,0
568,11328,10381,bus,46,1,1,1,1,1,0,0
582,11329,10381,bus,46,1,1,1,1,1,0,0
600,11330,10381,bus,46,1,1,1,1,1,0,0
626,11331,10381,bus,46,1,1,1,1,1,0,0
658,11332,10381,bus,46,1,1,1,1,1,0,0
677,11333,10381,bus,46,1,1,1,1,1,0,0
696,11334,10381,bus,46,1,1,1,1,1,0,0
716,11335,10381,bus,46,1,1,1,1,1,0,0
735,11336,10381,bus,46,1,1,1,1,1,0,0
753,11337,10381,bus,46,1,1,1,1,1,0,0
770,11338,10381,bus,46,1,1,1,1,1,0,0
788,11339,10381,bus,46,1,1,1,1,1,0,0
806,11340,10381,bus,46,1,1,1,1,1,0,0
824,11341,10381,bus,46,1,1,1,1,1,0,0
842,11342,10381,bus,46,1,1,1,1,1,0,0
860,11343,10381,bus,46,1,1,1,1,1,0,0
876,11344,10381,bus,46,1,1,1,1,1,0,0
894,11345,10381,bus,46,1,1,1,1,1,0,0
913,11346,10381,bus,46,1,1,1,1,1,0,0
932,11347,10381,bus,46,1,1,1,1,1,0,0
946,11348,10381,bus,46,1,1,1,1,1,0,0
959,11349,10381,bus,46,1,1,1,1,1,0,0
972,11350,10381,bus,46,1,1,1,1,1,0,0
984,11351,10381,bus,46,1,1,1,1,1,0,0
997,11352,10381,bus,46,1,1,1,1,1,0,0
1011,11353,10381,bus,46,1,1,1,1,1,0,0
1025,11354,10381,bus,46,1,1,1,1,1,0,0
1038,11355,10381,bus,46,1,1,1,1,1,0,0
1051,11356,10381,bus,46,1,1,1,1,1,0,0
1062,11357,10381,bus,46,1,1,1,1,1,0,0
1076,11358,10381,bus,46,1,1,1,1,1,0,0
1090,11359,10381,bus,46,1,1,1,1,1,0,0
1104,11360,10381,bus,46,1,1,1,1,1,0,0
1117,11361,10381,bus,46,1,1,1,1,1,0,0
1131,11362,10381,bus,46,1,1,1,1,1,0,0
1143,11363,10381,bus,46,1,1,1,1,1,0,0
1167,11364,10381,bus,46,1,1,1,1,1,0,0
1190,11365,10381,bus,46,1,1,1,1,1,0,0
1209,11366,10381,bus,46,1,1,1,1,1,0,0
1226,11367,10381,bus,46,1,1,1,1,1,0,0
1242,11368,10381,bus,46,1,1,1,1,1,0,0
1261,11369,10381,bus,46,1,1,1,1,1,0,0
1278,11370,10381,bus,46,1,1,1,1,1,0,0
1295,11371,10381,bus,46,1,1,1,1,1,0,0
1313,11372,10381,bus,46,1,1,1,1,1,0,0
1331,11373,10381,bus,46,1,1,1,1,1,0,0
1348,11374,10381,bus,46,1,1,1,1,1,0,0
1365,11375,10381,bus,46,1,1,1,1,1,0,0
1383,11376,10381,bus,46,1,1,1,1,1,0,0
1403,11377,10381,bus,46,1,1,1,1,1,0,0
352,11378,10382,bus,46,0,0,0,0,0,1,0
373,11379,10382,bus,46,0,0,0,0,0,1,0
394,11380,10382,bus,46,0,0,0,0,0,1,0
415,11381,10382,bus,46,0,0,0,0,0,1,0
435,11382,10382,bus,46,0,0,0,0,0,1,0
456,11383,10382,bus,46,0,0,0,0,0,1,0
478,11384,10382,bus,46,0,0,0,0,0,1,0
498,11385,10382,bus,46,0,0,0,0,0,1,0
519,11386,10382,bus,46,0,0,0,0,0,1,0
540,11387,10382,bus,46,0,0,0,0,0,1,0
560,11388,10382,bus,46,0,0,0,0,0,1,0
581,11389,10382,bus,46,0,0,0,0,0,1,0
621,11390,10382,bus,46,0,0,0,0,0,1,0
649,11391,10382,bus,46,0,0,0,0,0,1,0
670,11392,10382,bus,46,0,0,0,0,0,1,0
690,11393,10382,bus,46,0,0,0,0,0,1,0
710,11394,10382,bus,46,0,0,0,0,0,1,0
731,11395,10382,bus,46,0,0,0,0,0,1,0
753,11396,10382,bus,46,0,0,0,0,0,1,0
772,11397,10382,bus,46,0,0,0,0,0,1,0
793,11398,10382,bus,46,0,0,0,0,0,1,0
815,11399,10382,bus,46,0,0,0,0,0,1,0
834,11400,10382,bus,46,0,0,0,0,0,1,0
855,11401,10382,bus,46,0,0,0,0,0,1,0
877,11402,10382,bus,46,0,0,0,0,0,1,0
896,11403,10382,bus,46,0,0,0,0,0,1,0
917,11404,10382,bus,46,0,0,0,0,0,1,0
939,11405,10382,bus,46,0,0,0,0,0,1,0
958,11406,10382,bus,46,0,0,0,0,0,1,0
979,11407,10382,bus,46,0,0,0,0,0,1,0
1002,11408,10382,bus,46,0,0,0,0,0,1,0
1024,11409,10382,bus,46,0,0,0,0,0,1,0
1045,11410,10382,bus,46,0,0,0,0,0,1,0
1083,11411,10382,bus,46,0,0,0,0,0,1,0
1108,11412,10382,bus,46,0,0,0,0,0,1,0
1132,11413,10382,bus,46,0,0,0,0,0,1,0
1165,11414,10382,bus,46,0,0,0,0,0,1,0
1190,11415,10382,bus,46,0,0,0,0,0,1,0
1214,11416,10382,bus,46,0,0,0,0,0,1,0
1234,11417,10382,bus,46,0,0,0,0,0,1,0
1253,11418,10382,bus,46,0,0,0,0,0,1,0
1275,11419,10382,bus,46,0,0,0,0,0,1,0
1297,11420,10382,bus,46,0,0,0,0,0,1,0
1318,11421,10382,bus,46,0,0,0,0,0,1,0
1339,11422,10382,bus,46,0,0,0,0,0,1,0
1365,11423,10382,bus,46,0,0,0,0,0,1,0
1384,11424,10382,bus,46,0,0,0,0,0,1,0
1403,11425,10382,bus,46,0,0,0,0,0,1,0
456,12102,10294,bus,52,0,0,0,0,0,0,1
535,12103,10294,bus,52,0,0,0,0,0,0,1
614,12104,10294,bus,52,0,0,0,0,0,0,1
718,12105,10294,bus,52,0,0,0,0,0,0,1
797,12106,10294,bus,52,0,0,0,0,0,0,1
881,12107,10294,bus,52,0,0,0,0,0,0,1
960,12108,10294,bus,52,0,0,0,0,0,0,1
1039,12109,10294,bus,52,0,0,0,0,0,0,1
1143,12110,10294,bus,52,0,0,0,0,0,0,1
1218,12111,10294,bus,52,0,0,0,0,0,0,1
1292,12112,10294,bus,52,0,0,0,0,0,0,1
330,12113,9642,bus,52,1,1,1,1,1,0,0
358,12114,9642,bus,52,1,1,1,1,1,0,0
383,12115,9642,bus,52,1,1,1,1,1,0,0
408,12116,9642,bus,52,1,1,1,1,1,0,0
438,12117,9642,bus,52,1,1,1,1,1,0,0
473,12118,9642,bus,52,1,1,1,1,1,0,0
496,12119,9642,bus,52,1,1,1,1,1,0,0
528,12120,9642,bus,52,1,1,1,1,1,0,0
555,12121,9642,bus,52,1,1,1,1,1,0,0
603,12122,9642,bus,52,1,1,1,1,1,0,0
634,12123,9642,bus,52,1,1,1,1,1,0,0
661,12124,9642,bus,52,1,1,1,1,1,0,0
688,12125,9642,bus,52,1,1,1,1,1,0,0
723,12126,9642,bus,52,1,1,1,1,1,0,0
742,12127,9642,bus,52,1,1,1,1,1,0,0
770,12128,9642,bus,52,1,1,1,1,1,0,0
805,12129,9642,bus,52,1,1,1,1,1,0,0
823,12130,9642,bus,52,1,1,1,1,1,0,0
859,12131,9642,bus,52,1,1,1,1,1,0,0
891,12132,9642,bus,52,1,1,1,1,1,0,0
908,12133,9642,bus,52,1,1,1,1,1,0,0
941,12134,9642,bus,52,1,1,1,1,1,0,0
976,12135,9642,bus,52,1,1,1,1,1,0,0
994,12136,9642,bus,52,1,1,1,1,1,0,0
1026,12137,9642,bus,52,1,1,1,1,1,0,0
1071,12138,9642,bus,52,1,1,1,1,1,0,0
1107,12139,9642,bus,52,1,1,1,1,1,0,0
1138,12140,9642,bus,52,1,1,1,1,1,0,0
1184,12141,9642,bus,52,1,1,1,1,1,0,0
1215,12142,9642,bus,52,1,1,1,1,1,0,0
1241,12143,9642,bus,52,1,1,1,1,1,0,0
1272,12144,9642,bus,52,1,1,1,1,1,0,0
1293,12145,9642,bus,52,1,1,1,1,1,0,0
1315,12146,9642,bus,52,1,1,1,1,1,0,0
1355,12147,9642,bus,52,1,1,1,1,1,0,0
456,12148,9643,bus,52,0,0,0,0,0,1,0
535,12149,9643,bus,52,0,0,0,0,0,1,0
614,12150,9643,bus,52,0,0,0,0,0,1,0
718,12151,9643,bus,52,0,0,0,0,0,1,0
797,12152,9643,bus,52,0,0,0,0,0,1,0
881,12153,9643,bus,52,0,0,0,0,0,1,0
960,12154,9643,bus,52,0,0,0,0,0,1,0
1039,12155,9643,bus,52,0,0,0,0,0,1,0
1143,12156,9643,bus,52,0,0,0,0,0,1,0
1218,12157,9643,bus,52,0,0,0,0,0,1,0
1292,12158,9643,bus,52,0,0,0,0,0,1,0
406,13262,9466,bus,56,0,0,0,0,0,0,1
441,13263,9466,bus,56,0,0,0,0,0,0,1
474,13264,9466,bus,56,0,0,0,0,0,0,1
507,13265,9466,bus,56,0,0,0,0,0,0,1
551,13266,9466,bus,56,0,0,0,0,0,0,1
605,13267,9466,bus,56,0,0,0,0,0,0,1
655,13268,9466,bus,56,0,0,0,0,0,0,1
686,13269,9466,bus,56,0,0,0,0,0,0,1
724,13270,9466,bus,56,0,0,0,0,0,0,1
759,13271,9466,bus,56,0,0,0,0,0,0,1
793,13272,9466,bus,56,0,0,0,0,0,0,1
831,13273,9466,bus,56,0,0,0,0,0,0,1
871,13274,9466,bus,56,0,0,0,0,0,0,1
906,13275,9466,bus,56,0,0,0,0,0,0,1
940,13276,9466,bus,56,0,0,0,0,0,0,1
975,13277,9466,bus,56,0,0,0,0,0,0,1
1009,13278,9466,bus,56,0,0,0,0,0,0,1
1044,13279,9466,bus,56,0,0,0,0,0,0,1
1086,13280,9466,bus,56,0,0,0,0,0,0,1
1138,13281,9466,bus,56,0,0,0,0,0,0,1
1184,13282,9466,bus,56,0,0,0,0,0,0,1
1228,13283,9466,bus,56,0,0,0,0,0,0,1
1251,13284,9466,bus,56,0,0,0,0,0,0,1
1294,13285,9466,bus,56,0,0,0,0,0,0,1
1322,13286,9466,bus,56,0,0,0,0,0,0,1
1362,13287,9466,bus,56,0,0,0,0,0,0,1
1387,13288,9466,bus,56,0,0,0,0,0,0,1
343,13289,10396,bus,56,1,1,1,1,1,0,0
369,13290,10396,bus,56,1,1,1,1,1,0,0
386,13291,10396,bus,56,1,1,1,1,1,0,0
411,13292,10396,bus,56,1,1,1,1,1,0,0
430,13293,10396,bus,56,1,1,1,1,1,0,0
447,13294,10396,bus,56,1,1,1,1,1,0,0
462,13295,10396,bus,56,1,1,1,1,1,0,0
479,13296,10396,bus,56,1,1,1,1,1,0,0
496,13297,10396,bus,56,1,1,1,1,1,0,0
511,13298,10396,bus,56,1,1,1,1,1,0,0
528,13299,10396,bus,56,1,1,1,1,1,0,0
541,13300,10396,bus,56,1,1,1,1,1,0,0
558,13301,10396,bus,56,1,1,1,1,1,0,0
578,13302,10396,bus,56,1,1,1,1,1,0,0
596,13303,10396,bus,56,1,1,1,1,1,0,0
627,13304,10396,bus,56,1,1,1,1,1,0,0
650,13305,10396,bus,56,1,1,1,1,1,0,0
676,13306,10396,bus,56,1,1,1,1,1,0,0
701,13307,10396,bus,56,1,1,1,1,1,0,0
724,13308,10396,bus,56,1,1,1,1,1,0,0
748,13309,10396,bus,56,1,1,1,1,1,0,0
775,13310,10396,bus,56,1,1,1,1,1,0,0
797,13311,10396,bus,56,1,1,1,1,1,0,0
824,13312,10396,bus,56,1,1,1,1,1,0,0
849,13313,10396,bus,56,1,1,1,1,1,0,0
876,13314,10396,bus,56,1,1,1,1,1,0,0
902,13315,10396,bus,56,1,1,1,1,1,0,0
927,13316,10396,bus,56,1,1,1,1,1,0,0
952,13317,10396,bus,56,1,1,1,1,1,0,0
976,13318,10396,bus,56,1,1,1,1,1,0,0
1002,13319,10396,bus,56,1,1,1,1,1,0,0
1020,13320,10396,bus,56,1,1,1,1,1,0,0
1039,13321,10396,bus,56,1,1,1,1,1,0,0
1059,13322,10396,bus,56,1,1,1,1,1,0,0
1081,13323,10396,bus,56,1,1,1,1,1,0,0
1099,13324,10396,bus,56,1,1,1,1,1,0,0
1121,13325,10396,bus,56,1,1,1,1,1,0,0
1146,13326,10396,bus,56,1,1,1,1,1,0,0
1176,13327,10396,bus,56,1,1,1,1,1,0,0
1197,13328,10396,bus,56,1,1,1,1,1,0,0
1220,13329,10396,bus,56,1,1,1,1,1,0,0
1245,13330,10396,bus,56,1,1,1,1,1,0,0
1267,13331,10396,bus,56,1,1,1,1,1,0,0
1291,13332,10396,bus,56,1,1,1,1,1,0,0
1316,13333,10396,bus,56,1,1,1,1,1,0,0
1341,13334,10396,bus,56,1,1,1,1,1,0,0
1365,13335,10396,bus,56,1,1,1,1,1,0,0
1394,13336,10396,bus,56,1,1,1,1,1,0,0
375,13337,9465,bus,56,0,0,0,0,0,1,0
406,13338,9465,bus,56,0,0,0,0,0,1,0
441,13339,9465,bus,56,0,0,0,0,0,1,0
474,13340,9465,bus,56,0,0,0,0,0,1,0
507,13341,9465,bus,56,0,0,0,0,0,1,0
551,13342,9465,bus,56,0,0,0,0,0,1,0
605,13343,9465,bus,56,0,0,0,0,0,1,0
655,13344,9465,bus,56,0,0,0,0,0,1,0
686,13345,9465,bus,56,0,0,0,0,0,1,0
724,13346,9465,bus,56,0,0,0,0,0,1,0
759,13347,9465,bus,56,0,0,0,0,0,1,0
793,13348,9465,bus,56,0,0,0,0,0,1,0
831,13349,9465,bus,56,0,0,0,0,0,1,0
871,13350,9465,bus,56,0,0,0,0,0,1,0
906,13351,9465,bus,56,0,0,0,0,0,1,0
940,13352,9465,bus,56,0,0,0,0,0,1,0
975,13353,9465,bus,56,0,0,0,0,0,1,0
1009,13354,9465,bus,56,0,0,0,0,0,1,0
1044,13355,9465,bus,56,0,0,0,0,0,1,0
1086,13356,9465,bus,56,0,0,0,0,0,1,0
1138,13357,9465,bus,56,0,0,0,0,0,1,0
1184,13358,9465,bus,56,0,0,0,0,0,1,0
1228,13359,9465,bus,56,0,0,0,0,0,1,0
1251,13360,9465,bus,56,0,0,0,0,0,1,0
1294,13361,9465,bus,56,0,0,0,0,0,1,0
1322,13362,9465,bus,56,0,0,0,0,0,1,0
1362,13363,9465,bus,56,0,0,0,0,0,1,0
1387,13364,9465,bus,56,0,0,0,0,0,1,0
330,13937,10397,bus,63,1,1,1,1,1,0,0
442,13938,10398,bus,63,0,0,0,0,0,1,1
406,15692,9847,bus,88,0,0,0,0,0,0,1
440,15693,9847,bus,88,0,0,0,0,0,0,1
483,15694,9847,bus,88,0,0,0,0,0,0,1
517,15695,9847,bus,88,0,0,0,0,0,0,1
560,15696,9847,bus,88,0,0,0,0,0,0,1
596,15697,9847,bus,88,0,0,0,0,0,0,1
764,15698,9847,bus,88,0,0,0,0,0,0,1
804,15699,9847,bus,88,0,0,0,0,0,0,1
841,15700,9847,bus,88,0,0,0,0,0,0,1
881,15701,9847,bus,88,0,0,0,0,0,0,1
918,15702,9847,bus,88,0,0,0,0,0,0,1
958,15703,9847,bus,88,0,0,0,0,0,0,1
995,15704,9847,bus,88,0,0,0,0,0,0,1
1035,15705,9847,bus,88,0,0,0,0,0,0,1
1072,15706,9847,bus,88,0,0,0,0,0,0,1
1112,15707,9847,bus,88,0,0,0,0,0,0,1
1270,15708,9847,bus,88,0,0,0,0,0,0,1
1310,15709,9847,bus,88,0,0,0,0,0,0,1
1345,15710,9847,bus,88,0,0,0,0,0,0,1
1385,15711,9847,bus,88,0,0,0,0,0,0,1
1420,15712,9847,bus,88,0,0,0,0,0,0,1
357,15713,10244,bus,88,1,1,1,1,1,0,0
381,15714,10244,bus,88,1,1,1,1,1,0,0
408,15715,10244,bus,88,1,1,1,1,1,0,0
434,15716,10244,bus,88,1,1,1,1,1,0,0
459,15717,10244,bus,88,1,1,1,1,1,0,0
486,15718,10244,bus,88,1,1,1,1,1,0,0
514,15719,10244,bus,88,1,1,1,1,1,0,0
537,15720,10244,bus,88,1,1,1,1,1,0,0
689,15721,10244,bus,88,1,1,1,1,1,0,0
718,15722,10244,bus,88,1,1,1,1,1,0,0
748,15723,10244,bus,88,1,1,1,1,1,0,0
771,15724,10244,bus,88,1,1,1,1,1,0,0
795,15725,10244,bus,88,1,1,1,1,1,0,0
825,15726,10244,bus,88,1,1,1,1,1,0,0
848,15727,10244,bus,88,1,1,1,1,1,0,0
872,15728,10244,bus,88,1,1,1,1,1,0,0
902,15729,10244,bus,88,1,1,1,1,1,0,0
925,15730,10244,bus,88,1,1,1,1,1,0,0
949,15731,10244,bus,88,1,1,1,1,1,0,0
980,15732,10244,bus,88,1,1,1,1,1,0,0
1003,15733,10244,bus,88,1,1,1,1,1,0,0
1028,15734,10244,bus,88,1,1,1,1,1,0,0
1059,15735,10244,bus,88,1,1,1,1,1,0,0
1084,15736,10244,bus,88,1,1,1,1,1,0,0
1109,15737,10244,bus,88,1,1,1,1,1,0,0
1137,15738,10244,bus,88,1,1,1,1,1,0,0
1284,15739,10244,bus,88,1,1,1,1,1,0,0
1310,15740,10244,bus,88,1,1,1,1,1,0,0
1339,15741,10244,bus,88,1,1,1,1,1,0,0
1364,15742,10244,bus,88,1,1,1,1,1,0,0
1387,15743,10244,bus,88,1,1,1,1,1,0,0
1420,15744,10244,bus,88,1,1,1,1,1,0,0
357,15745,9846,bus,88,0,0,0,0,0,1,0
396,15746,9846,bus,88,0,0,0,0,0,1,0
433,15747,9846,bus,88,0,0,0,0,0,1,0
473,15748,9846,bus,88,0,0,0,0,0,1,0
511,15749,9846,bus,88,0,0,0,0,0,1,0
552,15750,9846,bus,88,0,0,0,0,0,1,0
717,15751,9846,bus,88,0,0,0,0,0,1,0
764,15752,9846,bus,88,0,0,0,0,0,1,0
803,15753,9846,bus,88,0,0,0,0,0,1,0
841,15754,9846,bus,88,0,0,0,0,0,1,0
880,15755,9846,bus,88,0,0,0,0,0,1,0
918,15756,9846,bus,88,0,0,0,0,0,1,0
960,15757,9846,bus,88,0,0,0,0,0,1,0
995,15758,9846,bus,88,0,0,0,0,0,1,0
1038,15759,9846,bus,88,0,0,0,0,0,1,0
1072,15760,9846,bus,88,0,0,0,0,0,1,0
1116,15761,9846,bus,88,0,0,0,0,0,1,0
1148,15762,9846,bus,88,0,0,0,0,0,1,0
1317,15763,9846,bus,88,0,0,0,0,0,1,0
1345,15764,9846,bus,88,0,0,0,0,0,1,0
1392,15765,9846,bus,88,0,0,0,0,0,1,0
1420,15766,9846,bus,88,0,0,0,0,0,1,0
363,15781,9847,bus,88,0,0,0,0,0,0,1
406,15782,9847,bus,88,0,0,0,0,0,0,1
440,15783,9847,bus,88,0,0,0,0,0,0,1
483,15784,9847,bus,88,0,0,0,0,0,0,1
517,15785,9847,bus,88,0,0,0,0,0,0,1
560,15786,9847,bus,88,0,0,0,0,0,0,1
596,15787,9847,bus,88,0,0,0,0,0,0,1
687,15788,9847,bus,88,0,0,0,0,0,0,1
727,15789,9847,bus,88,0,0,0,0,0,0,1
764,15790,9847,bus,88,0,0,0,0,0,0,1
804,15791,9847,bus,88,0,0,0,0,0,0,1
841,15792,9847,bus,88,0,0,0,0,0,0,1
881,15793,9847,bus,88,0,0,0,0,0,0,1
918,15794,9847,bus,88,0,0,0,0,0,0,1
958,15795,9847,bus,88,0,0,0,0,0,0,1
995,15796,9847,bus,88,0,0,0,0,0,0,1
1035,15797,9847,bus,88,0,0,0,0,0,0,1
1072,15798,9847,bus,88,0,0,0,0,0,0,1
1112,15799,9847,bus,88,0,0,0,0,0,0,1
1195,15800,9847,bus,88,0,0,0,0,0,0,1
1235,15801,9847,bus,88,0,0,0,0,0,0,1
1270,15802,9847,bus,88,0,0,0,0,0,0,1
1310,15803,9847,bus,88,0,0,0,0,0,0,1
1345,15804,9847,bus,88,0,0,0,0,0,0,1
305,15805,10244,bus,88,1,1,1,1,1,0,0
332,15806,10244,bus,88,1,1,1,1,1,0,0
357,15807,10244,bus,88,1,1,1,1,1,0,0
381,15808,10244,bus,88,1,1,1,1,1,0,0
408,15809,10244,bus,88,1,1,1,1,1,0,0
434,15810,10244,bus,88,1,1,1,1,1,0,0
459,15811,10244,bus,88,1,1,1,1,1,0,0
486,15812,10244,bus,88,1,1,1,1,1,0,0
514,15813,10244,bus,88,1,1,1,1,1,0,0
537,15814,10244,bus,88,1,1,1,1,1,0,0
612,15815,10244,bus,88,1,1,1,1,1,0,0
641,15816,10244,bus,88,1,1,1,1,1,0,0
671,15817,10244,bus,88,1,1,1,1,1,0,0
689,15818,10244,bus,88,1,1,1,1,1,0,0
718,15819,10244,bus,88,1,1,1,1,1,0,0
748,15820,10244,bus,88,1,1,1,1,1,0,0
771,15821,10244,bus,88,1,1,1,1,1,0,0
795,15822,10244,bus,88,1,1,1,1,1,0,0
825,15823,10244,bus,88,1,1,1,1,1,0,0
848,15824,10244,bus,88,1,1,1,1,1,0,0
872,15825,10244,bus,88,1,1,1,1,1,0,0
902,15826,10244,bus,88,1,1,1,1,1,0,0
925,15827,10244,bus,88,1,1,1,1,1,0,0
949,15828,10244,bus,88,1,1,1,1,1,0,0
980,15829,10244,bus,88,1,1,1,1,1,0,0
1003,15830,10244,bus,88,1,1,1,1,1,0,0
1028,15831,10244,bus,88,1,1,1,1,1,0,0
1059,15832,10244,bus,88,1,1,1,1,1,0,0
1084,15833,10244,bus,88,1,1,1,1,1,0,0
1109,15834,10244,bus,88,1,1,1,1,1,0,0
1137,15835,10244,bus,88,1,1,1,1,1,0,0
1209,15836,10244,bus,88,1,1,1,1,1,0,0
1233,15837,10244,bus,88,1,1,1,1,1,0,0
1264,15838,10244,bus,88,1,1,1,1,1,0,0
1284,15839,10244,bus,88,1,1,1,1,1,0,0
1310,15840,10244,bus,88,1,1,1,1,1,0,0
1339,15841,10244,bus,88,1,1,1,1,1,0,0
320,15842,9846,bus,88,0,0,0,0,0,1,0
357,15843,9846,bus,88,0,0,0,0,0,1,0
396,15844,9846,bus,88,0,0,0,0,0,1,0
433,15845,9846,bus,88,0,0,0,0,0,1,0
473,15846,9846,bus,88,0,0,0,0,0,1,0
511,15847,9846,bus,88,0,0,0,0,0,1,0
552,15848,9846,bus,88,0,0,0,0,0,1,0
640,15849,9846,bus,88,0,0,0,0,0,1,0
687,15850,9846,bus,88,0,0,0,0,0,1,0
717,15851,9846,bus,88,0,0,0,0,0,1,0
764,15852,9846,bus,88,0,0,0,0,0,1,0
803,15853,9846,bus,88,0,0,0,0,0,1,0
841,15854,9846,bus,88,0,0,0,0,0,1,0
880,15855,9846,bus,88,0,0,0,0,0,1,0
918,15856,9846,bus,88,0,0,0,0,0,1,0
960,15857,9846,bus,88,0,0,0,0,0,1,0
995,15858,9846,bus,88,0,0,0,0,0,1,0
1038,15859,9846,bus,88,0,0,0,0,0,1,0
1072,15860,9846,bus,88,0,0,0,0,0,1,0
1116,15861,9846,bus,88,0,0,0,0,0,1,0
1148,15862,9846,bus,88,0,0,0,0,0,1,0
1242,15863,9846,bus,88,0,0,0,0,0,1,0
1270,15864,9846,bus,88,0,0,0,0,0,1,0
1317,15865,9846,bus,88,0,0,0,0,0,1,0
1345,15866,9846,bus,88,0,0,0,0,0,1,0
1385,15867,9847,bus,88,0,0,0,0,0,0,1
1420,15868,9847,bus,88,0,0,0,0,0,0,1
1364,15869,10244,bus,88,1,1,1,1,1,0,0
1387,15870,10244,bus,88,1,1,1,1,1,0,0
1420,15871,10244,bus,88,1,1,1,1,1,0,0
1392,15872,9846,bus,88,0,0,0,0,0,1,0
1420,15873,9846,bus,88,0,0,0,0,0,1,0
363,15891,9847,bus,88,0,0,0,0,0,0,1
687,15892,9847,bus,88,0,0,0,0,0,0,1
727,15893,9847,bus,88,0,0,0,0,0,0,1
1195,15894,9847,bus,88,0,0,0,0,0,0,1
1235,15895,9847,bus,88,0,0,0,0,0,0,1
305,15896,10244,bus,88,1,1,1,1,1,0,0
332,15897,10244,bus,88,1,1,1,1,1,0,0
612,15898,10244,bus,88,1,1,1,1,1,0,0
641,15899,10244,bus,88,1,1,1,1,1,0,0
671,15900,10244,bus,88,1,1,1,1,1,0,0
1209,15901,10244,bus,88,1,1,1,1,1,0,0
1233,15902,10244,bus,88,1,1,1,1,1,0,0
1264,15903,10244,bus,88,1,1,1,1,1,0,0
320,15904,9846,bus,88,0,0,0,0,0,1,0
640,15905,9846,bus,88,0,0,0,0,0,1,0
687,15906,9846,bus,88,0,0,0,0,0,1,0
1242,15907,9846,bus,88,0,0,0,0,0,1,0
1270,15908,9846,bus,88,0,0,0,0,0,1,0
1457,16387,9973,nightbus,105N,0,0,0,0,1,1,0
1491,16388,9973,nightbus,105N,0,0,0,0,1,1,0
1528,16389,9973,nightbus,105N,0,0,0,0,1,1,0
1562,16390,9973,nightbus,105N,0,0,0,0,1,1,0
1601,16391,9973,nightbus,105N,0,0,0,0,1,1,0
339,20149,10452,trol,9,1,1,1,1,1,0,0
356,20150,10452,trol,9,1,1,1,1,1,0,0
371,20151,10452,trol,9,1,1,1,1,1,0,0
384,20152,10452,trol,9,1,1,1,1,1,0,0
393,20153,10452,trol,9,1,1,1,1,1,0,0
406,20154,10452,trol,9,1,1,1,1,1,0,0
418,20155,10452,trol,9,1,1,1,1,1,0,0
427,20156,10452,trol,9,1,1,1,1,1,0,0
437,20157,10452,trol,9,1,1,1,1,1,0,0
446,20158,10452,trol,9,1,1,1,1,1,0,0
454,20159,10452,trol,9,1,1,1,1,1,0,0
462,20160,10452,trol,9,1,1,1,1,1,0,0
471,20161,10452,trol,9,1,1,1,1,1,0,0
482,20162,10452,trol,9,1,1,1,1,1,0,0
489,20163,10452,trol,9,1,1,1,1,1,0,0
498,20164,10452,trol,9,1,1,1,1,1,0,0
505,20165,10452,trol,9,1,1,1,1,1,0,0
514,20166,10452,trol,9,1,1,1,1,1,0,0
520,20167,10452,trol,9,1,1,1,1,1,0,0
530,20168,10452,trol,9,1,1,1,1,1,0,0
541,20169,10452,trol,9,1,1,1,1,1,0,0
552,20170,10452,trol,9,1,1,1,1,1,0,0
560,20171,10452,trol,9,1,1,1,1,1,0,0
567,20172,10452,trol,9,1,1,1,1,1,0,0
576,20173,10452,trol,9,1,1,1,1,1,0,0
588,20174,10452,trol,9,1,1,1,1,1,0,0
597,20175,10452,trol,9,1,1,1,1,1,0,0
618,20176,10452,trol,9,1,1,1,1,1,0,0
642,20177,10452,trol,9,1,1,1,1,1,0,0
663,20178,10452,trol,9,1,1,1,1,1,0,0
678,20179,10452,trol,9,1,1,1,1,1,0,0
695,20180,10452,trol,9,1,1,1,1,1,0,0
711,20181,10452,trol,9,1,1,1,1,1,0,0
726,20182,10452,trol,9,1,1,1,1,1,0,0
740,20183,10452,trol,9,1,1,1,1,1,0,0
758,20184,10452,trol,9,1,1,1,1,1,0,0
777,20185,10452,trol,9,1,1,1,1,1,0,0
790,20186,10452,trol,9,1,1,1,1,1,0,0
805,20187,10452,trol,9,1,1,1,1,1,0,0
824,20188,10452,trol,9,1,1,1,1,1,0,0
841,20189,10452,trol,9,1,1,1,1,1,0,0
857,20190,10452,trol,9,1,1,1,1,1,0,0
877,20191,10452,trol,9,1,1,1,1,1,0,0
891,20192,10452,trol,9,1,1,1,1,1,0,0
900,20193,10452,trol,9,1,1,1,1,1,0,0
911,20194,10452,trol,9,1,1,1,1,1,0,0
920,20195,10452,trol,9,1,1,1,1,1,0,0
926,20196,10452,trol,9,1,1,1,1,1,0,0
934,20197,10452,trol,9,1,1,1,1,1,0,0
940,20198,10452,trol,9,1,1,1,1,1,0,0
947,20199,10452,trol,9,1,1,1,1,1,0,0
955,20200,10452,trol,9,1,1,1,1,1,0,0
962,20201,10452,trol,9,1,1,1,1,1,0,0
971,20202,10452,trol,9,1,1,1,1,1,0,0
983,20203,10452,trol,9,1,1,1,1,1,0,0
996,20204,10452,trol,9,1,1,1,1,1,0,0
1005,20205,10452,trol,9,1,1,1,1,1,0,0
1013,20206,10452,trol,9,1,1,1,1,1,0,0
1022,20207,10452,trol,9,1,1,1,1,1,0,0
1029,20208,10452,trol,9,1,1,1,1,1,0,0
1037,20209,10452,trol,9,1,1,1,1,1,0,0
1046,20210,10452,trol,9,1,1,1,1,1,0,0
1054,20211,10452,trol,9,1,1,1,1,1,0,0
1062,20212,10452,trol,9,1,1,1,1,1,0,0
1072,20213,10452,trol,9,1,1,1,1,1,0,0
1080,20214,10452,trol,9,1,1,1,1,1,0,0
1087,20215,10452,trol,9,1,1,1,1,1,0,0
1095,20216,10452,trol,9,1,1,1,1,1,0,0
1104,20217,10452,trol,9,1,1,1,1,1,0,0
1110,20218,10452,trol,9,1,1,1,1,1,0,0
1122,20219,10452,trol,9,1,1,1,1,1,0,0
1132,20220,10452,trol,9,1,1,1,1,1,0,0
1139,20221,10452,trol,9,1,1,1,1,1,0,0
1147,20222,10452,trol,9,1,1,1,1,1,0,0
1153,20223,10452,trol,9,1,1,1,1,1,0,0
1162,20224,10452,trol,9,1,1,1,1,1,0,0
1178,20225,10452,trol,9,1,1,1,1,1,0,0
1193,20226,10452,trol,9,1,1,1,1,1,0,0
1216,20227,10452,trol,9,1,1,1,1,1,0,0
1238,20228,10452,trol,9,1,1,1,1,1,0,0
1255,20229,10452,trol,9,1,1,1,1,1,0,0
1272,20230,10452,trol,9,1,1,1,1,1,0,0
1286,20231,10452,trol,9,1,1,1,1,1,0,0
1303,20232,10452,trol,9,1,1,1,1,1,0,0
1321,20233,10452,trol,9,1,1,1,1,1,0,0
1332,20234,10452,trol,9,1,1,1,1,1,0,0
1346,20235,10452,trol,9,1,1,1,1,1,0,0
1366,20236,10452,trol,9,1,1,1,1,1,0,0
1378,20237,10452,trol,9,1,1,1,1,1,0,0
1397,20238,10452,trol,9,1,1,1,1,1,0,0
348,20239,10453,trol,9,0,0,0,0,0,1,0
392,20240,10453,trol,9,0,0,0,0,0,1,0
426,20241,10453,trol,9,0,0,0,0,0,1,0
442,20242,10453,trol,9,0,0,0,0,0,1,0
460,20243,10453,trol,9,0,0,0,0,0,1,0
472,20244,10453,trol,9,0,0,0,0,0,1,0
498,20245,10453,trol,9,0,0,0,0,0,1,0
516,20246,10453,trol,9,0,0,0,0,0,1,0
537,20247,10453,trol,9,0,0,0,0,0,1,0
548,20248,10453,trol,9,0,0,0,0,0,1,0
562,20249,10453,trol,9,0,0,0,0,0,1,0
580,20250,10453,trol,9,0,0,0,0,0,1,0
594,20251,10453,trol,9,0,0,0,0,0,1,0
605,20252,10453,trol,9,0,0,0,0,0,1,0
621,20253,10453,trol,9,0,0,0,0,0,1,0
639,20254,10453,trol,9,0,0,0,0,0,1,0
652,20255,10453,trol,9,0,0,0,0,0,1,0
672,20256,10453,trol,9,0,0,0,0,0,1,0
686,20257,10453,trol,9,0,0,0,0,0,1,0
698,20258,10453,trol,9,0,0,0,0,0,1,0
713,20259,10453,trol,9,0,0,0,0,0,1,0
729,20260,10453,trol,9,0,0,0,0,0,1,0
744,20261,10453,trol,9,0,0,0,0,0,1,0
761,20262,10453,trol,9,0,0,0,0,0,1,0
776,20263,10453,trol,9,0,0,0,0,0,1,0
788,20264,10453,trol,9,0,0,0,0,0,1,0
803,20265,10453,trol,9,0,0,0,0,0,1,0
819,20266,10453,trol,9,0,0,0,0,0,1,0
829,20267,10453,trol,9,0,0,0,0,0,1,0
850,20268,10453,trol,9,0,0,0,0,0,1,0
862,20269,10453,trol,9,0,0,0,0,0,1,0
876,20270,10453,trol,9,0,0,0,0,0,1,0
889,20271,10453,trol,9,0,0,0,0,0,1,0
902,20272,10453,trol,9,0,0,0,0,0,1,0
914,20273,10453,trol,9,0,0,0,0,0,1,0
930,20274,10453,trol,9,0,0,0,0,0,1,0
942,20275,10453,trol,9,0,0,0,0,0,1,0
958,20276,10453,trol,9,0,0,0,0,0,1,0
975,20277,10453,trol,9,0,0,0,0,0,1,0
991,20278,10453,trol,9,0,0,0,0,0,1,0
1006,20279,10453,trol,9,0,0,0,0,0,1,0
1020,20280,10453,trol,9,0,0,0,0,0,1,0
1036,20281,10453,trol,9,0,0,0,0,0,1,0
1045,20282,10453,trol,9,0,0,0,0,0,1,0
1061,20283,10453,trol,9,0,0,0,0,0,1,0
1073,20284,10453,trol,9,0,0,0,0,0,1,0
1098,20285,10453,trol,9,0,0,0,0,0,1,0
1120,20286,10453,trol,9,0,0,0,0,0,1,0
1147,20287,10453,trol,9,0,0,0,0,0,1,0
1174,20288,10453,trol,9,0,0,0,0,0,1,0
1197,20289,10453,trol,9,0,0,0,0,0,1,0
1220,20290,10453,trol,9,0,0,0,0,0,1,0
1245,20291,10453,trol,9,0,0,0,0,0,1,0
1259,20292,10453,trol,9,0,0,0,0,0,1,0
1280,20293,10453,trol,9,0,0,0,0,0,1,0
1303,20294,10453,trol,9,0,0,0,0,0,1,0
1319,20295,10453,trol,9,0,0,0,0,0,1,0
1333,20296,10453,trol,9,0,0,0,0,0,1,0
1361,20297,10453,trol,9,0,0,0,0,0,1,0
1377,20298,10453,trol,9,0,0,0,0,0,1,0
1408,20299,10453,trol,9,0,0,0,0,0,1,0
392,20300,10454,trol,9,0,0,0,0,0,0,1
426,20301,10454,trol,9,0,0,0,0,0,0,1
442,20302,10454,trol,9,0,0,0,0,0,0,1
460,20303,10454,trol,9,0,0,0,0,0,0,1
472,20304,10454,trol,9,0,0,0,0,0,0,1
498,20305,10454,trol,9,0,0,0,0,0,0,1
516,20306,10454,trol,9,0,0,0,0,0,0,1
537,20307,10454,trol,9,0,0,0,0,0,0,1
548,20308,10454,trol,9,0,0,0,0,0,0,1
562,20309,10454,trol,9,0,0,0,0,0,0,1
580,20310,10454,trol,9,0,0,0,0,0,0,1
594,20311,10454,trol,9,0,0,0,0,0,0,1
605,20312,10454,trol,9,0,0,0,0,0,0,1
621,20313,10454,trol,9,0,0,0,0,0,0,1
639,20314,10454,trol,9,0,0,0,0,0,0,1
652,20315,10454,trol,9,0,0,0,0,0,0,1
672,20316,10454,trol,9,0,0,0,0,0,0,1
686,20317,10454,trol,9,0,0,0,0,0,0,1
698,20318,10454,trol,9,0,0,0,0,0,0,1
713,20319,10454,trol,9,0,0,0,0,0,0,1
729,20320,10454,trol,9,0,0,0,0,0,0,1
744,20321,10454,trol,9,0,0,0,0,0,0,1
761,20322,10454,trol,9,0,0,0,0,0,0,1
776,20323,10454,trol,9,0,0,0,0,0,0,1
788,20324,10454,trol,9,0,0,0,0,0,0,1
803,20325,10454,trol,9,0,0,0,0,0,0,1
819,20326,10454,trol,9,0,0,0,0,0,0,1
829,20327,10454,trol,9,0,0,0,0,0,0,1
850,20328,10454,trol,9,0,0,0,0,0,0,1
862,20329,10454,trol,9,0,0,0,0,0,0,1
876,20330,10454,trol,9,0,0,0,0,0,0,1
889,20331,10454,trol,9,0,0,0,0,0,0,1
902,20332,10454,trol,9,0,0,0,0,0,0,1
914,20333,10454,trol,9,0,0,0,0,0,0,1
930,20334,10454,trol,9,0,0,0,0,0,0,1
942,20335,10454,trol,9,0,0,0,0,0,0,1
958,20336,10454,trol,9,0,0,0,0,0,0,1
975,20337,10454,trol,9,0,0,0,0,0,0,1
991,20338,10454,trol,9,0,0,0,0,0,0,1
1006,20339,10454,trol,9,0,0,0,0,0,0,1
1020,20340,10454,trol,9,0,0,0,0,0,0,1
1036,20341,10454,trol,9,0,0,0,0,0,0,1
1045,20342,10454,trol,9,0,0,0,0,0,0,1
1061,20343,10454,trol,9,0,0,0,0,0,0,1
1073,20344,10454,trol,9,0,0,0,0,0,0,1
1098,20345,10454,trol,9,0,0,0,0,0,0,1
1120,20346,10454,trol,9,0,0,0,0,0,0,1
1147,20347,10454,trol,9,0,0,0,0,0,0,1
1174,20348,10454,trol,9,0,0,0,0,0,0,1
1197,20349,10454,trol,9,0,0,0,0,0,0,1
1220,20350,10454,trol,9,0,0,0,0,0,0,1
1245,20351,10454,trol,9,0,0,0,0,0,0,1
1259,20352,10454,trol,9,0,0,0,0,0,0,1
1280,20353,10454,trol,9,0,0,0,0,0,0,1
1303,20354,10454,trol,9,0,0,0,0,0,0,1
1319,20355,10454,trol,9,0,0,0,0,0,0,1
1333,20356,10454,trol,9,0,0,0,0,0,0,1
1361,20357,10454,trol,9,0,0,0,0,0,0,1
1377,20358,10454,trol,9,0,0,0,0,0,0,1
1408,20359,10454,trol,9,0,0,0,0,0,0,1
357,20383,10454,trol,9,0,0,0,0,0,0,1
363,23254,10475,trol,19,1,1,1,1,1,0,0
374,23255,10475,trol,19,1,1,1,1,1,0,0
381,23256,10475,trol,19,1,1,1,1,1,0,0
390,23257,10475,trol,19,1,1,1,1,1,0,0
401,23258,10475,trol,19,1,1,1,1,1,0,0
411,23259,10475,trol,19,1,1,1,1,1,0,0
419,23260,10475,trol,19,1,1,1,1,1,0,0
425,23261,10475,trol,19,1,1,1,1,1,0,0
433,23262,10475,trol,19,1,1,1,1,1,0,0
439,23263,10475,trol,19,1,1,1,1,1,0,0
444,23264,10475,trol,19,1,1,1,1,1,0,0
451,23265,10475,trol,19,1,1,1,1,1,0,0
458,23266,10475,trol,19,1,1,1,1,1,0,0
465,23267,10475,trol,19,1,1,1,1,1,0,0
473,23268,10475,trol,19,1,1,1,1,1,0,0
478,23269,10475,trol,19,1,1,1,1,1,0,0
486,23270,10475,trol,19,1,1,1,1,1,0,0
494,23271,10475,trol,19,1,1,1,1,1,0,0
503,23272,10475,trol,19,1,1,1,1,1,0,0
510,23273,10475,trol,19,1,1,1,1,1,0,0
518,23274,10475,trol,19,1,1,1,1,1,0,0
525,23275,10475,trol,19,1,1,1,1,1,0,0
532,23276,10475,trol,19,1,1,1,1,1,0,0
538,23277,10475,trol,19,1,1,1,1,1,0,0
546,23278,10475,trol,19,1,1,1,1,1,0,0
550,23279,10475,trol,19,1,1,1,1,1,0,0
557,23280,10475,trol,19,1,1,1,1,1,0,0
564,23281,10475,trol,19,1,1,1,1,1,0,0
572,23282,10475,trol,19,1,1,1,1,1,0,0
580,23283,10475,trol,19,1,1,1,1,1,0,0
590,23284,10475,trol,19,1,1,1,1,1,0,0
599,23285,10475,trol,19,1,1,1,1,1,0,0
605,23286,10475,trol,19,1,1,1,1,1,0,0
612,23287,10475,trol,19,1,1,1,1,1,0,0
623,23288,10475,trol,19,1,1,1,1,1,0,0
631,23289,10475,trol,19,1,1,1,1,1,0,0
639,23290,10475,trol,19,1,1,1,1,1,0,0
647,23291,10475,trol,19,1,1,1,1,1,0,0
656,23292,10475,trol,19,1,1,1,1,1,0,0
668,23293,10475,trol,19,1,1,1,1,1,0,0
683,23294,10475,trol,19,1,1,1,1,1,0,0
692,23295,10475,trol,19,1,1,1,1,1,0,0
704,23296,10475,trol,19,1,1,1,1,1,0,0
714,23297,10475,trol,19,1,1,1,1,1,0,0
723,23298,10475,trol,19,1,1,1,1,1,0,0
734,23299,10475,trol,19,1,1,1,1,1,0,0
746,23300,10475,trol,19,1,1,1,1,1,0,0
755,23301,10475,trol,19,1,1,1,1,1,0,0
768,23302,10475,trol,19,1,1,1,1,1,0,0
779,23303,10475,trol,19,1,1,1,1,1,0,0
787,23304,10475,trol,19,1,1,1,1,1,0,0
799,23305,10475,trol,19,1,1,1,1,1,0,0
810,23306,10475,trol,19,1,1,1,1,1,0,0
819,23307,10475,trol,19,1,1,1,1,1,0,0
828,23308,10475,trol,19,1,1,1,1,1,0,0
836,23309,10475,trol,19,1,1,1,1,1,0,0
849,23310,10475,trol,19,1,1,1,1,1,0,0
861,23311,10475,trol,19,1,1,1,1,1,0,0
872,23312,10475,trol,19,1,1,1,1,1,0,0
888,23313,10475,trol,19,1,1,1,1,1,0,0
897,23314,10475,trol,19,1,1,1,1,1,0,0
907,23315,10475,trol,19,1,1,1,1,1,0,0
918,23316,10475,trol,19,1,1,1,1,1,0,0
928,23317,10475,trol,19,1,1,1,1,1,0,0
937,23318,10475,trol,19,1,1,1,1,1,0,0
943,23319,10475,trol,19,1,1,1,1,1,0,0
953,23320,10475,trol,19,1,1,1,1,1,0,0
958,23321,10475,trol,19,1,1,1,1,1,0,0
966,23322,10475,trol,19,1,1,1,1,1,0,0
973,23323,10475,trol,19,1,1,1,1,1,0,0
980,23324,10475,trol,19,1,1,1,1,1,0,0
987,23325,10475,trol,19,1,1,1,1,1,0,0
993,23326,10475,trol,19,1,1,1,1,1,0,0
1001,23327,10475,trol,19,1,1,1,1,1,0,0
1008,23328,10475,trol,19,1,1,1,1,1,0,0
1015,23329,10475,trol,19,1,1,1,1,1,0,0
1020,23330,10475,trol,19,1,1,1,1,1,0,0
1027,23331,10475,trol,19,1,1,1,1,1,0,0
1034,23332,10475,trol,19,1,1,1,1,1,0,0
1041,23333,10475,trol,19,1,1,1,1,1,0,0
1048,23334,10475,trol,19,1,1,1,1,1,0,0
1056,23335,10475,trol,19,1,1,1,1,1,0,0
1064,23336,10475,trol,19,1,1,1,1,1,0,0
1070,23337,10475,trol,19,1,1,1,1,1,0,0
1078,23338,10475,trol,19,1,1,1,1,1,0,0
1085,23339,10475,trol,19,1,1,1,1,1,0,0
1092,23340,10475,trol,19,1,1,1,1,1,0,0
1101,23341,10475,trol,19,1,1,1,1,1,0,0
1107,23342,10475,trol,19,1,1,1,1,1,0,0
1115,23343,10475,trol,19,1,1,1,1,1,0,0
1124,23344,10475,trol,19,1,1,1,1,1,0,0
1129,23345,10475,trol,19,1,1,1,1,1,0,0
1136,23346,10475,trol,19,1,1,1,1,1,0,0
1145,23347,10475,trol,19,1,1,1,1,1,0,0
1156,23348,10475,trol,19,1,1,1,1,1,0,0
1166,23349,10475,trol,19,1,1,1,1,1,0,0
1173,23350,10475,trol,19,1,1,1,1,1,0,0
1186,23351,10475,trol,19,1,1,1,1,1,0,0
1198,23352,10475,trol,19,1,1,1,1,1,0,0
1207,23353,10475,trol,19,1,1,1,1,1,0,0
1222,23354,10475,trol,19,1,1,1,1,1,0,0
1232,23355,10475,trol,19,1,1,1,1,1,0,0
1244,23356,10475,trol,19,1,1,1,1,1,0,0
1253,23357,10475,trol,19,1,1,1,1,1,0,0
1265,23358,10475,trol,19,1,1,1,1,1,0,0
1277,23359,10475,trol,19,1,1,1,1,1,0,0
1290,23360,10475,trol,19,1,1,1,1,1,0,0
1299,23361,10475,trol,19,1,1,1,1,1,0,0
1308,23362,10475,trol,19,1,1,1,1,1,0,0
1317,23363,10475,trol,19,1,1,1,1,1,0,0
1327,23364,10475,trol,19,1,1,1,1,1,0,0
1340,23365,10475,trol,19,1,1,1,1,1,0,0
1352,23366,10475,trol,19,1,1,1,1,1,0,0
1362,23367,10475,trol,19,1,1,1,1,1,0,0
1382,23368,10475,trol,19,1,1,1,1,1,0,0
1406,23369,10475,trol,19,1,1,1,1,1,0,0
1416,23370,10475,trol,19,1,1,1,1,1,0,0
362,23371,10476,trol,19,0,0,0,0,0,1,0
388,23372,10476,trol,19,0,0,0,0,0,1,0
404,23373,10476,trol,19,0,0,0,0,0,1,0
416,23374,10476,trol,19,0,0,0,0,0,1,0
429,23375,10476,trol,19,0,0,0,0,0,1,0
439,23376,10476,trol,19,0,0,0,0,0,1,0
449,23377,10476,trol,19,0,0,0,0,0,1,0
463,23378,10476,trol,19,0,0,0,0,0,1,0
475,23379,10476,trol,19,0,0,0,0,0,1,0
484,23380,10476,trol,19,0,0,0,0,0,1,0
494,23381,10476,trol,19,0,0,0,0,0,1,0
506,23382,10476,trol,19,0,0,0,0,0,1,0
520,23383,10476,trol,19,0,0,0,0,0,1,0
533,23384,10476,trol,19,0,0,0,0,0,1,0
543,23385,10476,trol,19,0,0,0,0,0,1,0
555,23386,10476,trol,19,0,0,0,0,0,1,0
568,23387,10476,trol,19,0,0,0,0,0,1,0
583,23388,10476,trol,19,0,0,0,0,0,1,0
597,23389,10476,trol,19,0,0,0,0,0,1,0
610,23390,10476,trol,19,0,0,0,0,0,1,0
625,23391,10476,trol,19,0,0,0,0,0,1,0
642,23392,10476,trol,19,0,0,0,0,0,1,0
658,23393,10476,trol,19,0,0,0,0,0,1,0
675,23394,10476,trol,19,0,0,0,0,0,1,0
689,23395,10476,trol,19,0,0,0,0,0,1,0
703,23396,10476,trol,19,0,0,0,0,0,1,0
717,23397,10476,trol,19,0,0,0,0,0,1,0
726,23398,10476,trol,19,0,0,0,0,0,1,0
737,23399,10476,trol,19,0,0,0,0,0,1,0
749,23400,10476,trol,19,0,0,0,0,0,1,0
763,23401,10476,trol,19,0,0,0,0,0,1,0
774,23402,10476,trol,19,0,0,0,0,0,1,0
791,23403,10476,trol,19,0,0,0,0,0,1,0
800,23404,10476,trol,19,0,0,0,0,0,1,0
812,23405,10476,trol,19,0,0,0,0,0,1,0
824,23406,10476,trol,19,0,0,0,0,0,1,0
836,23407,10476,trol,19,0,0,0,0,0,1,0
846,23408,10476,trol,19,0,0,0,0,0,1,0
858,23409,10476,trol,19,0,0,0,0,0,1,0
869,23410,10476,trol,19,0,0,0,0,0,1,0
882,23411,10476,trol,19,0,0,0,0,0,1,0
899,23412,10476,trol,19,0,0,0,0,0,1,0
910,23413,10476,trol,19,0,0,0,0,0,1,0
923,23414,10476,trol,19,0,0,0,0,0,1,0
935,23415,10476,trol,19,0,0,0,0,0,1,0
946,23416,10476,trol,19,0,0,0,0,0,1,0
955,23417,10476,trol,19,0,0,0,0,0,1,0
970,23418,10476,trol,19,0,0,0,0,0,1,0
982,23419,10476,trol,19,0,0,0,0,0,1,0
996,23420,10476,trol,19,0,0,0,0,0,1,0
1010,23421,10476,trol,19,0,0,0,0,0,1,0
1023,23422,10476,trol,19,0,0,0,0,0,1,0
1032,23423,10476,trol,19,0,0,0,0,0,1,0
1042,23424,10476,trol,19,0,0,0,0,0,1,0
1052,23425,10476,trol,19,0,0,0,0,0,1,0
1065,23426,10476,trol,19,0,0,0,0,0,1,0
1078,23427,10476,trol,19,0,0,0,0,0,1,0
1087,23428,10476,trol,19,0,0,0,0,0,1,0
1103,23429,10476,trol,19,0,0,0,0,0,1,0
1116,23430,10476,trol,19,0,0,0,0,0,1,0
1130,23431,10476,trol,19,0,0,0,0,0,1,0
1144,23432,10476,trol,19,0,0,0,0,0,1,0
1160,23433,10476,trol,19,0,0,0,0,0,1,0
1177,23434,10476,trol,19,0,0,0,0,0,1,0
1187,23435,10476,trol,19,0,0,0,0,0,1,0
1207,23436,10476,trol,19,0,0,0,0,0,1,0
1224,23437,10476,trol,19,0,0,0,0,0,1,0
1238,23438,10476,trol,19,0,0,0,0,0,1,0
1251,23439,10476,trol,19,0,0,0,0,0,1,0
1265,23440,10476,trol,19,0,0,0,0,0,1,0
1276,23441,10476,trol,19,0,0,0,0,0,1,0
1290,23442,10476,trol,19,0,0,0,0,0,1,0
1300,23443,10476,trol,19,0,0,0,0,0,1,0
1314,23444,10476,trol,19,0,0,0,0,0,1,0
1326,23445,10476,trol,19,0,0,0,0,0,1,0
1339,23446,10476,trol,19,0,0,0,0,0,1,0
1351,23447,10476,trol,19,0,0,0,0,0,1,0
1372,23448,10476,trol,19,0,0,0,0,0,1,0
1402,23449,10476,trol,19,0,0,0,0,0,1,0
388,23450,10477,trol,19,0,0,0,0,0,0,1
404,23451,10477,trol,19,0,0,0,0,0,0,1
416,23452,10477,trol,19,0,0,0,0,0,0,1
429,23453,10477,trol,19,0,0,0,0,0,0,1
439,23454,10477,trol,19,0,0,0,0,0,0,1
449,23455,10477,trol,19,0,0,0,0,0,0,1
463,23456,10477,trol,19,0,0,0,0,0,0,1
475,23457,10477,trol,19,0,0,0,0,0,0,1
484,23458,10477,trol,19,0,0,0,0,0,0,1
494,23459,10477,trol,19,0,0,0,0,0,0,1
506,23460,10477,trol,19,0,0,0,0,0,0,1
520,23461,10477,trol,19,0,0,0,0,0,0,1
533,23462,10477,trol,19,0,0,0,0,0,0,1
543,23463,10477,trol,19,0,0,0,0,0,0,1
555,23464,10477,trol,19,0,0,0,0,0,0,1
568,23465,10477,trol,19,0,0,0,0,0,0,1
583,23466,10477,trol,19,0,0,0,0,0,0,1
597,23467,10477,trol,19,0,0,0,0,0,0,1
610,23468,10477,trol,19,0,0,0,0,0,0,1
625,23469,10477,trol,19,0,0,0,0,0,0,1
642,23470,10477,trol,19,0,0,0,0,0,0,1
658,23471,10477,trol,19,0,0,0,0,0,0,1
675,23472,10477,trol,19,0,0,0,0,0,0,1
689,23473,10477,trol,19,0,0,0,0,0,0,1
703,23474,10477,trol,19,0,0,0,0,0,0,1
717,23475,10477,trol,19,0,0,0,0,0,0,1
726,23476,10477,trol,19,0,0,0,0,0,0,1
737,23477,10477,trol,19,0,0,0,0,0,0,1
749,23478,10477,trol,19,0,0,0,0,0,0,1
763,23479,10477,trol,19,0,0,0,0,0,0,1
774,23480,10477,trol,19,0,0,0,0,0,0,1
791,23481,10477,trol,19,0,0,0,0,0,0,1
800,23482,10477,trol,19,0,0,0,0,0,0,1
812,23483,10477,trol,19,0,0,0,0,0,0,1
824,23484,10477,trol,19,0,0,0,0,0,0,1
836,23485,10477,trol,19,0,0,0,0,0,0,1
846,23486,10477,trol,19,0,0,0,0,0,0,1
858,23487,10477,trol,19,0,0,0,0,0,0,1
869,23488,10477,trol,19,0,0,0,0,0,0,1
882,23489,10477,trol,19,0,0,0,0,0,0,1
899,23490,10477,trol,19,0,0,0,0,0,0,1
910,23491,10477,trol,19,0,0,0,0,0,0,1
923,23492,10477,trol,19,0,0,0,0,0,0,1
935,23493,10477,trol,19,0,0,0,0,0,0,1
946,23494,10477,trol,19,0,0,0,0,0,0,1
955,23495,10477,trol,19,0,0,0,0,0,0,1
970,23496,10477,trol,19,0,0,0,0,0,0,1
982,23497,10477,trol,19,0,0,0,0,0,0,1
996,23498,10477,trol,19,0,0,0,0,0,0,1
1010,23499,10477,trol,19,0,0,0,0,0,0,1
1023,23500,10477,trol,19,0,0,0,0,0,0,1
1032,23501,10477,trol,19,0,0,0,0,0,0,1
1042,23502,10477,trol,19,0,0,0,0,0,0,1
1052,23503,10477,trol,19,0,0,0,0,0,0,1
1065,23504,10477,trol,19,0,0,0,0,0,0,1
1078,23505,10477,trol,19,0,0,0,0,0,0,1
1087,23506,10477,trol,19,0,0,0,0,0,0,1
1103,23507,10477,trol,19,0,0,0,0,0,0,1
1116,23508,10477,trol,19,0,0,0,0,0,0,1
1130,23509,10477,trol,19,0,0,0,0,0,0,1
1144,23510,10477,trol,19,0,0,0,0,0,0,1
1160,23511,10477,trol,19,0,0,0,0,0,0,1
1177,23512,10477,trol,19,0,0,0,0,0,0,1
1187,23513,10477,trol,19,0,0,0,0,0,0,1
1207,23514,10477,trol,19,0,0,0,0,0,0,1
1224,23515,10477,trol,19,0,0,0,0,0,0,1
1238,23516,10477,trol,19,0,0,0,0,0,0,1
1251,23517,10477,trol,19,0,0,0,0,0,0,1
1265,23518,10477,trol,19,0,0,0,0,0,0,1
1276,23519,10477,trol,19,0,0,0,0,0,0,1
1290,23520,10477,trol,19,0,0,0,0,0,0,1
1300,23521,10477,trol,19,0,0,0,0,0,0,1
1314,23522,10477,trol,19,0,0,0,0,0,0,1
1326,23523,10477,trol,19,0,0,0,0,0,0,1
1339,23524,10477,trol,19,0,0,0,0,0,0,1
1351,23525,10477,trol,19,0,0,0,0,0,0,1
1372,23526,10477,trol,19,0,0,0,0,0,0,1
1402,23527,10477,trol,19,0,0,0,0,0,0,1
1437,23562,10475,trol,19,1,1,1,1,1,0,0
1438,23563,10476,trol,19,0,0,0,0,0,1,0
1438,23564,10477,trol,19,0,0,0,0,0,0,1
376,23565,10477,trol,19,0,0,0,0,0,0,1
