timeInMin,trip_id,service_id,tipas,numeris,pirmadienis,antradienis,treciadienis,ketvirtadienis,penktadienis,sestadienis,sekmadienis 
334,9728,8005,bus,37,1,1,1,1,1,0,0
392,9729,8005,bus,37,1,1,1,1,1,0,0
455,9730,8005,bus,37,1,1,1,1,1,0,0
514,9731,8005,bus,37,1,1,1,1,1,0,0
606,9732,8005,bus,37,1,1,1,1,1,0,0
664,9733,8005,bus,37,1,1,1,1,1,0,0
721,9734,8005,bus,37,1,1,1,1,1,0,0
777,9735,8005,bus,37,1,1,1,1,1,0,0
835,9736,8005,bus,37,1,1,1,1,1,0,0
893,9737,8005,bus,37,1,1,1,1,1,0,0
950,9738,8005,bus,37,1,1,1,1,1,0,0
1007,9739,8005,bus,37,1,1,1,1,1,0,0
1067,9740,8005,bus,37,1,1,1,1,1,0,0
1127,9741,8005,bus,37,1,1,1,1,1,0,0
1225,9742,8005,bus,37,1,1,1,1,1,0,0
1284,9743,8005,bus,37,1,1,1,1,1,0,0
334,9744,10005,bus,37,0,0,0,0,0,1,0
392,9745,10005,bus,37,0,0,0,0,0,1,0
449,9746,10005,bus,37,0,0,0,0,0,1,0
507,9747,10005,bus,37,0,0,0,0,0,1,0
606,9748,10005,bus,37,0,0,0,0,0,1,0
664,9749,10005,bus,37,0,0,0,0,0,1,0
721,9750,10005,bus,37,0,0,0,0,0,1,0
777,9751,10005,bus,37,0,0,0,0,0,1,0
835,9752,10005,bus,37,0,0,0,0,0,1,0
893,9753,10005,bus,37,0,0,0,0,0,1,0
950,9754,10005,bus,37,0,0,0,0,0,1,0
1007,9755,10005,bus,37,0,0,0,0,0,1,0
1067,9756,10005,bus,37,0,0,0,0,0,1,0
1127,9757,10005,bus,37,0,0,0,0,0,1,0
1225,9758,10005,bus,37,0,0,0,0,0,1,0
1284,9759,10005,bus,37,0,0,0,0,0,1,0
392,9760,10006,bus,37,0,0,0,0,0,0,1
449,9761,10006,bus,37,0,0,0,0,0,0,1
507,9762,10006,bus,37,0,0,0,0,0,0,1
606,9763,10006,bus,37,0,0,0,0,0,0,1
664,9764,10006,bus,37,0,0,0,0,0,0,1
721,9765,10006,bus,37,0,0,0,0,0,0,1
777,9766,10006,bus,37,0,0,0,0,0,0,1
835,9767,10006,bus,37,0,0,0,0,0,0,1
893,9768,10006,bus,37,0,0,0,0,0,0,1
950,9769,10006,bus,37,0,0,0,0,0,0,1
1007,9770,10006,bus,37,0,0,0,0,0,0,1
1067,9771,10006,bus,37,0,0,0,0,0,0,1
1127,9772,10006,bus,37,0,0,0,0,0,0,1
1225,9773,10006,bus,37,0,0,0,0,0,0,1
1284,9774,10006,bus,37,0,0,0,0,0,0,1
1344,9775,8005,bus,37,1,1,1,1,1,0,0
1344,9776,10005,bus,37,0,0,0,0,0,1,0
1344,9777,10006,bus,37,0,0,0,0,0,0,1
