timeInMin,trip_id,service_id,tipas,numeris,pirmadienis,antradienis,treciadienis,ketvirtadienis,penktadienis,sestadienis,sekmadienis 
391,8998,10369,bus,33,0,0,0,0,0,0,1
469,8999,10369,bus,33,0,0,0,0,0,0,1
524,9000,10369,bus,33,0,0,0,0,0,0,1
572,9001,10369,bus,33,0,0,0,0,0,0,1
602,9002,10369,bus,33,0,0,0,0,0,0,1
675,9003,10369,bus,33,0,0,0,0,0,0,1
705,9004,10369,bus,33,0,0,0,0,0,0,1
753,9005,10369,bus,33,0,0,0,0,0,0,1
808,9006,10369,bus,33,0,0,0,0,0,0,1
838,9007,10369,bus,33,0,0,0,0,0,0,1
886,9008,10369,bus,33,0,0,0,0,0,0,1
921,9009,10369,bus,33,0,0,0,0,0,0,1
964,9010,10369,bus,33,0,0,0,0,0,0,1
999,9011,10369,bus,33,0,0,0,0,0,0,1
1042,9012,10369,bus,33,0,0,0,0,0,0,1
1102,9013,10369,bus,33,0,0,0,0,0,0,1
1205,9014,10369,bus,33,0,0,0,0,0,0,1
1294,9015,10369,bus,33,0,0,0,0,0,0,1
1380,9016,10369,bus,33,0,0,0,0,0,0,1
333,9017,10367,bus,33,1,1,1,1,1,0,0
361,9018,10367,bus,33,1,1,1,1,1,0,0
393,9019,10367,bus,33,1,1,1,1,1,0,0
425,9020,10367,bus,33,1,1,1,1,1,0,0
450,9021,10367,bus,33,1,1,1,1,1,0,0
478,9022,10367,bus,33,1,1,1,1,1,0,0
512,9023,10367,bus,33,1,1,1,1,1,0,0
552,9024,10367,bus,33,1,1,1,1,1,0,0
592,9025,10367,bus,33,1,1,1,1,1,0,0
629,9026,10367,bus,33,1,1,1,1,1,0,0
673,9027,10367,bus,33,1,1,1,1,1,0,0
712,9028,10367,bus,33,1,1,1,1,1,0,0
754,9029,10367,bus,33,1,1,1,1,1,0,0
795,9030,10367,bus,33,1,1,1,1,1,0,0
837,9031,10367,bus,33,1,1,1,1,1,0,0
880,9032,10367,bus,33,1,1,1,1,1,0,0
923,9033,10367,bus,33,1,1,1,1,1,0,0
961,9034,10367,bus,33,1,1,1,1,1,0,0
1006,9035,10367,bus,33,1,1,1,1,1,0,0
1032,9036,10367,bus,33,1,1,1,1,1,0,0
1058,9037,10367,bus,33,1,1,1,1,1,0,0
1092,9038,10367,bus,33,1,1,1,1,1,0,0
1122,9039,10367,bus,33,1,1,1,1,1,0,0
1168,9040,10367,bus,33,1,1,1,1,1,0,0
1209,9041,10367,bus,33,1,1,1,1,1,0,0
1257,9042,10367,bus,33,1,1,1,1,1,0,0
1315,9043,10367,bus,33,1,1,1,1,1,0,0
1349,9044,10367,bus,33,1,1,1,1,1,0,0
1396,9045,10367,bus,33,1,1,1,1,1,0,0
391,9046,10368,bus,33,0,0,0,0,0,1,0
469,9047,10368,bus,33,0,0,0,0,0,1,0
524,9048,10368,bus,33,0,0,0,0,0,1,0
572,9049,10368,bus,33,0,0,0,0,0,1,0
602,9050,10368,bus,33,0,0,0,0,0,1,0
675,9051,10368,bus,33,0,0,0,0,0,1,0
705,9052,10368,bus,33,0,0,0,0,0,1,0
753,9053,10368,bus,33,0,0,0,0,0,1,0
808,9054,10368,bus,33,0,0,0,0,0,1,0
838,9055,10368,bus,33,0,0,0,0,0,1,0
886,9056,10368,bus,33,0,0,0,0,0,1,0
921,9057,10368,bus,33,0,0,0,0,0,1,0
964,9058,10368,bus,33,0,0,0,0,0,1,0
999,9059,10368,bus,33,0,0,0,0,0,1,0
1042,9060,10368,bus,33,0,0,0,0,0,1,0
1102,9061,10368,bus,33,0,0,0,0,0,1,0
1205,9062,10368,bus,33,0,0,0,0,0,1,0
1294,9063,10368,bus,33,0,0,0,0,0,1,0
1380,9064,10368,bus,33,0,0,0,0,0,1,0
317,9146,10367,bus,33,1,1,1,1,1,0,0
317,9147,10368,bus,33,0,0,0,0,0,1,0
353,13471,9756,bus,58,1,1,1,1,1,0,0
383,13472,9756,bus,58,1,1,1,1,1,0,0
413,13473,9756,bus,58,1,1,1,1,1,0,0
444,13474,9756,bus,58,1,1,1,1,1,0,0
479,13475,9756,bus,58,1,1,1,1,1,0,0
511,13476,9756,bus,58,1,1,1,1,1,0,0
546,13477,9756,bus,58,1,1,1,1,1,0,0
600,13478,9756,bus,58,1,1,1,1,1,0,0
659,13479,9756,bus,58,1,1,1,1,1,0,0
718,13480,9756,bus,58,1,1,1,1,1,0,0
780,13481,9756,bus,58,1,1,1,1,1,0,0
839,13482,9756,bus,58,1,1,1,1,1,0,0
903,13483,9756,bus,58,1,1,1,1,1,0,0
933,13484,9756,bus,58,1,1,1,1,1,0,0
962,13485,9756,bus,58,1,1,1,1,1,0,0
994,13486,9756,bus,58,1,1,1,1,1,0,0
1026,13487,9756,bus,58,1,1,1,1,1,0,0
1067,13488,9756,bus,58,1,1,1,1,1,0,0
1115,13489,9756,bus,58,1,1,1,1,1,0,0
1174,13490,9756,bus,58,1,1,1,1,1,0,0
1233,13491,9756,bus,58,1,1,1,1,1,0,0
1292,13492,9756,bus,58,1,1,1,1,1,0,0
1352,13493,9756,bus,58,1,1,1,1,1,0,0
329,13494,9136,bus,58,0,0,0,0,0,1,0
386,13495,9136,bus,58,0,0,0,0,0,1,0
443,13496,9136,bus,58,0,0,0,0,0,1,0
500,13497,9136,bus,58,0,0,0,0,0,1,0
600,13498,9136,bus,58,0,0,0,0,0,1,0
657,13499,9136,bus,58,0,0,0,0,0,1,0
714,13500,9136,bus,58,0,0,0,0,0,1,0
771,13501,9136,bus,58,0,0,0,0,0,1,0
833,13502,9136,bus,58,0,0,0,0,0,1,0
890,13503,9136,bus,58,0,0,0,0,0,1,0
947,13504,9136,bus,58,0,0,0,0,0,1,0
1004,13505,9136,bus,58,0,0,0,0,0,1,0
1061,13506,9136,bus,58,0,0,0,0,0,1,0
1161,13507,9136,bus,58,0,0,0,0,0,1,0
1218,13508,9136,bus,58,0,0,0,0,0,1,0
1275,13509,9136,bus,58,0,0,0,0,0,1,0
1332,13510,9136,bus,58,0,0,0,0,0,1,0
386,13511,9137,bus,58,0,0,0,0,0,0,1
443,13512,9137,bus,58,0,0,0,0,0,0,1
500,13513,9137,bus,58,0,0,0,0,0,0,1
600,13514,9137,bus,58,0,0,0,0,0,0,1
657,13515,9137,bus,58,0,0,0,0,0,0,1
714,13516,9137,bus,58,0,0,0,0,0,0,1
771,13517,9137,bus,58,0,0,0,0,0,0,1
833,13518,9137,bus,58,0,0,0,0,0,0,1
890,13519,9137,bus,58,0,0,0,0,0,0,1
947,13520,9137,bus,58,0,0,0,0,0,0,1
1004,13521,9137,bus,58,0,0,0,0,0,0,1
1061,13522,9137,bus,58,0,0,0,0,0,0,1
1161,13523,9137,bus,58,0,0,0,0,0,0,1
1218,13524,9137,bus,58,0,0,0,0,0,0,1
1275,13525,9137,bus,58,0,0,0,0,0,0,1
1332,13526,9137,bus,58,0,0,0,0,0,0,1
328,13591,9756,bus,58,1,1,1,1,1,0,0
