timeInMin,trip_id,service_id,tipas,numeris,pirmadienis,antradienis,treciadienis,ketvirtadienis,penktadienis,sestadienis,sekmadienis 
402,9065,10369,bus,33,0,0,0,0,0,0,1
480,9066,10369,bus,33,0,0,0,0,0,0,1
535,9067,10369,bus,33,0,0,0,0,0,0,1
583,9068,10369,bus,33,0,0,0,0,0,0,1
613,9069,10369,bus,33,0,0,0,0,0,0,1
686,9070,10369,bus,33,0,0,0,0,0,0,1
716,9071,10369,bus,33,0,0,0,0,0,0,1
764,9072,10369,bus,33,0,0,0,0,0,0,1
819,9073,10369,bus,33,0,0,0,0,0,0,1
854,9074,10369,bus,33,0,0,0,0,0,0,1
897,9075,10369,bus,33,0,0,0,0,0,0,1
932,9076,10369,bus,33,0,0,0,0,0,0,1
975,9077,10369,bus,33,0,0,0,0,0,0,1
1010,9078,10369,bus,33,0,0,0,0,0,0,1
1053,9079,10369,bus,33,0,0,0,0,0,0,1
1113,9080,10369,bus,33,0,0,0,0,0,0,1
1216,9081,10369,bus,33,0,0,0,0,0,0,1
1305,9082,10369,bus,33,0,0,0,0,0,0,1
1391,9083,10369,bus,33,0,0,0,0,0,0,1
323,9084,10367,bus,33,1,1,1,1,1,0,0
350,9085,10367,bus,33,1,1,1,1,1,0,0
375,9086,10367,bus,33,1,1,1,1,1,0,0
404,9087,10367,bus,33,1,1,1,1,1,0,0
441,9088,10367,bus,33,1,1,1,1,1,0,0
475,9089,10367,bus,33,1,1,1,1,1,0,0
497,9090,10367,bus,33,1,1,1,1,1,0,0
529,9091,10367,bus,33,1,1,1,1,1,0,0
571,9092,10367,bus,33,1,1,1,1,1,0,0
603,9093,10367,bus,33,1,1,1,1,1,0,0
641,9094,10367,bus,33,1,1,1,1,1,0,0
684,9095,10367,bus,33,1,1,1,1,1,0,0
725,9096,10367,bus,33,1,1,1,1,1,0,0
766,9097,10367,bus,33,1,1,1,1,1,0,0
806,9098,10367,bus,33,1,1,1,1,1,0,0
853,9099,10367,bus,33,1,1,1,1,1,0,0
891,9100,10367,bus,33,1,1,1,1,1,0,0
934,9101,10367,bus,33,1,1,1,1,1,0,0
972,9102,10367,bus,33,1,1,1,1,1,0,0
1017,9103,10367,bus,33,1,1,1,1,1,0,0
1043,9104,10367,bus,33,1,1,1,1,1,0,0
1071,9105,10367,bus,33,1,1,1,1,1,0,0
1104,9106,10367,bus,33,1,1,1,1,1,0,0
1133,9107,10367,bus,33,1,1,1,1,1,0,0
1179,9108,10367,bus,33,1,1,1,1,1,0,0
1220,9109,10367,bus,33,1,1,1,1,1,0,0
1268,9110,10367,bus,33,1,1,1,1,1,0,0
1326,9111,10367,bus,33,1,1,1,1,1,0,0
1362,9112,10367,bus,33,1,1,1,1,1,0,0
1407,9113,10367,bus,33,1,1,1,1,1,0,0
324,9114,10368,bus,33,0,0,0,0,0,1,0
402,9115,10368,bus,33,0,0,0,0,0,1,0
480,9116,10368,bus,33,0,0,0,0,0,1,0
535,9117,10368,bus,33,0,0,0,0,0,1,0
583,9118,10368,bus,33,0,0,0,0,0,1,0
613,9119,10368,bus,33,0,0,0,0,0,1,0
686,9120,10368,bus,33,0,0,0,0,0,1,0
716,9121,10368,bus,33,0,0,0,0,0,1,0
764,9122,10368,bus,33,0,0,0,0,0,1,0
819,9123,10368,bus,33,0,0,0,0,0,1,0
854,9124,10368,bus,33,0,0,0,0,0,1,0
897,9125,10368,bus,33,0,0,0,0,0,1,0
932,9126,10368,bus,33,0,0,0,0,0,1,0
975,9127,10368,bus,33,0,0,0,0,0,1,0
1010,9128,10368,bus,33,0,0,0,0,0,1,0
1053,9129,10368,bus,33,0,0,0,0,0,1,0
1113,9130,10368,bus,33,0,0,0,0,0,1,0
1216,9131,10368,bus,33,0,0,0,0,0,1,0
1305,9132,10368,bus,33,0,0,0,0,0,1,0
1391,9133,10368,bus,33,0,0,0,0,0,1,0
335,13527,9756,bus,58,1,1,1,1,1,0,0
364,13528,9756,bus,58,1,1,1,1,1,0,0
394,13529,9756,bus,58,1,1,1,1,1,0,0
424,13530,9756,bus,58,1,1,1,1,1,0,0
455,13531,9756,bus,58,1,1,1,1,1,0,0
490,13532,9756,bus,58,1,1,1,1,1,0,0
522,13533,9756,bus,58,1,1,1,1,1,0,0
557,13534,9756,bus,58,1,1,1,1,1,0,0
611,13535,9756,bus,58,1,1,1,1,1,0,0
670,13536,9756,bus,58,1,1,1,1,1,0,0
729,13537,9756,bus,58,1,1,1,1,1,0,0
791,13538,9756,bus,58,1,1,1,1,1,0,0
855,13539,9756,bus,58,1,1,1,1,1,0,0
914,13540,9756,bus,58,1,1,1,1,1,0,0
944,13541,9756,bus,58,1,1,1,1,1,0,0
973,13542,9756,bus,58,1,1,1,1,1,0,0
1005,13543,9756,bus,58,1,1,1,1,1,0,0
1037,13544,9756,bus,58,1,1,1,1,1,0,0
1078,13545,9756,bus,58,1,1,1,1,1,0,0
1126,13546,9756,bus,58,1,1,1,1,1,0,0
1185,13547,9756,bus,58,1,1,1,1,1,0,0
1244,13548,9756,bus,58,1,1,1,1,1,0,0
1304,13549,9756,bus,58,1,1,1,1,1,0,0
1363,13550,9756,bus,58,1,1,1,1,1,0,0
339,13551,9136,bus,58,0,0,0,0,0,1,0
396,13552,9136,bus,58,0,0,0,0,0,1,0
453,13553,9136,bus,58,0,0,0,0,0,1,0
510,13554,9136,bus,58,0,0,0,0,0,1,0
610,13555,9136,bus,58,0,0,0,0,0,1,0
667,13556,9136,bus,58,0,0,0,0,0,1,0
724,13557,9136,bus,58,0,0,0,0,0,1,0
781,13558,9136,bus,58,0,0,0,0,0,1,0
843,13559,9136,bus,58,0,0,0,0,0,1,0
900,13560,9136,bus,58,0,0,0,0,0,1,0
957,13561,9136,bus,58,0,0,0,0,0,1,0
1014,13562,9136,bus,58,0,0,0,0,0,1,0
1071,13563,9136,bus,58,0,0,0,0,0,1,0
1171,13564,9136,bus,58,0,0,0,0,0,1,0
1228,13565,9136,bus,58,0,0,0,0,0,1,0
1285,13566,9136,bus,58,0,0,0,0,0,1,0
1342,13567,9136,bus,58,0,0,0,0,0,1,0
396,13568,9137,bus,58,0,0,0,0,0,0,1
453,13569,9137,bus,58,0,0,0,0,0,0,1
510,13570,9137,bus,58,0,0,0,0,0,0,1
610,13571,9137,bus,58,0,0,0,0,0,0,1
667,13572,9137,bus,58,0,0,0,0,0,0,1
724,13573,9137,bus,58,0,0,0,0,0,0,1
781,13574,9137,bus,58,0,0,0,0,0,0,1
843,13575,9137,bus,58,0,0,0,0,0,0,1
900,13576,9137,bus,58,0,0,0,0,0,0,1
957,13577,9137,bus,58,0,0,0,0,0,0,1
1014,13578,9137,bus,58,0,0,0,0,0,0,1
1071,13579,9137,bus,58,0,0,0,0,0,0,1
1171,13580,9137,bus,58,0,0,0,0,0,0,1
1228,13581,9137,bus,58,0,0,0,0,0,0,1
1285,13582,9137,bus,58,0,0,0,0,0,0,1
1342,13583,9137,bus,58,0,0,0,0,0,0,1
