timeInMin,trip_id,service_id,tipas,numeris,pirmadienis,antradienis,treciadienis,ketvirtadienis,penktadienis,sestadienis,sekmadienis 
409,11623,10387,bus,49,1,1,1,1,1,0,0
431,11624,10387,bus,49,1,1,1,1,1,0,0
452,11625,10387,bus,49,1,1,1,1,1,0,0
475,11626,10387,bus,49,1,1,1,1,1,0,0
496,11627,10387,bus,49,1,1,1,1,1,0,0
518,11628,10387,bus,49,1,1,1,1,1,0,0
542,11629,10387,bus,49,1,1,1,1,1,0,0
575,11630,10387,bus,49,1,1,1,1,1,0,0
598,11631,10387,bus,49,1,1,1,1,1,0,0
631,11632,10387,bus,49,1,1,1,1,1,0,0
680,11633,10387,bus,49,1,1,1,1,1,0,0
713,11634,10387,bus,49,1,1,1,1,1,0,0
739,11635,10387,bus,49,1,1,1,1,1,0,0
772,11636,10387,bus,49,1,1,1,1,1,0,0
797,11637,10387,bus,49,1,1,1,1,1,0,0
830,11638,10387,bus,49,1,1,1,1,1,0,0
860,11639,10387,bus,49,1,1,1,1,1,0,0
887,11640,10387,bus,49,1,1,1,1,1,0,0
916,11641,10387,bus,49,1,1,1,1,1,0,0
940,11642,10387,bus,49,1,1,1,1,1,0,0
956,11643,10387,bus,49,1,1,1,1,1,0,0
979,11644,10387,bus,49,1,1,1,1,1,0,0
1004,11645,10387,bus,49,1,1,1,1,1,0,0
1020,11646,10387,bus,49,1,1,1,1,1,0,0
1044,11647,10387,bus,49,1,1,1,1,1,0,0
1075,11648,10387,bus,49,1,1,1,1,1,0,0
1108,11649,10387,bus,49,1,1,1,1,1,0,0
1130,11650,10387,bus,49,1,1,1,1,1,0,0
1144,11651,10387,bus,49,1,1,1,1,1,0,0
1170,11652,10387,bus,49,1,1,1,1,1,0,0
1191,11653,10387,bus,49,1,1,1,1,1,0,0
1221,11654,10387,bus,49,1,1,1,1,1,0,0
1260,11655,10387,bus,49,1,1,1,1,1,0,0
1277,11656,10387,bus,49,1,1,1,1,1,0,0
1301,11657,10387,bus,49,1,1,1,1,1,0,0
1334,11658,10387,bus,49,1,1,1,1,1,0,0
1368,11659,10387,bus,49,1,1,1,1,1,0,0
1392,11660,10387,bus,49,1,1,1,1,1,0,0
381,11661,9637,bus,49,0,0,0,0,0,1,0
436,11662,9637,bus,49,0,0,0,0,0,1,0
488,11663,9637,bus,49,0,0,0,0,0,1,0
551,11664,9637,bus,49,0,0,0,0,0,1,0
589,11665,9637,bus,49,0,0,0,0,0,1,0
624,11666,9637,bus,49,0,0,0,0,0,1,0
687,11667,9637,bus,49,0,0,0,0,0,1,0
711,11668,9637,bus,49,0,0,0,0,0,1,0
746,11669,9637,bus,49,0,0,0,0,0,1,0
795,11670,9637,bus,49,0,0,0,0,0,1,0
843,11671,9637,bus,49,0,0,0,0,0,1,0
869,11672,9637,bus,49,0,0,0,0,0,1,0
914,11673,9637,bus,49,0,0,0,0,0,1,0
951,11674,9637,bus,49,0,0,0,0,0,1,0
983,11675,9637,bus,49,0,0,0,0,0,1,0
1025,11676,9637,bus,49,0,0,0,0,0,1,0
1097,11677,9637,bus,49,0,0,0,0,0,1,0
1162,11678,9637,bus,49,0,0,0,0,0,1,0
1229,11679,9637,bus,49,0,0,0,0,0,1,0
1268,11680,9637,bus,49,0,0,0,0,0,1,0
1330,11681,9637,bus,49,0,0,0,0,0,1,0
1375,11682,9637,bus,49,0,0,0,0,0,1,0
436,11683,9638,bus,49,0,0,0,0,0,0,1
488,11684,9638,bus,49,0,0,0,0,0,0,1
551,11685,9638,bus,49,0,0,0,0,0,0,1
589,11686,9638,bus,49,0,0,0,0,0,0,1
624,11687,9638,bus,49,0,0,0,0,0,0,1
687,11688,9638,bus,49,0,0,0,0,0,0,1
711,11689,9638,bus,49,0,0,0,0,0,0,1
746,11690,9638,bus,49,0,0,0,0,0,0,1
795,11691,9638,bus,49,0,0,0,0,0,0,1
843,11692,9638,bus,49,0,0,0,0,0,0,1
869,11693,9638,bus,49,0,0,0,0,0,0,1
914,11694,9638,bus,49,0,0,0,0,0,0,1
951,11695,9638,bus,49,0,0,0,0,0,0,1
983,11696,9638,bus,49,0,0,0,0,0,0,1
1025,11697,9638,bus,49,0,0,0,0,0,0,1
1097,11698,9638,bus,49,0,0,0,0,0,0,1
1162,11699,9638,bus,49,0,0,0,0,0,0,1
1229,11700,9638,bus,49,0,0,0,0,0,0,1
1268,11701,9638,bus,49,0,0,0,0,0,0,1
1330,11702,9638,bus,49,0,0,0,0,0,0,1
1375,11703,9638,bus,49,0,0,0,0,0,0,1
326,11808,10387,bus,49,1,1,1,1,1,0,0
344,11809,10387,bus,49,1,1,1,1,1,0,0
362,11810,10387,bus,49,1,1,1,1,1,0,0
382,11811,10387,bus,49,1,1,1,1,1,0,0
399,11812,10387,bus,49,1,1,1,1,1,0,0
335,11813,9637,bus,49,0,0,0,0,0,1,0
375,11814,9638,bus,49,0,0,0,0,0,0,1
378,16248,10411,bus,116,1,1,1,1,1,0,0
414,16249,10411,bus,116,1,1,1,1,1,0,0
451,16250,10411,bus,116,1,1,1,1,1,0,0
486,16251,10411,bus,116,1,1,1,1,1,0,0
521,16252,10411,bus,116,1,1,1,1,1,0,0
589,16253,10411,bus,116,1,1,1,1,1,0,0
624,16254,10411,bus,116,1,1,1,1,1,0,0
662,16255,10411,bus,116,1,1,1,1,1,0,0
694,16256,10411,bus,116,1,1,1,1,1,0,0
732,16257,10411,bus,116,1,1,1,1,1,0,0
764,16258,10411,bus,116,1,1,1,1,1,0,0
802,16259,10411,bus,116,1,1,1,1,1,0,0
836,16260,10411,bus,116,1,1,1,1,1,0,0
872,16261,10411,bus,116,1,1,1,1,1,0,0
906,16262,10411,bus,116,1,1,1,1,1,0,0
942,16263,10411,bus,116,1,1,1,1,1,0,0
976,16264,10411,bus,116,1,1,1,1,1,0,0
1012,16265,10411,bus,116,1,1,1,1,1,0,0
1046,16266,10411,bus,116,1,1,1,1,1,0,0
1088,16267,10411,bus,116,1,1,1,1,1,0,0
1141,16268,10411,bus,116,1,1,1,1,1,0,0
1183,16269,10411,bus,116,1,1,1,1,1,0,0
1215,16270,10411,bus,116,1,1,1,1,1,0,0
1253,16271,10411,bus,116,1,1,1,1,1,0,0
1323,16272,10411,bus,116,1,1,1,1,1,0,0
421,16273,9366,bus,116,0,0,0,0,0,1,1
491,16274,9366,bus,116,0,0,0,0,0,1,1
586,16275,9366,bus,116,0,0,0,0,0,1,1
659,16276,9366,bus,116,0,0,0,0,0,1,1
729,16277,9366,bus,116,0,0,0,0,0,1,1
799,16278,9366,bus,116,0,0,0,0,0,1,1
869,16279,9366,bus,116,0,0,0,0,0,1,1
939,16280,9366,bus,116,0,0,0,0,0,1,1
1009,16281,9366,bus,116,0,0,0,0,0,1,1
1104,16282,9366,bus,116,0,0,0,0,0,1,1
1174,16283,9366,bus,116,0,0,0,0,0,1,1
1244,16284,9366,bus,116,0,0,0,0,0,1,1
1314,16285,9366,bus,116,0,0,0,0,0,1,1
