timeInMin,trip_id,service_id,tipas,numeris,pirmadienis,antradienis,treciadienis,ketvirtadienis,penktadienis,sestadienis,sekmadienis 
338,15246,10408,bus,78,1,1,1,1,1,0,0
356,15247,10408,bus,78,1,1,1,1,1,0,0
393,15248,10408,bus,78,1,1,1,1,1,0,0
424,15249,10408,bus,78,1,1,1,1,1,0,0
442,15250,10408,bus,78,1,1,1,1,1,0,0
478,15251,10408,bus,78,1,1,1,1,1,0,0
504,15252,10408,bus,78,1,1,1,1,1,0,0
531,15253,10408,bus,78,1,1,1,1,1,0,0
562,15254,10408,bus,78,1,1,1,1,1,0,0
614,15255,10408,bus,78,1,1,1,1,1,0,0
653,15256,10408,bus,78,1,1,1,1,1,0,0
693,15257,10408,bus,78,1,1,1,1,1,0,0
734,15258,10408,bus,78,1,1,1,1,1,0,0
771,15259,10408,bus,78,1,1,1,1,1,0,0
821,15260,10408,bus,78,1,1,1,1,1,0,0
856,15261,10408,bus,78,1,1,1,1,1,0,0
910,15262,10408,bus,78,1,1,1,1,1,0,0
947,15263,10408,bus,78,1,1,1,1,1,0,0
982,15264,10408,bus,78,1,1,1,1,1,0,0
1009,15265,10408,bus,78,1,1,1,1,1,0,0
1037,15266,10408,bus,78,1,1,1,1,1,0,0
1083,15267,10408,bus,78,1,1,1,1,1,0,0
1119,15268,10408,bus,78,1,1,1,1,1,0,0
1161,15269,10408,bus,78,1,1,1,1,1,0,0
1204,15270,10408,bus,78,1,1,1,1,1,0,0
1242,15271,10408,bus,78,1,1,1,1,1,0,0
1290,15272,10408,bus,78,1,1,1,1,1,0,0
1328,15273,10408,bus,78,1,1,1,1,1,0,0
1373,15274,10408,bus,78,1,1,1,1,1,0,0
341,15275,8037,bus,78,0,0,0,0,0,1,0
384,15276,8037,bus,78,0,0,0,0,0,1,0
424,15277,8037,bus,78,0,0,0,0,0,1,0
467,15278,8037,bus,78,0,0,0,0,0,1,0
508,15279,8037,bus,78,0,0,0,0,0,1,0
555,15280,8037,bus,78,0,0,0,0,0,1,0
624,15281,8037,bus,78,0,0,0,0,0,1,0
670,15282,8037,bus,78,0,0,0,0,0,1,0
707,15283,8037,bus,78,0,0,0,0,0,1,0
754,15284,8037,bus,78,0,0,0,0,0,1,0
796,15285,8037,bus,78,0,0,0,0,0,1,0
847,15286,8037,bus,78,0,0,0,0,0,1,0
884,15287,8037,bus,78,0,0,0,0,0,1,0
938,15288,8037,bus,78,0,0,0,0,0,1,0
976,15289,8037,bus,78,0,0,0,0,0,1,0
1021,15290,8037,bus,78,0,0,0,0,0,1,0
1089,15291,8037,bus,78,0,0,0,0,0,1,0
1133,15292,8037,bus,78,0,0,0,0,0,1,0
1172,15293,8037,bus,78,0,0,0,0,0,1,0
1216,15294,8037,bus,78,0,0,0,0,0,1,0
1258,15295,8037,bus,78,0,0,0,0,0,1,0
1298,15296,8037,bus,78,0,0,0,0,0,1,0
1342,15297,8037,bus,78,0,0,0,0,0,1,0
1379,15298,8037,bus,78,0,0,0,0,0,1,0
384,15299,8038,bus,78,0,0,0,0,0,0,1
424,15300,8038,bus,78,0,0,0,0,0,0,1
467,15301,8038,bus,78,0,0,0,0,0,0,1
508,15302,8038,bus,78,0,0,0,0,0,0,1
555,15303,8038,bus,78,0,0,0,0,0,0,1
624,15304,8038,bus,78,0,0,0,0,0,0,1
670,15305,8038,bus,78,0,0,0,0,0,0,1
707,15306,8038,bus,78,0,0,0,0,0,0,1
754,15307,8038,bus,78,0,0,0,0,0,0,1
796,15308,8038,bus,78,0,0,0,0,0,0,1
847,15309,8038,bus,78,0,0,0,0,0,0,1
884,15310,8038,bus,78,0,0,0,0,0,0,1
938,15311,8038,bus,78,0,0,0,0,0,0,1
976,15312,8038,bus,78,0,0,0,0,0,0,1
1021,15313,8038,bus,78,0,0,0,0,0,0,1
1089,15314,8038,bus,78,0,0,0,0,0,0,1
1133,15315,8038,bus,78,0,0,0,0,0,0,1
1172,15316,8038,bus,78,0,0,0,0,0,0,1
1216,15317,8038,bus,78,0,0,0,0,0,0,1
1258,15318,8038,bus,78,0,0,0,0,0,0,1
1298,15319,8038,bus,78,0,0,0,0,0,0,1
1342,15320,8038,bus,78,0,0,0,0,0,0,1
1379,15321,8038,bus,78,0,0,0,0,0,0,1
