timeInMin,trip_id,service_id,tipas,numeris,pirmadienis,antradienis,treciadienis,ketvirtadienis,penktadienis,sestadienis,sekmadienis 
367,15322,10408,bus,78,1,1,1,1,1,0,0
387,15323,10408,bus,78,1,1,1,1,1,0,0
424,15324,10408,bus,78,1,1,1,1,1,0,0
452,15325,10408,bus,78,1,1,1,1,1,0,0
470,15326,10408,bus,78,1,1,1,1,1,0,0
509,15327,10408,bus,78,1,1,1,1,1,0,0
536,15328,10408,bus,78,1,1,1,1,1,0,0
567,15329,10408,bus,78,1,1,1,1,1,0,0
600,15330,10408,bus,78,1,1,1,1,1,0,0
643,15331,10408,bus,78,1,1,1,1,1,0,0
683,15332,10408,bus,78,1,1,1,1,1,0,0
721,15333,10408,bus,78,1,1,1,1,1,0,0
765,15334,10408,bus,78,1,1,1,1,1,0,0
799,15335,10408,bus,78,1,1,1,1,1,0,0
853,15336,10408,bus,78,1,1,1,1,1,0,0
884,15337,10408,bus,78,1,1,1,1,1,0,0
942,15338,10408,bus,78,1,1,1,1,1,0,0
977,15339,10408,bus,78,1,1,1,1,1,0,0
1013,15340,10408,bus,78,1,1,1,1,1,0,0
1037,15341,10408,bus,78,1,1,1,1,1,0,0
1065,15342,10408,bus,78,1,1,1,1,1,0,0
1114,15343,10408,bus,78,1,1,1,1,1,0,0
1150,15344,10408,bus,78,1,1,1,1,1,0,0
1192,15345,10408,bus,78,1,1,1,1,1,0,0
1239,15346,10408,bus,78,1,1,1,1,1,0,0
1273,15347,10408,bus,78,1,1,1,1,1,0,0
1322,15348,10408,bus,78,1,1,1,1,1,0,0
1357,15349,10408,bus,78,1,1,1,1,1,0,0
1400,15350,10408,bus,78,1,1,1,1,1,0,0
372,15351,8037,bus,78,0,0,0,0,0,1,0
417,15352,8037,bus,78,0,0,0,0,0,1,0
457,15353,8037,bus,78,0,0,0,0,0,1,0
505,15354,8037,bus,78,0,0,0,0,0,1,0
541,15355,8037,bus,78,0,0,0,0,0,1,0
588,15356,8037,bus,78,0,0,0,0,0,1,0
657,15357,8037,bus,78,0,0,0,0,0,1,0
703,15358,8037,bus,78,0,0,0,0,0,1,0
746,15359,8037,bus,78,0,0,0,0,0,1,0
792,15360,8037,bus,78,0,0,0,0,0,1,0
829,15361,8037,bus,78,0,0,0,0,0,1,0
883,15362,8037,bus,78,0,0,0,0,0,1,0
925,15363,8037,bus,78,0,0,0,0,0,1,0
971,15364,8037,bus,78,0,0,0,0,0,1,0
1009,15365,8037,bus,78,0,0,0,0,0,1,0
1054,15366,8037,bus,78,0,0,0,0,0,1,0
1122,15367,8037,bus,78,0,0,0,0,0,1,0
1166,15368,8037,bus,78,0,0,0,0,0,1,0
1205,15369,8037,bus,78,0,0,0,0,0,1,0
1249,15370,8037,bus,78,0,0,0,0,0,1,0
1291,15371,8037,bus,78,0,0,0,0,0,1,0
1331,15372,8037,bus,78,0,0,0,0,0,1,0
1375,15373,8037,bus,78,0,0,0,0,0,1,0
1409,15374,8037,bus,78,0,0,0,0,0,1,0
417,15375,8038,bus,78,0,0,0,0,0,0,1
457,15376,8038,bus,78,0,0,0,0,0,0,1
505,15377,8038,bus,78,0,0,0,0,0,0,1
541,15378,8038,bus,78,0,0,0,0,0,0,1
588,15379,8038,bus,78,0,0,0,0,0,0,1
657,15380,8038,bus,78,0,0,0,0,0,0,1
703,15381,8038,bus,78,0,0,0,0,0,0,1
746,15382,8038,bus,78,0,0,0,0,0,0,1
792,15383,8038,bus,78,0,0,0,0,0,0,1
829,15384,8038,bus,78,0,0,0,0,0,0,1
883,15385,8038,bus,78,0,0,0,0,0,0,1
925,15386,8038,bus,78,0,0,0,0,0,0,1
971,15387,8038,bus,78,0,0,0,0,0,0,1
1009,15388,8038,bus,78,0,0,0,0,0,0,1
1054,15389,8038,bus,78,0,0,0,0,0,0,1
1122,15390,8038,bus,78,0,0,0,0,0,0,1
1166,15391,8038,bus,78,0,0,0,0,0,0,1
1205,15392,8038,bus,78,0,0,0,0,0,0,1
1249,15393,8038,bus,78,0,0,0,0,0,0,1
1291,15394,8038,bus,78,0,0,0,0,0,0,1
1331,15395,8038,bus,78,0,0,0,0,0,0,1
1375,15396,8038,bus,78,0,0,0,0,0,0,1
1409,15397,8038,bus,78,0,0,0,0,0,0,1
