timeInMin,trip_id,service_id,tipas,numeris,pirmadienis,antradienis,treciadienis,ketvirtadienis,penktadienis,sestadienis,sekmadienis 
560,12033,9773,bus,51,1,1,1,1,1,0,0
619,12034,9773,bus,51,1,1,1,1,1,0,0
673,12035,9773,bus,51,1,1,1,1,1,0,0
726,12036,9773,bus,51,1,1,1,1,1,0,0
782,12037,9773,bus,51,1,1,1,1,1,0,0
837,12038,9773,bus,51,1,1,1,1,1,0,0
897,12039,9773,bus,51,1,1,1,1,1,0,0
966,12040,9773,bus,51,1,1,1,1,1,0,0
1029,12041,9773,bus,51,1,1,1,1,1,0,0
1110,12042,9773,bus,51,1,1,1,1,1,0,0
1170,12043,9773,bus,51,1,1,1,1,1,0,0
1226,12044,9773,bus,51,1,1,1,1,1,0,0
1367,12045,9773,bus,51,1,1,1,1,1,0,0
916,12046,9774,bus,51,0,0,0,0,0,1,1
965,12047,9774,bus,51,0,0,0,0,0,1,1
1023,12048,9774,bus,51,0,0,0,0,0,1,1
1081,12049,9774,bus,51,0,0,0,0,0,1,1
1162,12050,9774,bus,51,0,0,0,0,0,1,1
1244,12051,9774,bus,51,0,0,0,0,0,1,1
1303,12052,9774,bus,51,0,0,0,0,0,1,1
1367,12053,9774,bus,51,0,0,0,0,0,1,1
341,12058,9773,bus,51,1,1,1,1,1,0,0
399,12059,9773,bus,51,1,1,1,1,1,0,0
456,12060,9773,bus,51,1,1,1,1,1,0,0
1297,12061,9773,bus,51,1,1,1,1,1,0,0
444,12062,9774,bus,51,0,0,0,0,0,1,1
502,12063,9774,bus,51,0,0,0,0,0,1,1
561,12064,9774,bus,51,0,0,0,0,0,1,1
619,12065,9774,bus,51,0,0,0,0,0,1,1
