timeInMin,trip_id,service_id,tipas,numeris,pirmadienis,antradienis,treciadienis,ketvirtadienis,penktadienis,sestadienis,sekmadienis 
344,425,10323,expressbus,1G,0,0,0,0,0,0,1
359,426,10323,expressbus,1G,0,0,0,0,0,0,1
374,427,10323,expressbus,1G,0,0,0,0,0,0,1
388,428,10323,expressbus,1G,0,0,0,0,0,0,1
401,429,10323,expressbus,1G,0,0,0,0,0,0,1
411,430,10323,expressbus,1G,0,0,0,0,0,0,1
421,431,10323,expressbus,1G,0,0,0,0,0,0,1
430,432,10323,expressbus,1G,0,0,0,0,0,0,1
438,433,10323,expressbus,1G,0,0,0,0,0,0,1
446,434,10323,expressbus,1G,0,0,0,0,0,0,1
455,435,10323,expressbus,1G,0,0,0,0,0,0,1
464,436,10323,expressbus,1G,0,0,0,0,0,0,1
475,437,10323,expressbus,1G,0,0,0,0,0,0,1
486,438,10323,expressbus,1G,0,0,0,0,0,0,1
498,439,10323,expressbus,1G,0,0,0,0,0,0,1
506,440,10323,expressbus,1G,0,0,0,0,0,0,1
515,441,10323,expressbus,1G,0,0,0,0,0,0,1
523,442,10323,expressbus,1G,0,0,0,0,0,0,1
532,443,10323,expressbus,1G,0,0,0,0,0,0,1
540,444,10323,expressbus,1G,0,0,0,0,0,0,1
547,445,10323,expressbus,1G,0,0,0,0,0,0,1
556,446,10323,expressbus,1G,0,0,0,0,0,0,1
564,447,10323,expressbus,1G,0,0,0,0,0,0,1
573,448,10323,expressbus,1G,0,0,0,0,0,0,1
582,449,10323,expressbus,1G,0,0,0,0,0,0,1
589,450,10323,expressbus,1G,0,0,0,0,0,0,1
603,451,10323,expressbus,1G,0,0,0,0,0,0,1
617,452,10323,expressbus,1G,0,0,0,0,0,0,1
629,453,10323,expressbus,1G,0,0,0,0,0,0,1
643,454,10323,expressbus,1G,0,0,0,0,0,0,1
654,455,10323,expressbus,1G,0,0,0,0,0,0,1
663,456,10323,expressbus,1G,0,0,0,0,0,0,1
673,457,10323,expressbus,1G,0,0,0,0,0,0,1
684,458,10323,expressbus,1G,0,0,0,0,0,0,1
695,459,10323,expressbus,1G,0,0,0,0,0,0,1
708,460,10323,expressbus,1G,0,0,0,0,0,0,1
722,461,10323,expressbus,1G,0,0,0,0,0,0,1
735,462,10323,expressbus,1G,0,0,0,0,0,0,1
744,463,10323,expressbus,1G,0,0,0,0,0,0,1
753,464,10323,expressbus,1G,0,0,0,0,0,0,1
765,465,10323,expressbus,1G,0,0,0,0,0,0,1
777,466,10323,expressbus,1G,0,0,0,0,0,0,1
789,467,10323,expressbus,1G,0,0,0,0,0,0,1
801,468,10323,expressbus,1G,0,0,0,0,0,0,1
814,469,10323,expressbus,1G,0,0,0,0,0,0,1
826,470,10323,expressbus,1G,0,0,0,0,0,0,1
836,471,10323,expressbus,1G,0,0,0,0,0,0,1
843,472,10323,expressbus,1G,0,0,0,0,0,0,1
850,473,10323,expressbus,1G,0,0,0,0,0,0,1
857,474,10323,expressbus,1G,0,0,0,0,0,0,1
865,475,10323,expressbus,1G,0,0,0,0,0,0,1
872,476,10323,expressbus,1G,0,0,0,0,0,0,1
880,477,10323,expressbus,1G,0,0,0,0,0,0,1
890,478,10323,expressbus,1G,0,0,0,0,0,0,1
900,479,10323,expressbus,1G,0,0,0,0,0,0,1
911,480,10323,expressbus,1G,0,0,0,0,0,0,1
920,481,10323,expressbus,1G,0,0,0,0,0,0,1
931,482,10323,expressbus,1G,0,0,0,0,0,0,1
940,483,10323,expressbus,1G,0,0,0,0,0,0,1
949,484,10323,expressbus,1G,0,0,0,0,0,0,1
957,485,10323,expressbus,1G,0,0,0,0,0,0,1
965,486,10323,expressbus,1G,0,0,0,0,0,0,1
975,487,10323,expressbus,1G,0,0,0,0,0,0,1
982,488,10323,expressbus,1G,0,0,0,0,0,0,1
990,489,10323,expressbus,1G,0,0,0,0,0,0,1
997,490,10323,expressbus,1G,0,0,0,0,0,0,1
1005,491,10323,expressbus,1G,0,0,0,0,0,0,1
1014,492,10323,expressbus,1G,0,0,0,0,0,0,1
1023,493,10323,expressbus,1G,0,0,0,0,0,0,1
1032,494,10323,expressbus,1G,0,0,0,0,0,0,1
1046,495,10323,expressbus,1G,0,0,0,0,0,0,1
1059,496,10323,expressbus,1G,0,0,0,0,0,0,1
1075,497,10323,expressbus,1G,0,0,0,0,0,0,1
1087,498,10323,expressbus,1G,0,0,0,0,0,0,1
1103,499,10323,expressbus,1G,0,0,0,0,0,0,1
1119,500,10323,expressbus,1G,0,0,0,0,0,0,1
1135,501,10323,expressbus,1G,0,0,0,0,0,0,1
1151,502,10323,expressbus,1G,0,0,0,0,0,0,1
1162,503,10323,expressbus,1G,0,0,0,0,0,0,1
1173,504,10323,expressbus,1G,0,0,0,0,0,0,1
1187,505,10323,expressbus,1G,0,0,0,0,0,0,1
1196,506,10323,expressbus,1G,0,0,0,0,0,0,1
1206,507,10323,expressbus,1G,0,0,0,0,0,0,1
1219,508,10323,expressbus,1G,0,0,0,0,0,0,1
1233,509,10323,expressbus,1G,0,0,0,0,0,0,1
1243,510,10323,expressbus,1G,0,0,0,0,0,0,1
1253,511,10323,expressbus,1G,0,0,0,0,0,0,1
1266,512,10323,expressbus,1G,0,0,0,0,0,0,1
1278,513,10323,expressbus,1G,0,0,0,0,0,0,1
1290,514,10323,expressbus,1G,0,0,0,0,0,0,1
1302,515,10323,expressbus,1G,0,0,0,0,0,0,1
1312,516,10323,expressbus,1G,0,0,0,0,0,0,1
1324,517,10323,expressbus,1G,0,0,0,0,0,0,1
1335,518,10323,expressbus,1G,0,0,0,0,0,0,1
1346,519,10323,expressbus,1G,0,0,0,0,0,0,1
1355,520,10323,expressbus,1G,0,0,0,0,0,0,1
1368,521,10323,expressbus,1G,0,0,0,0,0,0,1
1384,522,10323,expressbus,1G,0,0,0,0,0,0,1
1401,523,10323,expressbus,1G,0,0,0,0,0,0,1
311,524,10321,expressbus,1G,1,1,1,1,1,0,0
320,525,10321,expressbus,1G,1,1,1,1,1,0,0
332,526,10321,expressbus,1G,1,1,1,1,1,0,0
344,527,10321,expressbus,1G,1,1,1,1,1,0,0
352,528,10321,expressbus,1G,1,1,1,1,1,0,0
358,529,10321,expressbus,1G,1,1,1,1,1,0,0
364,530,10321,expressbus,1G,1,1,1,1,1,0,0
372,531,10321,expressbus,1G,1,1,1,1,1,0,0
380,532,10321,expressbus,1G,1,1,1,1,1,0,0
389,533,10321,expressbus,1G,1,1,1,1,1,0,0
397,534,10321,expressbus,1G,1,1,1,1,1,0,0
405,535,10321,expressbus,1G,1,1,1,1,1,0,0
411,536,10321,expressbus,1G,1,1,1,1,1,0,0
417,537,10321,expressbus,1G,1,1,1,1,1,0,0
422,538,10321,expressbus,1G,1,1,1,1,1,0,0
427,539,10321,expressbus,1G,1,1,1,1,1,0,0
432,540,10321,expressbus,1G,1,1,1,1,1,0,0
437,541,10321,expressbus,1G,1,1,1,1,1,0,0
442,542,10321,expressbus,1G,1,1,1,1,1,0,0
447,543,10321,expressbus,1G,1,1,1,1,1,0,0
453,544,10321,expressbus,1G,1,1,1,1,1,0,0
458,545,10321,expressbus,1G,1,1,1,1,1,0,0
463,546,10321,expressbus,1G,1,1,1,1,1,0,0
468,547,10321,expressbus,1G,1,1,1,1,1,0,0
474,548,10321,expressbus,1G,1,1,1,1,1,0,0
480,549,10321,expressbus,1G,1,1,1,1,1,0,0
487,550,10321,expressbus,1G,1,1,1,1,1,0,0
494,551,10321,expressbus,1G,1,1,1,1,1,0,0
500,552,10321,expressbus,1G,1,1,1,1,1,0,0
505,553,10321,expressbus,1G,1,1,1,1,1,0,0
511,554,10321,expressbus,1G,1,1,1,1,1,0,0
516,555,10321,expressbus,1G,1,1,1,1,1,0,0
520,556,10321,expressbus,1G,1,1,1,1,1,0,0
526,557,10321,expressbus,1G,1,1,1,1,1,0,0
531,558,10321,expressbus,1G,1,1,1,1,1,0,0
536,559,10321,expressbus,1G,1,1,1,1,1,0,0
541,560,10321,expressbus,1G,1,1,1,1,1,0,0
546,561,10321,expressbus,1G,1,1,1,1,1,0,0
551,562,10321,expressbus,1G,1,1,1,1,1,0,0
556,563,10321,expressbus,1G,1,1,1,1,1,0,0
561,564,10321,expressbus,1G,1,1,1,1,1,0,0
566,565,10321,expressbus,1G,1,1,1,1,1,0,0
571,566,10321,expressbus,1G,1,1,1,1,1,0,0
576,567,10321,expressbus,1G,1,1,1,1,1,0,0
581,568,10321,expressbus,1G,1,1,1,1,1,0,0
586,569,10321,expressbus,1G,1,1,1,1,1,0,0
592,570,10321,expressbus,1G,1,1,1,1,1,0,0
597,571,10321,expressbus,1G,1,1,1,1,1,0,0
603,572,10321,expressbus,1G,1,1,1,1,1,0,0
609,573,10321,expressbus,1G,1,1,1,1,1,0,0
615,574,10321,expressbus,1G,1,1,1,1,1,0,0
620,575,10321,expressbus,1G,1,1,1,1,1,0,0
629,576,10321,expressbus,1G,1,1,1,1,1,0,0
637,577,10321,expressbus,1G,1,1,1,1,1,0,0
644,578,10321,expressbus,1G,1,1,1,1,1,0,0
652,579,10321,expressbus,1G,1,1,1,1,1,0,0
660,580,10321,expressbus,1G,1,1,1,1,1,0,0
668,581,10321,expressbus,1G,1,1,1,1,1,0,0
677,582,10321,expressbus,1G,1,1,1,1,1,0,0
688,583,10321,expressbus,1G,1,1,1,1,1,0,0
700,584,10321,expressbus,1G,1,1,1,1,1,0,0
710,585,10321,expressbus,1G,1,1,1,1,1,0,0
719,586,10321,expressbus,1G,1,1,1,1,1,0,0
727,587,10321,expressbus,1G,1,1,1,1,1,0,0
735,588,10321,expressbus,1G,1,1,1,1,1,0,0
743,589,10321,expressbus,1G,1,1,1,1,1,0,0
752,590,10321,expressbus,1G,1,1,1,1,1,0,0
760,591,10321,expressbus,1G,1,1,1,1,1,0,0
768,592,10321,expressbus,1G,1,1,1,1,1,0,0
776,593,10321,expressbus,1G,1,1,1,1,1,0,0
784,594,10321,expressbus,1G,1,1,1,1,1,0,0
795,595,10321,expressbus,1G,1,1,1,1,1,0,0
803,596,10321,expressbus,1G,1,1,1,1,1,0,0
811,597,10321,expressbus,1G,1,1,1,1,1,0,0
820,598,10321,expressbus,1G,1,1,1,1,1,0,0
827,599,10321,expressbus,1G,1,1,1,1,1,0,0
837,600,10321,expressbus,1G,1,1,1,1,1,0,0
843,601,10321,expressbus,1G,1,1,1,1,1,0,0
851,602,10321,expressbus,1G,1,1,1,1,1,0,0
863,603,10321,expressbus,1G,1,1,1,1,1,0,0
870,604,10321,expressbus,1G,1,1,1,1,1,0,0
881,605,10321,expressbus,1G,1,1,1,1,1,0,0
888,606,10321,expressbus,1G,1,1,1,1,1,0,0
897,607,10321,expressbus,1G,1,1,1,1,1,0,0
907,608,10321,expressbus,1G,1,1,1,1,1,0,0
916,609,10321,expressbus,1G,1,1,1,1,1,0,0
925,610,10321,expressbus,1G,1,1,1,1,1,0,0
932,611,10321,expressbus,1G,1,1,1,1,1,0,0
940,612,10321,expressbus,1G,1,1,1,1,1,0,0
947,613,10321,expressbus,1G,1,1,1,1,1,0,0
953,614,10321,expressbus,1G,1,1,1,1,1,0,0
959,615,10321,expressbus,1G,1,1,1,1,1,0,0
965,616,10321,expressbus,1G,1,1,1,1,1,0,0
970,617,10321,expressbus,1G,1,1,1,1,1,0,0
977,618,10321,expressbus,1G,1,1,1,1,1,0,0
984,619,10321,expressbus,1G,1,1,1,1,1,0,0
989,620,10321,expressbus,1G,1,1,1,1,1,0,0
995,621,10321,expressbus,1G,1,1,1,1,1,0,0
1001,622,10321,expressbus,1G,1,1,1,1,1,0,0
1009,623,10321,expressbus,1G,1,1,1,1,1,0,0
1016,624,10321,expressbus,1G,1,1,1,1,1,0,0
1022,625,10321,expressbus,1G,1,1,1,1,1,0,0
1028,626,10321,expressbus,1G,1,1,1,1,1,0,0
1034,627,10321,expressbus,1G,1,1,1,1,1,0,0
1039,628,10321,expressbus,1G,1,1,1,1,1,0,0
1046,629,10321,expressbus,1G,1,1,1,1,1,0,0
1052,630,10321,expressbus,1G,1,1,1,1,1,0,0
1057,631,10321,expressbus,1G,1,1,1,1,1,0,0
1063,632,10321,expressbus,1G,1,1,1,1,1,0,0
1068,633,10321,expressbus,1G,1,1,1,1,1,0,0
1073,634,10321,expressbus,1G,1,1,1,1,1,0,0
1078,635,10321,expressbus,1G,1,1,1,1,1,0,0
1082,636,10321,expressbus,1G,1,1,1,1,1,0,0
1087,637,10321,expressbus,1G,1,1,1,1,1,0,0
1092,638,10321,expressbus,1G,1,1,1,1,1,0,0
1097,639,10321,expressbus,1G,1,1,1,1,1,0,0
1105,640,10321,expressbus,1G,1,1,1,1,1,0,0
1112,641,10321,expressbus,1G,1,1,1,1,1,0,0
1119,642,10321,expressbus,1G,1,1,1,1,1,0,0
1125,643,10321,expressbus,1G,1,1,1,1,1,0,0
1132,644,10321,expressbus,1G,1,1,1,1,1,0,0
1140,645,10321,expressbus,1G,1,1,1,1,1,0,0
1148,646,10321,expressbus,1G,1,1,1,1,1,0,0
1155,647,10321,expressbus,1G,1,1,1,1,1,0,0
1161,648,10321,expressbus,1G,1,1,1,1,1,0,0
1166,649,10321,expressbus,1G,1,1,1,1,1,0,0
1171,650,10321,expressbus,1G,1,1,1,1,1,0,0
1177,651,10321,expressbus,1G,1,1,1,1,1,0,0
1184,652,10321,expressbus,1G,1,1,1,1,1,0,0
1192,653,10321,expressbus,1G,1,1,1,1,1,0,0
1200,654,10321,expressbus,1G,1,1,1,1,1,0,0
1210,655,10321,expressbus,1G,1,1,1,1,1,0,0
1220,656,10321,expressbus,1G,1,1,1,1,1,0,0
1229,657,10321,expressbus,1G,1,1,1,1,1,0,0
1237,658,10321,expressbus,1G,1,1,1,1,1,0,0
1246,659,10321,expressbus,1G,1,1,1,1,1,0,0
1255,660,10321,expressbus,1G,1,1,1,1,1,0,0
1264,661,10321,expressbus,1G,1,1,1,1,1,0,0
1274,662,10321,expressbus,1G,1,1,1,1,1,0,0
1283,663,10321,expressbus,1G,1,1,1,1,1,0,0
1293,664,10321,expressbus,1G,1,1,1,1,1,0,0
1304,665,10321,expressbus,1G,1,1,1,1,1,0,0
1311,666,10321,expressbus,1G,1,1,1,1,1,0,0
1321,667,10321,expressbus,1G,1,1,1,1,1,0,0
1333,668,10321,expressbus,1G,1,1,1,1,1,0,0
1347,669,10321,expressbus,1G,1,1,1,1,1,0,0
1362,670,10321,expressbus,1G,1,1,1,1,1,0,0
1376,671,10321,expressbus,1G,1,1,1,1,1,0,0
1390,672,10321,expressbus,1G,1,1,1,1,1,0,0
324,673,10322,expressbus,1G,0,0,0,0,0,1,0
344,674,10322,expressbus,1G,0,0,0,0,0,1,0
359,675,10322,expressbus,1G,0,0,0,0,0,1,0
374,676,10322,expressbus,1G,0,0,0,0,0,1,0
388,677,10322,expressbus,1G,0,0,0,0,0,1,0
401,678,10322,expressbus,1G,0,0,0,0,0,1,0
411,679,10322,expressbus,1G,0,0,0,0,0,1,0
421,680,10322,expressbus,1G,0,0,0,0,0,1,0
430,681,10322,expressbus,1G,0,0,0,0,0,1,0
438,682,10322,expressbus,1G,0,0,0,0,0,1,0
446,683,10322,expressbus,1G,0,0,0,0,0,1,0
455,684,10322,expressbus,1G,0,0,0,0,0,1,0
464,685,10322,expressbus,1G,0,0,0,0,0,1,0
475,686,10322,expressbus,1G,0,0,0,0,0,1,0
486,687,10322,expressbus,1G,0,0,0,0,0,1,0
498,688,10322,expressbus,1G,0,0,0,0,0,1,0
506,689,10322,expressbus,1G,0,0,0,0,0,1,0
515,690,10322,expressbus,1G,0,0,0,0,0,1,0
523,691,10322,expressbus,1G,0,0,0,0,0,1,0
532,692,10322,expressbus,1G,0,0,0,0,0,1,0
540,693,10322,expressbus,1G,0,0,0,0,0,1,0
547,694,10322,expressbus,1G,0,0,0,0,0,1,0
556,695,10322,expressbus,1G,0,0,0,0,0,1,0
564,696,10322,expressbus,1G,0,0,0,0,0,1,0
573,697,10322,expressbus,1G,0,0,0,0,0,1,0
582,698,10322,expressbus,1G,0,0,0,0,0,1,0
589,699,10322,expressbus,1G,0,0,0,0,0,1,0
603,700,10322,expressbus,1G,0,0,0,0,0,1,0
617,701,10322,expressbus,1G,0,0,0,0,0,1,0
629,702,10322,expressbus,1G,0,0,0,0,0,1,0
643,703,10322,expressbus,1G,0,0,0,0,0,1,0
654,704,10322,expressbus,1G,0,0,0,0,0,1,0
663,705,10322,expressbus,1G,0,0,0,0,0,1,0
673,706,10322,expressbus,1G,0,0,0,0,0,1,0
684,707,10322,expressbus,1G,0,0,0,0,0,1,0
695,708,10322,expressbus,1G,0,0,0,0,0,1,0
708,709,10322,expressbus,1G,0,0,0,0,0,1,0
722,710,10322,expressbus,1G,0,0,0,0,0,1,0
735,711,10322,expressbus,1G,0,0,0,0,0,1,0
744,712,10322,expressbus,1G,0,0,0,0,0,1,0
753,713,10322,expressbus,1G,0,0,0,0,0,1,0
765,714,10322,expressbus,1G,0,0,0,0,0,1,0
777,715,10322,expressbus,1G,0,0,0,0,0,1,0
789,716,10322,expressbus,1G,0,0,0,0,0,1,0
801,717,10322,expressbus,1G,0,0,0,0,0,1,0
814,718,10322,expressbus,1G,0,0,0,0,0,1,0
826,719,10322,expressbus,1G,0,0,0,0,0,1,0
836,720,10322,expressbus,1G,0,0,0,0,0,1,0
843,721,10322,expressbus,1G,0,0,0,0,0,1,0
850,722,10322,expressbus,1G,0,0,0,0,0,1,0
857,723,10322,expressbus,1G,0,0,0,0,0,1,0
865,724,10322,expressbus,1G,0,0,0,0,0,1,0
872,725,10322,expressbus,1G,0,0,0,0,0,1,0
880,726,10322,expressbus,1G,0,0,0,0,0,1,0
890,727,10322,expressbus,1G,0,0,0,0,0,1,0
900,728,10322,expressbus,1G,0,0,0,0,0,1,0
911,729,10322,expressbus,1G,0,0,0,0,0,1,0
920,730,10322,expressbus,1G,0,0,0,0,0,1,0
931,731,10322,expressbus,1G,0,0,0,0,0,1,0
940,732,10322,expressbus,1G,0,0,0,0,0,1,0
949,733,10322,expressbus,1G,0,0,0,0,0,1,0
957,734,10322,expressbus,1G,0,0,0,0,0,1,0
965,735,10322,expressbus,1G,0,0,0,0,0,1,0
975,736,10322,expressbus,1G,0,0,0,0,0,1,0
982,737,10322,expressbus,1G,0,0,0,0,0,1,0
990,738,10322,expressbus,1G,0,0,0,0,0,1,0
997,739,10322,expressbus,1G,0,0,0,0,0,1,0
1005,740,10322,expressbus,1G,0,0,0,0,0,1,0
1014,741,10322,expressbus,1G,0,0,0,0,0,1,0
1023,742,10322,expressbus,1G,0,0,0,0,0,1,0
1032,743,10322,expressbus,1G,0,0,0,0,0,1,0
1046,744,10322,expressbus,1G,0,0,0,0,0,1,0
1059,745,10322,expressbus,1G,0,0,0,0,0,1,0
1075,746,10322,expressbus,1G,0,0,0,0,0,1,0
1087,747,10322,expressbus,1G,0,0,0,0,0,1,0
1103,748,10322,expressbus,1G,0,0,0,0,0,1,0
1119,749,10322,expressbus,1G,0,0,0,0,0,1,0
1135,750,10322,expressbus,1G,0,0,0,0,0,1,0
1151,751,10322,expressbus,1G,0,0,0,0,0,1,0
1162,752,10322,expressbus,1G,0,0,0,0,0,1,0
1173,753,10322,expressbus,1G,0,0,0,0,0,1,0
1187,754,10322,expressbus,1G,0,0,0,0,0,1,0
1196,755,10322,expressbus,1G,0,0,0,0,0,1,0
1206,756,10322,expressbus,1G,0,0,0,0,0,1,0
1219,757,10322,expressbus,1G,0,0,0,0,0,1,0
1233,758,10322,expressbus,1G,0,0,0,0,0,1,0
1243,759,10322,expressbus,1G,0,0,0,0,0,1,0
1253,760,10322,expressbus,1G,0,0,0,0,0,1,0
1266,761,10322,expressbus,1G,0,0,0,0,0,1,0
1278,762,10322,expressbus,1G,0,0,0,0,0,1,0
1290,763,10322,expressbus,1G,0,0,0,0,0,1,0
1302,764,10322,expressbus,1G,0,0,0,0,0,1,0
1312,765,10322,expressbus,1G,0,0,0,0,0,1,0
1324,766,10322,expressbus,1G,0,0,0,0,0,1,0
1335,767,10322,expressbus,1G,0,0,0,0,0,1,0
1346,768,10322,expressbus,1G,0,0,0,0,0,1,0
1355,769,10322,expressbus,1G,0,0,0,0,0,1,0
1368,770,10322,expressbus,1G,0,0,0,0,0,1,0
1384,771,10322,expressbus,1G,0,0,0,0,0,1,0
1401,772,10322,expressbus,1G,0,0,0,0,0,1,0
1272,799,10323,expressbus,1G,0,0,0,0,0,0,1
1391,800,10323,expressbus,1G,0,0,0,0,0,0,1
1410,801,10323,expressbus,1G,0,0,0,0,0,0,1
1422,802,10323,expressbus,1G,0,0,0,0,0,0,1
1287,803,10321,expressbus,1G,1,1,1,1,1,0,0
1337,804,10321,expressbus,1G,1,1,1,1,1,0,0
1352,805,10321,expressbus,1G,1,1,1,1,1,0,0
1406,806,10321,expressbus,1G,1,1,1,1,1,0,0
1421,807,10321,expressbus,1G,1,1,1,1,1,0,0
1433,808,10321,expressbus,1G,1,1,1,1,1,0,0
1272,809,10322,expressbus,1G,0,0,0,0,0,1,0
1391,810,10322,expressbus,1G,0,0,0,0,0,1,0
1410,811,10322,expressbus,1G,0,0,0,0,0,1,0
1422,812,10322,expressbus,1G,0,0,0,0,0,1,0
331,13067,10395,bus,55,1,1,1,1,1,0,0
380,13068,10395,bus,55,1,1,1,1,1,0,0
413,13069,10395,bus,55,1,1,1,1,1,0,0
448,13070,10395,bus,55,1,1,1,1,1,0,0
474,13071,10395,bus,55,1,1,1,1,1,0,0
502,13072,10395,bus,55,1,1,1,1,1,0,0
553,13073,10395,bus,55,1,1,1,1,1,0,0
597,13074,10395,bus,55,1,1,1,1,1,0,0
645,13075,10395,bus,55,1,1,1,1,1,0,0
678,13076,10395,bus,55,1,1,1,1,1,0,0
716,13077,10395,bus,55,1,1,1,1,1,0,0
758,13078,10395,bus,55,1,1,1,1,1,0,0
794,13079,10395,bus,55,1,1,1,1,1,0,0
832,13080,10395,bus,55,1,1,1,1,1,0,0
877,13081,10395,bus,55,1,1,1,1,1,0,0
914,13082,10395,bus,55,1,1,1,1,1,0,0
952,13083,10395,bus,55,1,1,1,1,1,0,0
977,13084,10395,bus,55,1,1,1,1,1,0,0
1001,13085,10395,bus,55,1,1,1,1,1,0,0
1031,13086,10395,bus,55,1,1,1,1,1,0,0
1069,13087,10395,bus,55,1,1,1,1,1,0,0
1097,13088,10395,bus,55,1,1,1,1,1,0,0
1145,13089,10395,bus,55,1,1,1,1,1,0,0
1185,13090,10395,bus,55,1,1,1,1,1,0,0
1219,13091,10395,bus,55,1,1,1,1,1,0,0
1260,13092,10395,bus,55,1,1,1,1,1,0,0
1299,13093,10395,bus,55,1,1,1,1,1,0,0
1332,13094,10395,bus,55,1,1,1,1,1,0,0
321,13095,10193,bus,55,0,0,0,0,0,1,0
374,13096,10193,bus,55,0,0,0,0,0,1,0
431,13097,10193,bus,55,0,0,0,0,0,1,0
484,13098,10193,bus,55,0,0,0,0,0,1,0
530,13099,10193,bus,55,0,0,0,0,0,1,0
578,13100,10193,bus,55,0,0,0,0,0,1,0
622,13101,10193,bus,55,0,0,0,0,0,1,0
665,13102,10193,bus,55,0,0,0,0,0,1,0
699,13103,10193,bus,55,0,0,0,0,0,1,0
736,13104,10193,bus,55,0,0,0,0,0,1,0
773,13105,10193,bus,55,0,0,0,0,0,1,0
812,13106,10193,bus,55,0,0,0,0,0,1,0
849,13107,10193,bus,55,0,0,0,0,0,1,0
881,13108,10193,bus,55,0,0,0,0,0,1,0
925,13109,10193,bus,55,0,0,0,0,0,1,0
966,13110,10193,bus,55,0,0,0,0,0,1,0
1034,13111,10193,bus,55,0,0,0,0,0,1,0
1111,13112,10193,bus,55,0,0,0,0,0,1,0
1174,13113,10193,bus,55,0,0,0,0,0,1,0
1224,13114,10193,bus,55,0,0,0,0,0,1,0
1281,13115,10193,bus,55,0,0,0,0,0,1,0
1331,13116,10193,bus,55,0,0,0,0,0,1,0
374,13117,10194,bus,55,0,0,0,0,0,0,1
431,13118,10194,bus,55,0,0,0,0,0,0,1
484,13119,10194,bus,55,0,0,0,0,0,0,1
530,13120,10194,bus,55,0,0,0,0,0,0,1
578,13121,10194,bus,55,0,0,0,0,0,0,1
622,13122,10194,bus,55,0,0,0,0,0,0,1
665,13123,10194,bus,55,0,0,0,0,0,0,1
699,13124,10194,bus,55,0,0,0,0,0,0,1
736,13125,10194,bus,55,0,0,0,0,0,0,1
773,13126,10194,bus,55,0,0,0,0,0,0,1
812,13127,10194,bus,55,0,0,0,0,0,0,1
849,13128,10194,bus,55,0,0,0,0,0,0,1
881,13129,10194,bus,55,0,0,0,0,0,0,1
925,13130,10194,bus,55,0,0,0,0,0,0,1
966,13131,10194,bus,55,0,0,0,0,0,0,1
1034,13132,10194,bus,55,0,0,0,0,0,0,1
1111,13133,10194,bus,55,0,0,0,0,0,0,1
1174,13134,10194,bus,55,0,0,0,0,0,0,1
1224,13135,10194,bus,55,0,0,0,0,0,0,1
1281,13136,10194,bus,55,0,0,0,0,0,0,1
1331,13137,10194,bus,55,0,0,0,0,0,0,1
1210,13141,10395,bus,55,1,1,1,1,1,0,0
1363,13142,10395,bus,55,1,1,1,1,1,0,0
1403,13143,10395,bus,55,1,1,1,1,1,0,0
992,13144,10193,bus,55,0,0,0,0,0,1,0
1384,13145,10193,bus,55,0,0,0,0,0,1,0
992,13146,10194,bus,55,0,0,0,0,0,0,1
1384,13147,10194,bus,55,0,0,0,0,0,0,1
1419,16355,9971,nightbus,103N,0,0,0,0,1,1,0
1453,16356,9971,nightbus,103N,0,0,0,0,1,1,0
1501,16357,9971,nightbus,103N,0,0,0,0,1,1,0
1529,16358,9971,nightbus,103N,0,0,0,0,1,1,0
1557,16359,9971,nightbus,103N,0,0,0,0,1,1,0
1600,16365,9971,nightbus,103N,0,0,0,0,1,1,0
1628,16366,9971,nightbus,103N,0,0,0,0,1,1,0
