timeInMin,trip_id,service_id,tipas,numeris,pirmadienis,antradienis,treciadienis,ketvirtadienis,penktadienis,sestadienis,sekmadienis 
320,1219,10324,expressbus,2G,1,1,1,1,1,0,0
334,1220,10324,expressbus,2G,1,1,1,1,1,0,0
347,1221,10324,expressbus,2G,1,1,1,1,1,0,0
362,1222,10324,expressbus,2G,1,1,1,1,1,0,0
374,1223,10324,expressbus,2G,1,1,1,1,1,0,0
387,1224,10324,expressbus,2G,1,1,1,1,1,0,0
401,1225,10324,expressbus,2G,1,1,1,1,1,0,0
411,1226,10324,expressbus,2G,1,1,1,1,1,0,0
419,1227,10324,expressbus,2G,1,1,1,1,1,0,0
427,1228,10324,expressbus,2G,1,1,1,1,1,0,0
434,1229,10324,expressbus,2G,1,1,1,1,1,0,0
442,1230,10324,expressbus,2G,1,1,1,1,1,0,0
447,1231,10324,expressbus,2G,1,1,1,1,1,0,0
452,1232,10324,expressbus,2G,1,1,1,1,1,0,0
457,1233,10324,expressbus,2G,1,1,1,1,1,0,0
462,1234,10324,expressbus,2G,1,1,1,1,1,0,0
469,1235,10324,expressbus,2G,1,1,1,1,1,0,0
479,1236,10324,expressbus,2G,1,1,1,1,1,0,0
486,1237,10324,expressbus,2G,1,1,1,1,1,0,0
495,1238,10324,expressbus,2G,1,1,1,1,1,0,0
502,1239,10324,expressbus,2G,1,1,1,1,1,0,0
514,1240,10324,expressbus,2G,1,1,1,1,1,0,0
526,1241,10324,expressbus,2G,1,1,1,1,1,0,0
567,1242,10324,expressbus,2G,1,1,1,1,1,0,0
573,1243,10324,expressbus,2G,1,1,1,1,1,0,0
584,1244,10324,expressbus,2G,1,1,1,1,1,0,0
589,1245,10324,expressbus,2G,1,1,1,1,1,0,0
613,1246,10324,expressbus,2G,1,1,1,1,1,0,0
622,1247,10324,expressbus,2G,1,1,1,1,1,0,0
632,1248,10324,expressbus,2G,1,1,1,1,1,0,0
642,1249,10324,expressbus,2G,1,1,1,1,1,0,0
652,1250,10324,expressbus,2G,1,1,1,1,1,0,0
663,1251,10324,expressbus,2G,1,1,1,1,1,0,0
673,1252,10324,expressbus,2G,1,1,1,1,1,0,0
683,1253,10324,expressbus,2G,1,1,1,1,1,0,0
693,1254,10324,expressbus,2G,1,1,1,1,1,0,0
703,1255,10324,expressbus,2G,1,1,1,1,1,0,0
714,1256,10324,expressbus,2G,1,1,1,1,1,0,0
726,1257,10324,expressbus,2G,1,1,1,1,1,0,0
741,1258,10324,expressbus,2G,1,1,1,1,1,0,0
754,1259,10324,expressbus,2G,1,1,1,1,1,0,0
769,1260,10324,expressbus,2G,1,1,1,1,1,0,0
780,1261,10324,expressbus,2G,1,1,1,1,1,0,0
790,1262,10324,expressbus,2G,1,1,1,1,1,0,0
801,1263,10324,expressbus,2G,1,1,1,1,1,0,0
811,1264,10324,expressbus,2G,1,1,1,1,1,0,0
823,1265,10324,expressbus,2G,1,1,1,1,1,0,0
833,1266,10324,expressbus,2G,1,1,1,1,1,0,0
848,1267,10324,expressbus,2G,1,1,1,1,1,0,0
862,1268,10324,expressbus,2G,1,1,1,1,1,0,0
875,1269,10324,expressbus,2G,1,1,1,1,1,0,0
887,1270,10324,expressbus,2G,1,1,1,1,1,0,0
901,1271,10324,expressbus,2G,1,1,1,1,1,0,0
911,1272,10324,expressbus,2G,1,1,1,1,1,0,0
922,1273,10324,expressbus,2G,1,1,1,1,1,0,0
932,1274,10324,expressbus,2G,1,1,1,1,1,0,0
944,1275,10324,expressbus,2G,1,1,1,1,1,0,0
951,1276,10324,expressbus,2G,1,1,1,1,1,0,0
956,1277,10324,expressbus,2G,1,1,1,1,1,0,0
962,1278,10324,expressbus,2G,1,1,1,1,1,0,0
968,1279,10324,expressbus,2G,1,1,1,1,1,0,0
976,1280,10324,expressbus,2G,1,1,1,1,1,0,0
982,1281,10324,expressbus,2G,1,1,1,1,1,0,0
988,1282,10324,expressbus,2G,1,1,1,1,1,0,0
996,1283,10324,expressbus,2G,1,1,1,1,1,0,0
1003,1284,10324,expressbus,2G,1,1,1,1,1,0,0
1010,1285,10324,expressbus,2G,1,1,1,1,1,0,0
1015,1286,10324,expressbus,2G,1,1,1,1,1,0,0
1030,1287,10324,expressbus,2G,1,1,1,1,1,0,0
1036,1288,10324,expressbus,2G,1,1,1,1,1,0,0
1049,1289,10324,expressbus,2G,1,1,1,1,1,0,0
1073,1290,10324,expressbus,2G,1,1,1,1,1,0,0
1087,1291,10324,expressbus,2G,1,1,1,1,1,0,0
1101,1292,10324,expressbus,2G,1,1,1,1,1,0,0
1109,1293,10324,expressbus,2G,1,1,1,1,1,0,0
1124,1294,10324,expressbus,2G,1,1,1,1,1,0,0
1137,1295,10324,expressbus,2G,1,1,1,1,1,0,0
1155,1296,10324,expressbus,2G,1,1,1,1,1,0,0
1168,1297,10324,expressbus,2G,1,1,1,1,1,0,0
1178,1298,10324,expressbus,2G,1,1,1,1,1,0,0
1188,1299,10324,expressbus,2G,1,1,1,1,1,0,0
1209,1300,10324,expressbus,2G,1,1,1,1,1,0,0
1219,1301,10324,expressbus,2G,1,1,1,1,1,0,0
1231,1302,10324,expressbus,2G,1,1,1,1,1,0,0
1244,1303,10324,expressbus,2G,1,1,1,1,1,0,0
1256,1304,10324,expressbus,2G,1,1,1,1,1,0,0
1267,1305,10324,expressbus,2G,1,1,1,1,1,0,0
1276,1306,10324,expressbus,2G,1,1,1,1,1,0,0
1290,1307,10324,expressbus,2G,1,1,1,1,1,0,0
1303,1308,10324,expressbus,2G,1,1,1,1,1,0,0
1315,1309,10324,expressbus,2G,1,1,1,1,1,0,0
1325,1310,10324,expressbus,2G,1,1,1,1,1,0,0
1334,1311,10324,expressbus,2G,1,1,1,1,1,0,0
1341,1312,10324,expressbus,2G,1,1,1,1,1,0,0
1353,1313,10324,expressbus,2G,1,1,1,1,1,0,0
1365,1314,10324,expressbus,2G,1,1,1,1,1,0,0
1377,1315,10324,expressbus,2G,1,1,1,1,1,0,0
1390,1316,10324,expressbus,2G,1,1,1,1,1,0,0
1404,1317,10324,expressbus,2G,1,1,1,1,1,0,0
328,1318,10325,expressbus,2G,0,0,0,0,0,1,0
344,1319,10325,expressbus,2G,0,0,0,0,0,1,0
362,1320,10325,expressbus,2G,0,0,0,0,0,1,0
379,1321,10325,expressbus,2G,0,0,0,0,0,1,0
399,1322,10325,expressbus,2G,0,0,0,0,0,1,0
420,1323,10325,expressbus,2G,0,0,0,0,0,1,0
437,1324,10325,expressbus,2G,0,0,0,0,0,1,0
450,1325,10325,expressbus,2G,0,0,0,0,0,1,0
462,1326,10325,expressbus,2G,0,0,0,0,0,1,0
475,1327,10325,expressbus,2G,0,0,0,0,0,1,0
490,1328,10325,expressbus,2G,0,0,0,0,0,1,0
504,1329,10325,expressbus,2G,0,0,0,0,0,1,0
519,1330,10325,expressbus,2G,0,0,0,0,0,1,0
548,1331,10325,expressbus,2G,0,0,0,0,0,1,0
588,1332,10325,expressbus,2G,0,0,0,0,0,1,0
620,1333,10325,expressbus,2G,0,0,0,0,0,1,0
639,1334,10325,expressbus,2G,0,0,0,0,0,1,0
664,1335,10325,expressbus,2G,0,0,0,0,0,1,0
676,1336,10325,expressbus,2G,0,0,0,0,0,1,0
689,1337,10325,expressbus,2G,0,0,0,0,0,1,0
712,1338,10325,expressbus,2G,0,0,0,0,0,1,0
736,1339,10325,expressbus,2G,0,0,0,0,0,1,0
758,1340,10325,expressbus,2G,0,0,0,0,0,1,0
781,1341,10325,expressbus,2G,0,0,0,0,0,1,0
792,1342,10325,expressbus,2G,0,0,0,0,0,1,0
802,1343,10325,expressbus,2G,0,0,0,0,0,1,0
816,1344,10325,expressbus,2G,0,0,0,0,0,1,0
828,1345,10325,expressbus,2G,0,0,0,0,0,1,0
840,1346,10325,expressbus,2G,0,0,0,0,0,1,0
851,1347,10325,expressbus,2G,0,0,0,0,0,1,0
861,1348,10325,expressbus,2G,0,0,0,0,0,1,0
884,1349,10325,expressbus,2G,0,0,0,0,0,1,0
898,1350,10325,expressbus,2G,0,0,0,0,0,1,0
916,1351,10325,expressbus,2G,0,0,0,0,0,1,0
927,1352,10325,expressbus,2G,0,0,0,0,0,1,0
938,1353,10325,expressbus,2G,0,0,0,0,0,1,0
948,1354,10325,expressbus,2G,0,0,0,0,0,1,0
971,1355,10325,expressbus,2G,0,0,0,0,0,1,0
988,1356,10325,expressbus,2G,0,0,0,0,0,1,0
1000,1357,10325,expressbus,2G,0,0,0,0,0,1,0
1011,1358,10325,expressbus,2G,0,0,0,0,0,1,0
1020,1359,10325,expressbus,2G,0,0,0,0,0,1,0
1029,1360,10325,expressbus,2G,0,0,0,0,0,1,0
1039,1361,10325,expressbus,2G,0,0,0,0,0,1,0
1050,1362,10325,expressbus,2G,0,0,0,0,0,1,0
1084,1363,10325,expressbus,2G,0,0,0,0,0,1,0
1095,1364,10325,expressbus,2G,0,0,0,0,0,1,0
1113,1365,10325,expressbus,2G,0,0,0,0,0,1,0
1147,1366,10325,expressbus,2G,0,0,0,0,0,1,0
1183,1367,10325,expressbus,2G,0,0,0,0,0,1,0
1214,1368,10325,expressbus,2G,0,0,0,0,0,1,0
1230,1369,10325,expressbus,2G,0,0,0,0,0,1,0
1245,1370,10325,expressbus,2G,0,0,0,0,0,1,0
1263,1371,10325,expressbus,2G,0,0,0,0,0,1,0
1279,1372,10325,expressbus,2G,0,0,0,0,0,1,0
1298,1373,10325,expressbus,2G,0,0,0,0,0,1,0
1319,1374,10325,expressbus,2G,0,0,0,0,0,1,0
1334,1375,10325,expressbus,2G,0,0,0,0,0,1,0
1347,1376,10325,expressbus,2G,0,0,0,0,0,1,0
1364,1377,10325,expressbus,2G,0,0,0,0,0,1,0
1383,1378,10325,expressbus,2G,0,0,0,0,0,1,0
1403,1379,10325,expressbus,2G,0,0,0,0,0,1,0
362,1380,10326,expressbus,2G,0,0,0,0,0,0,1
379,1381,10326,expressbus,2G,0,0,0,0,0,0,1
399,1382,10326,expressbus,2G,0,0,0,0,0,0,1
420,1383,10326,expressbus,2G,0,0,0,0,0,0,1
437,1384,10326,expressbus,2G,0,0,0,0,0,0,1
450,1385,10326,expressbus,2G,0,0,0,0,0,0,1
462,1386,10326,expressbus,2G,0,0,0,0,0,0,1
475,1387,10326,expressbus,2G,0,0,0,0,0,0,1
490,1388,10326,expressbus,2G,0,0,0,0,0,0,1
504,1389,10326,expressbus,2G,0,0,0,0,0,0,1
519,1390,10326,expressbus,2G,0,0,0,0,0,0,1
548,1391,10326,expressbus,2G,0,0,0,0,0,0,1
588,1392,10326,expressbus,2G,0,0,0,0,0,0,1
620,1393,10326,expressbus,2G,0,0,0,0,0,0,1
639,1394,10326,expressbus,2G,0,0,0,0,0,0,1
664,1395,10326,expressbus,2G,0,0,0,0,0,0,1
676,1396,10326,expressbus,2G,0,0,0,0,0,0,1
689,1397,10326,expressbus,2G,0,0,0,0,0,0,1
712,1398,10326,expressbus,2G,0,0,0,0,0,0,1
736,1399,10326,expressbus,2G,0,0,0,0,0,0,1
758,1400,10326,expressbus,2G,0,0,0,0,0,0,1
781,1401,10326,expressbus,2G,0,0,0,0,0,0,1
792,1402,10326,expressbus,2G,0,0,0,0,0,0,1
802,1403,10326,expressbus,2G,0,0,0,0,0,0,1
816,1404,10326,expressbus,2G,0,0,0,0,0,0,1
828,1405,10326,expressbus,2G,0,0,0,0,0,0,1
840,1406,10326,expressbus,2G,0,0,0,0,0,0,1
851,1407,10326,expressbus,2G,0,0,0,0,0,0,1
861,1408,10326,expressbus,2G,0,0,0,0,0,0,1
884,1409,10326,expressbus,2G,0,0,0,0,0,0,1
898,1410,10326,expressbus,2G,0,0,0,0,0,0,1
916,1411,10326,expressbus,2G,0,0,0,0,0,0,1
927,1412,10326,expressbus,2G,0,0,0,0,0,0,1
938,1413,10326,expressbus,2G,0,0,0,0,0,0,1
948,1414,10326,expressbus,2G,0,0,0,0,0,0,1
971,1415,10326,expressbus,2G,0,0,0,0,0,0,1
988,1416,10326,expressbus,2G,0,0,0,0,0,0,1
1000,1417,10326,expressbus,2G,0,0,0,0,0,0,1
1011,1418,10326,expressbus,2G,0,0,0,0,0,0,1
1020,1419,10326,expressbus,2G,0,0,0,0,0,0,1
1029,1420,10326,expressbus,2G,0,0,0,0,0,0,1
1039,1421,10326,expressbus,2G,0,0,0,0,0,0,1
1050,1422,10326,expressbus,2G,0,0,0,0,0,0,1
1084,1423,10326,expressbus,2G,0,0,0,0,0,0,1
1095,1424,10326,expressbus,2G,0,0,0,0,0,0,1
1113,1425,10326,expressbus,2G,0,0,0,0,0,0,1
1147,1426,10326,expressbus,2G,0,0,0,0,0,0,1
1183,1427,10326,expressbus,2G,0,0,0,0,0,0,1
1214,1428,10326,expressbus,2G,0,0,0,0,0,0,1
1230,1429,10326,expressbus,2G,0,0,0,0,0,0,1
1245,1430,10326,expressbus,2G,0,0,0,0,0,0,1
1263,1431,10326,expressbus,2G,0,0,0,0,0,0,1
1279,1432,10326,expressbus,2G,0,0,0,0,0,0,1
1298,1433,10326,expressbus,2G,0,0,0,0,0,0,1
1319,1434,10326,expressbus,2G,0,0,0,0,0,0,1
1334,1435,10326,expressbus,2G,0,0,0,0,0,0,1
1347,1436,10326,expressbus,2G,0,0,0,0,0,0,1
1364,1437,10326,expressbus,2G,0,0,0,0,0,0,1
1383,1438,10326,expressbus,2G,0,0,0,0,0,0,1
1403,1439,10326,expressbus,2G,0,0,0,0,0,0,1
508,1440,10324,expressbus,2G,1,1,1,1,1,0,0
520,1441,10324,expressbus,2G,1,1,1,1,1,0,0
532,1442,10324,expressbus,2G,1,1,1,1,1,0,0
540,1443,10324,expressbus,2G,1,1,1,1,1,0,0
546,1444,10324,expressbus,2G,1,1,1,1,1,0,0
554,1445,10324,expressbus,2G,1,1,1,1,1,0,0
561,1446,10324,expressbus,2G,1,1,1,1,1,0,0
578,1447,10324,expressbus,2G,1,1,1,1,1,0,0
598,1448,10324,expressbus,2G,1,1,1,1,1,0,0
605,1449,10324,expressbus,2G,1,1,1,1,1,0,0
1022,1450,10324,expressbus,2G,1,1,1,1,1,0,0
1042,1451,10324,expressbus,2G,1,1,1,1,1,0,0
1055,1452,10324,expressbus,2G,1,1,1,1,1,0,0
1062,1453,10324,expressbus,2G,1,1,1,1,1,0,0
1067,1454,10324,expressbus,2G,1,1,1,1,1,0,0
1079,1455,10324,expressbus,2G,1,1,1,1,1,0,0
1095,1456,10324,expressbus,2G,1,1,1,1,1,0,0
1116,1457,10324,expressbus,2G,1,1,1,1,1,0,0
1131,1458,10324,expressbus,2G,1,1,1,1,1,0,0
1145,1459,10324,expressbus,2G,1,1,1,1,1,0,0
1199,1460,10324,expressbus,2G,1,1,1,1,1,0,0
534,1461,10325,expressbus,2G,0,0,0,0,0,1,0
561,1462,10325,expressbus,2G,0,0,0,0,0,1,0
574,1463,10325,expressbus,2G,0,0,0,0,0,1,0
604,1464,10325,expressbus,2G,0,0,0,0,0,1,0
630,1465,10325,expressbus,2G,0,0,0,0,0,1,0
649,1466,10325,expressbus,2G,0,0,0,0,0,1,0
700,1467,10325,expressbus,2G,0,0,0,0,0,1,0
723,1468,10325,expressbus,2G,0,0,0,0,0,1,0
747,1469,10325,expressbus,2G,0,0,0,0,0,1,0
768,1470,10325,expressbus,2G,0,0,0,0,0,1,0
874,1471,10325,expressbus,2G,0,0,0,0,0,1,0
907,1472,10325,expressbus,2G,0,0,0,0,0,1,0
957,1473,10325,expressbus,2G,0,0,0,0,0,1,0
1059,1474,10325,expressbus,2G,0,0,0,0,0,1,0
1072,1475,10325,expressbus,2G,0,0,0,0,0,1,0
1104,1476,10325,expressbus,2G,0,0,0,0,0,1,0
1124,1477,10325,expressbus,2G,0,0,0,0,0,1,0
1137,1478,10325,expressbus,2G,0,0,0,0,0,1,0
1163,1479,10325,expressbus,2G,0,0,0,0,0,1,0
1198,1480,10325,expressbus,2G,0,0,0,0,0,1,0
534,1481,10326,expressbus,2G,0,0,0,0,0,0,1
561,1482,10326,expressbus,2G,0,0,0,0,0,0,1
574,1483,10326,expressbus,2G,0,0,0,0,0,0,1
604,1484,10326,expressbus,2G,0,0,0,0,0,0,1
630,1485,10326,expressbus,2G,0,0,0,0,0,0,1
649,1486,10326,expressbus,2G,0,0,0,0,0,0,1
700,1487,10326,expressbus,2G,0,0,0,0,0,0,1
723,1488,10326,expressbus,2G,0,0,0,0,0,0,1
747,1489,10326,expressbus,2G,0,0,0,0,0,0,1
768,1490,10326,expressbus,2G,0,0,0,0,0,0,1
874,1491,10326,expressbus,2G,0,0,0,0,0,0,1
907,1492,10326,expressbus,2G,0,0,0,0,0,0,1
957,1493,10326,expressbus,2G,0,0,0,0,0,0,1
1059,1494,10326,expressbus,2G,0,0,0,0,0,0,1
1072,1495,10326,expressbus,2G,0,0,0,0,0,0,1
1104,1496,10326,expressbus,2G,0,0,0,0,0,0,1
1124,1497,10326,expressbus,2G,0,0,0,0,0,0,1
1137,1498,10326,expressbus,2G,0,0,0,0,0,0,1
1163,1499,10326,expressbus,2G,0,0,0,0,0,0,1
1198,1500,10326,expressbus,2G,0,0,0,0,0,0,1
367,6752,10354,bus,21,1,1,1,1,1,0,0
394,6753,10354,bus,21,1,1,1,1,1,0,0
416,6754,10354,bus,21,1,1,1,1,1,0,0
441,6755,10354,bus,21,1,1,1,1,1,0,0
469,6756,10354,bus,21,1,1,1,1,1,0,0
490,6757,10354,bus,21,1,1,1,1,1,0,0
515,6758,10354,bus,21,1,1,1,1,1,0,0
543,6759,10354,bus,21,1,1,1,1,1,0,0
606,6760,10354,bus,21,1,1,1,1,1,0,0
645,6761,10354,bus,21,1,1,1,1,1,0,0
696,6762,10354,bus,21,1,1,1,1,1,0,0
735,6763,10354,bus,21,1,1,1,1,1,0,0
772,6764,10354,bus,21,1,1,1,1,1,0,0
811,6765,10354,bus,21,1,1,1,1,1,0,0
847,6766,10354,bus,21,1,1,1,1,1,0,0
884,6767,10354,bus,21,1,1,1,1,1,0,0
921,6768,10354,bus,21,1,1,1,1,1,0,0
960,6769,10354,bus,21,1,1,1,1,1,0,0
994,6770,10354,bus,21,1,1,1,1,1,0,0
1017,6771,10354,bus,21,1,1,1,1,1,0,0
1041,6772,10354,bus,21,1,1,1,1,1,0,0
1068,6773,10354,bus,21,1,1,1,1,1,0,0
1094,6774,10354,bus,21,1,1,1,1,1,0,0
1117,6775,10354,bus,21,1,1,1,1,1,0,0
1162,6776,10354,bus,21,1,1,1,1,1,0,0
1211,6777,10354,bus,21,1,1,1,1,1,0,0
1264,6778,10354,bus,21,1,1,1,1,1,0,0
1303,6779,10354,bus,21,1,1,1,1,1,0,0
1336,6780,10354,bus,21,1,1,1,1,1,0,0
1375,6781,10354,bus,21,1,1,1,1,1,0,0
390,6782,9374,bus,21,0,0,0,0,0,1,0
462,6783,9374,bus,21,0,0,0,0,0,1,0
536,6784,9374,bus,21,0,0,0,0,0,1,0
622,6785,9374,bus,21,0,0,0,0,0,1,0
712,6786,9374,bus,21,0,0,0,0,0,1,0
778,6787,9374,bus,21,0,0,0,0,0,1,0
850,6788,9374,bus,21,0,0,0,0,0,1,0
921,6789,9374,bus,21,0,0,0,0,0,1,0
991,6790,9374,bus,21,0,0,0,0,0,1,0
1062,6791,9374,bus,21,0,0,0,0,0,1,0
1148,6792,9374,bus,21,0,0,0,0,0,1,0
1234,6793,9374,bus,21,0,0,0,0,0,1,0
1300,6794,9374,bus,21,0,0,0,0,0,1,0
1366,6795,9374,bus,21,0,0,0,0,0,1,0
429,6796,9375,bus,21,0,0,0,0,0,0,1
503,6797,9375,bus,21,0,0,0,0,0,0,1
604,6798,9375,bus,21,0,0,0,0,0,0,1
676,6799,9375,bus,21,0,0,0,0,0,0,1
753,6800,9375,bus,21,0,0,0,0,0,0,1
824,6801,9375,bus,21,0,0,0,0,0,0,1
895,6802,9375,bus,21,0,0,0,0,0,0,1
966,6803,9375,bus,21,0,0,0,0,0,0,1
1037,6804,9375,bus,21,0,0,0,0,0,0,1
1138,6805,9375,bus,21,0,0,0,0,0,0,1
1209,6806,9375,bus,21,0,0,0,0,0,0,1
1280,6807,9375,bus,21,0,0,0,0,0,0,1
1351,6808,9375,bus,21,0,0,0,0,0,0,1
940,6809,10354,bus,21,1,1,1,1,1,0,0
376,6956,9979,bus,22,0,0,0,0,0,0,1
407,6957,9979,bus,22,0,0,0,0,0,0,1
437,6958,9979,bus,22,0,0,0,0,0,0,1
467,6959,9979,bus,22,0,0,0,0,0,0,1
496,6960,9979,bus,22,0,0,0,0,0,0,1
523,6961,9979,bus,22,0,0,0,0,0,0,1
545,6962,9979,bus,22,0,0,0,0,0,0,1
574,6963,9979,bus,22,0,0,0,0,0,0,1
589,6964,9979,bus,22,0,0,0,0,0,0,1
623,6965,9979,bus,22,0,0,0,0,0,0,1
652,6966,9979,bus,22,0,0,0,0,0,0,1
671,6967,9979,bus,22,0,0,0,0,0,0,1
686,6968,9979,bus,22,0,0,0,0,0,0,1
710,6969,9979,bus,22,0,0,0,0,0,0,1
728,6970,9979,bus,22,0,0,0,0,0,0,1
744,6971,9979,bus,22,0,0,0,0,0,0,1
770,6972,9979,bus,22,0,0,0,0,0,0,1
802,6973,9979,bus,22,0,0,0,0,0,0,1
819,6974,9979,bus,22,0,0,0,0,0,0,1
837,6975,9979,bus,22,0,0,0,0,0,0,1
860,6976,9979,bus,22,0,0,0,0,0,0,1
879,6977,9979,bus,22,0,0,0,0,0,0,1
897,6978,9979,bus,22,0,0,0,0,0,0,1
919,6979,9979,bus,22,0,0,0,0,0,0,1
937,6980,9979,bus,22,0,0,0,0,0,0,1
956,6981,9979,bus,22,0,0,0,0,0,0,1
977,6982,9979,bus,22,0,0,0,0,0,0,1
995,6983,9979,bus,22,0,0,0,0,0,0,1
1014,6984,9979,bus,22,0,0,0,0,0,0,1
1035,6985,9979,bus,22,0,0,0,0,0,0,1
1072,6986,9979,bus,22,0,0,0,0,0,0,1
1113,6987,9979,bus,22,0,0,0,0,0,0,1
1150,6988,9979,bus,22,0,0,0,0,0,0,1
1181,6989,9979,bus,22,0,0,0,0,0,0,1
1207,6990,9979,bus,22,0,0,0,0,0,0,1
1237,6991,9979,bus,22,0,0,0,0,0,0,1
1263,6992,9979,bus,22,0,0,0,0,0,0,1
1295,6993,9979,bus,22,0,0,0,0,0,0,1
1319,6994,9979,bus,22,0,0,0,0,0,0,1
1348,6995,9979,bus,22,0,0,0,0,0,0,1
1375,6996,9979,bus,22,0,0,0,0,0,0,1
1404,6997,9979,bus,22,0,0,0,0,0,0,1
339,6998,10355,bus,22,1,1,1,1,1,0,0
376,6999,10355,bus,22,1,1,1,1,1,0,0
397,7000,10355,bus,22,1,1,1,1,1,0,0
411,7001,10355,bus,22,1,1,1,1,1,0,0
425,7002,10355,bus,22,1,1,1,1,1,0,0
439,7003,10355,bus,22,1,1,1,1,1,0,0
457,7004,10355,bus,22,1,1,1,1,1,0,0
473,7005,10355,bus,22,1,1,1,1,1,0,0
489,7006,10355,bus,22,1,1,1,1,1,0,0
503,7007,10355,bus,22,1,1,1,1,1,0,0
519,7008,10355,bus,22,1,1,1,1,1,0,0
534,7009,10355,bus,22,1,1,1,1,1,0,0
555,7010,10355,bus,22,1,1,1,1,1,0,0
583,7011,10355,bus,22,1,1,1,1,1,0,0
614,7012,10355,bus,22,1,1,1,1,1,0,0
642,7013,10355,bus,22,1,1,1,1,1,0,0
674,7014,10355,bus,22,1,1,1,1,1,0,0
701,7015,10355,bus,22,1,1,1,1,1,0,0
734,7016,10355,bus,22,1,1,1,1,1,0,0
760,7017,10355,bus,22,1,1,1,1,1,0,0
793,7018,10355,bus,22,1,1,1,1,1,0,0
819,7019,10355,bus,22,1,1,1,1,1,0,0
854,7020,10355,bus,22,1,1,1,1,1,0,0
879,7021,10355,bus,22,1,1,1,1,1,0,0
913,7022,10355,bus,22,1,1,1,1,1,0,0
938,7023,10355,bus,22,1,1,1,1,1,0,0
955,7024,10355,bus,22,1,1,1,1,1,0,0
972,7025,10355,bus,22,1,1,1,1,1,0,0
987,7026,10355,bus,22,1,1,1,1,1,0,0
1001,7027,10355,bus,22,1,1,1,1,1,0,0
1017,7028,10355,bus,22,1,1,1,1,1,0,0
1033,7029,10355,bus,22,1,1,1,1,1,0,0
1048,7030,10355,bus,22,1,1,1,1,1,0,0
1062,7031,10355,bus,22,1,1,1,1,1,0,0
1079,7032,10355,bus,22,1,1,1,1,1,0,0
1095,7033,10355,bus,22,1,1,1,1,1,0,0
1111,7034,10355,bus,22,1,1,1,1,1,0,0
1142,7035,10355,bus,22,1,1,1,1,1,0,0
1175,7036,10355,bus,22,1,1,1,1,1,0,0
1221,7037,10355,bus,22,1,1,1,1,1,0,0
1252,7038,10355,bus,22,1,1,1,1,1,0,0
1280,7039,10355,bus,22,1,1,1,1,1,0,0
1311,7040,10355,bus,22,1,1,1,1,1,0,0
1340,7041,10355,bus,22,1,1,1,1,1,0,0
1376,7042,10355,bus,22,1,1,1,1,1,0,0
1411,7043,10355,bus,22,1,1,1,1,1,0,0
376,7044,9978,bus,22,0,0,0,0,0,1,0
407,7045,9978,bus,22,0,0,0,0,0,1,0
437,7046,9978,bus,22,0,0,0,0,0,1,0
467,7047,9978,bus,22,0,0,0,0,0,1,0
496,7048,9978,bus,22,0,0,0,0,0,1,0
523,7049,9978,bus,22,0,0,0,0,0,1,0
545,7050,9978,bus,22,0,0,0,0,0,1,0
574,7051,9978,bus,22,0,0,0,0,0,1,0
589,7052,9978,bus,22,0,0,0,0,0,1,0
623,7053,9978,bus,22,0,0,0,0,0,1,0
652,7054,9978,bus,22,0,0,0,0,0,1,0
671,7055,9978,bus,22,0,0,0,0,0,1,0
686,7056,9978,bus,22,0,0,0,0,0,1,0
710,7057,9978,bus,22,0,0,0,0,0,1,0
728,7058,9978,bus,22,0,0,0,0,0,1,0
744,7059,9978,bus,22,0,0,0,0,0,1,0
770,7060,9978,bus,22,0,0,0,0,0,1,0
802,7061,9978,bus,22,0,0,0,0,0,1,0
819,7062,9978,bus,22,0,0,0,0,0,1,0
837,7063,9978,bus,22,0,0,0,0,0,1,0
860,7064,9978,bus,22,0,0,0,0,0,1,0
879,7065,9978,bus,22,0,0,0,0,0,1,0
897,7066,9978,bus,22,0,0,0,0,0,1,0
919,7067,9978,bus,22,0,0,0,0,0,1,0
937,7068,9978,bus,22,0,0,0,0,0,1,0
956,7069,9978,bus,22,0,0,0,0,0,1,0
977,7070,9978,bus,22,0,0,0,0,0,1,0
995,7071,9978,bus,22,0,0,0,0,0,1,0
1014,7072,9978,bus,22,0,0,0,0,0,1,0
1035,7073,9978,bus,22,0,0,0,0,0,1,0
1072,7074,9978,bus,22,0,0,0,0,0,1,0
1113,7075,9978,bus,22,0,0,0,0,0,1,0
1150,7076,9978,bus,22,0,0,0,0,0,1,0
1181,7077,9978,bus,22,0,0,0,0,0,1,0
1207,7078,9978,bus,22,0,0,0,0,0,1,0
1237,7079,9978,bus,22,0,0,0,0,0,1,0
1263,7080,9978,bus,22,0,0,0,0,0,1,0
1295,7081,9978,bus,22,0,0,0,0,0,1,0
1319,7082,9978,bus,22,0,0,0,0,0,1,0
1348,7083,9978,bus,22,0,0,0,0,0,1,0
1375,7084,9978,bus,22,0,0,0,0,0,1,0
1404,7085,9978,bus,22,0,0,0,0,0,1,0
343,7106,9980,bus,23,1,1,1,1,1,0,0
389,7107,9980,bus,23,1,1,1,1,1,0,0
423,7108,9980,bus,23,1,1,1,1,1,0,0
469,7109,9980,bus,23,1,1,1,1,1,0,0
504,7110,9980,bus,23,1,1,1,1,1,0,0
547,7111,9980,bus,23,1,1,1,1,1,0,0
604,7112,9980,bus,23,1,1,1,1,1,0,0
647,7113,9980,bus,23,1,1,1,1,1,0,0
682,7114,9980,bus,23,1,1,1,1,1,0,0
725,7115,9980,bus,23,1,1,1,1,1,0,0
761,7116,9980,bus,23,1,1,1,1,1,0,0
798,7117,9980,bus,23,1,1,1,1,1,0,0
834,7118,9980,bus,23,1,1,1,1,1,0,0
881,7119,9980,bus,23,1,1,1,1,1,0,0
919,7120,9980,bus,23,1,1,1,1,1,0,0
961,7121,9980,bus,23,1,1,1,1,1,0,0
1001,7122,9980,bus,23,1,1,1,1,1,0,0
1043,7123,9980,bus,23,1,1,1,1,1,0,0
1084,7124,9980,bus,23,1,1,1,1,1,0,0
1150,7125,9980,bus,23,1,1,1,1,1,0,0
1193,7126,9980,bus,23,1,1,1,1,1,0,0
1226,7127,9980,bus,23,1,1,1,1,1,0,0
1267,7128,9980,bus,23,1,1,1,1,1,0,0
1302,7129,9980,bus,23,1,1,1,1,1,0,0
1341,7130,9980,bus,23,1,1,1,1,1,0,0
353,7131,9981,bus,23,0,0,0,0,0,1,0
424,7132,9981,bus,23,0,0,0,0,0,1,0
495,7133,9981,bus,23,0,0,0,0,0,1,0
672,7134,9981,bus,23,0,0,0,0,0,1,0
743,7135,9981,bus,23,0,0,0,0,0,1,0
814,7136,9981,bus,23,0,0,0,0,0,1,0
885,7137,9981,bus,23,0,0,0,0,0,1,0
956,7138,9981,bus,23,0,0,0,0,0,1,0
1027,7139,9981,bus,23,0,0,0,0,0,1,0
1198,7140,9981,bus,23,0,0,0,0,0,1,0
1269,7141,9981,bus,23,0,0,0,0,0,1,0
1340,7142,9981,bus,23,0,0,0,0,0,1,0
401,7143,9982,bus,23,0,0,0,0,0,0,1
472,7144,9982,bus,23,0,0,0,0,0,0,1
543,7145,9982,bus,23,0,0,0,0,0,0,1
721,7146,9982,bus,23,0,0,0,0,0,0,1
792,7147,9982,bus,23,0,0,0,0,0,0,1
863,7148,9982,bus,23,0,0,0,0,0,0,1
934,7149,9982,bus,23,0,0,0,0,0,0,1
1008,7150,9982,bus,23,0,0,0,0,0,0,1
1191,7151,9982,bus,23,0,0,0,0,0,0,1
1266,7152,9982,bus,23,0,0,0,0,0,0,1
1340,7153,9982,bus,23,0,0,0,0,0,0,1
601,7207,9981,bus,23,0,0,0,0,0,1,0
1127,7208,9981,bus,23,0,0,0,0,0,1,0
650,7209,9982,bus,23,0,0,0,0,0,0,1
1116,7210,9982,bus,23,0,0,0,0,0,0,1
355,8161,10607,bus,29,1,1,1,1,1,0,0
372,8162,10607,bus,29,1,1,1,1,1,0,0
392,8163,10607,bus,29,1,1,1,1,1,0,0
406,8164,10607,bus,29,1,1,1,1,1,0,0
425,8165,10607,bus,29,1,1,1,1,1,0,0
445,8166,10607,bus,29,1,1,1,1,1,0,0
465,8167,10607,bus,29,1,1,1,1,1,0,0
479,8168,10607,bus,29,1,1,1,1,1,0,0
498,8169,10607,bus,29,1,1,1,1,1,0,0
515,8170,10607,bus,29,1,1,1,1,1,0,0
538,8171,10607,bus,29,1,1,1,1,1,0,0
575,8172,10607,bus,29,1,1,1,1,1,0,0
606,8173,10607,bus,29,1,1,1,1,1,0,0
632,8174,10607,bus,29,1,1,1,1,1,0,0
665,8175,10607,bus,29,1,1,1,1,1,0,0
696,8176,10607,bus,29,1,1,1,1,1,0,0
722,8177,10607,bus,29,1,1,1,1,1,0,0
744,8178,10607,bus,29,1,1,1,1,1,0,0
766,8179,10607,bus,29,1,1,1,1,1,0,0
794,8180,10607,bus,29,1,1,1,1,1,0,0
818,8181,10607,bus,29,1,1,1,1,1,0,0
840,8182,10607,bus,29,1,1,1,1,1,0,0
864,8183,10607,bus,29,1,1,1,1,1,0,0
890,8184,10607,bus,29,1,1,1,1,1,0,0
911,8185,10607,bus,29,1,1,1,1,1,0,0
934,8186,10607,bus,29,1,1,1,1,1,0,0
953,8187,10607,bus,29,1,1,1,1,1,0,0
968,8188,10607,bus,29,1,1,1,1,1,0,0
984,8189,10607,bus,29,1,1,1,1,1,0,0
1005,8190,10607,bus,29,1,1,1,1,1,0,0
1025,8191,10607,bus,29,1,1,1,1,1,0,0
1042,8192,10607,bus,29,1,1,1,1,1,0,0
1056,8193,10607,bus,29,1,1,1,1,1,0,0
1080,8194,10607,bus,29,1,1,1,1,1,0,0
1109,8195,10607,bus,29,1,1,1,1,1,0,0
1134,8196,10607,bus,29,1,1,1,1,1,0,0
1154,8197,10607,bus,29,1,1,1,1,1,0,0
1181,8198,10607,bus,29,1,1,1,1,1,0,0
1225,8199,10607,bus,29,1,1,1,1,1,0,0
1248,8200,10607,bus,29,1,1,1,1,1,0,0
1271,8201,10607,bus,29,1,1,1,1,1,0,0
1294,8202,10607,bus,29,1,1,1,1,1,0,0
1317,8203,10607,bus,29,1,1,1,1,1,0,0
1345,8204,10607,bus,29,1,1,1,1,1,0,0
1370,8205,10607,bus,29,1,1,1,1,1,0,0
1386,8206,10607,bus,29,1,1,1,1,1,0,0
398,8207,10172,bus,29,0,0,0,0,0,1,0
467,8208,10172,bus,29,0,0,0,0,0,1,0
537,8209,10172,bus,29,0,0,0,0,0,1,0
587,8210,10172,bus,29,0,0,0,0,0,1,0
625,8211,10172,bus,29,0,0,0,0,0,1,0
657,8212,10172,bus,29,0,0,0,0,0,1,0
696,8213,10172,bus,29,0,0,0,0,0,1,0
730,8214,10172,bus,29,0,0,0,0,0,1,0
786,8215,10172,bus,29,0,0,0,0,0,1,0
822,8216,10172,bus,29,0,0,0,0,0,1,0
860,8217,10172,bus,29,0,0,0,0,0,1,0
914,8218,10172,bus,29,0,0,0,0,0,1,0
938,8219,10172,bus,29,0,0,0,0,0,1,0
982,8220,10172,bus,29,0,0,0,0,0,1,0
1007,8221,10172,bus,29,0,0,0,0,0,1,0
1055,8222,10172,bus,29,0,0,0,0,0,1,0
1097,8223,10172,bus,29,0,0,0,0,0,1,0
1187,8224,10172,bus,29,0,0,0,0,0,1,0
1255,8225,10172,bus,29,0,0,0,0,0,1,0
1322,8226,10172,bus,29,0,0,0,0,0,1,0
1389,8227,10172,bus,29,0,0,0,0,0,1,0
389,8228,10173,bus,29,0,0,0,0,0,0,1
467,8229,10173,bus,29,0,0,0,0,0,0,1
537,8230,10173,bus,29,0,0,0,0,0,0,1
587,8231,10173,bus,29,0,0,0,0,0,0,1
625,8232,10173,bus,29,0,0,0,0,0,0,1
657,8233,10173,bus,29,0,0,0,0,0,0,1
696,8234,10173,bus,29,0,0,0,0,0,0,1
730,8235,10173,bus,29,0,0,0,0,0,0,1
786,8236,10173,bus,29,0,0,0,0,0,0,1
822,8237,10173,bus,29,0,0,0,0,0,0,1
860,8238,10173,bus,29,0,0,0,0,0,0,1
914,8239,10173,bus,29,0,0,0,0,0,0,1
938,8240,10173,bus,29,0,0,0,0,0,0,1
982,8241,10173,bus,29,0,0,0,0,0,0,1
1007,8242,10173,bus,29,0,0,0,0,0,0,1
1055,8243,10173,bus,29,0,0,0,0,0,0,1
1097,8244,10173,bus,29,0,0,0,0,0,0,1
1187,8245,10173,bus,29,0,0,0,0,0,0,1
1255,8246,10173,bus,29,0,0,0,0,0,0,1
1322,8247,10173,bus,29,0,0,0,0,0,0,1
1389,8248,10173,bus,29,0,0,0,0,0,0,1
304,8349,10607,bus,29,1,1,1,1,1,0,0
329,8350,10607,bus,29,1,1,1,1,1,0,0
332,8351,10172,bus,29,0,0,0,0,0,1,0
373,12920,10494,bus,54,1,1,1,1,1,0,0
414,12921,10494,bus,54,1,1,1,1,1,0,0
462,12922,10494,bus,54,1,1,1,1,1,0,0
512,12923,10494,bus,54,1,1,1,1,1,0,0
553,12924,10494,bus,54,1,1,1,1,1,0,0
599,12925,10494,bus,54,1,1,1,1,1,0,0
668,12926,10494,bus,54,1,1,1,1,1,0,0
713,12927,10494,bus,54,1,1,1,1,1,0,0
758,12928,10494,bus,54,1,1,1,1,1,0,0
799,12929,10494,bus,54,1,1,1,1,1,0,0
843,12930,10494,bus,54,1,1,1,1,1,0,0
889,12931,10494,bus,54,1,1,1,1,1,0,0
938,12932,10494,bus,54,1,1,1,1,1,0,0
979,12933,10494,bus,54,1,1,1,1,1,0,0
1027,12934,10494,bus,54,1,1,1,1,1,0,0
1069,12935,10494,bus,54,1,1,1,1,1,0,0
1122,12936,10494,bus,54,1,1,1,1,1,0,0
1182,12937,10494,bus,54,1,1,1,1,1,0,0
1238,12938,10494,bus,54,1,1,1,1,1,0,0
1293,12939,10494,bus,54,1,1,1,1,1,0,0
1336,12940,10494,bus,54,1,1,1,1,1,0,0
373,12941,10495,bus,54,0,0,0,0,0,1,0
411,12942,10495,bus,54,0,0,0,0,0,1,0
466,12943,10495,bus,54,0,0,0,0,0,1,0
502,12944,10495,bus,54,0,0,0,0,0,1,0
552,12945,10495,bus,54,0,0,0,0,0,1,0
614,12946,10495,bus,54,0,0,0,0,0,1,0
670,12947,10495,bus,54,0,0,0,0,0,1,0
708,12948,10495,bus,54,0,0,0,0,0,1,0
755,12949,10495,bus,54,0,0,0,0,0,1,0
797,12950,10495,bus,54,0,0,0,0,0,1,0
843,12951,10495,bus,54,0,0,0,0,0,1,0
892,12952,10495,bus,54,0,0,0,0,0,1,0
935,12953,10495,bus,54,0,0,0,0,0,1,0
980,12954,10495,bus,54,0,0,0,0,0,1,0
1026,12955,10495,bus,54,0,0,0,0,0,1,0
1066,12956,10495,bus,54,0,0,0,0,0,1,0
1119,12957,10495,bus,54,0,0,0,0,0,1,0
1181,12958,10495,bus,54,0,0,0,0,0,1,0
1241,12959,10495,bus,54,0,0,0,0,0,1,0
1291,12960,10495,bus,54,0,0,0,0,0,1,0
1341,12961,10495,bus,54,0,0,0,0,0,1,0
411,12962,10496,bus,54,0,0,0,0,0,0,1
466,12963,10496,bus,54,0,0,0,0,0,0,1
502,12964,10496,bus,54,0,0,0,0,0,0,1
552,12965,10496,bus,54,0,0,0,0,0,0,1
614,12966,10496,bus,54,0,0,0,0,0,0,1
670,12967,10496,bus,54,0,0,0,0,0,0,1
708,12968,10496,bus,54,0,0,0,0,0,0,1
755,12969,10496,bus,54,0,0,0,0,0,0,1
797,12970,10496,bus,54,0,0,0,0,0,0,1
843,12971,10496,bus,54,0,0,0,0,0,0,1
892,12972,10496,bus,54,0,0,0,0,0,0,1
935,12973,10496,bus,54,0,0,0,0,0,0,1
980,12974,10496,bus,54,0,0,0,0,0,0,1
1026,12975,10496,bus,54,0,0,0,0,0,0,1
1066,12976,10496,bus,54,0,0,0,0,0,0,1
1119,12977,10496,bus,54,0,0,0,0,0,0,1
1181,12978,10496,bus,54,0,0,0,0,0,0,1
1241,12979,10496,bus,54,0,0,0,0,0,0,1
1291,12980,10496,bus,54,0,0,0,0,0,0,1
1341,12981,10496,bus,54,0,0,0,0,0,0,1
1372,12982,10494,bus,54,1,1,1,1,1,0,0
1420,12983,10494,bus,54,1,1,1,1,1,0,0
1372,12984,10495,bus,54,0,0,0,0,0,1,0
1428,12985,10495,bus,54,0,0,0,0,0,1,0
1372,12986,10496,bus,54,0,0,0,0,0,0,1
1428,12987,10496,bus,54,0,0,0,0,0,0,1
1465,16330,9969,nightbus,101N,0,0,0,0,1,1,0
1508,16331,9969,nightbus,101N,0,0,0,0,1,1,0
1556,16332,9969,nightbus,101N,0,0,0,0,1,1,0
1608,16333,9969,nightbus,101N,0,0,0,0,1,1,0
1467,16355,9971,nightbus,103N,0,0,0,0,1,1,0
1501,16356,9971,nightbus,103N,0,0,0,0,1,1,0
1549,16357,9971,nightbus,103N,0,0,0,0,1,1,0
1577,16358,9971,nightbus,103N,0,0,0,0,1,1,0
1605,16359,9971,nightbus,103N,0,0,0,0,1,1,0
335,17862,10657,trol,4,1,1,1,1,1,0,0
345,17863,10657,trol,4,1,1,1,1,1,0,0
353,17864,10657,trol,4,1,1,1,1,1,0,0
363,17865,10657,trol,4,1,1,1,1,1,0,0
370,17866,10657,trol,4,1,1,1,1,1,0,0
378,17867,10657,trol,4,1,1,1,1,1,0,0
385,17868,10657,trol,4,1,1,1,1,1,0,0
393,17869,10657,trol,4,1,1,1,1,1,0,0
398,17870,10656,trol,4,1,1,1,1,1,0,0
404,17871,10657,trol,4,1,1,1,1,1,0,0
411,17872,10657,trol,4,1,1,1,1,1,0,0
419,17873,10657,trol,4,1,1,1,1,1,0,0
425,17874,10657,trol,4,1,1,1,1,1,0,0
431,17875,10657,trol,4,1,1,1,1,1,0,0
441,17876,10657,trol,4,1,1,1,1,1,0,0
447,17877,10657,trol,4,1,1,1,1,1,0,0
454,17878,10657,trol,4,1,1,1,1,1,0,0
460,17879,10657,trol,4,1,1,1,1,1,0,0
466,17880,10657,trol,4,1,1,1,1,1,0,0
474,17881,10657,trol,4,1,1,1,1,1,0,0
480,17882,10657,trol,4,1,1,1,1,1,0,0
489,17883,10657,trol,4,1,1,1,1,1,0,0
496,17884,10657,trol,4,1,1,1,1,1,0,0
503,17885,10657,trol,4,1,1,1,1,1,0,0
511,17886,10657,trol,4,1,1,1,1,1,0,0
520,17887,10657,trol,4,1,1,1,1,1,0,0
528,17888,10657,trol,4,1,1,1,1,1,0,0
539,17889,10657,trol,4,1,1,1,1,1,0,0
546,17890,10657,trol,4,1,1,1,1,1,0,0
553,17891,10657,trol,4,1,1,1,1,1,0,0
566,17892,10657,trol,4,1,1,1,1,1,0,0
575,17893,10657,trol,4,1,1,1,1,1,0,0
587,17894,10657,trol,4,1,1,1,1,1,0,0
601,17895,10657,trol,4,1,1,1,1,1,0,0
613,17896,10657,trol,4,1,1,1,1,1,0,0
625,17897,10657,trol,4,1,1,1,1,1,0,0
638,17898,10657,trol,4,1,1,1,1,1,0,0
647,17899,10657,trol,4,1,1,1,1,1,0,0
657,17900,10657,trol,4,1,1,1,1,1,0,0
667,17901,10657,trol,4,1,1,1,1,1,0,0
675,17902,10657,trol,4,1,1,1,1,1,0,0
685,17903,10657,trol,4,1,1,1,1,1,0,0
697,17904,10657,trol,4,1,1,1,1,1,0,0
705,17905,10657,trol,4,1,1,1,1,1,0,0
715,17906,10657,trol,4,1,1,1,1,1,0,0
724,17907,10657,trol,4,1,1,1,1,1,0,0
735,17908,10657,trol,4,1,1,1,1,1,0,0
746,17909,10657,trol,4,1,1,1,1,1,0,0
753,17910,10657,trol,4,1,1,1,1,1,0,0
762,17911,10657,trol,4,1,1,1,1,1,0,0
772,17912,10657,trol,4,1,1,1,1,1,0,0
784,17913,10657,trol,4,1,1,1,1,1,0,0
795,17914,10657,trol,4,1,1,1,1,1,0,0
804,17915,10657,trol,4,1,1,1,1,1,0,0
814,17916,10657,trol,4,1,1,1,1,1,0,0
823,17917,10657,trol,4,1,1,1,1,1,0,0
834,17918,10657,trol,4,1,1,1,1,1,0,0
845,17919,10657,trol,4,1,1,1,1,1,0,0
854,17920,10657,trol,4,1,1,1,1,1,0,0
865,17921,10657,trol,4,1,1,1,1,1,0,0
875,17922,10657,trol,4,1,1,1,1,1,0,0
885,17923,10657,trol,4,1,1,1,1,1,0,0
893,17924,10657,trol,4,1,1,1,1,1,0,0
904,17925,10657,trol,4,1,1,1,1,1,0,0
916,17926,10657,trol,4,1,1,1,1,1,0,0
925,17927,10657,trol,4,1,1,1,1,1,0,0
934,17928,10657,trol,4,1,1,1,1,1,0,0
940,17929,10657,trol,4,1,1,1,1,1,0,0
946,17930,10657,trol,4,1,1,1,1,1,0,0
953,17931,10657,trol,4,1,1,1,1,1,0,0
959,17932,10657,trol,4,1,1,1,1,1,0,0
964,17933,10657,trol,4,1,1,1,1,1,0,0
970,17934,10657,trol,4,1,1,1,1,1,0,0
978,17935,10657,trol,4,1,1,1,1,1,0,0
985,17936,10657,trol,4,1,1,1,1,1,0,0
993,17937,10657,trol,4,1,1,1,1,1,0,0
999,17938,10657,trol,4,1,1,1,1,1,0,0
1004,17939,10657,trol,4,1,1,1,1,1,0,0
1012,17940,10657,trol,4,1,1,1,1,1,0,0
1022,17941,10657,trol,4,1,1,1,1,1,0,0
1032,17942,10657,trol,4,1,1,1,1,1,0,0
1039,17943,10657,trol,4,1,1,1,1,1,0,0
1046,17944,10657,trol,4,1,1,1,1,1,0,0
1055,17945,10657,trol,4,1,1,1,1,1,0,0
1063,17946,10657,trol,4,1,1,1,1,1,0,0
1070,17947,10657,trol,4,1,1,1,1,1,0,0
1079,17948,10657,trol,4,1,1,1,1,1,0,0
1086,17949,10657,trol,4,1,1,1,1,1,0,0
1094,17950,10657,trol,4,1,1,1,1,1,0,0
1103,17951,10657,trol,4,1,1,1,1,1,0,0
1112,17952,10657,trol,4,1,1,1,1,1,0,0
1124,17953,10657,trol,4,1,1,1,1,1,0,0
1137,17954,10657,trol,4,1,1,1,1,1,0,0
1146,17955,10657,trol,4,1,1,1,1,1,0,0
1156,17956,10657,trol,4,1,1,1,1,1,0,0
1163,17957,10657,trol,4,1,1,1,1,1,0,0
1180,17958,10657,trol,4,1,1,1,1,1,0,0
1190,17959,10657,trol,4,1,1,1,1,1,0,0
1205,17960,10657,trol,4,1,1,1,1,1,0,0
1219,17961,10657,trol,4,1,1,1,1,1,0,0
1231,17962,10657,trol,4,1,1,1,1,1,0,0
1244,17963,10657,trol,4,1,1,1,1,1,0,0
1252,17964,10657,trol,4,1,1,1,1,1,0,0
1262,17965,10657,trol,4,1,1,1,1,1,0,0
1271,17966,10657,trol,4,1,1,1,1,1,0,0
1282,17967,10657,trol,4,1,1,1,1,1,0,0
1289,17968,10657,trol,4,1,1,1,1,1,0,0
1296,17969,10657,trol,4,1,1,1,1,1,0,0
1307,17970,10657,trol,4,1,1,1,1,1,0,0
1317,17971,10657,trol,4,1,1,1,1,1,0,0
1326,17972,10657,trol,4,1,1,1,1,1,0,0
1339,17973,10657,trol,4,1,1,1,1,1,0,0
1349,17974,10657,trol,4,1,1,1,1,1,0,0
1365,17975,10657,trol,4,1,1,1,1,1,0,0
1378,17976,10657,trol,4,1,1,1,1,1,0,0
1396,17977,10657,trol,4,1,1,1,1,1,0,0
356,17978,10444,trol,4,0,0,0,0,0,1,0
395,17979,10445,trol,4,0,0,0,0,0,0,1
421,17980,10445,trol,4,0,0,0,0,0,0,1
436,17981,10445,trol,4,0,0,0,0,0,0,1
454,17982,10445,trol,4,0,0,0,0,0,0,1
470,17983,10445,trol,4,0,0,0,0,0,0,1
487,17984,10445,trol,4,0,0,0,0,0,0,1
499,17985,10445,trol,4,0,0,0,0,0,0,1
516,17986,10445,trol,4,0,0,0,0,0,0,1
533,17987,10445,trol,4,0,0,0,0,0,0,1
545,17988,10445,trol,4,0,0,0,0,0,0,1
558,17989,10445,trol,4,0,0,0,0,0,0,1
569,17990,10445,trol,4,0,0,0,0,0,0,1
581,17991,10445,trol,4,0,0,0,0,0,0,1
593,17992,10445,trol,4,0,0,0,0,0,0,1
608,17993,10445,trol,4,0,0,0,0,0,0,1
621,17994,10445,trol,4,0,0,0,0,0,0,1
634,17995,10445,trol,4,0,0,0,0,0,0,1
645,17996,10445,trol,4,0,0,0,0,0,0,1
658,17997,10445,trol,4,0,0,0,0,0,0,1
670,17998,10445,trol,4,0,0,0,0,0,0,1
678,17999,10445,trol,4,0,0,0,0,0,0,1
689,18000,10445,trol,4,0,0,0,0,0,0,1
697,18001,10445,trol,4,0,0,0,0,0,0,1
707,18002,10445,trol,4,0,0,0,0,0,0,1
722,18003,10445,trol,4,0,0,0,0,0,0,1
734,18004,10445,trol,4,0,0,0,0,0,0,1
746,18005,10445,trol,4,0,0,0,0,0,0,1
757,18006,10445,trol,4,0,0,0,0,0,0,1
770,18007,10445,trol,4,0,0,0,0,0,0,1
785,18008,10445,trol,4,0,0,0,0,0,0,1
793,18009,10445,trol,4,0,0,0,0,0,0,1
803,18010,10445,trol,4,0,0,0,0,0,0,1
809,18011,10445,trol,4,0,0,0,0,0,0,1
818,18012,10445,trol,4,0,0,0,0,0,0,1
832,18013,10445,trol,4,0,0,0,0,0,0,1
841,18014,10445,trol,4,0,0,0,0,0,0,1
853,18015,10445,trol,4,0,0,0,0,0,0,1
864,18016,10445,trol,4,0,0,0,0,0,0,1
872,18017,10445,trol,4,0,0,0,0,0,0,1
886,18018,10445,trol,4,0,0,0,0,0,0,1
895,18019,10445,trol,4,0,0,0,0,0,0,1
904,18020,10445,trol,4,0,0,0,0,0,0,1
913,18021,10445,trol,4,0,0,0,0,0,0,1
926,18022,10445,trol,4,0,0,0,0,0,0,1
936,18023,10445,trol,4,0,0,0,0,0,0,1
948,18024,10445,trol,4,0,0,0,0,0,0,1
958,18025,10445,trol,4,0,0,0,0,0,0,1
967,18026,10445,trol,4,0,0,0,0,0,0,1
976,18027,10445,trol,4,0,0,0,0,0,0,1
989,18028,10445,trol,4,0,0,0,0,0,0,1
998,18029,10445,trol,4,0,0,0,0,0,0,1
1007,18030,10445,trol,4,0,0,0,0,0,0,1
1020,18031,10445,trol,4,0,0,0,0,0,0,1
1031,18032,10445,trol,4,0,0,0,0,0,0,1
1040,18033,10445,trol,4,0,0,0,0,0,0,1
1050,18034,10445,trol,4,0,0,0,0,0,0,1
1060,18035,10445,trol,4,0,0,0,0,0,0,1
1075,18036,10445,trol,4,0,0,0,0,0,0,1
1088,18037,10445,trol,4,0,0,0,0,0,0,1
1109,18038,10445,trol,4,0,0,0,0,0,0,1
1133,18039,10445,trol,4,0,0,0,0,0,0,1
1154,18040,10445,trol,4,0,0,0,0,0,0,1
1179,18041,10445,trol,4,0,0,0,0,0,0,1
1194,18042,10445,trol,4,0,0,0,0,0,0,1
1211,18043,10445,trol,4,0,0,0,0,0,0,1
1222,18044,10445,trol,4,0,0,0,0,0,0,1
1240,18045,10445,trol,4,0,0,0,0,0,0,1
1256,18046,10445,trol,4,0,0,0,0,0,0,1
1274,18047,10445,trol,4,0,0,0,0,0,0,1
1291,18048,10445,trol,4,0,0,0,0,0,0,1
1304,18049,10445,trol,4,0,0,0,0,0,0,1
1321,18050,10445,trol,4,0,0,0,0,0,0,1
1339,18051,10445,trol,4,0,0,0,0,0,0,1
1360,18052,10445,trol,4,0,0,0,0,0,0,1
1378,18053,10445,trol,4,0,0,0,0,0,0,1
395,18054,10444,trol,4,0,0,0,0,0,1,0
421,18055,10444,trol,4,0,0,0,0,0,1,0
436,18056,10444,trol,4,0,0,0,0,0,1,0
454,18057,10444,trol,4,0,0,0,0,0,1,0
470,18058,10444,trol,4,0,0,0,0,0,1,0
487,18059,10444,trol,4,0,0,0,0,0,1,0
499,18060,10444,trol,4,0,0,0,0,0,1,0
516,18061,10444,trol,4,0,0,0,0,0,1,0
533,18062,10444,trol,4,0,0,0,0,0,1,0
545,18063,10444,trol,4,0,0,0,0,0,1,0
558,18064,10444,trol,4,0,0,0,0,0,1,0
569,18065,10444,trol,4,0,0,0,0,0,1,0
581,18066,10444,trol,4,0,0,0,0,0,1,0
593,18067,10444,trol,4,0,0,0,0,0,1,0
608,18068,10444,trol,4,0,0,0,0,0,1,0
621,18069,10444,trol,4,0,0,0,0,0,1,0
634,18070,10444,trol,4,0,0,0,0,0,1,0
645,18071,10444,trol,4,0,0,0,0,0,1,0
658,18072,10444,trol,4,0,0,0,0,0,1,0
670,18073,10444,trol,4,0,0,0,0,0,1,0
678,18074,10444,trol,4,0,0,0,0,0,1,0
689,18075,10444,trol,4,0,0,0,0,0,1,0
697,18076,10444,trol,4,0,0,0,0,0,1,0
707,18077,10444,trol,4,0,0,0,0,0,1,0
722,18078,10444,trol,4,0,0,0,0,0,1,0
734,18079,10444,trol,4,0,0,0,0,0,1,0
746,18080,10444,trol,4,0,0,0,0,0,1,0
757,18081,10444,trol,4,0,0,0,0,0,1,0
770,18082,10444,trol,4,0,0,0,0,0,1,0
785,18083,10444,trol,4,0,0,0,0,0,1,0
793,18084,10444,trol,4,0,0,0,0,0,1,0
803,18085,10444,trol,4,0,0,0,0,0,1,0
809,18086,10444,trol,4,0,0,0,0,0,1,0
818,18087,10444,trol,4,0,0,0,0,0,1,0
832,18088,10444,trol,4,0,0,0,0,0,1,0
841,18089,10444,trol,4,0,0,0,0,0,1,0
853,18090,10444,trol,4,0,0,0,0,0,1,0
864,18091,10444,trol,4,0,0,0,0,0,1,0
872,18092,10444,trol,4,0,0,0,0,0,1,0
886,18093,10444,trol,4,0,0,0,0,0,1,0
895,18094,10444,trol,4,0,0,0,0,0,1,0
904,18095,10444,trol,4,0,0,0,0,0,1,0
913,18096,10444,trol,4,0,0,0,0,0,1,0
926,18097,10444,trol,4,0,0,0,0,0,1,0
936,18098,10444,trol,4,0,0,0,0,0,1,0
948,18099,10444,trol,4,0,0,0,0,0,1,0
958,18100,10444,trol,4,0,0,0,0,0,1,0
967,18101,10444,trol,4,0,0,0,0,0,1,0
976,18102,10444,trol,4,0,0,0,0,0,1,0
989,18103,10444,trol,4,0,0,0,0,0,1,0
998,18104,10444,trol,4,0,0,0,0,0,1,0
1007,18105,10444,trol,4,0,0,0,0,0,1,0
1020,18106,10444,trol,4,0,0,0,0,0,1,0
1031,18107,10444,trol,4,0,0,0,0,0,1,0
1040,18108,10444,trol,4,0,0,0,0,0,1,0
1050,18109,10444,trol,4,0,0,0,0,0,1,0
1060,18110,10444,trol,4,0,0,0,0,0,1,0
1075,18111,10444,trol,4,0,0,0,0,0,1,0
1088,18112,10444,trol,4,0,0,0,0,0,1,0
1109,18113,10444,trol,4,0,0,0,0,0,1,0
1133,18114,10444,trol,4,0,0,0,0,0,1,0
1154,18115,10444,trol,4,0,0,0,0,0,1,0
1179,18116,10444,trol,4,0,0,0,0,0,1,0
1194,18117,10444,trol,4,0,0,0,0,0,1,0
1211,18118,10444,trol,4,0,0,0,0,0,1,0
1222,18119,10444,trol,4,0,0,0,0,0,1,0
1240,18120,10444,trol,4,0,0,0,0,0,1,0
1256,18121,10444,trol,4,0,0,0,0,0,1,0
1274,18122,10444,trol,4,0,0,0,0,0,1,0
1291,18123,10444,trol,4,0,0,0,0,0,1,0
1304,18124,10444,trol,4,0,0,0,0,0,1,0
1321,18125,10444,trol,4,0,0,0,0,0,1,0
1339,18126,10444,trol,4,0,0,0,0,0,1,0
1360,18127,10444,trol,4,0,0,0,0,0,1,0
1378,18128,10444,trol,4,0,0,0,0,0,1,0
593,18129,10657,trol,4,1,1,1,1,1,0,0
606,18130,10657,trol,4,1,1,1,1,1,0,0
309,18462,10657,trol,4,1,1,1,1,1,0,0
313,18463,10444,trol,4,0,0,0,0,0,1,0
408,18464,10445,trol,4,0,0,0,0,0,0,1
408,18465,10444,trol,4,0,0,0,0,0,1,0
414,18467,10448,trol,6,0,0,0,0,0,0,1
439,18468,10448,trol,6,0,0,0,0,0,0,1
452,18469,10448,trol,6,0,0,0,0,0,0,1
470,18470,10448,trol,6,0,0,0,0,0,0,1
490,18471,10448,trol,6,0,0,0,0,0,0,1
506,18472,10448,trol,6,0,0,0,0,0,0,1
523,18473,10448,trol,6,0,0,0,0,0,0,1
543,18474,10448,trol,6,0,0,0,0,0,0,1
559,18475,10448,trol,6,0,0,0,0,0,0,1
575,18476,10448,trol,6,0,0,0,0,0,0,1
590,18477,10448,trol,6,0,0,0,0,0,0,1
605,18478,10448,trol,6,0,0,0,0,0,0,1
617,18479,10448,trol,6,0,0,0,0,0,0,1
631,18480,10448,trol,6,0,0,0,0,0,0,1
648,18481,10448,trol,6,0,0,0,0,0,0,1
661,18482,10448,trol,6,0,0,0,0,0,0,1
676,18483,10448,trol,6,0,0,0,0,0,0,1
686,18484,10448,trol,6,0,0,0,0,0,0,1
699,18485,10448,trol,6,0,0,0,0,0,0,1
713,18486,10448,trol,6,0,0,0,0,0,0,1
723,18487,10448,trol,6,0,0,0,0,0,0,1
737,18488,10448,trol,6,0,0,0,0,0,0,1
752,18489,10448,trol,6,0,0,0,0,0,0,1
763,18490,10448,trol,6,0,0,0,0,0,0,1
776,18491,10448,trol,6,0,0,0,0,0,0,1
791,18492,10448,trol,6,0,0,0,0,0,0,1
809,18493,10448,trol,6,0,0,0,0,0,0,1
822,18494,10448,trol,6,0,0,0,0,0,0,1
834,18495,10448,trol,6,0,0,0,0,0,0,1
845,18496,10448,trol,6,0,0,0,0,0,0,1
856,18497,10448,trol,6,0,0,0,0,0,0,1
870,18498,10448,trol,6,0,0,0,0,0,0,1
886,18499,10448,trol,6,0,0,0,0,0,0,1
898,18500,10448,trol,6,0,0,0,0,0,0,1
909,18501,10448,trol,6,0,0,0,0,0,0,1
921,18502,10448,trol,6,0,0,0,0,0,0,1
934,18503,10448,trol,6,0,0,0,0,0,0,1
947,18504,10448,trol,6,0,0,0,0,0,0,1
958,18505,10448,trol,6,0,0,0,0,0,0,1
970,18506,10448,trol,6,0,0,0,0,0,0,1
981,18507,10448,trol,6,0,0,0,0,0,0,1
993,18508,10448,trol,6,0,0,0,0,0,0,1
1009,18509,10448,trol,6,0,0,0,0,0,0,1
1023,18510,10448,trol,6,0,0,0,0,0,0,1
1036,18511,10448,trol,6,0,0,0,0,0,0,1
1056,18512,10448,trol,6,0,0,0,0,0,0,1
1076,18513,10448,trol,6,0,0,0,0,0,0,1
1104,18514,10448,trol,6,0,0,0,0,0,0,1
1125,18515,10448,trol,6,0,0,0,0,0,0,1
1142,18516,10448,trol,6,0,0,0,0,0,0,1
1167,18517,10448,trol,6,0,0,0,0,0,0,1
1190,18518,10448,trol,6,0,0,0,0,0,0,1
1209,18519,10448,trol,6,0,0,0,0,0,0,1
1231,18520,10448,trol,6,0,0,0,0,0,0,1
1245,18521,10448,trol,6,0,0,0,0,0,0,1
1271,18522,10448,trol,6,0,0,0,0,0,0,1
1286,18523,10448,trol,6,0,0,0,0,0,0,1
1305,18524,10448,trol,6,0,0,0,0,0,0,1
1327,18525,10448,trol,6,0,0,0,0,0,0,1
1352,18526,10448,trol,6,0,0,0,0,0,0,1
1374,18527,10448,trol,6,0,0,0,0,0,0,1
1388,18528,10448,trol,6,0,0,0,0,0,0,1
337,18529,10446,trol,6,1,1,1,1,1,0,0
346,18530,10446,trol,6,1,1,1,1,1,0,0
361,18531,10446,trol,6,1,1,1,1,1,0,0
373,18532,10446,trol,6,1,1,1,1,1,0,0
386,18533,10446,trol,6,1,1,1,1,1,0,0
394,18534,10446,trol,6,1,1,1,1,1,0,0
402,18535,10446,trol,6,1,1,1,1,1,0,0
411,18536,10446,trol,6,1,1,1,1,1,0,0
421,18537,10446,trol,6,1,1,1,1,1,0,0
431,18538,10446,trol,6,1,1,1,1,1,0,0
444,18539,10446,trol,6,1,1,1,1,1,0,0
453,18540,10446,trol,6,1,1,1,1,1,0,0
461,18541,10446,trol,6,1,1,1,1,1,0,0
468,18542,10446,trol,6,1,1,1,1,1,0,0
475,18543,10446,trol,6,1,1,1,1,1,0,0
485,18544,10446,trol,6,1,1,1,1,1,0,0
494,18545,10446,trol,6,1,1,1,1,1,0,0
500,18546,10446,trol,6,1,1,1,1,1,0,0
509,18547,10446,trol,6,1,1,1,1,1,0,0
518,18548,10446,trol,6,1,1,1,1,1,0,0
525,18549,10446,trol,6,1,1,1,1,1,0,0
538,18550,10446,trol,6,1,1,1,1,1,0,0
551,18551,10446,trol,6,1,1,1,1,1,0,0
566,18552,10446,trol,6,1,1,1,1,1,0,0
583,18553,10446,trol,6,1,1,1,1,1,0,0
595,18554,10446,trol,6,1,1,1,1,1,0,0
611,18555,10446,trol,6,1,1,1,1,1,0,0
621,18556,10446,trol,6,1,1,1,1,1,0,0
636,18557,10446,trol,6,1,1,1,1,1,0,0
651,18558,10446,trol,6,1,1,1,1,1,0,0
665,18559,10446,trol,6,1,1,1,1,1,0,0
678,18560,10446,trol,6,1,1,1,1,1,0,0
688,18561,10446,trol,6,1,1,1,1,1,0,0
697,18562,10446,trol,6,1,1,1,1,1,0,0
711,18563,10446,trol,6,1,1,1,1,1,0,0
723,18564,10446,trol,6,1,1,1,1,1,0,0
738,18565,10446,trol,6,1,1,1,1,1,0,0
751,18566,10446,trol,6,1,1,1,1,1,0,0
764,18567,10446,trol,6,1,1,1,1,1,0,0
778,18568,10446,trol,6,1,1,1,1,1,0,0
793,18569,10446,trol,6,1,1,1,1,1,0,0
804,18570,10446,trol,6,1,1,1,1,1,0,0
815,18571,10446,trol,6,1,1,1,1,1,0,0
829,18572,10446,trol,6,1,1,1,1,1,0,0
842,18573,10446,trol,6,1,1,1,1,1,0,0
855,18574,10446,trol,6,1,1,1,1,1,0,0
871,18575,10446,trol,6,1,1,1,1,1,0,0
886,18576,10446,trol,6,1,1,1,1,1,0,0
900,18577,10446,trol,6,1,1,1,1,1,0,0
914,18578,10446,trol,6,1,1,1,1,1,0,0
924,18579,10446,trol,6,1,1,1,1,1,0,0
935,18580,10446,trol,6,1,1,1,1,1,0,0
944,18581,10446,trol,6,1,1,1,1,1,0,0
951,18582,10446,trol,6,1,1,1,1,1,0,0
959,18583,10446,trol,6,1,1,1,1,1,0,0
966,18584,10446,trol,6,1,1,1,1,1,0,0
976,18585,10446,trol,6,1,1,1,1,1,0,0
984,18586,10446,trol,6,1,1,1,1,1,0,0
992,18587,10446,trol,6,1,1,1,1,1,0,0
1001,18588,10446,trol,6,1,1,1,1,1,0,0
1011,18589,10446,trol,6,1,1,1,1,1,0,0
1020,18590,10446,trol,6,1,1,1,1,1,0,0
1031,18591,10446,trol,6,1,1,1,1,1,0,0
1041,18592,10446,trol,6,1,1,1,1,1,0,0
1050,18593,10446,trol,6,1,1,1,1,1,0,0
1059,18594,10446,trol,6,1,1,1,1,1,0,0
1069,18595,10446,trol,6,1,1,1,1,1,0,0
1079,18596,10446,trol,6,1,1,1,1,1,0,0
1088,18597,10446,trol,6,1,1,1,1,1,0,0
1099,18598,10446,trol,6,1,1,1,1,1,0,0
1110,18599,10446,trol,6,1,1,1,1,1,0,0
1121,18600,10446,trol,6,1,1,1,1,1,0,0
1133,18601,10446,trol,6,1,1,1,1,1,0,0
1145,18602,10446,trol,6,1,1,1,1,1,0,0
1153,18603,10446,trol,6,1,1,1,1,1,0,0
1167,18604,10446,trol,6,1,1,1,1,1,0,0
1181,18605,10446,trol,6,1,1,1,1,1,0,0
1191,18606,10446,trol,6,1,1,1,1,1,0,0
1204,18607,10446,trol,6,1,1,1,1,1,0,0
1211,18608,10446,trol,6,1,1,1,1,1,0,0
1229,18609,10446,trol,6,1,1,1,1,1,0,0
1243,18610,10446,trol,6,1,1,1,1,1,0,0
1254,18611,10446,trol,6,1,1,1,1,1,0,0
1264,18612,10446,trol,6,1,1,1,1,1,0,0
1277,18613,10446,trol,6,1,1,1,1,1,0,0
1289,18614,10446,trol,6,1,1,1,1,1,0,0
1301,18615,10446,trol,6,1,1,1,1,1,0,0
1311,18616,10446,trol,6,1,1,1,1,1,0,0
1322,18617,10446,trol,6,1,1,1,1,1,0,0
1335,18618,10446,trol,6,1,1,1,1,1,0,0
1347,18619,10446,trol,6,1,1,1,1,1,0,0
1361,18620,10446,trol,6,1,1,1,1,1,0,0
1375,18621,10446,trol,6,1,1,1,1,1,0,0
360,18622,10447,trol,6,0,0,0,0,0,1,0
387,18623,10447,trol,6,0,0,0,0,0,1,0
414,18624,10447,trol,6,0,0,0,0,0,1,0
439,18625,10447,trol,6,0,0,0,0,0,1,0
452,18626,10447,trol,6,0,0,0,0,0,1,0
470,18627,10447,trol,6,0,0,0,0,0,1,0
490,18628,10447,trol,6,0,0,0,0,0,1,0
506,18629,10447,trol,6,0,0,0,0,0,1,0
523,18630,10447,trol,6,0,0,0,0,0,1,0
543,18631,10447,trol,6,0,0,0,0,0,1,0
559,18632,10447,trol,6,0,0,0,0,0,1,0
575,18633,10447,trol,6,0,0,0,0,0,1,0
590,18634,10447,trol,6,0,0,0,0,0,1,0
605,18635,10447,trol,6,0,0,0,0,0,1,0
617,18636,10447,trol,6,0,0,0,0,0,1,0
631,18637,10447,trol,6,0,0,0,0,0,1,0
648,18638,10447,trol,6,0,0,0,0,0,1,0
661,18639,10447,trol,6,0,0,0,0,0,1,0
676,18640,10447,trol,6,0,0,0,0,0,1,0
686,18641,10447,trol,6,0,0,0,0,0,1,0
699,18642,10447,trol,6,0,0,0,0,0,1,0
713,18643,10447,trol,6,0,0,0,0,0,1,0
723,18644,10447,trol,6,0,0,0,0,0,1,0
737,18645,10447,trol,6,0,0,0,0,0,1,0
752,18646,10447,trol,6,0,0,0,0,0,1,0
763,18647,10447,trol,6,0,0,0,0,0,1,0
776,18648,10447,trol,6,0,0,0,0,0,1,0
791,18649,10447,trol,6,0,0,0,0,0,1,0
809,18650,10447,trol,6,0,0,0,0,0,1,0
822,18651,10447,trol,6,0,0,0,0,0,1,0
834,18652,10447,trol,6,0,0,0,0,0,1,0
845,18653,10447,trol,6,0,0,0,0,0,1,0
856,18654,10447,trol,6,0,0,0,0,0,1,0
870,18655,10447,trol,6,0,0,0,0,0,1,0
886,18656,10447,trol,6,0,0,0,0,0,1,0
898,18657,10447,trol,6,0,0,0,0,0,1,0
909,18658,10447,trol,6,0,0,0,0,0,1,0
921,18659,10447,trol,6,0,0,0,0,0,1,0
934,18660,10447,trol,6,0,0,0,0,0,1,0
947,18661,10447,trol,6,0,0,0,0,0,1,0
958,18662,10447,trol,6,0,0,0,0,0,1,0
970,18663,10447,trol,6,0,0,0,0,0,1,0
981,18664,10447,trol,6,0,0,0,0,0,1,0
993,18665,10447,trol,6,0,0,0,0,0,1,0
1009,18666,10447,trol,6,0,0,0,0,0,1,0
1023,18667,10447,trol,6,0,0,0,0,0,1,0
1036,18668,10447,trol,6,0,0,0,0,0,1,0
1056,18669,10447,trol,6,0,0,0,0,0,1,0
1076,18670,10447,trol,6,0,0,0,0,0,1,0
1104,18671,10447,trol,6,0,0,0,0,0,1,0
1125,18672,10447,trol,6,0,0,0,0,0,1,0
1142,18673,10447,trol,6,0,0,0,0,0,1,0
1167,18674,10447,trol,6,0,0,0,0,0,1,0
1190,18675,10447,trol,6,0,0,0,0,0,1,0
1209,18676,10447,trol,6,0,0,0,0,0,1,0
1231,18677,10447,trol,6,0,0,0,0,0,1,0
1245,18678,10447,trol,6,0,0,0,0,0,1,0
1271,18679,10447,trol,6,0,0,0,0,0,1,0
1286,18680,10447,trol,6,0,0,0,0,0,1,0
1305,18681,10447,trol,6,0,0,0,0,0,1,0
1327,18682,10447,trol,6,0,0,0,0,0,1,0
1352,18683,10447,trol,6,0,0,0,0,0,1,0
1374,18684,10447,trol,6,0,0,0,0,0,1,0
1388,18685,10447,trol,6,0,0,0,0,0,1,0
573,18686,10446,trol,6,1,1,1,1,1,0,0
603,18687,10446,trol,6,1,1,1,1,1,0,0
360,18970,10448,trol,6,0,0,0,0,0,0,1
387,18971,10448,trol,6,0,0,0,0,0,0,1
380,18972,10446,trol,6,1,1,1,1,1,0,0
339,18973,10447,trol,6,0,0,0,0,0,1,0
314,18974,10446,trol,6,1,1,1,1,1,0,0
313,18975,10447,trol,6,0,0,0,0,0,1,0
423,20818,10460,trol,12,0,0,0,0,0,0,1
444,20819,10460,trol,12,0,0,0,0,0,0,1
460,20820,10460,trol,12,0,0,0,0,0,0,1
481,20821,10460,trol,12,0,0,0,0,0,0,1
503,20822,10460,trol,12,0,0,0,0,0,0,1
531,20823,10460,trol,12,0,0,0,0,0,0,1
553,20824,10460,trol,12,0,0,0,0,0,0,1
571,20825,10460,trol,12,0,0,0,0,0,0,1
594,20826,10460,trol,12,0,0,0,0,0,0,1
621,20827,10460,trol,12,0,0,0,0,0,0,1
641,20828,10460,trol,12,0,0,0,0,0,0,1
667,20829,10460,trol,12,0,0,0,0,0,0,1
692,20830,10460,trol,12,0,0,0,0,0,0,1
706,20831,10460,trol,12,0,0,0,0,0,0,1
728,20832,10460,trol,12,0,0,0,0,0,0,1
743,20833,10460,trol,12,0,0,0,0,0,0,1
760,20834,10460,trol,12,0,0,0,0,0,0,1
785,20835,10460,trol,12,0,0,0,0,0,0,1
802,20836,10460,trol,12,0,0,0,0,0,0,1
829,20837,10460,trol,12,0,0,0,0,0,0,1
851,20838,10460,trol,12,0,0,0,0,0,0,1
862,20839,10460,trol,12,0,0,0,0,0,0,1
878,20840,10460,trol,12,0,0,0,0,0,0,1
903,20841,10460,trol,12,0,0,0,0,0,0,1
916,20842,10460,trol,12,0,0,0,0,0,0,1
942,20843,10460,trol,12,0,0,0,0,0,0,1
962,20844,10460,trol,12,0,0,0,0,0,0,1
985,20845,10460,trol,12,0,0,0,0,0,0,1
1000,20846,10460,trol,12,0,0,0,0,0,0,1
1017,20847,10460,trol,12,0,0,0,0,0,0,1
1041,20848,10460,trol,12,0,0,0,0,0,0,1
1065,20849,10460,trol,12,0,0,0,0,0,0,1
1088,20850,10460,trol,12,0,0,0,0,0,0,1
1113,20851,10460,trol,12,0,0,0,0,0,0,1
1150,20852,10460,trol,12,0,0,0,0,0,0,1
1176,20853,10460,trol,12,0,0,0,0,0,0,1
1200,20854,10460,trol,12,0,0,0,0,0,0,1
1224,20855,10460,trol,12,0,0,0,0,0,0,1
1251,20856,10460,trol,12,0,0,0,0,0,0,1
1266,20857,10460,trol,12,0,0,0,0,0,0,1
1294,20858,10460,trol,12,0,0,0,0,0,0,1
1311,20859,10460,trol,12,0,0,0,0,0,0,1
1339,20860,10460,trol,12,0,0,0,0,0,0,1
1365,20861,10460,trol,12,0,0,0,0,0,0,1
1398,20862,10460,trol,12,0,0,0,0,0,0,1
334,20863,10458,trol,12,1,1,1,1,1,0,0
350,20864,10458,trol,12,1,1,1,1,1,0,0
365,20865,10458,trol,12,1,1,1,1,1,0,0
377,20866,10458,trol,12,1,1,1,1,1,0,0
390,20867,10458,trol,12,1,1,1,1,1,0,0
405,20868,10458,trol,12,1,1,1,1,1,0,0
418,20869,10458,trol,12,1,1,1,1,1,0,0
435,20870,10458,trol,12,1,1,1,1,1,0,0
446,20871,10458,trol,12,1,1,1,1,1,0,0
457,20872,10458,trol,12,1,1,1,1,1,0,0
465,20873,10458,trol,12,1,1,1,1,1,0,0
477,20874,10458,trol,12,1,1,1,1,1,0,0
488,20875,10458,trol,12,1,1,1,1,1,0,0
503,20876,10458,trol,12,1,1,1,1,1,0,0
515,20877,10458,trol,12,1,1,1,1,1,0,0
529,20878,10458,trol,12,1,1,1,1,1,0,0
545,20879,10458,trol,12,1,1,1,1,1,0,0
561,20880,10458,trol,12,1,1,1,1,1,0,0
578,20881,10458,trol,12,1,1,1,1,1,0,0
593,20882,10458,trol,12,1,1,1,1,1,0,0
607,20883,10458,trol,12,1,1,1,1,1,0,0
625,20884,10458,trol,12,1,1,1,1,1,0,0
641,20885,10458,trol,12,1,1,1,1,1,0,0
657,20886,10458,trol,12,1,1,1,1,1,0,0
674,20887,10458,trol,12,1,1,1,1,1,0,0
691,20888,10458,trol,12,1,1,1,1,1,0,0
706,20889,10458,trol,12,1,1,1,1,1,0,0
717,20890,10458,trol,12,1,1,1,1,1,0,0
731,20891,10458,trol,12,1,1,1,1,1,0,0
746,20892,10458,trol,12,1,1,1,1,1,0,0
760,20893,10458,trol,12,1,1,1,1,1,0,0
774,20894,10458,trol,12,1,1,1,1,1,0,0
789,20895,10458,trol,12,1,1,1,1,1,0,0
807,20896,10458,trol,12,1,1,1,1,1,0,0
824,20897,10458,trol,12,1,1,1,1,1,0,0
838,20898,10458,trol,12,1,1,1,1,1,0,0
852,20899,10458,trol,12,1,1,1,1,1,0,0
866,20900,10458,trol,12,1,1,1,1,1,0,0
882,20901,10458,trol,12,1,1,1,1,1,0,0
896,20902,10458,trol,12,1,1,1,1,1,0,0
910,20903,10458,trol,12,1,1,1,1,1,0,0
927,20904,10458,trol,12,1,1,1,1,1,0,0
938,20905,10458,trol,12,1,1,1,1,1,0,0
948,20906,10458,trol,12,1,1,1,1,1,0,0
962,20907,10458,trol,12,1,1,1,1,1,0,0
973,20908,10458,trol,12,1,1,1,1,1,0,0
986,20909,10458,trol,12,1,1,1,1,1,0,0
996,20910,10458,trol,12,1,1,1,1,1,0,0
1007,20911,10458,trol,12,1,1,1,1,1,0,0
1023,20912,10458,trol,12,1,1,1,1,1,0,0
1038,20913,10458,trol,12,1,1,1,1,1,0,0
1055,20914,10458,trol,12,1,1,1,1,1,0,0
1073,20915,10458,trol,12,1,1,1,1,1,0,0
1086,20916,10458,trol,12,1,1,1,1,1,0,0
1102,20917,10458,trol,12,1,1,1,1,1,0,0
1115,20918,10458,trol,12,1,1,1,1,1,0,0
1129,20919,10458,trol,12,1,1,1,1,1,0,0
1148,20920,10458,trol,12,1,1,1,1,1,0,0
1163,20921,10458,trol,12,1,1,1,1,1,0,0
1178,20922,10458,trol,12,1,1,1,1,1,0,0
1196,20923,10458,trol,12,1,1,1,1,1,0,0
1215,20924,10458,trol,12,1,1,1,1,1,0,0
1225,20925,10458,trol,12,1,1,1,1,1,0,0
1237,20926,10458,trol,12,1,1,1,1,1,0,0
1250,20927,10458,trol,12,1,1,1,1,1,0,0
1267,20928,10458,trol,12,1,1,1,1,1,0,0
1281,20929,10458,trol,12,1,1,1,1,1,0,0
1297,20930,10458,trol,12,1,1,1,1,1,0,0
1315,20931,10458,trol,12,1,1,1,1,1,0,0
1330,20932,10458,trol,12,1,1,1,1,1,0,0
1353,20933,10458,trol,12,1,1,1,1,1,0,0
1366,20934,10458,trol,12,1,1,1,1,1,0,0
374,20935,10459,trol,12,0,0,0,0,0,1,0
398,20936,10459,trol,12,0,0,0,0,0,1,0
423,20937,10459,trol,12,0,0,0,0,0,1,0
444,20938,10459,trol,12,0,0,0,0,0,1,0
460,20939,10459,trol,12,0,0,0,0,0,1,0
481,20940,10459,trol,12,0,0,0,0,0,1,0
503,20941,10459,trol,12,0,0,0,0,0,1,0
531,20942,10459,trol,12,0,0,0,0,0,1,0
553,20943,10459,trol,12,0,0,0,0,0,1,0
571,20944,10459,trol,12,0,0,0,0,0,1,0
594,20945,10459,trol,12,0,0,0,0,0,1,0
621,20946,10459,trol,12,0,0,0,0,0,1,0
641,20947,10459,trol,12,0,0,0,0,0,1,0
667,20948,10459,trol,12,0,0,0,0,0,1,0
692,20949,10459,trol,12,0,0,0,0,0,1,0
706,20950,10459,trol,12,0,0,0,0,0,1,0
728,20951,10459,trol,12,0,0,0,0,0,1,0
743,20952,10459,trol,12,0,0,0,0,0,1,0
760,20953,10459,trol,12,0,0,0,0,0,1,0
785,20954,10459,trol,12,0,0,0,0,0,1,0
802,20955,10459,trol,12,0,0,0,0,0,1,0
829,20956,10459,trol,12,0,0,0,0,0,1,0
851,20957,10459,trol,12,0,0,0,0,0,1,0
862,20958,10459,trol,12,0,0,0,0,0,1,0
878,20959,10459,trol,12,0,0,0,0,0,1,0
903,20960,10459,trol,12,0,0,0,0,0,1,0
916,20961,10459,trol,12,0,0,0,0,0,1,0
942,20962,10459,trol,12,0,0,0,0,0,1,0
962,20963,10459,trol,12,0,0,0,0,0,1,0
985,20964,10459,trol,12,0,0,0,0,0,1,0
1000,20965,10459,trol,12,0,0,0,0,0,1,0
1017,20966,10459,trol,12,0,0,0,0,0,1,0
1041,20967,10459,trol,12,0,0,0,0,0,1,0
1065,20968,10459,trol,12,0,0,0,0,0,1,0
1088,20969,10459,trol,12,0,0,0,0,0,1,0
1113,20970,10459,trol,12,0,0,0,0,0,1,0
1150,20971,10459,trol,12,0,0,0,0,0,1,0
1176,20972,10459,trol,12,0,0,0,0,0,1,0
1200,20973,10459,trol,12,0,0,0,0,0,1,0
1224,20974,10459,trol,12,0,0,0,0,0,1,0
1251,20975,10459,trol,12,0,0,0,0,0,1,0
1266,20976,10459,trol,12,0,0,0,0,0,1,0
1294,20977,10459,trol,12,0,0,0,0,0,1,0
1311,20978,10459,trol,12,0,0,0,0,0,1,0
1339,20979,10459,trol,12,0,0,0,0,0,1,0
1365,20980,10459,trol,12,0,0,0,0,0,1,0
1398,20981,10459,trol,12,0,0,0,0,0,1,0
374,21188,10460,trol,12,0,0,0,0,0,0,1
398,21189,10460,trol,12,0,0,0,0,0,0,1
404,21254,10464,trol,14,0,0,0,0,0,0,1
434,21255,10464,trol,14,0,0,0,0,0,0,1
467,21256,10464,trol,14,0,0,0,0,0,0,1
500,21257,10464,trol,14,0,0,0,0,0,0,1
538,21258,10464,trol,14,0,0,0,0,0,0,1
568,21259,10464,trol,14,0,0,0,0,0,0,1
622,21260,10464,trol,14,0,0,0,0,0,0,1
658,21261,10464,trol,14,0,0,0,0,0,0,1
689,21262,10464,trol,14,0,0,0,0,0,0,1
721,21263,10464,trol,14,0,0,0,0,0,0,1
756,21264,10464,trol,14,0,0,0,0,0,0,1
788,21265,10464,trol,14,0,0,0,0,0,0,1
824,21266,10464,trol,14,0,0,0,0,0,0,1
854,21267,10464,trol,14,0,0,0,0,0,0,1
889,21268,10464,trol,14,0,0,0,0,0,0,1
924,21269,10464,trol,14,0,0,0,0,0,0,1
955,21270,10464,trol,14,0,0,0,0,0,0,1
989,21271,10464,trol,14,0,0,0,0,0,0,1
1026,21272,10464,trol,14,0,0,0,0,0,0,1
1053,21273,10464,trol,14,0,0,0,0,0,0,1
1085,21274,10464,trol,14,0,0,0,0,0,0,1
1122,21275,10464,trol,14,0,0,0,0,0,0,1
1155,21276,10464,trol,14,0,0,0,0,0,0,1
1204,21277,10464,trol,14,0,0,0,0,0,0,1
1241,21278,10464,trol,14,0,0,0,0,0,0,1
1275,21279,10464,trol,14,0,0,0,0,0,0,1
1301,21280,10464,trol,14,0,0,0,0,0,0,1
1335,21281,10464,trol,14,0,0,0,0,0,0,1
1370,21282,10464,trol,14,0,0,0,0,0,0,1
369,21283,10462,trol,14,1,1,1,1,1,0,0
392,21284,10462,trol,14,1,1,1,1,1,0,0
414,21285,10462,trol,14,1,1,1,1,1,0,0
438,21286,10462,trol,14,1,1,1,1,1,0,0
459,21287,10462,trol,14,1,1,1,1,1,0,0
479,21288,10462,trol,14,1,1,1,1,1,0,0
501,21289,10462,trol,14,1,1,1,1,1,0,0
527,21290,10462,trol,14,1,1,1,1,1,0,0
549,21291,10462,trol,14,1,1,1,1,1,0,0
570,21292,10462,trol,14,1,1,1,1,1,0,0
609,21293,10462,trol,14,1,1,1,1,1,0,0
637,21294,10462,trol,14,1,1,1,1,1,0,0
679,21295,10462,trol,14,1,1,1,1,1,0,0
712,21296,10462,trol,14,1,1,1,1,1,0,0
743,21297,10462,trol,14,1,1,1,1,1,0,0
782,21298,10462,trol,14,1,1,1,1,1,0,0
816,21299,10462,trol,14,1,1,1,1,1,0,0
849,21300,10462,trol,14,1,1,1,1,1,0,0
888,21301,10462,trol,14,1,1,1,1,1,0,0
920,21302,10462,trol,14,1,1,1,1,1,0,0
939,21303,10462,trol,14,1,1,1,1,1,0,0
956,21304,10462,trol,14,1,1,1,1,1,0,0
977,21305,10462,trol,14,1,1,1,1,1,0,0
999,21306,10462,trol,14,1,1,1,1,1,0,0
1026,21307,10462,trol,14,1,1,1,1,1,0,0
1048,21308,10462,trol,14,1,1,1,1,1,0,0
1067,21309,10462,trol,14,1,1,1,1,1,0,0
1091,21310,10462,trol,14,1,1,1,1,1,0,0
1113,21311,10462,trol,14,1,1,1,1,1,0,0
1137,21312,10462,trol,14,1,1,1,1,1,0,0
1157,21313,10462,trol,14,1,1,1,1,1,0,0
1175,21314,10462,trol,14,1,1,1,1,1,0,0
1199,21315,10462,trol,14,1,1,1,1,1,0,0
1241,21316,10462,trol,14,1,1,1,1,1,0,0
1270,21317,10462,trol,14,1,1,1,1,1,0,0
1304,21318,10462,trol,14,1,1,1,1,1,0,0
1339,21319,10462,trol,14,1,1,1,1,1,0,0
1370,21320,10462,trol,14,1,1,1,1,1,0,0
1402,21321,10462,trol,14,1,1,1,1,1,0,0
370,21322,10463,trol,14,0,0,0,0,0,1,0
404,21323,10463,trol,14,0,0,0,0,0,1,0
434,21324,10463,trol,14,0,0,0,0,0,1,0
467,21325,10463,trol,14,0,0,0,0,0,1,0
500,21326,10463,trol,14,0,0,0,0,0,1,0
538,21327,10463,trol,14,0,0,0,0,0,1,0
568,21328,10463,trol,14,0,0,0,0,0,1,0
622,21329,10463,trol,14,0,0,0,0,0,1,0
658,21330,10463,trol,14,0,0,0,0,0,1,0
689,21331,10463,trol,14,0,0,0,0,0,1,0
721,21332,10463,trol,14,0,0,0,0,0,1,0
756,21333,10463,trol,14,0,0,0,0,0,1,0
788,21334,10463,trol,14,0,0,0,0,0,1,0
824,21335,10463,trol,14,0,0,0,0,0,1,0
854,21336,10463,trol,14,0,0,0,0,0,1,0
889,21337,10463,trol,14,0,0,0,0,0,1,0
924,21338,10463,trol,14,0,0,0,0,0,1,0
955,21339,10463,trol,14,0,0,0,0,0,1,0
989,21340,10463,trol,14,0,0,0,0,0,1,0
1026,21341,10463,trol,14,0,0,0,0,0,1,0
1053,21342,10463,trol,14,0,0,0,0,0,1,0
1085,21343,10463,trol,14,0,0,0,0,0,1,0
1122,21344,10463,trol,14,0,0,0,0,0,1,0
1155,21345,10463,trol,14,0,0,0,0,0,1,0
1204,21346,10463,trol,14,0,0,0,0,0,1,0
1241,21347,10463,trol,14,0,0,0,0,0,1,0
1275,21348,10463,trol,14,0,0,0,0,0,1,0
1301,21349,10463,trol,14,0,0,0,0,0,1,0
1335,21350,10463,trol,14,0,0,0,0,0,1,0
1370,21351,10463,trol,14,0,0,0,0,0,1,0
330,21467,10462,trol,14,1,1,1,1,1,0,0
319,21468,10465,trol,15,1,1,1,1,1,0,0
339,21469,10465,trol,15,1,1,1,1,1,0,0
362,21470,10465,trol,15,1,1,1,1,1,0,0
379,21471,10465,trol,15,1,1,1,1,1,0,0
402,21472,10465,trol,15,1,1,1,1,1,0,0
425,21473,10465,trol,15,1,1,1,1,1,0,0
452,21474,10465,trol,15,1,1,1,1,1,0,0
476,21475,10465,trol,15,1,1,1,1,1,0,0
944,21476,10465,trol,15,1,1,1,1,1,0,0
969,21477,10465,trol,15,1,1,1,1,1,0,0
989,21478,10465,trol,15,1,1,1,1,1,0,0
1017,21479,10465,trol,15,1,1,1,1,1,0,0
1043,21480,10465,trol,15,1,1,1,1,1,0,0
1067,21481,10465,trol,15,1,1,1,1,1,0,0
1090,21482,10465,trol,15,1,1,1,1,1,0,0
496,21483,10465,trol,15,1,1,1,1,1,0,0
523,21484,10465,trol,15,1,1,1,1,1,0,0
545,21485,10465,trol,15,1,1,1,1,1,0,0
336,21809,10466,trol,16,1,1,1,1,1,0,0
350,21810,10466,trol,16,1,1,1,1,1,0,0
358,21811,10466,trol,16,1,1,1,1,1,0,0
373,21812,10466,trol,16,1,1,1,1,1,0,0
385,21813,10466,trol,16,1,1,1,1,1,0,0
404,21814,10466,trol,16,1,1,1,1,1,0,0
415,21815,10466,trol,16,1,1,1,1,1,0,0
425,21816,10466,trol,16,1,1,1,1,1,0,0
437,21817,10466,trol,16,1,1,1,1,1,0,0
444,21818,10466,trol,16,1,1,1,1,1,0,0
452,21819,10466,trol,16,1,1,1,1,1,0,0
458,21820,10466,trol,16,1,1,1,1,1,0,0
464,21821,10466,trol,16,1,1,1,1,1,0,0
471,21822,10466,trol,16,1,1,1,1,1,0,0
478,21823,10466,trol,16,1,1,1,1,1,0,0
484,21824,10466,trol,16,1,1,1,1,1,0,0
489,21825,10466,trol,16,1,1,1,1,1,0,0
495,21826,10466,trol,16,1,1,1,1,1,0,0
500,21827,10466,trol,16,1,1,1,1,1,0,0
505,21828,10466,trol,16,1,1,1,1,1,0,0
511,21829,10466,trol,16,1,1,1,1,1,0,0
517,21830,10466,trol,16,1,1,1,1,1,0,0
523,21831,10466,trol,16,1,1,1,1,1,0,0
529,21832,10466,trol,16,1,1,1,1,1,0,0
535,21833,10466,trol,16,1,1,1,1,1,0,0
543,21834,10466,trol,16,1,1,1,1,1,0,0
551,21835,10466,trol,16,1,1,1,1,1,0,0
559,21836,10466,trol,16,1,1,1,1,1,0,0
567,21837,10466,trol,16,1,1,1,1,1,0,0
575,21838,10466,trol,16,1,1,1,1,1,0,0
584,21839,10466,trol,16,1,1,1,1,1,0,0
591,21840,10466,trol,16,1,1,1,1,1,0,0
597,21841,10466,trol,16,1,1,1,1,1,0,0
603,21842,10466,trol,16,1,1,1,1,1,0,0
610,21843,10466,trol,16,1,1,1,1,1,0,0
616,21844,10466,trol,16,1,1,1,1,1,0,0
624,21845,10466,trol,16,1,1,1,1,1,0,0
632,21846,10466,trol,16,1,1,1,1,1,0,0
644,21847,10466,trol,16,1,1,1,1,1,0,0
655,21848,10466,trol,16,1,1,1,1,1,0,0
664,21849,10466,trol,16,1,1,1,1,1,0,0
673,21850,10466,trol,16,1,1,1,1,1,0,0
682,21851,10466,trol,16,1,1,1,1,1,0,0
691,21852,10466,trol,16,1,1,1,1,1,0,0
697,21853,10466,trol,16,1,1,1,1,1,0,0
707,21854,10466,trol,16,1,1,1,1,1,0,0
715,21855,10466,trol,16,1,1,1,1,1,0,0
724,21856,10466,trol,16,1,1,1,1,1,0,0
732,21857,10466,trol,16,1,1,1,1,1,0,0
741,21858,10466,trol,16,1,1,1,1,1,0,0
750,21859,10466,trol,16,1,1,1,1,1,0,0
759,21860,10466,trol,16,1,1,1,1,1,0,0
768,21861,10466,trol,16,1,1,1,1,1,0,0
777,21862,10466,trol,16,1,1,1,1,1,0,0
786,21863,10466,trol,16,1,1,1,1,1,0,0
792,21864,10466,trol,16,1,1,1,1,1,0,0
801,21865,10466,trol,16,1,1,1,1,1,0,0
812,21866,10466,trol,16,1,1,1,1,1,0,0
821,21867,10466,trol,16,1,1,1,1,1,0,0
830,21868,10466,trol,16,1,1,1,1,1,0,0
839,21869,10466,trol,16,1,1,1,1,1,0,0
847,21870,10466,trol,16,1,1,1,1,1,0,0
856,21871,10466,trol,16,1,1,1,1,1,0,0
867,21872,10466,trol,16,1,1,1,1,1,0,0
875,21873,10466,trol,16,1,1,1,1,1,0,0
883,21874,10466,trol,16,1,1,1,1,1,0,0
889,21875,10466,trol,16,1,1,1,1,1,0,0
900,21876,10466,trol,16,1,1,1,1,1,0,0
909,21877,10466,trol,16,1,1,1,1,1,0,0
919,21878,10466,trol,16,1,1,1,1,1,0,0
925,21879,10466,trol,16,1,1,1,1,1,0,0
929,21880,10466,trol,16,1,1,1,1,1,0,0
938,21881,10466,trol,16,1,1,1,1,1,0,0
946,21882,10466,trol,16,1,1,1,1,1,0,0
953,21883,10466,trol,16,1,1,1,1,1,0,0
957,21884,10466,trol,16,1,1,1,1,1,0,0
961,21885,10466,trol,16,1,1,1,1,1,0,0
967,21886,10466,trol,16,1,1,1,1,1,0,0
971,21887,10466,trol,16,1,1,1,1,1,0,0
975,21888,10466,trol,16,1,1,1,1,1,0,0
982,21889,10466,trol,16,1,1,1,1,1,0,0
987,21890,10466,trol,16,1,1,1,1,1,0,0
995,21891,10466,trol,16,1,1,1,1,1,0,0
1004,21892,10466,trol,16,1,1,1,1,1,0,0
1013,21893,10466,trol,16,1,1,1,1,1,0,0
1021,21894,10466,trol,16,1,1,1,1,1,0,0
1027,21895,10466,trol,16,1,1,1,1,1,0,0
1034,21896,10466,trol,16,1,1,1,1,1,0,0
1041,21897,10466,trol,16,1,1,1,1,1,0,0
1048,21898,10466,trol,16,1,1,1,1,1,0,0
1053,21899,10466,trol,16,1,1,1,1,1,0,0
1059,21900,10466,trol,16,1,1,1,1,1,0,0
1064,21901,10466,trol,16,1,1,1,1,1,0,0
1069,21902,10466,trol,16,1,1,1,1,1,0,0
1074,21903,10466,trol,16,1,1,1,1,1,0,0
1080,21904,10466,trol,16,1,1,1,1,1,0,0
1087,21905,10466,trol,16,1,1,1,1,1,0,0
1092,21906,10466,trol,16,1,1,1,1,1,0,0
1100,21907,10466,trol,16,1,1,1,1,1,0,0
1106,21908,10466,trol,16,1,1,1,1,1,0,0
1113,21909,10466,trol,16,1,1,1,1,1,0,0
1121,21910,10466,trol,16,1,1,1,1,1,0,0
1128,21911,10466,trol,16,1,1,1,1,1,0,0
1136,21912,10466,trol,16,1,1,1,1,1,0,0
1143,21913,10466,trol,16,1,1,1,1,1,0,0
1151,21914,10466,trol,16,1,1,1,1,1,0,0
1158,21915,10466,trol,16,1,1,1,1,1,0,0
1164,21916,10466,trol,16,1,1,1,1,1,0,0
1171,21917,10466,trol,16,1,1,1,1,1,0,0
1180,21918,10466,trol,16,1,1,1,1,1,0,0
1191,21919,10466,trol,16,1,1,1,1,1,0,0
1201,21920,10466,trol,16,1,1,1,1,1,0,0
1211,21921,10466,trol,16,1,1,1,1,1,0,0
1218,21922,10466,trol,16,1,1,1,1,1,0,0
1228,21923,10466,trol,16,1,1,1,1,1,0,0
1240,21924,10466,trol,16,1,1,1,1,1,0,0
1249,21925,10466,trol,16,1,1,1,1,1,0,0
1257,21926,10466,trol,16,1,1,1,1,1,0,0
1267,21927,10466,trol,16,1,1,1,1,1,0,0
1274,21928,10466,trol,16,1,1,1,1,1,0,0
1283,21929,10466,trol,16,1,1,1,1,1,0,0
1291,21930,10466,trol,16,1,1,1,1,1,0,0
1300,21931,10466,trol,16,1,1,1,1,1,0,0
1308,21932,10466,trol,16,1,1,1,1,1,0,0
1316,21933,10466,trol,16,1,1,1,1,1,0,0
1321,21934,10466,trol,16,1,1,1,1,1,0,0
1330,21935,10466,trol,16,1,1,1,1,1,0,0
1341,21936,10466,trol,16,1,1,1,1,1,0,0
1352,21937,10466,trol,16,1,1,1,1,1,0,0
1363,21938,10466,trol,16,1,1,1,1,1,0,0
1378,21939,10466,trol,16,1,1,1,1,1,0,0
1397,21940,10466,trol,16,1,1,1,1,1,0,0
1408,21941,10466,trol,16,1,1,1,1,1,0,0
344,21942,10467,trol,16,0,0,0,0,0,1,0
368,21943,10467,trol,16,0,0,0,0,0,1,0
394,21944,10467,trol,16,0,0,0,0,0,1,0
418,21945,10467,trol,16,0,0,0,0,0,1,0
433,21946,10467,trol,16,0,0,0,0,0,1,0
455,21947,10467,trol,16,0,0,0,0,0,1,0
465,21948,10467,trol,16,0,0,0,0,0,1,0
475,21949,10467,trol,16,0,0,0,0,0,1,0
488,21950,10467,trol,16,0,0,0,0,0,1,0
504,21951,10467,trol,16,0,0,0,0,0,1,0
512,21952,10467,trol,16,0,0,0,0,0,1,0
526,21953,10467,trol,16,0,0,0,0,0,1,0
541,21954,10467,trol,16,0,0,0,0,0,1,0
552,21955,10467,trol,16,0,0,0,0,0,1,0
563,21956,10467,trol,16,0,0,0,0,0,1,0
575,21957,10467,trol,16,0,0,0,0,0,1,0
589,21958,10467,trol,16,0,0,0,0,0,1,0
599,21959,10467,trol,16,0,0,0,0,0,1,0
608,21960,10467,trol,16,0,0,0,0,0,1,0
621,21961,10467,trol,16,0,0,0,0,0,1,0
631,21962,10467,trol,16,0,0,0,0,0,1,0
644,21963,10467,trol,16,0,0,0,0,0,1,0
652,21964,10467,trol,16,0,0,0,0,0,1,0
663,21965,10467,trol,16,0,0,0,0,0,1,0
676,21966,10467,trol,16,0,0,0,0,0,1,0
688,21967,10467,trol,16,0,0,0,0,0,1,0
698,21968,10467,trol,16,0,0,0,0,0,1,0
706,21969,10467,trol,16,0,0,0,0,0,1,0
714,21970,10467,trol,16,0,0,0,0,0,1,0
723,21971,10467,trol,16,0,0,0,0,0,1,0
733,21972,10467,trol,16,0,0,0,0,0,1,0
743,21973,10467,trol,16,0,0,0,0,0,1,0
755,21974,10467,trol,16,0,0,0,0,0,1,0
764,21975,10467,trol,16,0,0,0,0,0,1,0
773,21976,10467,trol,16,0,0,0,0,0,1,0
785,21977,10467,trol,16,0,0,0,0,0,1,0
796,21978,10467,trol,16,0,0,0,0,0,1,0
806,21979,10467,trol,16,0,0,0,0,0,1,0
814,21980,10467,trol,16,0,0,0,0,0,1,0
823,21981,10467,trol,16,0,0,0,0,0,1,0
835,21982,10467,trol,16,0,0,0,0,0,1,0
847,21983,10467,trol,16,0,0,0,0,0,1,0
859,21984,10467,trol,16,0,0,0,0,0,1,0
867,21985,10467,trol,16,0,0,0,0,0,1,0
878,21986,10467,trol,16,0,0,0,0,0,1,0
890,21987,10467,trol,16,0,0,0,0,0,1,0
898,21988,10467,trol,16,0,0,0,0,0,1,0
906,21989,10467,trol,16,0,0,0,0,0,1,0
916,21990,10467,trol,16,0,0,0,0,0,1,0
926,21991,10467,trol,16,0,0,0,0,0,1,0
932,21992,10467,trol,16,0,0,0,0,0,1,0
941,21993,10467,trol,16,0,0,0,0,0,1,0
952,21994,10467,trol,16,0,0,0,0,0,1,0
962,21995,10467,trol,16,0,0,0,0,0,1,0
972,21996,10467,trol,16,0,0,0,0,0,1,0
979,21997,10467,trol,16,0,0,0,0,0,1,0
989,21998,10467,trol,16,0,0,0,0,0,1,0
999,21999,10467,trol,16,0,0,0,0,0,1,0
1010,22000,10467,trol,16,0,0,0,0,0,1,0
1018,22001,10467,trol,16,0,0,0,0,0,1,0
1027,22002,10467,trol,16,0,0,0,0,0,1,0
1042,22003,10467,trol,16,0,0,0,0,0,1,0
1053,22004,10467,trol,16,0,0,0,0,0,1,0
1062,22005,10467,trol,16,0,0,0,0,0,1,0
1075,22006,10467,trol,16,0,0,0,0,0,1,0
1091,22007,10467,trol,16,0,0,0,0,0,1,0
1110,22008,10467,trol,16,0,0,0,0,0,1,0
1120,22009,10467,trol,16,0,0,0,0,0,1,0
1134,22010,10467,trol,16,0,0,0,0,0,1,0
1149,22011,10467,trol,16,0,0,0,0,0,1,0
1168,22012,10467,trol,16,0,0,0,0,0,1,0
1180,22013,10467,trol,16,0,0,0,0,0,1,0
1196,22014,10467,trol,16,0,0,0,0,0,1,0
1208,22015,10467,trol,16,0,0,0,0,0,1,0
1222,22016,10467,trol,16,0,0,0,0,0,1,0
1232,22017,10467,trol,16,0,0,0,0,0,1,0
1245,22018,10467,trol,16,0,0,0,0,0,1,0
1259,22019,10467,trol,16,0,0,0,0,0,1,0
1271,22020,10467,trol,16,0,0,0,0,0,1,0
1285,22021,10467,trol,16,0,0,0,0,0,1,0
1298,22022,10467,trol,16,0,0,0,0,0,1,0
1316,22023,10467,trol,16,0,0,0,0,0,1,0
1330,22024,10467,trol,16,0,0,0,0,0,1,0
1354,22025,10467,trol,16,0,0,0,0,0,1,0
1382,22026,10467,trol,16,0,0,0,0,0,1,0
394,22027,10468,trol,16,0,0,0,0,0,0,1
418,22028,10468,trol,16,0,0,0,0,0,0,1
433,22029,10468,trol,16,0,0,0,0,0,0,1
455,22030,10468,trol,16,0,0,0,0,0,0,1
465,22031,10468,trol,16,0,0,0,0,0,0,1
475,22032,10468,trol,16,0,0,0,0,0,0,1
488,22033,10468,trol,16,0,0,0,0,0,0,1
504,22034,10468,trol,16,0,0,0,0,0,0,1
512,22035,10468,trol,16,0,0,0,0,0,0,1
526,22036,10468,trol,16,0,0,0,0,0,0,1
541,22037,10468,trol,16,0,0,0,0,0,0,1
552,22038,10468,trol,16,0,0,0,0,0,0,1
563,22039,10468,trol,16,0,0,0,0,0,0,1
575,22040,10468,trol,16,0,0,0,0,0,0,1
589,22041,10468,trol,16,0,0,0,0,0,0,1
599,22042,10468,trol,16,0,0,0,0,0,0,1
608,22043,10468,trol,16,0,0,0,0,0,0,1
621,22044,10468,trol,16,0,0,0,0,0,0,1
631,22045,10468,trol,16,0,0,0,0,0,0,1
644,22046,10468,trol,16,0,0,0,0,0,0,1
652,22047,10468,trol,16,0,0,0,0,0,0,1
663,22048,10468,trol,16,0,0,0,0,0,0,1
676,22049,10468,trol,16,0,0,0,0,0,0,1
688,22050,10468,trol,16,0,0,0,0,0,0,1
698,22051,10468,trol,16,0,0,0,0,0,0,1
706,22052,10468,trol,16,0,0,0,0,0,0,1
714,22053,10468,trol,16,0,0,0,0,0,0,1
723,22054,10468,trol,16,0,0,0,0,0,0,1
733,22055,10468,trol,16,0,0,0,0,0,0,1
743,22056,10468,trol,16,0,0,0,0,0,0,1
755,22057,10468,trol,16,0,0,0,0,0,0,1
764,22058,10468,trol,16,0,0,0,0,0,0,1
773,22059,10468,trol,16,0,0,0,0,0,0,1
785,22060,10468,trol,16,0,0,0,0,0,0,1
796,22061,10468,trol,16,0,0,0,0,0,0,1
806,22062,10468,trol,16,0,0,0,0,0,0,1
814,22063,10468,trol,16,0,0,0,0,0,0,1
823,22064,10468,trol,16,0,0,0,0,0,0,1
835,22065,10468,trol,16,0,0,0,0,0,0,1
847,22066,10468,trol,16,0,0,0,0,0,0,1
859,22067,10468,trol,16,0,0,0,0,0,0,1
867,22068,10468,trol,16,0,0,0,0,0,0,1
878,22069,10468,trol,16,0,0,0,0,0,0,1
890,22070,10468,trol,16,0,0,0,0,0,0,1
898,22071,10468,trol,16,0,0,0,0,0,0,1
906,22072,10468,trol,16,0,0,0,0,0,0,1
916,22073,10468,trol,16,0,0,0,0,0,0,1
926,22074,10468,trol,16,0,0,0,0,0,0,1
932,22075,10468,trol,16,0,0,0,0,0,0,1
941,22076,10468,trol,16,0,0,0,0,0,0,1
952,22077,10468,trol,16,0,0,0,0,0,0,1
962,22078,10468,trol,16,0,0,0,0,0,0,1
972,22079,10468,trol,16,0,0,0,0,0,0,1
979,22080,10468,trol,16,0,0,0,0,0,0,1
989,22081,10468,trol,16,0,0,0,0,0,0,1
999,22082,10468,trol,16,0,0,0,0,0,0,1
1010,22083,10468,trol,16,0,0,0,0,0,0,1
1018,22084,10468,trol,16,0,0,0,0,0,0,1
1027,22085,10468,trol,16,0,0,0,0,0,0,1
1042,22086,10468,trol,16,0,0,0,0,0,0,1
1053,22087,10468,trol,16,0,0,0,0,0,0,1
1062,22088,10468,trol,16,0,0,0,0,0,0,1
1075,22089,10468,trol,16,0,0,0,0,0,0,1
1091,22090,10468,trol,16,0,0,0,0,0,0,1
1110,22091,10468,trol,16,0,0,0,0,0,0,1
1120,22092,10468,trol,16,0,0,0,0,0,0,1
1134,22093,10468,trol,16,0,0,0,0,0,0,1
1149,22094,10468,trol,16,0,0,0,0,0,0,1
1168,22095,10468,trol,16,0,0,0,0,0,0,1
1180,22096,10468,trol,16,0,0,0,0,0,0,1
1196,22097,10468,trol,16,0,0,0,0,0,0,1
1208,22098,10468,trol,16,0,0,0,0,0,0,1
1222,22099,10468,trol,16,0,0,0,0,0,0,1
1232,22100,10468,trol,16,0,0,0,0,0,0,1
1245,22101,10468,trol,16,0,0,0,0,0,0,1
1259,22102,10468,trol,16,0,0,0,0,0,0,1
1271,22103,10468,trol,16,0,0,0,0,0,0,1
1285,22104,10468,trol,16,0,0,0,0,0,0,1
1298,22105,10468,trol,16,0,0,0,0,0,0,1
1316,22106,10468,trol,16,0,0,0,0,0,0,1
1330,22107,10468,trol,16,0,0,0,0,0,0,1
1354,22108,10468,trol,16,0,0,0,0,0,0,1
1382,22109,10468,trol,16,0,0,0,0,0,0,1
1434,22146,10466,trol,16,1,1,1,1,1,0,0
1413,22147,10467,trol,16,0,0,0,0,0,1,0
1413,22148,10468,trol,16,0,0,0,0,0,0,1
