timeInMin,trip_id,service_id,tipas,numeris,pirmadienis,antradienis,treciadienis,ketvirtadienis,penktadienis,sestadienis,sekmadienis 
322,3065,9930,bus,5,1,1,1,1,1,0,0
345,3066,9930,bus,5,1,1,1,1,1,0,0
368,3067,9930,bus,5,1,1,1,1,1,0,0
391,3068,9930,bus,5,1,1,1,1,1,0,0
415,3069,9930,bus,5,1,1,1,1,1,0,0
443,3070,9930,bus,5,1,1,1,1,1,0,0
470,3071,9930,bus,5,1,1,1,1,1,0,0
494,3072,9930,bus,5,1,1,1,1,1,0,0
523,3073,9930,bus,5,1,1,1,1,1,0,0
548,3074,9930,bus,5,1,1,1,1,1,0,0
572,3075,9930,bus,5,1,1,1,1,1,0,0
602,3076,9930,bus,5,1,1,1,1,1,0,0
651,3077,9930,bus,5,1,1,1,1,1,0,0
675,3078,9930,bus,5,1,1,1,1,1,0,0
704,3079,9930,bus,5,1,1,1,1,1,0,0
727,3080,9930,bus,5,1,1,1,1,1,0,0
751,3081,9930,bus,5,1,1,1,1,1,0,0
780,3082,9930,bus,5,1,1,1,1,1,0,0
803,3083,9930,bus,5,1,1,1,1,1,0,0
827,3084,9930,bus,5,1,1,1,1,1,0,0
856,3085,9930,bus,5,1,1,1,1,1,0,0
884,3086,9930,bus,5,1,1,1,1,1,0,0
908,3087,9930,bus,5,1,1,1,1,1,0,0
937,3088,9930,bus,5,1,1,1,1,1,0,0
960,3089,9930,bus,5,1,1,1,1,1,0,0
984,3090,9930,bus,5,1,1,1,1,1,0,0
1014,3091,9930,bus,5,1,1,1,1,1,0,0
1040,3092,9930,bus,5,1,1,1,1,1,0,0
1065,3093,9930,bus,5,1,1,1,1,1,0,0
1095,3094,9930,bus,5,1,1,1,1,1,0,0
1121,3095,9930,bus,5,1,1,1,1,1,0,0
1151,3096,9930,bus,5,1,1,1,1,1,0,0
1197,3097,9930,bus,5,1,1,1,1,1,0,0
1220,3098,9930,bus,5,1,1,1,1,1,0,0
1247,3099,9930,bus,5,1,1,1,1,1,0,0
1269,3100,9930,bus,5,1,1,1,1,1,0,0
1294,3101,9930,bus,5,1,1,1,1,1,0,0
1318,3102,9930,bus,5,1,1,1,1,1,0,0
1342,3103,9930,bus,5,1,1,1,1,1,0,0
1362,3104,9930,bus,5,1,1,1,1,1,0,0
1387,3105,9930,bus,5,1,1,1,1,1,0,0
323,3106,9600,bus,5,0,0,0,0,0,1,0
387,3107,9600,bus,5,0,0,0,0,0,1,0
454,3108,9600,bus,5,0,0,0,0,0,1,0
523,3109,9600,bus,5,0,0,0,0,0,1,0
584,3110,9600,bus,5,0,0,0,0,0,1,0
616,3111,9600,bus,5,0,0,0,0,0,1,0
654,3112,9600,bus,5,0,0,0,0,0,1,0
712,3113,9600,bus,5,0,0,0,0,0,1,0
750,3114,9600,bus,5,0,0,0,0,0,1,0
782,3115,9600,bus,5,0,0,0,0,0,1,0
820,3116,9600,bus,5,0,0,0,0,0,1,0
863,3117,9600,bus,5,0,0,0,0,0,1,0
915,3118,9600,bus,5,0,0,0,0,0,1,0
943,3119,9600,bus,5,0,0,0,0,0,1,0
987,3120,9600,bus,5,0,0,0,0,0,1,0
1017,3121,9600,bus,5,0,0,0,0,0,1,0
1057,3122,9600,bus,5,0,0,0,0,0,1,0
1112,3123,9600,bus,5,0,0,0,0,0,1,0
1181,3124,9600,bus,5,0,0,0,0,0,1,0
1248,3125,9600,bus,5,0,0,0,0,0,1,0
1315,3126,9600,bus,5,0,0,0,0,0,1,0
1381,3127,9600,bus,5,0,0,0,0,0,1,0
387,3128,9601,bus,5,0,0,0,0,0,0,1
454,3129,9601,bus,5,0,0,0,0,0,0,1
523,3130,9601,bus,5,0,0,0,0,0,0,1
584,3131,9601,bus,5,0,0,0,0,0,0,1
616,3132,9601,bus,5,0,0,0,0,0,0,1
654,3133,9601,bus,5,0,0,0,0,0,0,1
712,3134,9601,bus,5,0,0,0,0,0,0,1
750,3135,9601,bus,5,0,0,0,0,0,0,1
782,3136,9601,bus,5,0,0,0,0,0,0,1
820,3137,9601,bus,5,0,0,0,0,0,0,1
863,3138,9601,bus,5,0,0,0,0,0,0,1
915,3139,9601,bus,5,0,0,0,0,0,0,1
943,3140,9601,bus,5,0,0,0,0,0,0,1
987,3141,9601,bus,5,0,0,0,0,0,0,1
1017,3142,9601,bus,5,0,0,0,0,0,0,1
1057,3143,9601,bus,5,0,0,0,0,0,0,1
1112,3144,9601,bus,5,0,0,0,0,0,0,1
1181,3145,9601,bus,5,0,0,0,0,0,0,1
1248,3146,9601,bus,5,0,0,0,0,0,0,1
1315,3147,9601,bus,5,0,0,0,0,0,0,1
1381,3148,9601,bus,5,0,0,0,0,0,0,1
390,3149,9930,bus,5,1,1,1,1,1,0,0
414,3150,9930,bus,5,1,1,1,1,1,0,0
442,3151,9930,bus,5,1,1,1,1,1,0,0
469,3152,9930,bus,5,1,1,1,1,1,0,0
493,3153,9930,bus,5,1,1,1,1,1,0,0
522,3154,9930,bus,5,1,1,1,1,1,0,0
547,3155,9930,bus,5,1,1,1,1,1,0,0
571,3156,9930,bus,5,1,1,1,1,1,0,0
601,3157,9930,bus,5,1,1,1,1,1,0,0
650,3158,9930,bus,5,1,1,1,1,1,0,0
674,3159,9930,bus,5,1,1,1,1,1,0,0
703,3160,9930,bus,5,1,1,1,1,1,0,0
726,3161,9930,bus,5,1,1,1,1,1,0,0
750,3162,9930,bus,5,1,1,1,1,1,0,0
779,3163,9930,bus,5,1,1,1,1,1,0,0
802,3164,9930,bus,5,1,1,1,1,1,0,0
826,3165,9930,bus,5,1,1,1,1,1,0,0
855,3166,9930,bus,5,1,1,1,1,1,0,0
883,3167,9930,bus,5,1,1,1,1,1,0,0
907,3168,9930,bus,5,1,1,1,1,1,0,0
936,3169,9930,bus,5,1,1,1,1,1,0,0
959,3170,9930,bus,5,1,1,1,1,1,0,0
983,3171,9930,bus,5,1,1,1,1,1,0,0
1013,3172,9930,bus,5,1,1,1,1,1,0,0
1039,3173,9930,bus,5,1,1,1,1,1,0,0
1064,3174,9930,bus,5,1,1,1,1,1,0,0
1094,3175,9930,bus,5,1,1,1,1,1,0,0
1120,3176,9930,bus,5,1,1,1,1,1,0,0
1150,3177,9930,bus,5,1,1,1,1,1,0,0
1196,3178,9930,bus,5,1,1,1,1,1,0,0
1219,3179,9930,bus,5,1,1,1,1,1,0,0
1246,3180,9930,bus,5,1,1,1,1,1,0,0
1268,3181,9930,bus,5,1,1,1,1,1,0,0
1293,3182,9930,bus,5,1,1,1,1,1,0,0
1317,3183,9930,bus,5,1,1,1,1,1,0,0
1341,3184,9930,bus,5,1,1,1,1,1,0,0
1361,3185,9930,bus,5,1,1,1,1,1,0,0
1386,3186,9930,bus,5,1,1,1,1,1,0,0
386,3187,9600,bus,5,0,0,0,0,0,1,0
453,3188,9600,bus,5,0,0,0,0,0,1,0
522,3189,9600,bus,5,0,0,0,0,0,1,0
583,3190,9600,bus,5,0,0,0,0,0,1,0
615,3191,9600,bus,5,0,0,0,0,0,1,0
653,3192,9600,bus,5,0,0,0,0,0,1,0
711,3193,9600,bus,5,0,0,0,0,0,1,0
749,3194,9600,bus,5,0,0,0,0,0,1,0
781,3195,9600,bus,5,0,0,0,0,0,1,0
819,3196,9600,bus,5,0,0,0,0,0,1,0
862,3197,9600,bus,5,0,0,0,0,0,1,0
914,3198,9600,bus,5,0,0,0,0,0,1,0
942,3199,9600,bus,5,0,0,0,0,0,1,0
986,3200,9600,bus,5,0,0,0,0,0,1,0
1016,3201,9600,bus,5,0,0,0,0,0,1,0
1056,3202,9600,bus,5,0,0,0,0,0,1,0
1111,3203,9600,bus,5,0,0,0,0,0,1,0
1180,3204,9600,bus,5,0,0,0,0,0,1,0
1247,3205,9600,bus,5,0,0,0,0,0,1,0
1314,3206,9600,bus,5,0,0,0,0,0,1,0
1380,3207,9600,bus,5,0,0,0,0,0,1,0
386,3208,9601,bus,5,0,0,0,0,0,0,1
453,3209,9601,bus,5,0,0,0,0,0,0,1
522,3210,9601,bus,5,0,0,0,0,0,0,1
583,3211,9601,bus,5,0,0,0,0,0,0,1
615,3212,9601,bus,5,0,0,0,0,0,0,1
653,3213,9601,bus,5,0,0,0,0,0,0,1
711,3214,9601,bus,5,0,0,0,0,0,0,1
749,3215,9601,bus,5,0,0,0,0,0,0,1
781,3216,9601,bus,5,0,0,0,0,0,0,1
819,3217,9601,bus,5,0,0,0,0,0,0,1
862,3218,9601,bus,5,0,0,0,0,0,0,1
914,3219,9601,bus,5,0,0,0,0,0,0,1
942,3220,9601,bus,5,0,0,0,0,0,0,1
986,3221,9601,bus,5,0,0,0,0,0,0,1
1016,3222,9601,bus,5,0,0,0,0,0,0,1
1056,3223,9601,bus,5,0,0,0,0,0,0,1
1111,3224,9601,bus,5,0,0,0,0,0,0,1
1180,3225,9601,bus,5,0,0,0,0,0,0,1
1247,3226,9601,bus,5,0,0,0,0,0,0,1
1314,3227,9601,bus,5,0,0,0,0,0,0,1
1380,3228,9601,bus,5,0,0,0,0,0,0,1
321,3236,9930,bus,5,1,1,1,1,1,0,0
344,3237,9930,bus,5,1,1,1,1,1,0,0
367,3238,9930,bus,5,1,1,1,1,1,0,0
322,3239,9600,bus,5,0,0,0,0,0,1,0
