timeInMin,trip_id,service_id,tipas,numeris,pirmadienis,antradienis,treciadienis,ketvirtadienis,penktadienis,sestadienis,sekmadienis 
346,14025,10615,bus,66,1,1,1,1,1,0,0
370,14026,10615,bus,66,1,1,1,1,1,0,0
398,14027,10615,bus,66,1,1,1,1,1,0,0
441,14028,10615,bus,66,1,1,1,1,1,0,0
468,14029,10615,bus,66,1,1,1,1,1,0,0
500,14030,10615,bus,66,1,1,1,1,1,0,0
541,14031,10615,bus,66,1,1,1,1,1,0,0
568,14032,10615,bus,66,1,1,1,1,1,0,0
599,14033,10615,bus,66,1,1,1,1,1,0,0
660,14034,10615,bus,66,1,1,1,1,1,0,0
702,14035,10615,bus,66,1,1,1,1,1,0,0
754,14036,10615,bus,66,1,1,1,1,1,0,0
807,14037,10615,bus,66,1,1,1,1,1,0,0
851,14038,10615,bus,66,1,1,1,1,1,0,0
905,14039,10615,bus,66,1,1,1,1,1,0,0
945,14040,10615,bus,66,1,1,1,1,1,0,0
999,14041,10615,bus,66,1,1,1,1,1,0,0
1026,14042,10615,bus,66,1,1,1,1,1,0,0
1052,14043,10615,bus,66,1,1,1,1,1,0,0
1102,14044,10615,bus,66,1,1,1,1,1,0,0
1128,14045,10615,bus,66,1,1,1,1,1,0,0
1180,14046,10615,bus,66,1,1,1,1,1,0,0
1225,14047,10615,bus,66,1,1,1,1,1,0,0
1276,14048,10615,bus,66,1,1,1,1,1,0,0
1320,14049,10615,bus,66,1,1,1,1,1,0,0
1369,14050,10615,bus,66,1,1,1,1,1,0,0
346,14051,10401,bus,66,0,0,0,0,0,1,0
444,14052,10401,bus,66,0,0,0,0,0,1,0
544,14053,10401,bus,66,0,0,0,0,0,1,0
603,14054,10401,bus,66,0,0,0,0,0,1,0
667,14055,10401,bus,66,0,0,0,0,0,1,0
697,14056,10401,bus,66,0,0,0,0,0,1,0
768,14057,10401,bus,66,0,0,0,0,0,1,0
820,14058,10401,bus,66,0,0,0,0,0,1,0
870,14059,10401,bus,66,0,0,0,0,0,1,0
931,14060,10401,bus,66,0,0,0,0,0,1,0
972,14061,10401,bus,66,0,0,0,0,0,1,0
1035,14062,10401,bus,66,0,0,0,0,0,1,0
1095,14063,10401,bus,66,0,0,0,0,0,1,0
1214,14064,10401,bus,66,0,0,0,0,0,1,0
1307,14065,10401,bus,66,0,0,0,0,0,1,0
1401,14066,10401,bus,66,0,0,0,0,0,1,0
444,14067,10402,bus,66,0,0,0,0,0,0,1
544,14068,10402,bus,66,0,0,0,0,0,0,1
603,14069,10402,bus,66,0,0,0,0,0,0,1
667,14070,10402,bus,66,0,0,0,0,0,0,1
697,14071,10402,bus,66,0,0,0,0,0,0,1
768,14072,10402,bus,66,0,0,0,0,0,0,1
820,14073,10402,bus,66,0,0,0,0,0,0,1
870,14074,10402,bus,66,0,0,0,0,0,0,1
931,14075,10402,bus,66,0,0,0,0,0,0,1
972,14076,10402,bus,66,0,0,0,0,0,0,1
1035,14077,10402,bus,66,0,0,0,0,0,0,1
1095,14078,10402,bus,66,0,0,0,0,0,0,1
1214,14079,10402,bus,66,0,0,0,0,0,0,1
1307,14080,10402,bus,66,0,0,0,0,0,0,1
1401,14081,10402,bus,66,0,0,0,0,0,0,1
