timeInMin,trip_id,service_id,tipas,numeris,pirmadienis,antradienis,treciadienis,ketvirtadienis,penktadienis,sestadienis,sekmadienis 
308,15588,10409,bus,87,1,1,1,1,1,0,0
340,15589,10409,bus,87,1,1,1,1,1,0,0
379,15590,10409,bus,87,1,1,1,1,1,0,0
412,15591,10409,bus,87,1,1,1,1,1,0,0
445,15592,10409,bus,87,1,1,1,1,1,0,0
480,15593,10409,bus,87,1,1,1,1,1,0,0
512,15594,10409,bus,87,1,1,1,1,1,0,0
549,15595,10409,bus,87,1,1,1,1,1,0,0
604,15596,10409,bus,87,1,1,1,1,1,0,0
633,15597,10409,bus,87,1,1,1,1,1,0,0
663,15598,10409,bus,87,1,1,1,1,1,0,0
700,15599,10409,bus,87,1,1,1,1,1,0,0
735,15600,10409,bus,87,1,1,1,1,1,0,0
768,15601,10409,bus,87,1,1,1,1,1,0,0
799,15602,10409,bus,87,1,1,1,1,1,0,0
826,15603,10409,bus,87,1,1,1,1,1,0,0
880,15604,10409,bus,87,1,1,1,1,1,0,0
915,15605,10409,bus,87,1,1,1,1,1,0,0
946,15606,10409,bus,87,1,1,1,1,1,0,0
979,15607,10409,bus,87,1,1,1,1,1,0,0
1013,15608,10409,bus,87,1,1,1,1,1,0,0
1053,15609,10409,bus,87,1,1,1,1,1,0,0
1102,15610,10409,bus,87,1,1,1,1,1,0,0
1135,15611,10409,bus,87,1,1,1,1,1,0,0
1171,15612,10409,bus,87,1,1,1,1,1,0,0
1207,15613,10409,bus,87,1,1,1,1,1,0,0
1255,15614,10409,bus,87,1,1,1,1,1,0,0
1294,15615,10409,bus,87,1,1,1,1,1,0,0
1328,15616,10409,bus,87,1,1,1,1,1,0,0
1358,15617,10409,bus,87,1,1,1,1,1,0,0
1381,15618,10409,bus,87,1,1,1,1,1,0,0
364,15619,10410,bus,87,0,0,0,0,0,1,1
425,15620,10410,bus,87,0,0,0,0,0,1,1
490,15621,10410,bus,87,0,0,0,0,0,1,1
555,15622,10410,bus,87,0,0,0,0,0,1,1
642,15623,10410,bus,87,0,0,0,0,0,1,1
708,15624,10410,bus,87,0,0,0,0,0,1,1
768,15625,10410,bus,87,0,0,0,0,0,1,1
834,15626,10410,bus,87,0,0,0,0,0,1,1
899,15627,10410,bus,87,0,0,0,0,0,1,1
965,15628,10410,bus,87,0,0,0,0,0,1,1
1025,15629,10410,bus,87,0,0,0,0,0,1,1
1091,15630,10410,bus,87,0,0,0,0,0,1,1
1176,15631,10410,bus,87,0,0,0,0,0,1,1
1242,15632,10410,bus,87,0,0,0,0,0,1,1
1303,15633,10410,bus,87,0,0,0,0,0,1,1
1381,15634,10410,bus,87,0,0,0,0,0,1,1
