timeInMin,trip_id,service_id,tipas,numeris,pirmadienis,antradienis,treciadienis,ketvirtadienis,penktadienis,sestadienis,sekmadienis 
375,5402,8605,bus,13,0,0,0,0,0,0,1
437,5403,8605,bus,13,0,0,0,0,0,0,1
499,5404,8605,bus,13,0,0,0,0,0,0,1
554,5405,8605,bus,13,0,0,0,0,0,0,1
584,5406,8605,bus,13,0,0,0,0,0,0,1
621,5407,8605,bus,13,0,0,0,0,0,0,1
648,5408,8605,bus,13,0,0,0,0,0,0,1
684,5409,8605,bus,13,0,0,0,0,0,0,1
710,5410,8605,bus,13,0,0,0,0,0,0,1
746,5411,8605,bus,13,0,0,0,0,0,0,1
773,5412,8605,bus,13,0,0,0,0,0,0,1
840,5413,8605,bus,13,0,0,0,0,0,0,1
878,5414,8605,bus,13,0,0,0,0,0,0,1
902,5415,8605,bus,13,0,0,0,0,0,0,1
940,5416,8605,bus,13,0,0,0,0,0,0,1
964,5417,8605,bus,13,0,0,0,0,0,0,1
1002,5418,8605,bus,13,0,0,0,0,0,0,1
1026,5419,8605,bus,13,0,0,0,0,0,0,1
1062,5420,8605,bus,13,0,0,0,0,0,0,1
1093,5421,8605,bus,13,0,0,0,0,0,0,1
1191,5422,8605,bus,13,0,0,0,0,0,0,1
1253,5423,8605,bus,13,0,0,0,0,0,0,1
1316,5424,8605,bus,13,0,0,0,0,0,0,1
313,5425,8603,bus,13,1,1,1,1,1,0,0
340,5426,8603,bus,13,1,1,1,1,1,0,0
366,5427,8603,bus,13,1,1,1,1,1,0,0
383,5428,8603,bus,13,1,1,1,1,1,0,0
400,5429,8603,bus,13,1,1,1,1,1,0,0
416,5430,8603,bus,13,1,1,1,1,1,0,0
434,5431,8603,bus,13,1,1,1,1,1,0,0
447,5432,8603,bus,13,1,1,1,1,1,0,0
460,5433,8603,bus,13,1,1,1,1,1,0,0
478,5434,8603,bus,13,1,1,1,1,1,0,0
499,5435,8603,bus,13,1,1,1,1,1,0,0
510,5436,8603,bus,13,1,1,1,1,1,0,0
524,5437,8603,bus,13,1,1,1,1,1,0,0
540,5438,8603,bus,13,1,1,1,1,1,0,0
572,5439,8603,bus,13,1,1,1,1,1,0,0
599,5440,8603,bus,13,1,1,1,1,1,0,0
628,5441,8603,bus,13,1,1,1,1,1,0,0
665,5442,8603,bus,13,1,1,1,1,1,0,0
688,5443,8603,bus,13,1,1,1,1,1,0,0
709,5444,8603,bus,13,1,1,1,1,1,0,0
731,5445,8603,bus,13,1,1,1,1,1,0,0
751,5446,8603,bus,13,1,1,1,1,1,0,0
771,5447,8603,bus,13,1,1,1,1,1,0,0
792,5448,8603,bus,13,1,1,1,1,1,0,0
811,5449,8603,bus,13,1,1,1,1,1,0,0
833,5450,8603,bus,13,1,1,1,1,1,0,0
857,5451,8603,bus,13,1,1,1,1,1,0,0
876,5452,8603,bus,13,1,1,1,1,1,0,0
898,5453,8603,bus,13,1,1,1,1,1,0,0
917,5454,8603,bus,13,1,1,1,1,1,0,0
936,5455,8603,bus,13,1,1,1,1,1,0,0
951,5456,8603,bus,13,1,1,1,1,1,0,0
963,5457,8603,bus,13,1,1,1,1,1,0,0
978,5458,8603,bus,13,1,1,1,1,1,0,0
996,5459,8603,bus,13,1,1,1,1,1,0,0
1016,5460,8603,bus,13,1,1,1,1,1,0,0
1028,5461,8603,bus,13,1,1,1,1,1,0,0
1039,5462,8603,bus,13,1,1,1,1,1,0,0
1057,5463,8603,bus,13,1,1,1,1,1,0,0
1081,5464,8603,bus,13,1,1,1,1,1,0,0
1098,5465,8603,bus,13,1,1,1,1,1,0,0
1124,5466,8603,bus,13,1,1,1,1,1,0,0
1165,5467,8603,bus,13,1,1,1,1,1,0,0
1184,5468,8603,bus,13,1,1,1,1,1,0,0
1202,5469,8603,bus,13,1,1,1,1,1,0,0
1225,5470,8603,bus,13,1,1,1,1,1,0,0
1246,5471,8603,bus,13,1,1,1,1,1,0,0
1265,5472,8603,bus,13,1,1,1,1,1,0,0
1293,5473,8603,bus,13,1,1,1,1,1,0,0
1325,5474,8603,bus,13,1,1,1,1,1,0,0
313,5475,8604,bus,13,0,0,0,0,0,1,0
375,5476,8604,bus,13,0,0,0,0,0,1,0
437,5477,8604,bus,13,0,0,0,0,0,1,0
499,5478,8604,bus,13,0,0,0,0,0,1,0
554,5479,8604,bus,13,0,0,0,0,0,1,0
584,5480,8604,bus,13,0,0,0,0,0,1,0
621,5481,8604,bus,13,0,0,0,0,0,1,0
648,5482,8604,bus,13,0,0,0,0,0,1,0
684,5483,8604,bus,13,0,0,0,0,0,1,0
710,5484,8604,bus,13,0,0,0,0,0,1,0
746,5485,8604,bus,13,0,0,0,0,0,1,0
773,5486,8604,bus,13,0,0,0,0,0,1,0
840,5487,8604,bus,13,0,0,0,0,0,1,0
878,5488,8604,bus,13,0,0,0,0,0,1,0
902,5489,8604,bus,13,0,0,0,0,0,1,0
940,5490,8604,bus,13,0,0,0,0,0,1,0
964,5491,8604,bus,13,0,0,0,0,0,1,0
1002,5492,8604,bus,13,0,0,0,0,0,1,0
1026,5493,8604,bus,13,0,0,0,0,0,1,0
1062,5494,8604,bus,13,0,0,0,0,0,1,0
1093,5495,8604,bus,13,0,0,0,0,0,1,0
1191,5496,8604,bus,13,0,0,0,0,0,1,0
1253,5497,8604,bus,13,0,0,0,0,0,1,0
1316,5498,8604,bus,13,0,0,0,0,0,1,0
1146,5596,8603,bus,13,1,1,1,1,1,0,0
