timeInMin,trip_id,service_id,tipas,numeris,pirmadienis,antradienis,treciadienis,ketvirtadienis,penktadienis,sestadienis,sekmadienis 
480,12102,10294,bus,52,0,0,0,0,0,0,1
559,12103,10294,bus,52,0,0,0,0,0,0,1
638,12104,10294,bus,52,0,0,0,0,0,0,1
742,12105,10294,bus,52,0,0,0,0,0,0,1
821,12106,10294,bus,52,0,0,0,0,0,0,1
905,12107,10294,bus,52,0,0,0,0,0,0,1
984,12108,10294,bus,52,0,0,0,0,0,0,1
1063,12109,10294,bus,52,0,0,0,0,0,0,1
1167,12110,10294,bus,52,0,0,0,0,0,0,1
1242,12111,10294,bus,52,0,0,0,0,0,0,1
1316,12112,10294,bus,52,0,0,0,0,0,0,1
354,12113,9642,bus,52,1,1,1,1,1,0,0
382,12114,9642,bus,52,1,1,1,1,1,0,0
407,12115,9642,bus,52,1,1,1,1,1,0,0
432,12116,9642,bus,52,1,1,1,1,1,0,0
462,12117,9642,bus,52,1,1,1,1,1,0,0
497,12118,9642,bus,52,1,1,1,1,1,0,0
520,12119,9642,bus,52,1,1,1,1,1,0,0
552,12120,9642,bus,52,1,1,1,1,1,0,0
579,12121,9642,bus,52,1,1,1,1,1,0,0
627,12122,9642,bus,52,1,1,1,1,1,0,0
658,12123,9642,bus,52,1,1,1,1,1,0,0
685,12124,9642,bus,52,1,1,1,1,1,0,0
712,12125,9642,bus,52,1,1,1,1,1,0,0
747,12126,9642,bus,52,1,1,1,1,1,0,0
766,12127,9642,bus,52,1,1,1,1,1,0,0
794,12128,9642,bus,52,1,1,1,1,1,0,0
829,12129,9642,bus,52,1,1,1,1,1,0,0
847,12130,9642,bus,52,1,1,1,1,1,0,0
883,12131,9642,bus,52,1,1,1,1,1,0,0
915,12132,9642,bus,52,1,1,1,1,1,0,0
932,12133,9642,bus,52,1,1,1,1,1,0,0
965,12134,9642,bus,52,1,1,1,1,1,0,0
1000,12135,9642,bus,52,1,1,1,1,1,0,0
1018,12136,9642,bus,52,1,1,1,1,1,0,0
1050,12137,9642,bus,52,1,1,1,1,1,0,0
1095,12138,9642,bus,52,1,1,1,1,1,0,0
1131,12139,9642,bus,52,1,1,1,1,1,0,0
1162,12140,9642,bus,52,1,1,1,1,1,0,0
1208,12141,9642,bus,52,1,1,1,1,1,0,0
1239,12142,9642,bus,52,1,1,1,1,1,0,0
1265,12143,9642,bus,52,1,1,1,1,1,0,0
1296,12144,9642,bus,52,1,1,1,1,1,0,0
1317,12145,9642,bus,52,1,1,1,1,1,0,0
1339,12146,9642,bus,52,1,1,1,1,1,0,0
1379,12147,9642,bus,52,1,1,1,1,1,0,0
480,12148,9643,bus,52,0,0,0,0,0,1,0
559,12149,9643,bus,52,0,0,0,0,0,1,0
638,12150,9643,bus,52,0,0,0,0,0,1,0
742,12151,9643,bus,52,0,0,0,0,0,1,0
821,12152,9643,bus,52,0,0,0,0,0,1,0
905,12153,9643,bus,52,0,0,0,0,0,1,0
984,12154,9643,bus,52,0,0,0,0,0,1,0
1063,12155,9643,bus,52,0,0,0,0,0,1,0
1167,12156,9643,bus,52,0,0,0,0,0,1,0
1242,12157,9643,bus,52,0,0,0,0,0,1,0
1316,12158,9643,bus,52,0,0,0,0,0,1,0
407,12226,10294,bus,52,0,0,0,0,0,0,1
331,12227,9642,bus,52,1,1,1,1,1,0,0
407,12228,9643,bus,52,0,0,0,0,0,1,0
