timeInMin,trip_id,service_id,tipas,numeris,pirmadienis,antradienis,treciadienis,ketvirtadienis,penktadienis,sestadienis,sekmadienis 
314,15588,10409,bus,87,1,1,1,1,1,0,0
346,15589,10409,bus,87,1,1,1,1,1,0,0
385,15590,10409,bus,87,1,1,1,1,1,0,0
418,15591,10409,bus,87,1,1,1,1,1,0,0
451,15592,10409,bus,87,1,1,1,1,1,0,0
486,15593,10409,bus,87,1,1,1,1,1,0,0
518,15594,10409,bus,87,1,1,1,1,1,0,0
555,15595,10409,bus,87,1,1,1,1,1,0,0
610,15596,10409,bus,87,1,1,1,1,1,0,0
639,15597,10409,bus,87,1,1,1,1,1,0,0
669,15598,10409,bus,87,1,1,1,1,1,0,0
706,15599,10409,bus,87,1,1,1,1,1,0,0
741,15600,10409,bus,87,1,1,1,1,1,0,0
774,15601,10409,bus,87,1,1,1,1,1,0,0
805,15602,10409,bus,87,1,1,1,1,1,0,0
832,15603,10409,bus,87,1,1,1,1,1,0,0
886,15604,10409,bus,87,1,1,1,1,1,0,0
921,15605,10409,bus,87,1,1,1,1,1,0,0
952,15606,10409,bus,87,1,1,1,1,1,0,0
985,15607,10409,bus,87,1,1,1,1,1,0,0
1019,15608,10409,bus,87,1,1,1,1,1,0,0
1059,15609,10409,bus,87,1,1,1,1,1,0,0
1108,15610,10409,bus,87,1,1,1,1,1,0,0
1141,15611,10409,bus,87,1,1,1,1,1,0,0
1177,15612,10409,bus,87,1,1,1,1,1,0,0
1213,15613,10409,bus,87,1,1,1,1,1,0,0
1261,15614,10409,bus,87,1,1,1,1,1,0,0
1300,15615,10409,bus,87,1,1,1,1,1,0,0
1334,15616,10409,bus,87,1,1,1,1,1,0,0
1364,15617,10409,bus,87,1,1,1,1,1,0,0
1387,15618,10409,bus,87,1,1,1,1,1,0,0
369,15619,10410,bus,87,0,0,0,0,0,1,1
430,15620,10410,bus,87,0,0,0,0,0,1,1
495,15621,10410,bus,87,0,0,0,0,0,1,1
560,15622,10410,bus,87,0,0,0,0,0,1,1
647,15623,10410,bus,87,0,0,0,0,0,1,1
713,15624,10410,bus,87,0,0,0,0,0,1,1
773,15625,10410,bus,87,0,0,0,0,0,1,1
839,15626,10410,bus,87,0,0,0,0,0,1,1
904,15627,10410,bus,87,0,0,0,0,0,1,1
970,15628,10410,bus,87,0,0,0,0,0,1,1
1030,15629,10410,bus,87,0,0,0,0,0,1,1
1096,15630,10410,bus,87,0,0,0,0,0,1,1
1181,15631,10410,bus,87,0,0,0,0,0,1,1
1247,15632,10410,bus,87,0,0,0,0,0,1,1
1308,15633,10410,bus,87,0,0,0,0,0,1,1
1386,15634,10410,bus,87,0,0,0,0,0,1,1
343,15635,10409,bus,87,1,1,1,1,1,0,0
375,15636,10409,bus,87,1,1,1,1,1,0,0
405,15637,10409,bus,87,1,1,1,1,1,0,0
439,15638,10409,bus,87,1,1,1,1,1,0,0
476,15639,10409,bus,87,1,1,1,1,1,0,0
513,15640,10409,bus,87,1,1,1,1,1,0,0
544,15641,10409,bus,87,1,1,1,1,1,0,0
576,15642,10409,bus,87,1,1,1,1,1,0,0
606,15643,10409,bus,87,1,1,1,1,1,0,0
643,15644,10409,bus,87,1,1,1,1,1,0,0
698,15645,10409,bus,87,1,1,1,1,1,0,0
730,15646,10409,bus,87,1,1,1,1,1,0,0
762,15647,10409,bus,87,1,1,1,1,1,0,0
794,15648,10409,bus,87,1,1,1,1,1,0,0
847,15649,10409,bus,87,1,1,1,1,1,0,0
869,15650,10409,bus,87,1,1,1,1,1,0,0
902,15651,10409,bus,87,1,1,1,1,1,0,0
933,15652,10409,bus,87,1,1,1,1,1,0,0
979,15653,10409,bus,87,1,1,1,1,1,0,0
1014,15654,10409,bus,87,1,1,1,1,1,0,0
1043,15655,10409,bus,87,1,1,1,1,1,0,0
1074,15656,10409,bus,87,1,1,1,1,1,0,0
1108,15657,10409,bus,87,1,1,1,1,1,0,0
1148,15658,10409,bus,87,1,1,1,1,1,0,0
1198,15659,10409,bus,87,1,1,1,1,1,0,0
1237,15660,10409,bus,87,1,1,1,1,1,0,0
1271,15661,10409,bus,87,1,1,1,1,1,0,0
1301,15662,10409,bus,87,1,1,1,1,1,0,0
1349,15663,10409,bus,87,1,1,1,1,1,0,0
1396,15664,10409,bus,87,1,1,1,1,1,0,0
460,15665,10410,bus,87,0,0,0,0,0,1,1
521,15666,10410,bus,87,0,0,0,0,0,1,1
586,15667,10410,bus,87,0,0,0,0,0,1,1
651,15668,10410,bus,87,0,0,0,0,0,1,1
738,15669,10410,bus,87,0,0,0,0,0,1,1
804,15670,10410,bus,87,0,0,0,0,0,1,1
864,15671,10410,bus,87,0,0,0,0,0,1,1
930,15672,10410,bus,87,0,0,0,0,0,1,1
995,15673,10410,bus,87,0,0,0,0,0,1,1
1061,15674,10410,bus,87,0,0,0,0,0,1,1
1121,15675,10410,bus,87,0,0,0,0,0,1,1
1187,15676,10410,bus,87,0,0,0,0,0,1,1
1273,15677,10410,bus,87,0,0,0,0,0,1,1
1338,15678,10410,bus,87,0,0,0,0,0,1,1
1399,15679,10410,bus,87,0,0,0,0,0,1,1
