timeInMin,trip_id,service_id,tipas,numeris,pirmadienis,antradienis,treciadienis,ketvirtadienis,penktadienis,sestadienis,sekmadienis 
347,15176,10617,bus,76,1,1,1,1,1,0,0
406,15177,10617,bus,76,1,1,1,1,1,0,0
438,15178,10617,bus,76,1,1,1,1,1,0,0
490,15179,10617,bus,76,1,1,1,1,1,0,0
520,15180,10617,bus,76,1,1,1,1,1,0,0
577,15181,10617,bus,76,1,1,1,1,1,0,0
609,15182,10617,bus,76,1,1,1,1,1,0,0
686,15183,10617,bus,76,1,1,1,1,1,0,0
717,15184,10617,bus,76,1,1,1,1,1,0,0
769,15185,10617,bus,76,1,1,1,1,1,0,0
825,15186,10617,bus,76,1,1,1,1,1,0,0
885,15187,10617,bus,76,1,1,1,1,1,0,0
922,15188,10617,bus,76,1,1,1,1,1,0,0
979,15189,10617,bus,76,1,1,1,1,1,0,0
1014,15190,10617,bus,76,1,1,1,1,1,0,0
1068,15191,10617,bus,76,1,1,1,1,1,0,0
1103,15192,10617,bus,76,1,1,1,1,1,0,0
1150,15193,10617,bus,76,1,1,1,1,1,0,0
1212,15194,10617,bus,76,1,1,1,1,1,0,0
1260,15195,10617,bus,76,1,1,1,1,1,0,0
1294,15196,10617,bus,76,1,1,1,1,1,0,0
1342,15197,10617,bus,76,1,1,1,1,1,0,0
1380,15198,10617,bus,76,1,1,1,1,1,0,0
356,15199,10618,bus,76,0,0,0,0,0,1,0
438,15200,10618,bus,76,0,0,0,0,0,1,0
526,15201,10618,bus,76,0,0,0,0,0,1,0
596,15202,10618,bus,76,0,0,0,0,0,1,0
644,15203,10618,bus,76,0,0,0,0,0,1,0
679,15204,10618,bus,76,0,0,0,0,0,1,0
726,15205,10618,bus,76,0,0,0,0,0,1,0
786,15206,10618,bus,76,0,0,0,0,0,1,0
814,15207,10618,bus,76,0,0,0,0,0,1,0
868,15208,10618,bus,76,0,0,0,0,0,1,0
901,15209,10618,bus,76,0,0,0,0,0,1,0
950,15210,10618,bus,76,0,0,0,0,0,1,0
985,15211,10618,bus,76,0,0,0,0,0,1,0
1037,15212,10618,bus,76,0,0,0,0,0,1,0
1092,15213,10618,bus,76,0,0,0,0,0,1,0
1199,15214,10618,bus,76,0,0,0,0,0,1,0
1281,15215,10618,bus,76,0,0,0,0,0,1,0
1365,15216,10618,bus,76,0,0,0,0,0,1,0
438,15217,10619,bus,76,0,0,0,0,0,0,1
526,15218,10619,bus,76,0,0,0,0,0,0,1
596,15219,10619,bus,76,0,0,0,0,0,0,1
644,15220,10619,bus,76,0,0,0,0,0,0,1
679,15221,10619,bus,76,0,0,0,0,0,0,1
726,15222,10619,bus,76,0,0,0,0,0,0,1
786,15223,10619,bus,76,0,0,0,0,0,0,1
814,15224,10619,bus,76,0,0,0,0,0,0,1
868,15225,10619,bus,76,0,0,0,0,0,0,1
901,15226,10619,bus,76,0,0,0,0,0,0,1
950,15227,10619,bus,76,0,0,0,0,0,0,1
985,15228,10619,bus,76,0,0,0,0,0,0,1
1037,15229,10619,bus,76,0,0,0,0,0,0,1
1092,15230,10619,bus,76,0,0,0,0,0,0,1
1199,15231,10619,bus,76,0,0,0,0,0,0,1
1281,15232,10619,bus,76,0,0,0,0,0,0,1
1365,15233,10619,bus,76,0,0,0,0,0,0,1
