timeInMin,trip_id,service_id,tipas,numeris,pirmadienis,antradienis,treciadienis,ketvirtadienis,penktadienis,sestadienis,sekmadienis 
470,12102,10294,bus,52,0,0,0,0,0,0,1
549,12103,10294,bus,52,0,0,0,0,0,0,1
628,12104,10294,bus,52,0,0,0,0,0,0,1
732,12105,10294,bus,52,0,0,0,0,0,0,1
811,12106,10294,bus,52,0,0,0,0,0,0,1
895,12107,10294,bus,52,0,0,0,0,0,0,1
974,12108,10294,bus,52,0,0,0,0,0,0,1
1053,12109,10294,bus,52,0,0,0,0,0,0,1
1157,12110,10294,bus,52,0,0,0,0,0,0,1
1232,12111,10294,bus,52,0,0,0,0,0,0,1
1306,12112,10294,bus,52,0,0,0,0,0,0,1
343,12113,9642,bus,52,1,1,1,1,1,0,0
371,12114,9642,bus,52,1,1,1,1,1,0,0
396,12115,9642,bus,52,1,1,1,1,1,0,0
421,12116,9642,bus,52,1,1,1,1,1,0,0
451,12117,9642,bus,52,1,1,1,1,1,0,0
486,12118,9642,bus,52,1,1,1,1,1,0,0
509,12119,9642,bus,52,1,1,1,1,1,0,0
541,12120,9642,bus,52,1,1,1,1,1,0,0
568,12121,9642,bus,52,1,1,1,1,1,0,0
616,12122,9642,bus,52,1,1,1,1,1,0,0
647,12123,9642,bus,52,1,1,1,1,1,0,0
674,12124,9642,bus,52,1,1,1,1,1,0,0
701,12125,9642,bus,52,1,1,1,1,1,0,0
736,12126,9642,bus,52,1,1,1,1,1,0,0
755,12127,9642,bus,52,1,1,1,1,1,0,0
783,12128,9642,bus,52,1,1,1,1,1,0,0
818,12129,9642,bus,52,1,1,1,1,1,0,0
836,12130,9642,bus,52,1,1,1,1,1,0,0
872,12131,9642,bus,52,1,1,1,1,1,0,0
904,12132,9642,bus,52,1,1,1,1,1,0,0
921,12133,9642,bus,52,1,1,1,1,1,0,0
954,12134,9642,bus,52,1,1,1,1,1,0,0
989,12135,9642,bus,52,1,1,1,1,1,0,0
1007,12136,9642,bus,52,1,1,1,1,1,0,0
1039,12137,9642,bus,52,1,1,1,1,1,0,0
1084,12138,9642,bus,52,1,1,1,1,1,0,0
1120,12139,9642,bus,52,1,1,1,1,1,0,0
1151,12140,9642,bus,52,1,1,1,1,1,0,0
1197,12141,9642,bus,52,1,1,1,1,1,0,0
1228,12142,9642,bus,52,1,1,1,1,1,0,0
1254,12143,9642,bus,52,1,1,1,1,1,0,0
1285,12144,9642,bus,52,1,1,1,1,1,0,0
1306,12145,9642,bus,52,1,1,1,1,1,0,0
1328,12146,9642,bus,52,1,1,1,1,1,0,0
1368,12147,9642,bus,52,1,1,1,1,1,0,0
470,12148,9643,bus,52,0,0,0,0,0,1,0
549,12149,9643,bus,52,0,0,0,0,0,1,0
628,12150,9643,bus,52,0,0,0,0,0,1,0
732,12151,9643,bus,52,0,0,0,0,0,1,0
811,12152,9643,bus,52,0,0,0,0,0,1,0
895,12153,9643,bus,52,0,0,0,0,0,1,0
974,12154,9643,bus,52,0,0,0,0,0,1,0
1053,12155,9643,bus,52,0,0,0,0,0,1,0
1157,12156,9643,bus,52,0,0,0,0,0,1,0
1232,12157,9643,bus,52,0,0,0,0,0,1,0
1306,12158,9643,bus,52,0,0,0,0,0,1,0
396,12226,10294,bus,52,0,0,0,0,0,0,1
321,12227,9642,bus,52,1,1,1,1,1,0,0
396,12228,9643,bus,52,0,0,0,0,0,1,0
313,15635,10409,bus,87,1,1,1,1,1,0,0
345,15636,10409,bus,87,1,1,1,1,1,0,0
375,15637,10409,bus,87,1,1,1,1,1,0,0
409,15638,10409,bus,87,1,1,1,1,1,0,0
446,15639,10409,bus,87,1,1,1,1,1,0,0
483,15640,10409,bus,87,1,1,1,1,1,0,0
514,15641,10409,bus,87,1,1,1,1,1,0,0
546,15642,10409,bus,87,1,1,1,1,1,0,0
576,15643,10409,bus,87,1,1,1,1,1,0,0
613,15644,10409,bus,87,1,1,1,1,1,0,0
668,15645,10409,bus,87,1,1,1,1,1,0,0
700,15646,10409,bus,87,1,1,1,1,1,0,0
732,15647,10409,bus,87,1,1,1,1,1,0,0
764,15648,10409,bus,87,1,1,1,1,1,0,0
817,15649,10409,bus,87,1,1,1,1,1,0,0
839,15650,10409,bus,87,1,1,1,1,1,0,0
872,15651,10409,bus,87,1,1,1,1,1,0,0
903,15652,10409,bus,87,1,1,1,1,1,0,0
949,15653,10409,bus,87,1,1,1,1,1,0,0
984,15654,10409,bus,87,1,1,1,1,1,0,0
1013,15655,10409,bus,87,1,1,1,1,1,0,0
1044,15656,10409,bus,87,1,1,1,1,1,0,0
1078,15657,10409,bus,87,1,1,1,1,1,0,0
1118,15658,10409,bus,87,1,1,1,1,1,0,0
1168,15659,10409,bus,87,1,1,1,1,1,0,0
1207,15660,10409,bus,87,1,1,1,1,1,0,0
1241,15661,10409,bus,87,1,1,1,1,1,0,0
1271,15662,10409,bus,87,1,1,1,1,1,0,0
1319,15663,10409,bus,87,1,1,1,1,1,0,0
1366,15664,10409,bus,87,1,1,1,1,1,0,0
430,15665,10410,bus,87,0,0,0,0,0,1,1
491,15666,10410,bus,87,0,0,0,0,0,1,1
556,15667,10410,bus,87,0,0,0,0,0,1,1
621,15668,10410,bus,87,0,0,0,0,0,1,1
708,15669,10410,bus,87,0,0,0,0,0,1,1
774,15670,10410,bus,87,0,0,0,0,0,1,1
834,15671,10410,bus,87,0,0,0,0,0,1,1
900,15672,10410,bus,87,0,0,0,0,0,1,1
965,15673,10410,bus,87,0,0,0,0,0,1,1
1031,15674,10410,bus,87,0,0,0,0,0,1,1
1091,15675,10410,bus,87,0,0,0,0,0,1,1
1157,15676,10410,bus,87,0,0,0,0,0,1,1
1243,15677,10410,bus,87,0,0,0,0,0,1,1
1308,15678,10410,bus,87,0,0,0,0,0,1,1
1369,15679,10410,bus,87,0,0,0,0,0,1,1
