timeInMin,trip_id,service_id,tipas,numeris,pirmadienis,antradienis,treciadienis,ketvirtadienis,penktadienis,sestadienis,sekmadienis 
347,937,10324,expressbus,2G,1,1,1,1,1,0,0
360,938,10324,expressbus,2G,1,1,1,1,1,0,0
370,939,10324,expressbus,2G,1,1,1,1,1,0,0
378,940,10324,expressbus,2G,1,1,1,1,1,0,0
386,941,10324,expressbus,2G,1,1,1,1,1,0,0
393,942,10324,expressbus,2G,1,1,1,1,1,0,0
399,943,10324,expressbus,2G,1,1,1,1,1,0,0
404,944,10324,expressbus,2G,1,1,1,1,1,0,0
411,945,10324,expressbus,2G,1,1,1,1,1,0,0
416,946,10324,expressbus,2G,1,1,1,1,1,0,0
420,947,10324,expressbus,2G,1,1,1,1,1,0,0
427,948,10324,expressbus,2G,1,1,1,1,1,0,0
434,949,10324,expressbus,2G,1,1,1,1,1,0,0
442,950,10324,expressbus,2G,1,1,1,1,1,0,0
451,951,10324,expressbus,2G,1,1,1,1,1,0,0
456,952,10324,expressbus,2G,1,1,1,1,1,0,0
463,953,10324,expressbus,2G,1,1,1,1,1,0,0
468,954,10324,expressbus,2G,1,1,1,1,1,0,0
474,955,10324,expressbus,2G,1,1,1,1,1,0,0
480,956,10324,expressbus,2G,1,1,1,1,1,0,0
486,957,10324,expressbus,2G,1,1,1,1,1,0,0
494,958,10324,expressbus,2G,1,1,1,1,1,0,0
502,959,10324,expressbus,2G,1,1,1,1,1,0,0
508,960,10324,expressbus,2G,1,1,1,1,1,0,0
514,961,10324,expressbus,2G,1,1,1,1,1,0,0
521,962,10324,expressbus,2G,1,1,1,1,1,0,0
528,963,10324,expressbus,2G,1,1,1,1,1,0,0
534,964,10324,expressbus,2G,1,1,1,1,1,0,0
540,965,10324,expressbus,2G,1,1,1,1,1,0,0
544,966,10324,expressbus,2G,1,1,1,1,1,0,0
551,967,10324,expressbus,2G,1,1,1,1,1,0,0
558,968,10324,expressbus,2G,1,1,1,1,1,0,0
568,969,10324,expressbus,2G,1,1,1,1,1,0,0
577,970,10324,expressbus,2G,1,1,1,1,1,0,0
587,971,10324,expressbus,2G,1,1,1,1,1,0,0
597,972,10324,expressbus,2G,1,1,1,1,1,0,0
607,973,10324,expressbus,2G,1,1,1,1,1,0,0
620,974,10324,expressbus,2G,1,1,1,1,1,0,0
630,975,10324,expressbus,2G,1,1,1,1,1,0,0
640,976,10324,expressbus,2G,1,1,1,1,1,0,0
649,977,10324,expressbus,2G,1,1,1,1,1,0,0
659,978,10324,expressbus,2G,1,1,1,1,1,0,0
669,979,10324,expressbus,2G,1,1,1,1,1,0,0
682,980,10324,expressbus,2G,1,1,1,1,1,0,0
696,981,10324,expressbus,2G,1,1,1,1,1,0,0
709,982,10324,expressbus,2G,1,1,1,1,1,0,0
722,983,10324,expressbus,2G,1,1,1,1,1,0,0
734,984,10324,expressbus,2G,1,1,1,1,1,0,0
744,985,10324,expressbus,2G,1,1,1,1,1,0,0
755,986,10324,expressbus,2G,1,1,1,1,1,0,0
766,987,10324,expressbus,2G,1,1,1,1,1,0,0
777,988,10324,expressbus,2G,1,1,1,1,1,0,0
788,989,10324,expressbus,2G,1,1,1,1,1,0,0
800,990,10324,expressbus,2G,1,1,1,1,1,0,0
813,991,10324,expressbus,2G,1,1,1,1,1,0,0
827,992,10324,expressbus,2G,1,1,1,1,1,0,0
838,993,10324,expressbus,2G,1,1,1,1,1,0,0
853,994,10324,expressbus,2G,1,1,1,1,1,0,0
863,995,10324,expressbus,2G,1,1,1,1,1,0,0
874,996,10324,expressbus,2G,1,1,1,1,1,0,0
884,997,10324,expressbus,2G,1,1,1,1,1,0,0
896,998,10324,expressbus,2G,1,1,1,1,1,0,0
907,999,10324,expressbus,2G,1,1,1,1,1,0,0
912,1000,10324,expressbus,2G,1,1,1,1,1,0,0
919,1001,10324,expressbus,2G,1,1,1,1,1,0,0
925,1002,10324,expressbus,2G,1,1,1,1,1,0,0
931,1003,10324,expressbus,2G,1,1,1,1,1,0,0
938,1004,10324,expressbus,2G,1,1,1,1,1,0,0
944,1005,10324,expressbus,2G,1,1,1,1,1,0,0
951,1006,10324,expressbus,2G,1,1,1,1,1,0,0
957,1007,10324,expressbus,2G,1,1,1,1,1,0,0
963,1008,10324,expressbus,2G,1,1,1,1,1,0,0
971,1009,10324,expressbus,2G,1,1,1,1,1,0,0
978,1010,10324,expressbus,2G,1,1,1,1,1,0,0
985,1011,10324,expressbus,2G,1,1,1,1,1,0,0
992,1012,10324,expressbus,2G,1,1,1,1,1,0,0
998,1013,10324,expressbus,2G,1,1,1,1,1,0,0
1005,1014,10324,expressbus,2G,1,1,1,1,1,0,0
1011,1015,10324,expressbus,2G,1,1,1,1,1,0,0
1018,1016,10324,expressbus,2G,1,1,1,1,1,0,0
1024,1017,10324,expressbus,2G,1,1,1,1,1,0,0
1029,1018,10324,expressbus,2G,1,1,1,1,1,0,0
1036,1019,10324,expressbus,2G,1,1,1,1,1,0,0
1043,1020,10324,expressbus,2G,1,1,1,1,1,0,0
1051,1021,10324,expressbus,2G,1,1,1,1,1,0,0
1057,1022,10324,expressbus,2G,1,1,1,1,1,0,0
1064,1023,10324,expressbus,2G,1,1,1,1,1,0,0
1071,1024,10324,expressbus,2G,1,1,1,1,1,0,0
1078,1025,10324,expressbus,2G,1,1,1,1,1,0,0
1084,1026,10324,expressbus,2G,1,1,1,1,1,0,0
1091,1027,10324,expressbus,2G,1,1,1,1,1,0,0
1101,1028,10324,expressbus,2G,1,1,1,1,1,0,0
1111,1029,10324,expressbus,2G,1,1,1,1,1,0,0
1124,1030,10324,expressbus,2G,1,1,1,1,1,0,0
1137,1031,10324,expressbus,2G,1,1,1,1,1,0,0
1148,1032,10324,expressbus,2G,1,1,1,1,1,0,0
1158,1033,10324,expressbus,2G,1,1,1,1,1,0,0
1168,1034,10324,expressbus,2G,1,1,1,1,1,0,0
1178,1035,10324,expressbus,2G,1,1,1,1,1,0,0
1189,1036,10324,expressbus,2G,1,1,1,1,1,0,0
1200,1037,10324,expressbus,2G,1,1,1,1,1,0,0
1214,1038,10324,expressbus,2G,1,1,1,1,1,0,0
1222,1039,10324,expressbus,2G,1,1,1,1,1,0,0
1236,1040,10324,expressbus,2G,1,1,1,1,1,0,0
1247,1041,10324,expressbus,2G,1,1,1,1,1,0,0
1259,1042,10324,expressbus,2G,1,1,1,1,1,0,0
1272,1043,10324,expressbus,2G,1,1,1,1,1,0,0
1282,1044,10324,expressbus,2G,1,1,1,1,1,0,0
1292,1045,10324,expressbus,2G,1,1,1,1,1,0,0
1302,1046,10324,expressbus,2G,1,1,1,1,1,0,0
1313,1047,10324,expressbus,2G,1,1,1,1,1,0,0
1323,1048,10324,expressbus,2G,1,1,1,1,1,0,0
1334,1049,10324,expressbus,2G,1,1,1,1,1,0,0
1347,1050,10324,expressbus,2G,1,1,1,1,1,0,0
1358,1051,10324,expressbus,2G,1,1,1,1,1,0,0
1371,1052,10324,expressbus,2G,1,1,1,1,1,0,0
1383,1053,10324,expressbus,2G,1,1,1,1,1,0,0
1392,1054,10324,expressbus,2G,1,1,1,1,1,0,0
1405,1055,10324,expressbus,2G,1,1,1,1,1,0,0
343,1056,10325,expressbus,2G,0,0,0,0,0,1,0
365,1057,10325,expressbus,2G,0,0,0,0,0,1,0
386,1058,10325,expressbus,2G,0,0,0,0,0,1,0
403,1059,10325,expressbus,2G,0,0,0,0,0,1,0
416,1060,10325,expressbus,2G,0,0,0,0,0,1,0
427,1061,10325,expressbus,2G,0,0,0,0,0,1,0
441,1062,10325,expressbus,2G,0,0,0,0,0,1,0
455,1063,10325,expressbus,2G,0,0,0,0,0,1,0
468,1064,10325,expressbus,2G,0,0,0,0,0,1,0
482,1065,10325,expressbus,2G,0,0,0,0,0,1,0
499,1066,10325,expressbus,2G,0,0,0,0,0,1,0
512,1067,10325,expressbus,2G,0,0,0,0,0,1,0
525,1068,10325,expressbus,2G,0,0,0,0,0,1,0
538,1069,10325,expressbus,2G,0,0,0,0,0,1,0
552,1070,10325,expressbus,2G,0,0,0,0,0,1,0
568,1071,10325,expressbus,2G,0,0,0,0,0,1,0
578,1072,10325,expressbus,2G,0,0,0,0,0,1,0
588,1073,10325,expressbus,2G,0,0,0,0,0,1,0
599,1074,10325,expressbus,2G,0,0,0,0,0,1,0
611,1075,10325,expressbus,2G,0,0,0,0,0,1,0
626,1076,10325,expressbus,2G,0,0,0,0,0,1,0
638,1077,10325,expressbus,2G,0,0,0,0,0,1,0
651,1078,10325,expressbus,2G,0,0,0,0,0,1,0
662,1079,10325,expressbus,2G,0,0,0,0,0,1,0
674,1080,10325,expressbus,2G,0,0,0,0,0,1,0
685,1081,10325,expressbus,2G,0,0,0,0,0,1,0
698,1082,10325,expressbus,2G,0,0,0,0,0,1,0
709,1083,10325,expressbus,2G,0,0,0,0,0,1,0
720,1084,10325,expressbus,2G,0,0,0,0,0,1,0
730,1085,10325,expressbus,2G,0,0,0,0,0,1,0
741,1086,10325,expressbus,2G,0,0,0,0,0,1,0
751,1087,10325,expressbus,2G,0,0,0,0,0,1,0
762,1088,10325,expressbus,2G,0,0,0,0,0,1,0
776,1089,10325,expressbus,2G,0,0,0,0,0,1,0
790,1090,10325,expressbus,2G,0,0,0,0,0,1,0
801,1091,10325,expressbus,2G,0,0,0,0,0,1,0
813,1092,10325,expressbus,2G,0,0,0,0,0,1,0
824,1093,10325,expressbus,2G,0,0,0,0,0,1,0
836,1094,10325,expressbus,2G,0,0,0,0,0,1,0
846,1095,10325,expressbus,2G,0,0,0,0,0,1,0
855,1096,10325,expressbus,2G,0,0,0,0,0,1,0
864,1097,10325,expressbus,2G,0,0,0,0,0,1,0
874,1098,10325,expressbus,2G,0,0,0,0,0,1,0
885,1099,10325,expressbus,2G,0,0,0,0,0,1,0
897,1100,10325,expressbus,2G,0,0,0,0,0,1,0
908,1101,10325,expressbus,2G,0,0,0,0,0,1,0
919,1102,10325,expressbus,2G,0,0,0,0,0,1,0
933,1103,10325,expressbus,2G,0,0,0,0,0,1,0
950,1104,10325,expressbus,2G,0,0,0,0,0,1,0
962,1105,10325,expressbus,2G,0,0,0,0,0,1,0
972,1106,10325,expressbus,2G,0,0,0,0,0,1,0
981,1107,10325,expressbus,2G,0,0,0,0,0,1,0
990,1108,10325,expressbus,2G,0,0,0,0,0,1,0
1001,1109,10325,expressbus,2G,0,0,0,0,0,1,0
1011,1110,10325,expressbus,2G,0,0,0,0,0,1,0
1021,1111,10325,expressbus,2G,0,0,0,0,0,1,0
1034,1112,10325,expressbus,2G,0,0,0,0,0,1,0
1047,1113,10325,expressbus,2G,0,0,0,0,0,1,0
1056,1114,10325,expressbus,2G,0,0,0,0,0,1,0
1065,1115,10325,expressbus,2G,0,0,0,0,0,1,0
1073,1116,10325,expressbus,2G,0,0,0,0,0,1,0
1082,1117,10325,expressbus,2G,0,0,0,0,0,1,0
1095,1118,10325,expressbus,2G,0,0,0,0,0,1,0
1108,1119,10325,expressbus,2G,0,0,0,0,0,1,0
1127,1120,10325,expressbus,2G,0,0,0,0,0,1,0
1149,1121,10325,expressbus,2G,0,0,0,0,0,1,0
1163,1122,10325,expressbus,2G,0,0,0,0,0,1,0
1175,1123,10325,expressbus,2G,0,0,0,0,0,1,0
1192,1124,10325,expressbus,2G,0,0,0,0,0,1,0
1212,1125,10325,expressbus,2G,0,0,0,0,0,1,0
1229,1126,10325,expressbus,2G,0,0,0,0,0,1,0
1242,1127,10325,expressbus,2G,0,0,0,0,0,1,0
1256,1128,10325,expressbus,2G,0,0,0,0,0,1,0
1273,1129,10325,expressbus,2G,0,0,0,0,0,1,0
1285,1130,10325,expressbus,2G,0,0,0,0,0,1,0
1298,1131,10325,expressbus,2G,0,0,0,0,0,1,0
1310,1132,10325,expressbus,2G,0,0,0,0,0,1,0
1324,1133,10325,expressbus,2G,0,0,0,0,0,1,0
1339,1134,10325,expressbus,2G,0,0,0,0,0,1,0
1357,1135,10325,expressbus,2G,0,0,0,0,0,1,0
1378,1136,10325,expressbus,2G,0,0,0,0,0,1,0
1400,1137,10325,expressbus,2G,0,0,0,0,0,1,0
365,1138,10326,expressbus,2G,0,0,0,0,0,0,1
386,1139,10326,expressbus,2G,0,0,0,0,0,0,1
403,1140,10326,expressbus,2G,0,0,0,0,0,0,1
416,1141,10326,expressbus,2G,0,0,0,0,0,0,1
427,1142,10326,expressbus,2G,0,0,0,0,0,0,1
441,1143,10326,expressbus,2G,0,0,0,0,0,0,1
455,1144,10326,expressbus,2G,0,0,0,0,0,0,1
468,1145,10326,expressbus,2G,0,0,0,0,0,0,1
482,1146,10326,expressbus,2G,0,0,0,0,0,0,1
499,1147,10326,expressbus,2G,0,0,0,0,0,0,1
512,1148,10326,expressbus,2G,0,0,0,0,0,0,1
525,1149,10326,expressbus,2G,0,0,0,0,0,0,1
538,1150,10326,expressbus,2G,0,0,0,0,0,0,1
552,1151,10326,expressbus,2G,0,0,0,0,0,0,1
568,1152,10326,expressbus,2G,0,0,0,0,0,0,1
578,1153,10326,expressbus,2G,0,0,0,0,0,0,1
588,1154,10326,expressbus,2G,0,0,0,0,0,0,1
599,1155,10326,expressbus,2G,0,0,0,0,0,0,1
611,1156,10326,expressbus,2G,0,0,0,0,0,0,1
626,1157,10326,expressbus,2G,0,0,0,0,0,0,1
638,1158,10326,expressbus,2G,0,0,0,0,0,0,1
651,1159,10326,expressbus,2G,0,0,0,0,0,0,1
662,1160,10326,expressbus,2G,0,0,0,0,0,0,1
674,1161,10326,expressbus,2G,0,0,0,0,0,0,1
685,1162,10326,expressbus,2G,0,0,0,0,0,0,1
698,1163,10326,expressbus,2G,0,0,0,0,0,0,1
709,1164,10326,expressbus,2G,0,0,0,0,0,0,1
720,1165,10326,expressbus,2G,0,0,0,0,0,0,1
730,1166,10326,expressbus,2G,0,0,0,0,0,0,1
741,1167,10326,expressbus,2G,0,0,0,0,0,0,1
751,1168,10326,expressbus,2G,0,0,0,0,0,0,1
762,1169,10326,expressbus,2G,0,0,0,0,0,0,1
776,1170,10326,expressbus,2G,0,0,0,0,0,0,1
790,1171,10326,expressbus,2G,0,0,0,0,0,0,1
801,1172,10326,expressbus,2G,0,0,0,0,0,0,1
813,1173,10326,expressbus,2G,0,0,0,0,0,0,1
824,1174,10326,expressbus,2G,0,0,0,0,0,0,1
836,1175,10326,expressbus,2G,0,0,0,0,0,0,1
846,1176,10326,expressbus,2G,0,0,0,0,0,0,1
855,1177,10326,expressbus,2G,0,0,0,0,0,0,1
864,1178,10326,expressbus,2G,0,0,0,0,0,0,1
874,1179,10326,expressbus,2G,0,0,0,0,0,0,1
885,1180,10326,expressbus,2G,0,0,0,0,0,0,1
897,1181,10326,expressbus,2G,0,0,0,0,0,0,1
908,1182,10326,expressbus,2G,0,0,0,0,0,0,1
919,1183,10326,expressbus,2G,0,0,0,0,0,0,1
933,1184,10326,expressbus,2G,0,0,0,0,0,0,1
950,1185,10326,expressbus,2G,0,0,0,0,0,0,1
962,1186,10326,expressbus,2G,0,0,0,0,0,0,1
972,1187,10326,expressbus,2G,0,0,0,0,0,0,1
981,1188,10326,expressbus,2G,0,0,0,0,0,0,1
990,1189,10326,expressbus,2G,0,0,0,0,0,0,1
1001,1190,10326,expressbus,2G,0,0,0,0,0,0,1
1011,1191,10326,expressbus,2G,0,0,0,0,0,0,1
1021,1192,10326,expressbus,2G,0,0,0,0,0,0,1
1034,1193,10326,expressbus,2G,0,0,0,0,0,0,1
1047,1194,10326,expressbus,2G,0,0,0,0,0,0,1
1056,1195,10326,expressbus,2G,0,0,0,0,0,0,1
1065,1196,10326,expressbus,2G,0,0,0,0,0,0,1
1073,1197,10326,expressbus,2G,0,0,0,0,0,0,1
1082,1198,10326,expressbus,2G,0,0,0,0,0,0,1
1095,1199,10326,expressbus,2G,0,0,0,0,0,0,1
1108,1200,10326,expressbus,2G,0,0,0,0,0,0,1
1127,1201,10326,expressbus,2G,0,0,0,0,0,0,1
1149,1202,10326,expressbus,2G,0,0,0,0,0,0,1
1163,1203,10326,expressbus,2G,0,0,0,0,0,0,1
1175,1204,10326,expressbus,2G,0,0,0,0,0,0,1
1192,1205,10326,expressbus,2G,0,0,0,0,0,0,1
1212,1206,10326,expressbus,2G,0,0,0,0,0,0,1
1229,1207,10326,expressbus,2G,0,0,0,0,0,0,1
1242,1208,10326,expressbus,2G,0,0,0,0,0,0,1
1256,1209,10326,expressbus,2G,0,0,0,0,0,0,1
1273,1210,10326,expressbus,2G,0,0,0,0,0,0,1
1285,1211,10326,expressbus,2G,0,0,0,0,0,0,1
1298,1212,10326,expressbus,2G,0,0,0,0,0,0,1
1310,1213,10326,expressbus,2G,0,0,0,0,0,0,1
1324,1214,10326,expressbus,2G,0,0,0,0,0,0,1
1339,1215,10326,expressbus,2G,0,0,0,0,0,0,1
1357,1216,10326,expressbus,2G,0,0,0,0,0,0,1
1378,1217,10326,expressbus,2G,0,0,0,0,0,0,1
1400,1218,10326,expressbus,2G,0,0,0,0,0,0,1
301,3032,10482,expressbus,4G,1,1,1,1,1,0,0
313,3033,10482,expressbus,4G,1,1,1,1,1,0,0
324,3034,10482,expressbus,4G,1,1,1,1,1,0,0
330,3035,10482,expressbus,4G,1,1,1,1,1,0,0
338,3036,10482,expressbus,4G,1,1,1,1,1,0,0
343,3037,10482,expressbus,4G,1,1,1,1,1,0,0
350,3038,10482,expressbus,4G,1,1,1,1,1,0,0
362,3039,10482,expressbus,4G,1,1,1,1,1,0,0
369,3040,10482,expressbus,4G,1,1,1,1,1,0,0
377,3041,10482,expressbus,4G,1,1,1,1,1,0,0
383,3042,10482,expressbus,4G,1,1,1,1,1,0,0
397,3043,10482,expressbus,4G,1,1,1,1,1,0,0
401,3044,10482,expressbus,4G,1,1,1,1,1,0,0
411,3045,10482,expressbus,4G,1,1,1,1,1,0,0
426,3046,10482,expressbus,4G,1,1,1,1,1,0,0
303,3047,10483,expressbus,4G,0,0,0,0,0,1,0
323,3048,10483,expressbus,4G,0,0,0,0,0,1,0
347,3049,10483,expressbus,4G,0,0,0,0,0,1,0
378,3050,10483,expressbus,4G,0,0,0,0,0,1,0
424,3051,10483,expressbus,4G,0,0,0,0,0,1,0
548,3052,10483,expressbus,4G,0,0,0,0,0,1,0
591,3053,10483,expressbus,4G,0,0,0,0,0,1,0
347,3054,10484,expressbus,4G,0,0,0,0,0,0,1
362,3055,10484,expressbus,4G,0,0,0,0,0,0,1
378,3056,10484,expressbus,4G,0,0,0,0,0,0,1
393,3057,10484,expressbus,4G,0,0,0,0,0,0,1
424,3058,10484,expressbus,4G,0,0,0,0,0,0,1
548,3059,10484,expressbus,4G,0,0,0,0,0,0,1
591,3060,10484,expressbus,4G,0,0,0,0,0,0,1
293,3061,10482,expressbus,4G,1,1,1,1,1,0,0
310,3062,10482,expressbus,4G,1,1,1,1,1,0,0
299,3063,10483,expressbus,4G,0,0,0,0,0,1,0
345,3064,10484,expressbus,4G,0,0,0,0,0,0,1
341,4404,10336,bus,7,1,1,1,1,1,0,0
356,4405,10336,bus,7,1,1,1,1,1,0,0
371,4406,10336,bus,7,1,1,1,1,1,0,0
388,4407,10336,bus,7,1,1,1,1,1,0,0
400,4408,10336,bus,7,1,1,1,1,1,0,0
418,4409,10336,bus,7,1,1,1,1,1,0,0
437,4410,10336,bus,7,1,1,1,1,1,0,0
457,4411,10336,bus,7,1,1,1,1,1,0,0
473,4412,10336,bus,7,1,1,1,1,1,0,0
490,4413,10336,bus,7,1,1,1,1,1,0,0
506,4414,10336,bus,7,1,1,1,1,1,0,0
523,4415,10336,bus,7,1,1,1,1,1,0,0
541,4416,10336,bus,7,1,1,1,1,1,0,0
558,4417,10336,bus,7,1,1,1,1,1,0,0
576,4418,10336,bus,7,1,1,1,1,1,0,0
597,4419,10336,bus,7,1,1,1,1,1,0,0
624,4420,10336,bus,7,1,1,1,1,1,0,0
645,4421,10336,bus,7,1,1,1,1,1,0,0
666,4422,10336,bus,7,1,1,1,1,1,0,0
688,4423,10336,bus,7,1,1,1,1,1,0,0
719,4424,10336,bus,7,1,1,1,1,1,0,0
741,4425,10336,bus,7,1,1,1,1,1,0,0
765,4426,10336,bus,7,1,1,1,1,1,0,0
788,4427,10336,bus,7,1,1,1,1,1,0,0
814,4428,10336,bus,7,1,1,1,1,1,0,0
837,4429,10336,bus,7,1,1,1,1,1,0,0
860,4430,10336,bus,7,1,1,1,1,1,0,0
883,4431,10336,bus,7,1,1,1,1,1,0,0
913,4432,10336,bus,7,1,1,1,1,1,0,0
939,4433,10336,bus,7,1,1,1,1,1,0,0
960,4434,10336,bus,7,1,1,1,1,1,0,0
976,4435,10336,bus,7,1,1,1,1,1,0,0
998,4436,10336,bus,7,1,1,1,1,1,0,0
1016,4437,10336,bus,7,1,1,1,1,1,0,0
1033,4438,10336,bus,7,1,1,1,1,1,0,0
1052,4439,10336,bus,7,1,1,1,1,1,0,0
1073,4440,10336,bus,7,1,1,1,1,1,0,0
1094,4441,10336,bus,7,1,1,1,1,1,0,0
1113,4442,10336,bus,7,1,1,1,1,1,0,0
1132,4443,10336,bus,7,1,1,1,1,1,0,0
1153,4444,10336,bus,7,1,1,1,1,1,0,0
1175,4445,10336,bus,7,1,1,1,1,1,0,0
1199,4446,10336,bus,7,1,1,1,1,1,0,0
1222,4447,10336,bus,7,1,1,1,1,1,0,0
1246,4448,10336,bus,7,1,1,1,1,1,0,0
1270,4449,10336,bus,7,1,1,1,1,1,0,0
1295,4450,10336,bus,7,1,1,1,1,1,0,0
1321,4451,10336,bus,7,1,1,1,1,1,0,0
1346,4452,10336,bus,7,1,1,1,1,1,0,0
1375,4453,10336,bus,7,1,1,1,1,1,0,0
1404,4454,10336,bus,7,1,1,1,1,1,0,0
372,4455,9236,bus,7,0,0,0,0,0,1,1
413,4456,9236,bus,7,0,0,0,0,0,1,1
457,4457,9236,bus,7,0,0,0,0,0,1,1
498,4458,9236,bus,7,0,0,0,0,0,1,1
542,4459,9236,bus,7,0,0,0,0,0,1,1
559,4460,9236,bus,7,0,0,0,0,0,1,1
587,4461,9236,bus,7,0,0,0,0,0,1,1
618,4462,9236,bus,7,0,0,0,0,0,1,1
644,4463,9236,bus,7,0,0,0,0,0,1,1
659,4464,9236,bus,7,0,0,0,0,0,1,1
693,4465,9236,bus,7,0,0,0,0,0,1,1
713,4466,9236,bus,7,0,0,0,0,0,1,1
748,4467,9236,bus,7,0,0,0,0,0,1,1
778,4468,9236,bus,7,0,0,0,0,0,1,1
804,4469,9236,bus,7,0,0,0,0,0,1,1
819,4470,9236,bus,7,0,0,0,0,0,1,1
852,4471,9236,bus,7,0,0,0,0,0,1,1
870,4472,9236,bus,7,0,0,0,0,0,1,1
896,4473,9236,bus,7,0,0,0,0,0,1,1
923,4474,9236,bus,7,0,0,0,0,0,1,1
939,4475,9236,bus,7,0,0,0,0,0,1,1
961,4476,9236,bus,7,0,0,0,0,0,1,1
981,4477,9236,bus,7,0,0,0,0,0,1,1
1008,4478,9236,bus,7,0,0,0,0,0,1,1
1024,4479,9236,bus,7,0,0,0,0,0,1,1
1047,4480,9236,bus,7,0,0,0,0,0,1,1
1067,4481,9236,bus,7,0,0,0,0,0,1,1
1093,4482,9236,bus,7,0,0,0,0,0,1,1
1129,4483,9236,bus,7,0,0,0,0,0,1,1
1172,4484,9236,bus,7,0,0,0,0,0,1,1
1233,4485,9236,bus,7,0,0,0,0,0,1,1
1278,4486,9236,bus,7,0,0,0,0,0,1,1
1318,4487,9236,bus,7,0,0,0,0,0,1,1
1364,4488,9236,bus,7,0,0,0,0,0,1,1
1403,4489,9236,bus,7,0,0,0,0,0,1,1
310,4593,10336,bus,7,1,1,1,1,1,0,0
327,4594,10336,bus,7,1,1,1,1,1,0,0
312,6815,10354,bus,21,1,1,1,1,1,0,0
338,6816,10354,bus,21,1,1,1,1,1,0,0
359,6817,10354,bus,21,1,1,1,1,1,0,0
337,6818,9374,bus,21,0,0,0,0,0,1,0
376,6819,9375,bus,21,0,0,0,0,0,0,1
316,7096,10355,bus,22,1,1,1,1,1,0,0
358,7097,10355,bus,22,1,1,1,1,1,0,0
346,7098,9979,bus,22,0,0,0,0,0,0,1
450,7099,9979,bus,22,0,0,0,0,0,0,1
314,7100,9978,bus,22,0,0,0,0,0,1,0
346,7101,9978,bus,22,0,0,0,0,0,1,0
450,7102,9978,bus,22,0,0,0,0,0,1,0
314,7218,9980,bus,23,1,1,1,1,1,0,0
312,7622,9328,bus,25,1,1,1,1,1,0,0
307,7623,9329,bus,25,0,0,0,0,0,1,0
302,8993,10488,bus,32,1,1,1,1,1,0,0
336,8994,10488,bus,32,1,1,1,1,1,0,0
342,8995,10489,bus,32,0,0,0,0,0,1,0
309,11101,10596,bus,43,1,1,1,1,1,0,0
375,11102,10598,bus,43,0,0,0,0,0,0,1
306,11103,10597,bus,43,0,0,0,0,0,1,0
305,12988,10494,bus,54,1,1,1,1,1,0,0
343,12989,10494,bus,54,1,1,1,1,1,0,0
305,12990,10495,bus,54,0,0,0,0,0,1,0
341,12991,10495,bus,54,0,0,0,0,0,1,0
390,12992,10496,bus,54,0,0,0,0,0,0,1
366,12993,10496,bus,54,0,0,0,0,0,0,1
363,13067,10395,bus,55,1,1,1,1,1,0,0
413,13068,10395,bus,55,1,1,1,1,1,0,0
447,13069,10395,bus,55,1,1,1,1,1,0,0
482,13070,10395,bus,55,1,1,1,1,1,0,0
508,13071,10395,bus,55,1,1,1,1,1,0,0
536,13072,10395,bus,55,1,1,1,1,1,0,0
585,13073,10395,bus,55,1,1,1,1,1,0,0
629,13074,10395,bus,55,1,1,1,1,1,0,0
677,13075,10395,bus,55,1,1,1,1,1,0,0
710,13076,10395,bus,55,1,1,1,1,1,0,0
748,13077,10395,bus,55,1,1,1,1,1,0,0
790,13078,10395,bus,55,1,1,1,1,1,0,0
826,13079,10395,bus,55,1,1,1,1,1,0,0
864,13080,10395,bus,55,1,1,1,1,1,0,0
909,13081,10395,bus,55,1,1,1,1,1,0,0
946,13082,10395,bus,55,1,1,1,1,1,0,0
985,13083,10395,bus,55,1,1,1,1,1,0,0
1010,13084,10395,bus,55,1,1,1,1,1,0,0
1034,13085,10395,bus,55,1,1,1,1,1,0,0
1064,13086,10395,bus,55,1,1,1,1,1,0,0
1102,13087,10395,bus,55,1,1,1,1,1,0,0
1130,13088,10395,bus,55,1,1,1,1,1,0,0
1178,13089,10395,bus,55,1,1,1,1,1,0,0
1217,13090,10395,bus,55,1,1,1,1,1,0,0
1250,13091,10395,bus,55,1,1,1,1,1,0,0
1291,13092,10395,bus,55,1,1,1,1,1,0,0
1330,13093,10395,bus,55,1,1,1,1,1,0,0
1363,13094,10395,bus,55,1,1,1,1,1,0,0
350,13095,10193,bus,55,0,0,0,0,0,1,0
403,13096,10193,bus,55,0,0,0,0,0,1,0
460,13097,10193,bus,55,0,0,0,0,0,1,0
513,13098,10193,bus,55,0,0,0,0,0,1,0
559,13099,10193,bus,55,0,0,0,0,0,1,0
607,13100,10193,bus,55,0,0,0,0,0,1,0
652,13101,10193,bus,55,0,0,0,0,0,1,0
695,13102,10193,bus,55,0,0,0,0,0,1,0
729,13103,10193,bus,55,0,0,0,0,0,1,0
766,13104,10193,bus,55,0,0,0,0,0,1,0
803,13105,10193,bus,55,0,0,0,0,0,1,0
842,13106,10193,bus,55,0,0,0,0,0,1,0
879,13107,10193,bus,55,0,0,0,0,0,1,0
911,13108,10193,bus,55,0,0,0,0,0,1,0
955,13109,10193,bus,55,0,0,0,0,0,1,0
996,13110,10193,bus,55,0,0,0,0,0,1,0
1064,13111,10193,bus,55,0,0,0,0,0,1,0
1141,13112,10193,bus,55,0,0,0,0,0,1,0
1203,13113,10193,bus,55,0,0,0,0,0,1,0
1253,13114,10193,bus,55,0,0,0,0,0,1,0
1310,13115,10193,bus,55,0,0,0,0,0,1,0
1360,13116,10193,bus,55,0,0,0,0,0,1,0
403,13117,10194,bus,55,0,0,0,0,0,0,1
460,13118,10194,bus,55,0,0,0,0,0,0,1
513,13119,10194,bus,55,0,0,0,0,0,0,1
559,13120,10194,bus,55,0,0,0,0,0,0,1
607,13121,10194,bus,55,0,0,0,0,0,0,1
652,13122,10194,bus,55,0,0,0,0,0,0,1
695,13123,10194,bus,55,0,0,0,0,0,0,1
729,13124,10194,bus,55,0,0,0,0,0,0,1
766,13125,10194,bus,55,0,0,0,0,0,0,1
803,13126,10194,bus,55,0,0,0,0,0,0,1
842,13127,10194,bus,55,0,0,0,0,0,0,1
879,13128,10194,bus,55,0,0,0,0,0,0,1
911,13129,10194,bus,55,0,0,0,0,0,0,1
955,13130,10194,bus,55,0,0,0,0,0,0,1
996,13131,10194,bus,55,0,0,0,0,0,0,1
1064,13132,10194,bus,55,0,0,0,0,0,0,1
1141,13133,10194,bus,55,0,0,0,0,0,0,1
1203,13134,10194,bus,55,0,0,0,0,0,0,1
1253,13135,10194,bus,55,0,0,0,0,0,0,1
1310,13136,10194,bus,55,0,0,0,0,0,0,1
1360,13137,10194,bus,55,0,0,0,0,0,0,1
307,13148,10395,bus,55,1,1,1,1,1,0,0
335,13149,10395,bus,55,1,1,1,1,1,0,0
393,13150,10395,bus,55,1,1,1,1,1,0,0
307,13151,10193,bus,55,0,0,0,0,0,1,0
359,13152,10194,bus,55,0,0,0,0,0,0,1
307,13694,10625,bus,59,1,1,1,1,1,0,0
352,13695,10625,bus,59,1,1,1,1,1,0,0
340,13696,10133,bus,59,0,0,0,0,0,1,1
316,13697,10625,bus,59,1,1,1,1,1,0,0
537,13698,10133,bus,59,0,0,0,0,0,1,1
298,14330,10616,bus,68,1,1,1,1,1,0,0
322,14331,10616,bus,68,1,1,1,1,1,0,0
353,14332,10616,bus,68,1,1,1,1,1,0,0
304,14333,9989,bus,68,0,0,0,0,0,1,0
524,14334,9989,bus,68,0,0,0,0,0,1,0
386,14335,9990,bus,68,0,0,0,0,0,0,1
524,14336,9990,bus,68,0,0,0,0,0,0,1
344,14683,10499,bus,73,0,0,0,0,0,0,1
305,14684,10497,bus,73,1,1,1,1,1,0,0
304,14685,10498,bus,73,0,0,0,0,0,1,0
403,14953,10501,bus,75,0,0,0,0,0,1,0
460,14954,10501,bus,75,0,0,0,0,0,1,0
516,14955,10501,bus,75,0,0,0,0,0,1,0
582,14956,10501,bus,75,0,0,0,0,0,1,0
654,14957,10501,bus,75,0,0,0,0,0,1,0
690,14958,10501,bus,75,0,0,0,0,0,1,0
733,14959,10501,bus,75,0,0,0,0,0,1,0
769,14960,10501,bus,75,0,0,0,0,0,1,0
805,14961,10501,bus,75,0,0,0,0,0,1,0
854,14962,10501,bus,75,0,0,0,0,0,1,0
898,14963,10501,bus,75,0,0,0,0,0,1,0
942,14964,10501,bus,75,0,0,0,0,0,1,0
984,14965,10501,bus,75,0,0,0,0,0,1,0
1028,14966,10501,bus,75,0,0,0,0,0,1,0
1066,14967,10501,bus,75,0,0,0,0,0,1,0
1103,14968,10501,bus,75,0,0,0,0,0,1,0
1173,14969,10501,bus,75,0,0,0,0,0,1,0
1243,14970,10501,bus,75,0,0,0,0,0,1,0
1306,14971,10501,bus,75,0,0,0,0,0,1,0
1372,14972,10501,bus,75,0,0,0,0,0,1,0
354,14973,10500,bus,75,1,1,1,1,1,0,0
393,14974,10500,bus,75,1,1,1,1,1,0,0
414,14975,10500,bus,75,1,1,1,1,1,0,0
445,14976,10500,bus,75,1,1,1,1,1,0,0
473,14977,10500,bus,75,1,1,1,1,1,0,0
500,14978,10500,bus,75,1,1,1,1,1,0,0
522,14979,10500,bus,75,1,1,1,1,1,0,0
550,14980,10500,bus,75,1,1,1,1,1,0,0
570,14981,10500,bus,75,1,1,1,1,1,0,0
596,14982,10500,bus,75,1,1,1,1,1,0,0
643,14983,10500,bus,75,1,1,1,1,1,0,0
680,14984,10500,bus,75,1,1,1,1,1,0,0
717,14985,10500,bus,75,1,1,1,1,1,0,0
759,14986,10500,bus,75,1,1,1,1,1,0,0
807,14987,10500,bus,75,1,1,1,1,1,0,0
836,14988,10500,bus,75,1,1,1,1,1,0,0
883,14989,10500,bus,75,1,1,1,1,1,0,0
928,14990,10500,bus,75,1,1,1,1,1,0,0
958,14991,10500,bus,75,1,1,1,1,1,0,0
985,14992,10500,bus,75,1,1,1,1,1,0,0
1009,14993,10500,bus,75,1,1,1,1,1,0,0
1038,14994,10500,bus,75,1,1,1,1,1,0,0
1068,14995,10500,bus,75,1,1,1,1,1,0,0
1099,14996,10500,bus,75,1,1,1,1,1,0,0
1119,14997,10500,bus,75,1,1,1,1,1,0,0
1138,14998,10500,bus,75,1,1,1,1,1,0,0
1167,14999,10500,bus,75,1,1,1,1,1,0,0
1214,15000,10500,bus,75,1,1,1,1,1,0,0
1250,15001,10500,bus,75,1,1,1,1,1,0,0
1288,15002,10500,bus,75,1,1,1,1,1,0,0
1326,15003,10500,bus,75,1,1,1,1,1,0,0
1363,15004,10500,bus,75,1,1,1,1,1,0,0
403,15005,10502,bus,75,0,0,0,0,0,0,1
460,15006,10502,bus,75,0,0,0,0,0,0,1
516,15007,10502,bus,75,0,0,0,0,0,0,1
582,15008,10502,bus,75,0,0,0,0,0,0,1
654,15009,10502,bus,75,0,0,0,0,0,0,1
690,15010,10502,bus,75,0,0,0,0,0,0,1
733,15011,10502,bus,75,0,0,0,0,0,0,1
769,15012,10502,bus,75,0,0,0,0,0,0,1
805,15013,10502,bus,75,0,0,0,0,0,0,1
854,15014,10502,bus,75,0,0,0,0,0,0,1
898,15015,10502,bus,75,0,0,0,0,0,0,1
942,15016,10502,bus,75,0,0,0,0,0,0,1
984,15017,10502,bus,75,0,0,0,0,0,0,1
1028,15018,10502,bus,75,0,0,0,0,0,0,1
1066,15019,10502,bus,75,0,0,0,0,0,0,1
1103,15020,10502,bus,75,0,0,0,0,0,0,1
1173,15021,10502,bus,75,0,0,0,0,0,0,1
1243,15022,10502,bus,75,0,0,0,0,0,0,1
1306,15023,10502,bus,75,0,0,0,0,0,0,1
1372,15024,10502,bus,75,0,0,0,0,0,0,1
297,15111,10501,bus,75,0,0,0,0,0,1,0
352,15112,10501,bus,75,0,0,0,0,0,1,0
582,15113,10501,bus,75,0,0,0,0,0,1,0
283,15114,10500,bus,75,1,1,1,1,1,0,0
303,15115,10500,bus,75,1,1,1,1,1,0,0
326,15116,10500,bus,75,1,1,1,1,1,0,0
351,15117,10500,bus,75,1,1,1,1,1,0,0
352,15118,10502,bus,75,0,0,0,0,0,0,1
582,15119,10502,bus,75,0,0,0,0,0,0,1
1456,16334,9969,nightbus,101N,0,0,0,0,1,1,0
1514,16335,9969,nightbus,101N,0,0,0,0,1,1,0
1560,16336,9969,nightbus,101N,0,0,0,0,1,1,0
1413,16353,9970,nightbus,102N,0,0,0,0,1,1,0
1451,16354,9970,nightbus,102N,0,0,0,0,1,1,0
305,16725,10645,trol,1,1,1,1,1,1,0,0
328,16726,10645,trol,1,1,1,1,1,1,0,0
343,16727,10645,trol,1,1,1,1,1,1,0,0
394,16728,10645,trol,1,1,1,1,1,1,0,0
435,16729,10645,trol,1,1,1,1,1,1,0,0
311,16730,10646,trol,1,0,0,0,0,0,1,0
346,16731,10646,trol,1,0,0,0,0,0,1,0
402,16732,10646,trol,1,0,0,0,0,0,1,0
514,16733,10646,trol,1,0,0,0,0,0,1,0
346,16734,10647,trol,1,0,0,0,0,0,0,1
381,16735,10647,trol,1,0,0,0,0,0,0,1
402,16736,10647,trol,1,0,0,0,0,0,0,1
514,16737,10647,trol,1,0,0,0,0,0,0,1
308,16738,10645,trol,1,1,1,1,1,1,0,0
335,17851,10648,trol,3,1,1,1,1,1,0,0
355,17852,10648,trol,3,1,1,1,1,1,0,0
422,17853,10648,trol,3,1,1,1,1,1,0,0
323,17854,10649,trol,3,0,0,0,0,0,1,0
359,17855,10649,trol,3,0,0,0,0,0,1,0
524,17856,10649,trol,3,0,0,0,0,0,1,0
549,17857,10649,trol,3,0,0,0,0,0,1,0
359,17858,10650,trol,3,0,0,0,0,0,0,1
395,17859,10650,trol,3,0,0,0,0,0,0,1
524,17860,10650,trol,3,0,0,0,0,0,0,1
549,17861,10650,trol,3,0,0,0,0,0,0,1
284,18466,10656,trol,4,1,1,1,1,1,0,0
318,18976,10654,trol,7,1,1,1,1,1,0,0
330,18977,10654,trol,7,1,1,1,1,1,0,0
341,18978,10654,trol,7,1,1,1,1,1,0,0
349,18979,10654,trol,7,1,1,1,1,1,0,0
357,18980,10654,trol,7,1,1,1,1,1,0,0
362,18981,10654,trol,7,1,1,1,1,1,0,0
368,18982,10654,trol,7,1,1,1,1,1,0,0
373,18983,10654,trol,7,1,1,1,1,1,0,0
378,18984,10654,trol,7,1,1,1,1,1,0,0
383,18985,10654,trol,7,1,1,1,1,1,0,0
387,18986,10654,trol,7,1,1,1,1,1,0,0
391,18987,10654,trol,7,1,1,1,1,1,0,0
395,18988,10654,trol,7,1,1,1,1,1,0,0
400,18989,10654,trol,7,1,1,1,1,1,0,0
404,18990,10654,trol,7,1,1,1,1,1,0,0
408,18991,10654,trol,7,1,1,1,1,1,0,0
412,18992,10654,trol,7,1,1,1,1,1,0,0
416,18993,10654,trol,7,1,1,1,1,1,0,0
420,18994,10654,trol,7,1,1,1,1,1,0,0
425,18995,10654,trol,7,1,1,1,1,1,0,0
430,18996,10654,trol,7,1,1,1,1,1,0,0
434,18997,10654,trol,7,1,1,1,1,1,0,0
438,18998,10654,trol,7,1,1,1,1,1,0,0
441,18999,10654,trol,7,1,1,1,1,1,0,0
445,19000,10654,trol,7,1,1,1,1,1,0,0
449,19001,10654,trol,7,1,1,1,1,1,0,0
453,19002,10654,trol,7,1,1,1,1,1,0,0
457,19003,10654,trol,7,1,1,1,1,1,0,0
461,19004,10654,trol,7,1,1,1,1,1,0,0
465,19005,10654,trol,7,1,1,1,1,1,0,0
469,19006,10654,trol,7,1,1,1,1,1,0,0
473,19007,10654,trol,7,1,1,1,1,1,0,0
477,19008,10654,trol,7,1,1,1,1,1,0,0
480,19009,10654,trol,7,1,1,1,1,1,0,0
485,19010,10654,trol,7,1,1,1,1,1,0,0
489,19011,10654,trol,7,1,1,1,1,1,0,0
493,19012,10654,trol,7,1,1,1,1,1,0,0
497,19013,10654,trol,7,1,1,1,1,1,0,0
501,19014,10654,trol,7,1,1,1,1,1,0,0
505,19015,10654,trol,7,1,1,1,1,1,0,0
509,19016,10654,trol,7,1,1,1,1,1,0,0
513,19017,10654,trol,7,1,1,1,1,1,0,0
517,19018,10654,trol,7,1,1,1,1,1,0,0
520,19019,10654,trol,7,1,1,1,1,1,0,0
523,19020,10654,trol,7,1,1,1,1,1,0,0
526,19021,10654,trol,7,1,1,1,1,1,0,0
532,19022,10654,trol,7,1,1,1,1,1,0,0
537,19023,10654,trol,7,1,1,1,1,1,0,0
541,19024,10654,trol,7,1,1,1,1,1,0,0
545,19025,10654,trol,7,1,1,1,1,1,0,0
551,19026,10654,trol,7,1,1,1,1,1,0,0
558,19027,10654,trol,7,1,1,1,1,1,0,0
565,19028,10654,trol,7,1,1,1,1,1,0,0
575,19029,10654,trol,7,1,1,1,1,1,0,0
585,19030,10654,trol,7,1,1,1,1,1,0,0
594,19031,10654,trol,7,1,1,1,1,1,0,0
605,19032,10654,trol,7,1,1,1,1,1,0,0
616,19033,10654,trol,7,1,1,1,1,1,0,0
627,19034,10654,trol,7,1,1,1,1,1,0,0
638,19035,10654,trol,7,1,1,1,1,1,0,0
644,19036,10654,trol,7,1,1,1,1,1,0,0
653,19037,10654,trol,7,1,1,1,1,1,0,0
662,19038,10654,trol,7,1,1,1,1,1,0,0
669,19039,10654,trol,7,1,1,1,1,1,0,0
677,19040,10654,trol,7,1,1,1,1,1,0,0
685,19041,10654,trol,7,1,1,1,1,1,0,0
693,19042,10654,trol,7,1,1,1,1,1,0,0
701,19043,10654,trol,7,1,1,1,1,1,0,0
709,19044,10654,trol,7,1,1,1,1,1,0,0
717,19045,10654,trol,7,1,1,1,1,1,0,0
725,19046,10654,trol,7,1,1,1,1,1,0,0
733,19047,10654,trol,7,1,1,1,1,1,0,0
741,19048,10654,trol,7,1,1,1,1,1,0,0
749,19049,10654,trol,7,1,1,1,1,1,0,0
758,19050,10654,trol,7,1,1,1,1,1,0,0
766,19051,10654,trol,7,1,1,1,1,1,0,0
775,19052,10654,trol,7,1,1,1,1,1,0,0
783,19053,10654,trol,7,1,1,1,1,1,0,0
791,19054,10654,trol,7,1,1,1,1,1,0,0
797,19055,10654,trol,7,1,1,1,1,1,0,0
807,19056,10654,trol,7,1,1,1,1,1,0,0
815,19057,10654,trol,7,1,1,1,1,1,0,0
821,19058,10654,trol,7,1,1,1,1,1,0,0
830,19059,10654,trol,7,1,1,1,1,1,0,0
837,19060,10654,trol,7,1,1,1,1,1,0,0
846,19061,10654,trol,7,1,1,1,1,1,0,0
854,19062,10654,trol,7,1,1,1,1,1,0,0
863,19063,10654,trol,7,1,1,1,1,1,0,0
871,19064,10654,trol,7,1,1,1,1,1,0,0
879,19065,10654,trol,7,1,1,1,1,1,0,0
885,19066,10654,trol,7,1,1,1,1,1,0,0
891,19067,10654,trol,7,1,1,1,1,1,0,0
897,19068,10654,trol,7,1,1,1,1,1,0,0
900,19069,10654,trol,7,1,1,1,1,1,0,0
903,19070,10654,trol,7,1,1,1,1,1,0,0
909,19071,10654,trol,7,1,1,1,1,1,0,0
912,19072,10654,trol,7,1,1,1,1,1,0,0
918,19073,10654,trol,7,1,1,1,1,1,0,0
923,19074,10654,trol,7,1,1,1,1,1,0,0
927,19075,10654,trol,7,1,1,1,1,1,0,0
932,19076,10654,trol,7,1,1,1,1,1,0,0
936,19077,10654,trol,7,1,1,1,1,1,0,0
940,19078,10654,trol,7,1,1,1,1,1,0,0
944,19079,10654,trol,7,1,1,1,1,1,0,0
948,19080,10654,trol,7,1,1,1,1,1,0,0
952,19081,10654,trol,7,1,1,1,1,1,0,0
956,19082,10654,trol,7,1,1,1,1,1,0,0
960,19083,10654,trol,7,1,1,1,1,1,0,0
964,19084,10654,trol,7,1,1,1,1,1,0,0
968,19085,10654,trol,7,1,1,1,1,1,0,0
972,19086,10654,trol,7,1,1,1,1,1,0,0
976,19087,10654,trol,7,1,1,1,1,1,0,0
980,19088,10654,trol,7,1,1,1,1,1,0,0
983,19089,10654,trol,7,1,1,1,1,1,0,0
986,19090,10654,trol,7,1,1,1,1,1,0,0
990,19091,10654,trol,7,1,1,1,1,1,0,0
994,19092,10654,trol,7,1,1,1,1,1,0,0
998,19093,10654,trol,7,1,1,1,1,1,0,0
1001,19094,10654,trol,7,1,1,1,1,1,0,0
1005,19095,10654,trol,7,1,1,1,1,1,0,0
1008,19096,10654,trol,7,1,1,1,1,1,0,0
1011,19097,10654,trol,7,1,1,1,1,1,0,0
1014,19098,10654,trol,7,1,1,1,1,1,0,0
1018,19099,10654,trol,7,1,1,1,1,1,0,0
1022,19100,10654,trol,7,1,1,1,1,1,0,0
1026,19101,10654,trol,7,1,1,1,1,1,0,0
1029,19102,10654,trol,7,1,1,1,1,1,0,0
1033,19103,10654,trol,7,1,1,1,1,1,0,0
1037,19104,10654,trol,7,1,1,1,1,1,0,0
1041,19105,10654,trol,7,1,1,1,1,1,0,0
1045,19106,10654,trol,7,1,1,1,1,1,0,0
1049,19107,10654,trol,7,1,1,1,1,1,0,0
1053,19108,10654,trol,7,1,1,1,1,1,0,0
1058,19109,10654,trol,7,1,1,1,1,1,0,0
1063,19110,10654,trol,7,1,1,1,1,1,0,0
1067,19111,10654,trol,7,1,1,1,1,1,0,0
1072,19112,10654,trol,7,1,1,1,1,1,0,0
1077,19113,10654,trol,7,1,1,1,1,1,0,0
1081,19114,10654,trol,7,1,1,1,1,1,0,0
1085,19115,10654,trol,7,1,1,1,1,1,0,0
1089,19116,10654,trol,7,1,1,1,1,1,0,0
1094,19117,10654,trol,7,1,1,1,1,1,0,0
1098,19118,10654,trol,7,1,1,1,1,1,0,0
1102,19119,10654,trol,7,1,1,1,1,1,0,0
1107,19120,10654,trol,7,1,1,1,1,1,0,0
1112,19121,10654,trol,7,1,1,1,1,1,0,0
1116,19122,10654,trol,7,1,1,1,1,1,0,0
1120,19123,10654,trol,7,1,1,1,1,1,0,0
1124,19124,10654,trol,7,1,1,1,1,1,0,0
1131,19125,10654,trol,7,1,1,1,1,1,0,0
1139,19126,10654,trol,7,1,1,1,1,1,0,0
1149,19127,10654,trol,7,1,1,1,1,1,0,0
1159,19128,10654,trol,7,1,1,1,1,1,0,0
1166,19129,10654,trol,7,1,1,1,1,1,0,0
1175,19130,10654,trol,7,1,1,1,1,1,0,0
1181,19131,10654,trol,7,1,1,1,1,1,0,0
1189,19132,10654,trol,7,1,1,1,1,1,0,0
1200,19133,10654,trol,7,1,1,1,1,1,0,0
1208,19134,10654,trol,7,1,1,1,1,1,0,0
1216,19135,10654,trol,7,1,1,1,1,1,0,0
1224,19136,10654,trol,7,1,1,1,1,1,0,0
1233,19137,10654,trol,7,1,1,1,1,1,0,0
1241,19138,10654,trol,7,1,1,1,1,1,0,0
1247,19139,10654,trol,7,1,1,1,1,1,0,0
1254,19140,10654,trol,7,1,1,1,1,1,0,0
1261,19141,10654,trol,7,1,1,1,1,1,0,0
1272,19142,10654,trol,7,1,1,1,1,1,0,0
1284,19143,10654,trol,7,1,1,1,1,1,0,0
1292,19144,10654,trol,7,1,1,1,1,1,0,0
1302,19145,10654,trol,7,1,1,1,1,1,0,0
1316,19146,10654,trol,7,1,1,1,1,1,0,0
1332,19147,10654,trol,7,1,1,1,1,1,0,0
1344,19148,10654,trol,7,1,1,1,1,1,0,0
1358,19149,10654,trol,7,1,1,1,1,1,0,0
1378,19150,10654,trol,7,1,1,1,1,1,0,0
1401,19151,10654,trol,7,1,1,1,1,1,0,0
323,19152,10651,trol,7,0,0,0,0,0,1,0
345,19153,10651,trol,7,0,0,0,0,0,1,0
359,19154,10651,trol,7,0,0,0,0,0,1,0
381,19155,10651,trol,7,0,0,0,0,0,1,0
394,19156,10651,trol,7,0,0,0,0,0,1,0
404,19157,10651,trol,7,0,0,0,0,0,1,0
416,19158,10651,trol,7,0,0,0,0,0,1,0
429,19159,10651,trol,7,0,0,0,0,0,1,0
439,19160,10651,trol,7,0,0,0,0,0,1,0
453,19161,10651,trol,7,0,0,0,0,0,1,0
464,19162,10651,trol,7,0,0,0,0,0,1,0
476,19163,10651,trol,7,0,0,0,0,0,1,0
484,19164,10651,trol,7,0,0,0,0,0,1,0
490,19165,10651,trol,7,0,0,0,0,0,1,0
501,19166,10651,trol,7,0,0,0,0,0,1,0
510,19167,10651,trol,7,0,0,0,0,0,1,0
518,19168,10651,trol,7,0,0,0,0,0,1,0
526,19169,10651,trol,7,0,0,0,0,0,1,0
535,19170,10651,trol,7,0,0,0,0,0,1,0
543,19171,10651,trol,7,0,0,0,0,0,1,0
551,19172,10651,trol,7,0,0,0,0,0,1,0
558,19173,10651,trol,7,0,0,0,0,0,1,0
568,19174,10651,trol,7,0,0,0,0,0,1,0
575,19175,10651,trol,7,0,0,0,0,0,1,0
584,19176,10651,trol,7,0,0,0,0,0,1,0
592,19177,10651,trol,7,0,0,0,0,0,1,0
599,19178,10651,trol,7,0,0,0,0,0,1,0
605,19179,10651,trol,7,0,0,0,0,0,1,0
611,19180,10651,trol,7,0,0,0,0,0,1,0
617,19181,10651,trol,7,0,0,0,0,0,1,0
623,19182,10651,trol,7,0,0,0,0,0,1,0
629,19183,10651,trol,7,0,0,0,0,0,1,0
635,19184,10651,trol,7,0,0,0,0,0,1,0
641,19185,10651,trol,7,0,0,0,0,0,1,0
648,19186,10651,trol,7,0,0,0,0,0,1,0
655,19187,10651,trol,7,0,0,0,0,0,1,0
661,19188,10651,trol,7,0,0,0,0,0,1,0
668,19189,10651,trol,7,0,0,0,0,0,1,0
675,19190,10651,trol,7,0,0,0,0,0,1,0
682,19191,10651,trol,7,0,0,0,0,0,1,0
689,19192,10651,trol,7,0,0,0,0,0,1,0
698,19193,10651,trol,7,0,0,0,0,0,1,0
704,19194,10651,trol,7,0,0,0,0,0,1,0
712,19195,10651,trol,7,0,0,0,0,0,1,0
720,19196,10651,trol,7,0,0,0,0,0,1,0
726,19197,10651,trol,7,0,0,0,0,0,1,0
734,19198,10651,trol,7,0,0,0,0,0,1,0
742,19199,10651,trol,7,0,0,0,0,0,1,0
748,19200,10651,trol,7,0,0,0,0,0,1,0
754,19201,10651,trol,7,0,0,0,0,0,1,0
759,19202,10651,trol,7,0,0,0,0,0,1,0
765,19203,10651,trol,7,0,0,0,0,0,1,0
770,19204,10651,trol,7,0,0,0,0,0,1,0
775,19205,10651,trol,7,0,0,0,0,0,1,0
781,19206,10651,trol,7,0,0,0,0,0,1,0
788,19207,10651,trol,7,0,0,0,0,0,1,0
795,19208,10651,trol,7,0,0,0,0,0,1,0
800,19209,10651,trol,7,0,0,0,0,0,1,0
806,19210,10651,trol,7,0,0,0,0,0,1,0
812,19211,10651,trol,7,0,0,0,0,0,1,0
818,19212,10651,trol,7,0,0,0,0,0,1,0
826,19213,10651,trol,7,0,0,0,0,0,1,0
832,19214,10651,trol,7,0,0,0,0,0,1,0
840,19215,10651,trol,7,0,0,0,0,0,1,0
846,19216,10651,trol,7,0,0,0,0,0,1,0
852,19217,10651,trol,7,0,0,0,0,0,1,0
858,19218,10651,trol,7,0,0,0,0,0,1,0
864,19219,10651,trol,7,0,0,0,0,0,1,0
871,19220,10651,trol,7,0,0,0,0,0,1,0
881,19221,10651,trol,7,0,0,0,0,0,1,0
886,19222,10651,trol,7,0,0,0,0,0,1,0
892,19223,10651,trol,7,0,0,0,0,0,1,0
898,19224,10651,trol,7,0,0,0,0,0,1,0
904,19225,10651,trol,7,0,0,0,0,0,1,0
909,19226,10651,trol,7,0,0,0,0,0,1,0
915,19227,10651,trol,7,0,0,0,0,0,1,0
922,19228,10651,trol,7,0,0,0,0,0,1,0
928,19229,10651,trol,7,0,0,0,0,0,1,0
935,19230,10651,trol,7,0,0,0,0,0,1,0
941,19231,10651,trol,7,0,0,0,0,0,1,0
947,19232,10651,trol,7,0,0,0,0,0,1,0
957,19233,10651,trol,7,0,0,0,0,0,1,0
964,19234,10651,trol,7,0,0,0,0,0,1,0
971,19235,10651,trol,7,0,0,0,0,0,1,0
978,19236,10651,trol,7,0,0,0,0,0,1,0
984,19237,10651,trol,7,0,0,0,0,0,1,0
991,19238,10651,trol,7,0,0,0,0,0,1,0
1000,19239,10651,trol,7,0,0,0,0,0,1,0
1010,19240,10651,trol,7,0,0,0,0,0,1,0
1024,19241,10651,trol,7,0,0,0,0,0,1,0
1032,19242,10651,trol,7,0,0,0,0,0,1,0
1040,19243,10651,trol,7,0,0,0,0,0,1,0
1050,19244,10651,trol,7,0,0,0,0,0,1,0
1059,19245,10651,trol,7,0,0,0,0,0,1,0
1069,19246,10651,trol,7,0,0,0,0,0,1,0
1084,19247,10651,trol,7,0,0,0,0,0,1,0
1098,19248,10651,trol,7,0,0,0,0,0,1,0
1110,19249,10651,trol,7,0,0,0,0,0,1,0
1123,19250,10651,trol,7,0,0,0,0,0,1,0
1133,19251,10651,trol,7,0,0,0,0,0,1,0
1144,19252,10651,trol,7,0,0,0,0,0,1,0
1152,19253,10651,trol,7,0,0,0,0,0,1,0
1165,19254,10651,trol,7,0,0,0,0,0,1,0
1175,19255,10651,trol,7,0,0,0,0,0,1,0
1185,19256,10651,trol,7,0,0,0,0,0,1,0
1196,19257,10651,trol,7,0,0,0,0,0,1,0
1205,19258,10651,trol,7,0,0,0,0,0,1,0
1216,19259,10651,trol,7,0,0,0,0,0,1,0
1225,19260,10651,trol,7,0,0,0,0,0,1,0
1236,19261,10651,trol,7,0,0,0,0,0,1,0
1245,19262,10651,trol,7,0,0,0,0,0,1,0
1255,19263,10651,trol,7,0,0,0,0,0,1,0
1267,19264,10651,trol,7,0,0,0,0,0,1,0
1281,19265,10651,trol,7,0,0,0,0,0,1,0
1297,19266,10651,trol,7,0,0,0,0,0,1,0
1313,19267,10651,trol,7,0,0,0,0,0,1,0
1324,19268,10651,trol,7,0,0,0,0,0,1,0
1334,19269,10651,trol,7,0,0,0,0,0,1,0
1353,19270,10651,trol,7,0,0,0,0,0,1,0
1370,19271,10651,trol,7,0,0,0,0,0,1,0
1389,19272,10651,trol,7,0,0,0,0,0,1,0
381,19273,10653,trol,7,0,0,0,0,0,0,1
394,19274,10653,trol,7,0,0,0,0,0,0,1
404,19275,10653,trol,7,0,0,0,0,0,0,1
416,19276,10653,trol,7,0,0,0,0,0,0,1
429,19277,10653,trol,7,0,0,0,0,0,0,1
439,19278,10653,trol,7,0,0,0,0,0,0,1
453,19279,10653,trol,7,0,0,0,0,0,0,1
464,19280,10653,trol,7,0,0,0,0,0,0,1
476,19281,10653,trol,7,0,0,0,0,0,0,1
484,19282,10653,trol,7,0,0,0,0,0,0,1
490,19283,10653,trol,7,0,0,0,0,0,0,1
501,19284,10653,trol,7,0,0,0,0,0,0,1
510,19285,10653,trol,7,0,0,0,0,0,0,1
518,19286,10653,trol,7,0,0,0,0,0,0,1
526,19287,10653,trol,7,0,0,0,0,0,0,1
535,19288,10653,trol,7,0,0,0,0,0,0,1
543,19289,10653,trol,7,0,0,0,0,0,0,1
551,19290,10653,trol,7,0,0,0,0,0,0,1
558,19291,10653,trol,7,0,0,0,0,0,0,1
568,19292,10653,trol,7,0,0,0,0,0,0,1
575,19293,10653,trol,7,0,0,0,0,0,0,1
584,19294,10653,trol,7,0,0,0,0,0,0,1
592,19295,10653,trol,7,0,0,0,0,0,0,1
599,19296,10653,trol,7,0,0,0,0,0,0,1
605,19297,10653,trol,7,0,0,0,0,0,0,1
611,19298,10653,trol,7,0,0,0,0,0,0,1
617,19299,10653,trol,7,0,0,0,0,0,0,1
623,19300,10653,trol,7,0,0,0,0,0,0,1
629,19301,10653,trol,7,0,0,0,0,0,0,1
635,19302,10653,trol,7,0,0,0,0,0,0,1
641,19303,10653,trol,7,0,0,0,0,0,0,1
648,19304,10653,trol,7,0,0,0,0,0,0,1
655,19305,10653,trol,7,0,0,0,0,0,0,1
661,19306,10653,trol,7,0,0,0,0,0,0,1
668,19307,10653,trol,7,0,0,0,0,0,0,1
675,19308,10653,trol,7,0,0,0,0,0,0,1
682,19309,10653,trol,7,0,0,0,0,0,0,1
689,19310,10653,trol,7,0,0,0,0,0,0,1
698,19311,10653,trol,7,0,0,0,0,0,0,1
704,19312,10653,trol,7,0,0,0,0,0,0,1
712,19313,10653,trol,7,0,0,0,0,0,0,1
720,19314,10653,trol,7,0,0,0,0,0,0,1
726,19315,10653,trol,7,0,0,0,0,0,0,1
734,19316,10653,trol,7,0,0,0,0,0,0,1
742,19317,10653,trol,7,0,0,0,0,0,0,1
748,19318,10653,trol,7,0,0,0,0,0,0,1
754,19319,10653,trol,7,0,0,0,0,0,0,1
759,19320,10653,trol,7,0,0,0,0,0,0,1
765,19321,10653,trol,7,0,0,0,0,0,0,1
770,19322,10653,trol,7,0,0,0,0,0,0,1
775,19323,10653,trol,7,0,0,0,0,0,0,1
781,19324,10653,trol,7,0,0,0,0,0,0,1
788,19325,10653,trol,7,0,0,0,0,0,0,1
795,19326,10653,trol,7,0,0,0,0,0,0,1
800,19327,10653,trol,7,0,0,0,0,0,0,1
806,19328,10653,trol,7,0,0,0,0,0,0,1
812,19329,10653,trol,7,0,0,0,0,0,0,1
818,19330,10653,trol,7,0,0,0,0,0,0,1
826,19331,10653,trol,7,0,0,0,0,0,0,1
832,19332,10653,trol,7,0,0,0,0,0,0,1
840,19333,10653,trol,7,0,0,0,0,0,0,1
846,19334,10653,trol,7,0,0,0,0,0,0,1
852,19335,10653,trol,7,0,0,0,0,0,0,1
858,19336,10653,trol,7,0,0,0,0,0,0,1
864,19337,10653,trol,7,0,0,0,0,0,0,1
871,19338,10653,trol,7,0,0,0,0,0,0,1
881,19339,10653,trol,7,0,0,0,0,0,0,1
886,19340,10653,trol,7,0,0,0,0,0,0,1
892,19341,10653,trol,7,0,0,0,0,0,0,1
898,19342,10653,trol,7,0,0,0,0,0,0,1
904,19343,10653,trol,7,0,0,0,0,0,0,1
909,19344,10653,trol,7,0,0,0,0,0,0,1
915,19345,10653,trol,7,0,0,0,0,0,0,1
922,19346,10653,trol,7,0,0,0,0,0,0,1
928,19347,10653,trol,7,0,0,0,0,0,0,1
935,19348,10653,trol,7,0,0,0,0,0,0,1
941,19349,10653,trol,7,0,0,0,0,0,0,1
947,19350,10653,trol,7,0,0,0,0,0,0,1
957,19351,10653,trol,7,0,0,0,0,0,0,1
964,19352,10653,trol,7,0,0,0,0,0,0,1
971,19353,10653,trol,7,0,0,0,0,0,0,1
978,19354,10653,trol,7,0,0,0,0,0,0,1
984,19355,10653,trol,7,0,0,0,0,0,0,1
991,19356,10653,trol,7,0,0,0,0,0,0,1
1000,19357,10653,trol,7,0,0,0,0,0,0,1
1010,19358,10653,trol,7,0,0,0,0,0,0,1
1024,19359,10653,trol,7,0,0,0,0,0,0,1
1032,19360,10653,trol,7,0,0,0,0,0,0,1
1040,19361,10653,trol,7,0,0,0,0,0,0,1
1050,19362,10653,trol,7,0,0,0,0,0,0,1
1059,19363,10653,trol,7,0,0,0,0,0,0,1
1069,19364,10653,trol,7,0,0,0,0,0,0,1
1084,19365,10653,trol,7,0,0,0,0,0,0,1
1098,19366,10653,trol,7,0,0,0,0,0,0,1
1110,19367,10653,trol,7,0,0,0,0,0,0,1
1123,19368,10653,trol,7,0,0,0,0,0,0,1
1133,19369,10653,trol,7,0,0,0,0,0,0,1
1144,19370,10653,trol,7,0,0,0,0,0,0,1
1152,19371,10653,trol,7,0,0,0,0,0,0,1
1165,19372,10653,trol,7,0,0,0,0,0,0,1
1175,19373,10653,trol,7,0,0,0,0,0,0,1
1185,19374,10653,trol,7,0,0,0,0,0,0,1
1196,19375,10653,trol,7,0,0,0,0,0,0,1
1205,19376,10653,trol,7,0,0,0,0,0,0,1
1216,19377,10653,trol,7,0,0,0,0,0,0,1
1225,19378,10653,trol,7,0,0,0,0,0,0,1
1236,19379,10653,trol,7,0,0,0,0,0,0,1
1245,19380,10653,trol,7,0,0,0,0,0,0,1
1255,19381,10653,trol,7,0,0,0,0,0,0,1
1267,19382,10653,trol,7,0,0,0,0,0,0,1
1281,19383,10653,trol,7,0,0,0,0,0,0,1
1297,19384,10653,trol,7,0,0,0,0,0,0,1
1313,19385,10653,trol,7,0,0,0,0,0,0,1
1324,19386,10653,trol,7,0,0,0,0,0,0,1
1334,19387,10653,trol,7,0,0,0,0,0,0,1
1353,19388,10653,trol,7,0,0,0,0,0,0,1
1370,19389,10653,trol,7,0,0,0,0,0,0,1
1389,19390,10653,trol,7,0,0,0,0,0,0,1
285,19924,10654,trol,7,1,1,1,1,1,0,0
298,19925,10654,trol,7,1,1,1,1,1,0,0
850,19926,10654,trol,7,1,1,1,1,1,0,0
859,19927,10654,trol,7,1,1,1,1,1,0,0
867,19928,10654,trol,7,1,1,1,1,1,0,0
875,19929,10654,trol,7,1,1,1,1,1,0,0
882,19930,10654,trol,7,1,1,1,1,1,0,0
888,19931,10654,trol,7,1,1,1,1,1,0,0
894,19932,10654,trol,7,1,1,1,1,1,0,0
906,19933,10654,trol,7,1,1,1,1,1,0,0
915,19934,10654,trol,7,1,1,1,1,1,0,0
301,19935,10651,trol,7,0,0,0,0,0,1,0
345,19936,10653,trol,7,0,0,0,0,0,0,1
359,19937,10653,trol,7,0,0,0,0,0,0,1
319,20398,10452,trol,9,1,1,1,1,1,0,0
340,20399,10452,trol,9,1,1,1,1,1,0,0
412,20400,10452,trol,9,1,1,1,1,1,0,0
441,20401,10452,trol,9,1,1,1,1,1,0,0
331,20402,10453,trol,9,0,0,0,0,0,1,0
388,20403,10453,trol,9,0,0,0,0,0,1,0
388,20404,10454,trol,9,0,0,0,0,0,0,1
351,20405,10454,trol,9,0,0,0,0,0,0,1
306,21190,10656,trol,13,1,1,1,1,1,0,0
337,21191,10656,trol,13,1,1,1,1,1,0,0
360,21192,10656,trol,13,1,1,1,1,1,0,0
380,21193,10656,trol,13,1,1,1,1,1,0,0
401,21194,10656,trol,13,1,1,1,1,1,0,0
429,21195,10656,trol,13,1,1,1,1,1,0,0
454,21196,10656,trol,13,1,1,1,1,1,0,0
478,21197,10656,trol,13,1,1,1,1,1,0,0
498,21198,10656,trol,13,1,1,1,1,1,0,0
828,21199,10656,trol,13,1,1,1,1,1,0,0
846,21200,10656,trol,13,1,1,1,1,1,0,0
861,21201,10656,trol,13,1,1,1,1,1,0,0
874,21202,10656,trol,13,1,1,1,1,1,0,0
891,21203,10656,trol,13,1,1,1,1,1,0,0
906,21204,10656,trol,13,1,1,1,1,1,0,0
925,21205,10656,trol,13,1,1,1,1,1,0,0
945,21206,10656,trol,13,1,1,1,1,1,0,0
958,21207,10656,trol,13,1,1,1,1,1,0,0
972,21208,10656,trol,13,1,1,1,1,1,0,0
988,21209,10656,trol,13,1,1,1,1,1,0,0
1007,21210,10656,trol,13,1,1,1,1,1,0,0
1027,21211,10656,trol,13,1,1,1,1,1,0,0
511,21212,10656,trol,13,1,1,1,1,1,0,0
531,21213,10656,trol,13,1,1,1,1,1,0,0
552,21214,10656,trol,13,1,1,1,1,1,0,0
315,21513,10466,trol,16,1,1,1,1,1,0,0
330,21514,10466,trol,16,1,1,1,1,1,0,0
342,21515,10466,trol,16,1,1,1,1,1,0,0
361,21516,10466,trol,16,1,1,1,1,1,0,0
372,21517,10466,trol,16,1,1,1,1,1,0,0
381,21518,10466,trol,16,1,1,1,1,1,0,0
390,21519,10466,trol,16,1,1,1,1,1,0,0
397,21520,10466,trol,16,1,1,1,1,1,0,0
404,21521,10466,trol,16,1,1,1,1,1,0,0
410,21522,10466,trol,16,1,1,1,1,1,0,0
416,21523,10466,trol,16,1,1,1,1,1,0,0
423,21524,10466,trol,16,1,1,1,1,1,0,0
430,21525,10466,trol,16,1,1,1,1,1,0,0
436,21526,10466,trol,16,1,1,1,1,1,0,0
441,21527,10466,trol,16,1,1,1,1,1,0,0
447,21528,10466,trol,16,1,1,1,1,1,0,0
452,21529,10466,trol,16,1,1,1,1,1,0,0
457,21530,10466,trol,16,1,1,1,1,1,0,0
463,21531,10466,trol,16,1,1,1,1,1,0,0
470,21532,10466,trol,16,1,1,1,1,1,0,0
477,21533,10466,trol,16,1,1,1,1,1,0,0
483,21534,10466,trol,16,1,1,1,1,1,0,0
489,21535,10466,trol,16,1,1,1,1,1,0,0
497,21536,10466,trol,16,1,1,1,1,1,0,0
505,21537,10466,trol,16,1,1,1,1,1,0,0
513,21538,10466,trol,16,1,1,1,1,1,0,0
521,21539,10466,trol,16,1,1,1,1,1,0,0
529,21540,10466,trol,16,1,1,1,1,1,0,0
538,21541,10466,trol,16,1,1,1,1,1,0,0
545,21542,10466,trol,16,1,1,1,1,1,0,0
551,21543,10466,trol,16,1,1,1,1,1,0,0
557,21544,10466,trol,16,1,1,1,1,1,0,0
564,21545,10466,trol,16,1,1,1,1,1,0,0
570,21546,10466,trol,16,1,1,1,1,1,0,0
578,21547,10466,trol,16,1,1,1,1,1,0,0
586,21548,10466,trol,16,1,1,1,1,1,0,0
598,21549,10466,trol,16,1,1,1,1,1,0,0
609,21550,10466,trol,16,1,1,1,1,1,0,0
618,21551,10466,trol,16,1,1,1,1,1,0,0
627,21552,10466,trol,16,1,1,1,1,1,0,0
636,21553,10466,trol,16,1,1,1,1,1,0,0
645,21554,10466,trol,16,1,1,1,1,1,0,0
651,21555,10466,trol,16,1,1,1,1,1,0,0
661,21556,10466,trol,16,1,1,1,1,1,0,0
669,21557,10466,trol,16,1,1,1,1,1,0,0
678,21558,10466,trol,16,1,1,1,1,1,0,0
686,21559,10466,trol,16,1,1,1,1,1,0,0
695,21560,10466,trol,16,1,1,1,1,1,0,0
704,21561,10466,trol,16,1,1,1,1,1,0,0
713,21562,10466,trol,16,1,1,1,1,1,0,0
722,21563,10466,trol,16,1,1,1,1,1,0,0
731,21564,10466,trol,16,1,1,1,1,1,0,0
740,21565,10466,trol,16,1,1,1,1,1,0,0
746,21566,10466,trol,16,1,1,1,1,1,0,0
755,21567,10466,trol,16,1,1,1,1,1,0,0
766,21568,10466,trol,16,1,1,1,1,1,0,0
775,21569,10466,trol,16,1,1,1,1,1,0,0
784,21570,10466,trol,16,1,1,1,1,1,0,0
793,21571,10466,trol,16,1,1,1,1,1,0,0
801,21572,10466,trol,16,1,1,1,1,1,0,0
810,21573,10466,trol,16,1,1,1,1,1,0,0
821,21574,10466,trol,16,1,1,1,1,1,0,0
829,21575,10466,trol,16,1,1,1,1,1,0,0
837,21576,10466,trol,16,1,1,1,1,1,0,0
843,21577,10466,trol,16,1,1,1,1,1,0,0
854,21578,10466,trol,16,1,1,1,1,1,0,0
862,21579,10466,trol,16,1,1,1,1,1,0,0
871,21580,10466,trol,16,1,1,1,1,1,0,0
881,21581,10466,trol,16,1,1,1,1,1,0,0
890,21582,10466,trol,16,1,1,1,1,1,0,0
898,21583,10466,trol,16,1,1,1,1,1,0,0
905,21584,10466,trol,16,1,1,1,1,1,0,0
913,21585,10466,trol,16,1,1,1,1,1,0,0
919,21586,10466,trol,16,1,1,1,1,1,0,0
927,21587,10466,trol,16,1,1,1,1,1,0,0
934,21588,10466,trol,16,1,1,1,1,1,0,0
939,21589,10466,trol,16,1,1,1,1,1,0,0
947,21590,10466,trol,16,1,1,1,1,1,0,0
956,21591,10466,trol,16,1,1,1,1,1,0,0
963,21592,10466,trol,16,1,1,1,1,1,0,0
971,21593,10466,trol,16,1,1,1,1,1,0,0
977,21594,10466,trol,16,1,1,1,1,1,0,0
984,21595,10466,trol,16,1,1,1,1,1,0,0
991,21596,10466,trol,16,1,1,1,1,1,0,0
998,21597,10466,trol,16,1,1,1,1,1,0,0
1003,21598,10466,trol,16,1,1,1,1,1,0,0
1009,21599,10466,trol,16,1,1,1,1,1,0,0
1014,21600,10466,trol,16,1,1,1,1,1,0,0
1019,21601,10466,trol,16,1,1,1,1,1,0,0
1024,21602,10466,trol,16,1,1,1,1,1,0,0
1030,21603,10466,trol,16,1,1,1,1,1,0,0
1037,21604,10466,trol,16,1,1,1,1,1,0,0
1042,21605,10466,trol,16,1,1,1,1,1,0,0
1050,21606,10466,trol,16,1,1,1,1,1,0,0
1056,21607,10466,trol,16,1,1,1,1,1,0,0
1063,21608,10466,trol,16,1,1,1,1,1,0,0
1071,21609,10466,trol,16,1,1,1,1,1,0,0
1078,21610,10466,trol,16,1,1,1,1,1,0,0
1086,21611,10466,trol,16,1,1,1,1,1,0,0
1094,21612,10466,trol,16,1,1,1,1,1,0,0
1102,21613,10466,trol,16,1,1,1,1,1,0,0
1111,21614,10466,trol,16,1,1,1,1,1,0,0
1117,21615,10466,trol,16,1,1,1,1,1,0,0
1125,21616,10466,trol,16,1,1,1,1,1,0,0
1134,21617,10466,trol,16,1,1,1,1,1,0,0
1145,21618,10466,trol,16,1,1,1,1,1,0,0
1155,21619,10466,trol,16,1,1,1,1,1,0,0
1165,21620,10466,trol,16,1,1,1,1,1,0,0
1172,21621,10466,trol,16,1,1,1,1,1,0,0
1182,21622,10466,trol,16,1,1,1,1,1,0,0
1194,21623,10466,trol,16,1,1,1,1,1,0,0
1203,21624,10466,trol,16,1,1,1,1,1,0,0
1211,21625,10466,trol,16,1,1,1,1,1,0,0
1221,21626,10466,trol,16,1,1,1,1,1,0,0
1228,21627,10466,trol,16,1,1,1,1,1,0,0
1237,21628,10466,trol,16,1,1,1,1,1,0,0
1245,21629,10466,trol,16,1,1,1,1,1,0,0
1254,21630,10466,trol,16,1,1,1,1,1,0,0
1262,21631,10466,trol,16,1,1,1,1,1,0,0
1270,21632,10466,trol,16,1,1,1,1,1,0,0
1276,21633,10466,trol,16,1,1,1,1,1,0,0
1287,21634,10466,trol,16,1,1,1,1,1,0,0
1298,21635,10466,trol,16,1,1,1,1,1,0,0
1309,21636,10466,trol,16,1,1,1,1,1,0,0
1320,21637,10466,trol,16,1,1,1,1,1,0,0
1335,21638,10466,trol,16,1,1,1,1,1,0,0
1354,21639,10466,trol,16,1,1,1,1,1,0,0
1365,21640,10466,trol,16,1,1,1,1,1,0,0
1392,21641,10466,trol,16,1,1,1,1,1,0,0
328,21642,10467,trol,16,0,0,0,0,0,1,0
353,21643,10467,trol,16,0,0,0,0,0,1,0
377,21644,10467,trol,16,0,0,0,0,0,1,0
392,21645,10467,trol,16,0,0,0,0,0,1,0
414,21646,10467,trol,16,0,0,0,0,0,1,0
424,21647,10467,trol,16,0,0,0,0,0,1,0
434,21648,10467,trol,16,0,0,0,0,0,1,0
447,21649,10467,trol,16,0,0,0,0,0,1,0
462,21650,10467,trol,16,0,0,0,0,0,1,0
470,21651,10467,trol,16,0,0,0,0,0,1,0
484,21652,10467,trol,16,0,0,0,0,0,1,0
499,21653,10467,trol,16,0,0,0,0,0,1,0
510,21654,10467,trol,16,0,0,0,0,0,1,0
521,21655,10467,trol,16,0,0,0,0,0,1,0
533,21656,10467,trol,16,0,0,0,0,0,1,0
547,21657,10467,trol,16,0,0,0,0,0,1,0
557,21658,10467,trol,16,0,0,0,0,0,1,0
566,21659,10467,trol,16,0,0,0,0,0,1,0
579,21660,10467,trol,16,0,0,0,0,0,1,0
589,21661,10467,trol,16,0,0,0,0,0,1,0
602,21662,10467,trol,16,0,0,0,0,0,1,0
610,21663,10467,trol,16,0,0,0,0,0,1,0
621,21664,10467,trol,16,0,0,0,0,0,1,0
634,21665,10467,trol,16,0,0,0,0,0,1,0
646,21666,10467,trol,16,0,0,0,0,0,1,0
656,21667,10467,trol,16,0,0,0,0,0,1,0
664,21668,10467,trol,16,0,0,0,0,0,1,0
672,21669,10467,trol,16,0,0,0,0,0,1,0
681,21670,10467,trol,16,0,0,0,0,0,1,0
691,21671,10467,trol,16,0,0,0,0,0,1,0
701,21672,10467,trol,16,0,0,0,0,0,1,0
713,21673,10467,trol,16,0,0,0,0,0,1,0
722,21674,10467,trol,16,0,0,0,0,0,1,0
731,21675,10467,trol,16,0,0,0,0,0,1,0
743,21676,10467,trol,16,0,0,0,0,0,1,0
754,21677,10467,trol,16,0,0,0,0,0,1,0
764,21678,10467,trol,16,0,0,0,0,0,1,0
772,21679,10467,trol,16,0,0,0,0,0,1,0
781,21680,10467,trol,16,0,0,0,0,0,1,0
793,21681,10467,trol,16,0,0,0,0,0,1,0
805,21682,10467,trol,16,0,0,0,0,0,1,0
817,21683,10467,trol,16,0,0,0,0,0,1,0
825,21684,10467,trol,16,0,0,0,0,0,1,0
836,21685,10467,trol,16,0,0,0,0,0,1,0
848,21686,10467,trol,16,0,0,0,0,0,1,0
856,21687,10467,trol,16,0,0,0,0,0,1,0
864,21688,10467,trol,16,0,0,0,0,0,1,0
874,21689,10467,trol,16,0,0,0,0,0,1,0
884,21690,10467,trol,16,0,0,0,0,0,1,0
890,21691,10467,trol,16,0,0,0,0,0,1,0
899,21692,10467,trol,16,0,0,0,0,0,1,0
910,21693,10467,trol,16,0,0,0,0,0,1,0
920,21694,10467,trol,16,0,0,0,0,0,1,0
930,21695,10467,trol,16,0,0,0,0,0,1,0
937,21696,10467,trol,16,0,0,0,0,0,1,0
947,21697,10467,trol,16,0,0,0,0,0,1,0
957,21698,10467,trol,16,0,0,0,0,0,1,0
968,21699,10467,trol,16,0,0,0,0,0,1,0
976,21700,10467,trol,16,0,0,0,0,0,1,0
985,21701,10467,trol,16,0,0,0,0,0,1,0
1000,21702,10467,trol,16,0,0,0,0,0,1,0
1011,21703,10467,trol,16,0,0,0,0,0,1,0
1020,21704,10467,trol,16,0,0,0,0,0,1,0
1033,21705,10467,trol,16,0,0,0,0,0,1,0
1049,21706,10467,trol,16,0,0,0,0,0,1,0
1068,21707,10467,trol,16,0,0,0,0,0,1,0
1078,21708,10467,trol,16,0,0,0,0,0,1,0
1092,21709,10467,trol,16,0,0,0,0,0,1,0
1107,21710,10467,trol,16,0,0,0,0,0,1,0
1126,21711,10467,trol,16,0,0,0,0,0,1,0
1138,21712,10467,trol,16,0,0,0,0,0,1,0
1154,21713,10467,trol,16,0,0,0,0,0,1,0
1167,21714,10467,trol,16,0,0,0,0,0,1,0
1182,21715,10467,trol,16,0,0,0,0,0,1,0
1192,21716,10467,trol,16,0,0,0,0,0,1,0
1205,21717,10467,trol,16,0,0,0,0,0,1,0
1219,21718,10467,trol,16,0,0,0,0,0,1,0
1231,21719,10467,trol,16,0,0,0,0,0,1,0
1245,21720,10467,trol,16,0,0,0,0,0,1,0
1258,21721,10467,trol,16,0,0,0,0,0,1,0
1276,21722,10467,trol,16,0,0,0,0,0,1,0
1290,21723,10467,trol,16,0,0,0,0,0,1,0
1314,21724,10467,trol,16,0,0,0,0,0,1,0
1342,21725,10467,trol,16,0,0,0,0,0,1,0
1374,21726,10467,trol,16,0,0,0,0,0,1,0
392,21727,10468,trol,16,0,0,0,0,0,0,1
414,21728,10468,trol,16,0,0,0,0,0,0,1
424,21729,10468,trol,16,0,0,0,0,0,0,1
434,21730,10468,trol,16,0,0,0,0,0,0,1
447,21731,10468,trol,16,0,0,0,0,0,0,1
462,21732,10468,trol,16,0,0,0,0,0,0,1
470,21733,10468,trol,16,0,0,0,0,0,0,1
484,21734,10468,trol,16,0,0,0,0,0,0,1
499,21735,10468,trol,16,0,0,0,0,0,0,1
510,21736,10468,trol,16,0,0,0,0,0,0,1
521,21737,10468,trol,16,0,0,0,0,0,0,1
533,21738,10468,trol,16,0,0,0,0,0,0,1
547,21739,10468,trol,16,0,0,0,0,0,0,1
557,21740,10468,trol,16,0,0,0,0,0,0,1
566,21741,10468,trol,16,0,0,0,0,0,0,1
579,21742,10468,trol,16,0,0,0,0,0,0,1
589,21743,10468,trol,16,0,0,0,0,0,0,1
602,21744,10468,trol,16,0,0,0,0,0,0,1
610,21745,10468,trol,16,0,0,0,0,0,0,1
621,21746,10468,trol,16,0,0,0,0,0,0,1
634,21747,10468,trol,16,0,0,0,0,0,0,1
646,21748,10468,trol,16,0,0,0,0,0,0,1
656,21749,10468,trol,16,0,0,0,0,0,0,1
664,21750,10468,trol,16,0,0,0,0,0,0,1
672,21751,10468,trol,16,0,0,0,0,0,0,1
681,21752,10468,trol,16,0,0,0,0,0,0,1
691,21753,10468,trol,16,0,0,0,0,0,0,1
701,21754,10468,trol,16,0,0,0,0,0,0,1
713,21755,10468,trol,16,0,0,0,0,0,0,1
722,21756,10468,trol,16,0,0,0,0,0,0,1
731,21757,10468,trol,16,0,0,0,0,0,0,1
743,21758,10468,trol,16,0,0,0,0,0,0,1
754,21759,10468,trol,16,0,0,0,0,0,0,1
764,21760,10468,trol,16,0,0,0,0,0,0,1
772,21761,10468,trol,16,0,0,0,0,0,0,1
781,21762,10468,trol,16,0,0,0,0,0,0,1
793,21763,10468,trol,16,0,0,0,0,0,0,1
805,21764,10468,trol,16,0,0,0,0,0,0,1
817,21765,10468,trol,16,0,0,0,0,0,0,1
825,21766,10468,trol,16,0,0,0,0,0,0,1
836,21767,10468,trol,16,0,0,0,0,0,0,1
848,21768,10468,trol,16,0,0,0,0,0,0,1
856,21769,10468,trol,16,0,0,0,0,0,0,1
864,21770,10468,trol,16,0,0,0,0,0,0,1
874,21771,10468,trol,16,0,0,0,0,0,0,1
884,21772,10468,trol,16,0,0,0,0,0,0,1
890,21773,10468,trol,16,0,0,0,0,0,0,1
899,21774,10468,trol,16,0,0,0,0,0,0,1
910,21775,10468,trol,16,0,0,0,0,0,0,1
920,21776,10468,trol,16,0,0,0,0,0,0,1
930,21777,10468,trol,16,0,0,0,0,0,0,1
937,21778,10468,trol,16,0,0,0,0,0,0,1
947,21779,10468,trol,16,0,0,0,0,0,0,1
957,21780,10468,trol,16,0,0,0,0,0,0,1
968,21781,10468,trol,16,0,0,0,0,0,0,1
976,21782,10468,trol,16,0,0,0,0,0,0,1
985,21783,10468,trol,16,0,0,0,0,0,0,1
1000,21784,10468,trol,16,0,0,0,0,0,0,1
1011,21785,10468,trol,16,0,0,0,0,0,0,1
1020,21786,10468,trol,16,0,0,0,0,0,0,1
1033,21787,10468,trol,16,0,0,0,0,0,0,1
1049,21788,10468,trol,16,0,0,0,0,0,0,1
1068,21789,10468,trol,16,0,0,0,0,0,0,1
1078,21790,10468,trol,16,0,0,0,0,0,0,1
1092,21791,10468,trol,16,0,0,0,0,0,0,1
1107,21792,10468,trol,16,0,0,0,0,0,0,1
1126,21793,10468,trol,16,0,0,0,0,0,0,1
1138,21794,10468,trol,16,0,0,0,0,0,0,1
1154,21795,10468,trol,16,0,0,0,0,0,0,1
1167,21796,10468,trol,16,0,0,0,0,0,0,1
1182,21797,10468,trol,16,0,0,0,0,0,0,1
1192,21798,10468,trol,16,0,0,0,0,0,0,1
1205,21799,10468,trol,16,0,0,0,0,0,0,1
1219,21800,10468,trol,16,0,0,0,0,0,0,1
1231,21801,10468,trol,16,0,0,0,0,0,0,1
1245,21802,10468,trol,16,0,0,0,0,0,0,1
1258,21803,10468,trol,16,0,0,0,0,0,0,1
1276,21804,10468,trol,16,0,0,0,0,0,0,1
1290,21805,10468,trol,16,0,0,0,0,0,0,1
1314,21806,10468,trol,16,0,0,0,0,0,0,1
1342,21807,10468,trol,16,0,0,0,0,0,0,1
1374,21808,10468,trol,16,0,0,0,0,0,0,1
294,22180,10466,trol,16,1,1,1,1,1,0,0
308,22181,10466,trol,16,1,1,1,1,1,0,0
878,22182,10466,trol,16,1,1,1,1,1,0,0
910,22183,10466,trol,16,1,1,1,1,1,0,0
924,22184,10466,trol,16,1,1,1,1,1,0,0
304,22185,10467,trol,16,0,0,0,0,0,1,0
353,22186,10468,trol,16,0,0,0,0,0,0,1
377,22187,10468,trol,16,0,0,0,0,0,0,1
332,22777,10655,trol,18,1,1,1,1,1,0,0
352,22778,10654,trol,18,1,1,1,1,1,0,0
370,22779,10655,trol,18,1,1,1,1,1,0,0
386,22780,10656,trol,18,1,1,1,1,1,0,0
406,22781,10655,trol,18,1,1,1,1,1,0,0
420,22782,10655,trol,18,1,1,1,1,1,0,0
439,22783,10655,trol,18,1,1,1,1,1,0,0
457,22784,10654,trol,18,1,1,1,1,1,0,0
472,22785,10655,trol,18,1,1,1,1,1,0,0
493,22786,10656,trol,18,1,1,1,1,1,0,0
505,22787,10655,trol,18,1,1,1,1,1,0,0
522,22788,10655,trol,18,1,1,1,1,1,0,0
541,22789,10655,trol,18,1,1,1,1,1,0,0
574,22790,10655,trol,18,1,1,1,1,1,0,0
626,22791,10655,trol,18,1,1,1,1,1,0,0
661,22792,10655,trol,18,1,1,1,1,1,0,0
693,22793,10655,trol,18,1,1,1,1,1,0,0
721,22794,10655,trol,18,1,1,1,1,1,0,0
755,22795,10655,trol,18,1,1,1,1,1,0,0
786,22796,10655,trol,18,1,1,1,1,1,0,0
820,22797,10655,trol,18,1,1,1,1,1,0,0
854,22798,10655,trol,18,1,1,1,1,1,0,0
885,22799,10655,trol,18,1,1,1,1,1,0,0
919,22800,10655,trol,18,1,1,1,1,1,0,0
950,22801,10655,trol,18,1,1,1,1,1,0,0
980,22802,10655,trol,18,1,1,1,1,1,0,0
999,22803,10655,trol,18,1,1,1,1,1,0,0
1020,22804,10655,trol,18,1,1,1,1,1,0,0
1049,22805,10655,trol,18,1,1,1,1,1,0,0
1081,22806,10655,trol,18,1,1,1,1,1,0,0
1108,22807,10655,trol,18,1,1,1,1,1,0,0
1143,22808,10655,trol,18,1,1,1,1,1,0,0
1183,22809,10655,trol,18,1,1,1,1,1,0,0
1214,22810,10655,trol,18,1,1,1,1,1,0,0
1245,22811,10655,trol,18,1,1,1,1,1,0,0
1292,22812,10655,trol,18,1,1,1,1,1,0,0
1338,22813,10655,trol,18,1,1,1,1,1,0,0
308,22814,10651,trol,18,0,0,0,0,0,1,0
384,22815,10652,trol,18,0,0,0,0,0,1,0
417,22816,10652,trol,18,0,0,0,0,0,1,0
474,22817,10652,trol,18,0,0,0,0,0,1,0
511,22818,10652,trol,18,0,0,0,0,0,1,0
565,22819,10652,trol,18,0,0,0,0,0,1,0
608,22820,10652,trol,18,0,0,0,0,0,1,0
641,22821,10652,trol,18,0,0,0,0,0,1,0
683,22822,10652,trol,18,0,0,0,0,0,1,0
712,22823,10652,trol,18,0,0,0,0,0,1,0
734,22824,10652,trol,18,0,0,0,0,0,1,0
777,22825,10652,trol,18,0,0,0,0,0,1,0
824,22826,10652,trol,18,0,0,0,0,0,1,0
844,22827,10652,trol,18,0,0,0,0,0,1,0
877,22828,10652,trol,18,0,0,0,0,0,1,0
918,22829,10652,trol,18,0,0,0,0,0,1,0
940,22830,10652,trol,18,0,0,0,0,0,1,0
973,22831,10652,trol,18,0,0,0,0,0,1,0
1009,22832,10652,trol,18,0,0,0,0,0,1,0
1055,22833,10652,trol,18,0,0,0,0,0,1,0
1096,22834,10652,trol,18,0,0,0,0,0,1,0
1141,22835,10652,trol,18,0,0,0,0,0,1,0
1191,22836,10652,trol,18,0,0,0,0,0,1,0
1239,22837,10652,trol,18,0,0,0,0,0,1,0
1287,22838,10652,trol,18,0,0,0,0,0,1,0
1343,22839,10652,trol,18,0,0,0,0,0,1,0
356,22840,10474,trol,18,0,0,0,0,0,0,1
417,22841,10474,trol,18,0,0,0,0,0,0,1
464,22842,10474,trol,18,0,0,0,0,0,0,1
511,22843,10474,trol,18,0,0,0,0,0,0,1
565,22844,10474,trol,18,0,0,0,0,0,0,1
608,22845,10474,trol,18,0,0,0,0,0,0,1
641,22846,10474,trol,18,0,0,0,0,0,0,1
683,22847,10474,trol,18,0,0,0,0,0,0,1
712,22848,10474,trol,18,0,0,0,0,0,0,1
734,22849,10474,trol,18,0,0,0,0,0,0,1
777,22850,10474,trol,18,0,0,0,0,0,0,1
824,22851,10474,trol,18,0,0,0,0,0,0,1
844,22852,10474,trol,18,0,0,0,0,0,0,1
877,22853,10474,trol,18,0,0,0,0,0,0,1
918,22854,10474,trol,18,0,0,0,0,0,0,1
940,22855,10474,trol,18,0,0,0,0,0,0,1
973,22856,10474,trol,18,0,0,0,0,0,0,1
1009,22857,10474,trol,18,0,0,0,0,0,0,1
1055,22858,10474,trol,18,0,0,0,0,0,0,1
1096,22859,10474,trol,18,0,0,0,0,0,0,1
1141,22860,10474,trol,18,0,0,0,0,0,0,1
1191,22861,10474,trol,18,0,0,0,0,0,0,1
1239,22862,10474,trol,18,0,0,0,0,0,0,1
1287,22863,10474,trol,18,0,0,0,0,0,0,1
1343,22864,10474,trol,18,0,0,0,0,0,0,1
616,22865,10655,trol,18,1,1,1,1,1,0,0
310,22979,10655,trol,18,1,1,1,1,1,0,0
330,22980,10475,trol,19,1,1,1,1,1,0,0
344,22981,10475,trol,19,1,1,1,1,1,0,0
355,22982,10475,trol,19,1,1,1,1,1,0,0
366,22983,10475,trol,19,1,1,1,1,1,0,0
376,22984,10475,trol,19,1,1,1,1,1,0,0
387,22985,10475,trol,19,1,1,1,1,1,0,0
396,22986,10475,trol,19,1,1,1,1,1,0,0
402,22987,10475,trol,19,1,1,1,1,1,0,0
408,22988,10475,trol,19,1,1,1,1,1,0,0
415,22989,10475,trol,19,1,1,1,1,1,0,0
422,22990,10475,trol,19,1,1,1,1,1,0,0
431,22991,10475,trol,19,1,1,1,1,1,0,0
439,22992,10475,trol,19,1,1,1,1,1,0,0
446,22993,10475,trol,19,1,1,1,1,1,0,0
450,22994,10475,trol,19,1,1,1,1,1,0,0
458,22995,10475,trol,19,1,1,1,1,1,0,0
466,22996,10475,trol,19,1,1,1,1,1,0,0
472,22997,10475,trol,19,1,1,1,1,1,0,0
478,22998,10475,trol,19,1,1,1,1,1,0,0
485,22999,10475,trol,19,1,1,1,1,1,0,0
493,23000,10475,trol,19,1,1,1,1,1,0,0
501,23001,10475,trol,19,1,1,1,1,1,0,0
509,23002,10475,trol,19,1,1,1,1,1,0,0
518,23003,10475,trol,19,1,1,1,1,1,0,0
527,23004,10475,trol,19,1,1,1,1,1,0,0
537,23005,10475,trol,19,1,1,1,1,1,0,0
544,23006,10475,trol,19,1,1,1,1,1,0,0
553,23007,10475,trol,19,1,1,1,1,1,0,0
562,23008,10475,trol,19,1,1,1,1,1,0,0
569,23009,10475,trol,19,1,1,1,1,1,0,0
579,23010,10475,trol,19,1,1,1,1,1,0,0
587,23011,10475,trol,19,1,1,1,1,1,0,0
595,23012,10475,trol,19,1,1,1,1,1,0,0
600,23013,10475,trol,19,1,1,1,1,1,0,0
608,23014,10475,trol,19,1,1,1,1,1,0,0
615,23015,10475,trol,19,1,1,1,1,1,0,0
624,23016,10475,trol,19,1,1,1,1,1,0,0
635,23017,10475,trol,19,1,1,1,1,1,0,0
642,23018,10475,trol,19,1,1,1,1,1,0,0
653,23019,10475,trol,19,1,1,1,1,1,0,0
666,23020,10475,trol,19,1,1,1,1,1,0,0
674,23021,10475,trol,19,1,1,1,1,1,0,0
685,23022,10475,trol,19,1,1,1,1,1,0,0
700,23023,10475,trol,19,1,1,1,1,1,0,0
709,23024,10475,trol,19,1,1,1,1,1,0,0
718,23025,10475,trol,19,1,1,1,1,1,0,0
726,23026,10475,trol,19,1,1,1,1,1,0,0
736,23027,10475,trol,19,1,1,1,1,1,0,0
748,23028,10475,trol,19,1,1,1,1,1,0,0
757,23029,10475,trol,19,1,1,1,1,1,0,0
768,23030,10475,trol,19,1,1,1,1,1,0,0
781,23031,10475,trol,19,1,1,1,1,1,0,0
791,23032,10475,trol,19,1,1,1,1,1,0,0
803,23033,10475,trol,19,1,1,1,1,1,0,0
815,23034,10475,trol,19,1,1,1,1,1,0,0
825,23035,10475,trol,19,1,1,1,1,1,0,0
833,23036,10475,trol,19,1,1,1,1,1,0,0
844,23037,10475,trol,19,1,1,1,1,1,0,0
852,23038,10475,trol,19,1,1,1,1,1,0,0
863,23039,10475,trol,19,1,1,1,1,1,0,0
874,23040,10475,trol,19,1,1,1,1,1,0,0
884,23041,10475,trol,19,1,1,1,1,1,0,0
896,23042,10475,trol,19,1,1,1,1,1,0,0
907,23043,10475,trol,19,1,1,1,1,1,0,0
914,23044,10475,trol,19,1,1,1,1,1,0,0
922,23045,10475,trol,19,1,1,1,1,1,0,0
931,23046,10475,trol,19,1,1,1,1,1,0,0
938,23047,10475,trol,19,1,1,1,1,1,0,0
942,23048,10475,trol,19,1,1,1,1,1,0,0
949,23049,10475,trol,19,1,1,1,1,1,0,0
954,23050,10475,trol,19,1,1,1,1,1,0,0
961,23051,10475,trol,19,1,1,1,1,1,0,0
968,23052,10475,trol,19,1,1,1,1,1,0,0
974,23053,10475,trol,19,1,1,1,1,1,0,0
982,23054,10475,trol,19,1,1,1,1,1,0,0
990,23055,10475,trol,19,1,1,1,1,1,0,0
997,23056,10475,trol,19,1,1,1,1,1,0,0
1005,23057,10475,trol,19,1,1,1,1,1,0,0
1013,23058,10475,trol,19,1,1,1,1,1,0,0
1020,23059,10475,trol,19,1,1,1,1,1,0,0
1025,23060,10475,trol,19,1,1,1,1,1,0,0
1032,23061,10475,trol,19,1,1,1,1,1,0,0
1039,23062,10475,trol,19,1,1,1,1,1,0,0
1048,23063,10475,trol,19,1,1,1,1,1,0,0
1057,23064,10475,trol,19,1,1,1,1,1,0,0
1065,23065,10475,trol,19,1,1,1,1,1,0,0
1074,23066,10475,trol,19,1,1,1,1,1,0,0
1083,23067,10475,trol,19,1,1,1,1,1,0,0
1090,23068,10475,trol,19,1,1,1,1,1,0,0
1096,23069,10475,trol,19,1,1,1,1,1,0,0
1109,23070,10475,trol,19,1,1,1,1,1,0,0
1121,23071,10475,trol,19,1,1,1,1,1,0,0
1130,23072,10475,trol,19,1,1,1,1,1,0,0
1139,23073,10475,trol,19,1,1,1,1,1,0,0
1145,23074,10475,trol,19,1,1,1,1,1,0,0
1152,23075,10475,trol,19,1,1,1,1,1,0,0
1163,23076,10475,trol,19,1,1,1,1,1,0,0
1174,23077,10475,trol,19,1,1,1,1,1,0,0
1186,23078,10475,trol,19,1,1,1,1,1,0,0
1198,23079,10475,trol,19,1,1,1,1,1,0,0
1207,23080,10475,trol,19,1,1,1,1,1,0,0
1219,23081,10475,trol,19,1,1,1,1,1,0,0
1232,23082,10475,trol,19,1,1,1,1,1,0,0
1239,23083,10475,trol,19,1,1,1,1,1,0,0
1249,23084,10475,trol,19,1,1,1,1,1,0,0
1257,23085,10475,trol,19,1,1,1,1,1,0,0
1267,23086,10475,trol,19,1,1,1,1,1,0,0
1280,23087,10475,trol,19,1,1,1,1,1,0,0
1293,23088,10475,trol,19,1,1,1,1,1,0,0
1301,23089,10475,trol,19,1,1,1,1,1,0,0
1313,23090,10475,trol,19,1,1,1,1,1,0,0
1326,23091,10475,trol,19,1,1,1,1,1,0,0
1339,23092,10475,trol,19,1,1,1,1,1,0,0
1349,23093,10475,trol,19,1,1,1,1,1,0,0
1371,23094,10475,trol,19,1,1,1,1,1,0,0
1388,23095,10475,trol,19,1,1,1,1,1,0,0
328,23096,10476,trol,19,0,0,0,0,0,1,0
355,23097,10476,trol,19,0,0,0,0,0,1,0
380,23098,10476,trol,19,0,0,0,0,0,1,0
395,23099,10476,trol,19,0,0,0,0,0,1,0
412,23100,10476,trol,19,0,0,0,0,0,1,0
427,23101,10476,trol,19,0,0,0,0,0,1,0
443,23102,10476,trol,19,0,0,0,0,0,1,0
455,23103,10476,trol,19,0,0,0,0,0,1,0
469,23104,10476,trol,19,0,0,0,0,0,1,0
481,23105,10476,trol,19,0,0,0,0,0,1,0
491,23106,10476,trol,19,0,0,0,0,0,1,0
502,23107,10476,trol,19,0,0,0,0,0,1,0
516,23108,10476,trol,19,0,0,0,0,0,1,0
528,23109,10476,trol,19,0,0,0,0,0,1,0
545,23110,10476,trol,19,0,0,0,0,0,1,0
561,23111,10476,trol,19,0,0,0,0,0,1,0
577,23112,10476,trol,19,0,0,0,0,0,1,0
591,23113,10476,trol,19,0,0,0,0,0,1,0
607,23114,10476,trol,19,0,0,0,0,0,1,0
624,23115,10476,trol,19,0,0,0,0,0,1,0
636,23116,10476,trol,19,0,0,0,0,0,1,0
649,23117,10476,trol,19,0,0,0,0,0,1,0
663,23118,10476,trol,19,0,0,0,0,0,1,0
674,23119,10476,trol,19,0,0,0,0,0,1,0
683,23120,10476,trol,19,0,0,0,0,0,1,0
697,23121,10476,trol,19,0,0,0,0,0,1,0
711,23122,10476,trol,19,0,0,0,0,0,1,0
725,23123,10476,trol,19,0,0,0,0,0,1,0
737,23124,10476,trol,19,0,0,0,0,0,1,0
748,23125,10476,trol,19,0,0,0,0,0,1,0
757,23126,10476,trol,19,0,0,0,0,0,1,0
770,23127,10476,trol,19,0,0,0,0,0,1,0
778,23128,10476,trol,19,0,0,0,0,0,1,0
792,23129,10476,trol,19,0,0,0,0,0,1,0
802,23130,10476,trol,19,0,0,0,0,0,1,0
815,23131,10476,trol,19,0,0,0,0,0,1,0
831,23132,10476,trol,19,0,0,0,0,0,1,0
841,23133,10476,trol,19,0,0,0,0,0,1,0
853,23134,10476,trol,19,0,0,0,0,0,1,0
870,23135,10476,trol,19,0,0,0,0,0,1,0
878,23136,10476,trol,19,0,0,0,0,0,1,0
890,23137,10476,trol,19,0,0,0,0,0,1,0
902,23138,10476,trol,19,0,0,0,0,0,1,0
916,23139,10476,trol,19,0,0,0,0,0,1,0
926,23140,10476,trol,19,0,0,0,0,0,1,0
940,23141,10476,trol,19,0,0,0,0,0,1,0
955,23142,10476,trol,19,0,0,0,0,0,1,0
966,23143,10476,trol,19,0,0,0,0,0,1,0
978,23144,10476,trol,19,0,0,0,0,0,1,0
987,23145,10476,trol,19,0,0,0,0,0,1,0
998,23146,10476,trol,19,0,0,0,0,0,1,0
1009,23147,10476,trol,19,0,0,0,0,0,1,0
1023,23148,10476,trol,19,0,0,0,0,0,1,0
1037,23149,10476,trol,19,0,0,0,0,0,1,0
1052,23150,10476,trol,19,0,0,0,0,0,1,0
1066,23151,10476,trol,19,0,0,0,0,0,1,0
1082,23152,10476,trol,19,0,0,0,0,0,1,0
1096,23153,10476,trol,19,0,0,0,0,0,1,0
1111,23154,10476,trol,19,0,0,0,0,0,1,0
1124,23155,10476,trol,19,0,0,0,0,0,1,0
1142,23156,10476,trol,19,0,0,0,0,0,1,0
1160,23157,10476,trol,19,0,0,0,0,0,1,0
1171,23158,10476,trol,19,0,0,0,0,0,1,0
1187,23159,10476,trol,19,0,0,0,0,0,1,0
1201,23160,10476,trol,19,0,0,0,0,0,1,0
1215,23161,10476,trol,19,0,0,0,0,0,1,0
1222,23162,10476,trol,19,0,0,0,0,0,1,0
1238,23163,10476,trol,19,0,0,0,0,0,1,0
1249,23164,10476,trol,19,0,0,0,0,0,1,0
1262,23165,10476,trol,19,0,0,0,0,0,1,0
1272,23166,10476,trol,19,0,0,0,0,0,1,0
1282,23167,10476,trol,19,0,0,0,0,0,1,0
1297,23168,10476,trol,19,0,0,0,0,0,1,0
1310,23169,10476,trol,19,0,0,0,0,0,1,0
1324,23170,10476,trol,19,0,0,0,0,0,1,0
1339,23171,10476,trol,19,0,0,0,0,0,1,0
1350,23172,10476,trol,19,0,0,0,0,0,1,0
1363,23173,10476,trol,19,0,0,0,0,0,1,0
1378,23174,10476,trol,19,0,0,0,0,0,1,0
1397,23175,10476,trol,19,0,0,0,0,0,1,0
380,23176,10477,trol,19,0,0,0,0,0,0,1
395,23177,10477,trol,19,0,0,0,0,0,0,1
412,23178,10477,trol,19,0,0,0,0,0,0,1
427,23179,10477,trol,19,0,0,0,0,0,0,1
443,23180,10477,trol,19,0,0,0,0,0,0,1
455,23181,10477,trol,19,0,0,0,0,0,0,1
469,23182,10477,trol,19,0,0,0,0,0,0,1
481,23183,10477,trol,19,0,0,0,0,0,0,1
491,23184,10477,trol,19,0,0,0,0,0,0,1
502,23185,10477,trol,19,0,0,0,0,0,0,1
516,23186,10477,trol,19,0,0,0,0,0,0,1
528,23187,10477,trol,19,0,0,0,0,0,0,1
545,23188,10477,trol,19,0,0,0,0,0,0,1
561,23189,10477,trol,19,0,0,0,0,0,0,1
577,23190,10477,trol,19,0,0,0,0,0,0,1
591,23191,10477,trol,19,0,0,0,0,0,0,1
607,23192,10477,trol,19,0,0,0,0,0,0,1
624,23193,10477,trol,19,0,0,0,0,0,0,1
636,23194,10477,trol,19,0,0,0,0,0,0,1
649,23195,10477,trol,19,0,0,0,0,0,0,1
663,23196,10477,trol,19,0,0,0,0,0,0,1
674,23197,10477,trol,19,0,0,0,0,0,0,1
683,23198,10477,trol,19,0,0,0,0,0,0,1
697,23199,10477,trol,19,0,0,0,0,0,0,1
711,23200,10477,trol,19,0,0,0,0,0,0,1
725,23201,10477,trol,19,0,0,0,0,0,0,1
737,23202,10477,trol,19,0,0,0,0,0,0,1
748,23203,10477,trol,19,0,0,0,0,0,0,1
757,23204,10477,trol,19,0,0,0,0,0,0,1
770,23205,10477,trol,19,0,0,0,0,0,0,1
778,23206,10477,trol,19,0,0,0,0,0,0,1
792,23207,10477,trol,19,0,0,0,0,0,0,1
802,23208,10477,trol,19,0,0,0,0,0,0,1
815,23209,10477,trol,19,0,0,0,0,0,0,1
831,23210,10477,trol,19,0,0,0,0,0,0,1
841,23211,10477,trol,19,0,0,0,0,0,0,1
853,23212,10477,trol,19,0,0,0,0,0,0,1
870,23213,10477,trol,19,0,0,0,0,0,0,1
878,23214,10477,trol,19,0,0,0,0,0,0,1
890,23215,10477,trol,19,0,0,0,0,0,0,1
902,23216,10477,trol,19,0,0,0,0,0,0,1
916,23217,10477,trol,19,0,0,0,0,0,0,1
926,23218,10477,trol,19,0,0,0,0,0,0,1
940,23219,10477,trol,19,0,0,0,0,0,0,1
955,23220,10477,trol,19,0,0,0,0,0,0,1
966,23221,10477,trol,19,0,0,0,0,0,0,1
978,23222,10477,trol,19,0,0,0,0,0,0,1
987,23223,10477,trol,19,0,0,0,0,0,0,1
998,23224,10477,trol,19,0,0,0,0,0,0,1
1009,23225,10477,trol,19,0,0,0,0,0,0,1
1023,23226,10477,trol,19,0,0,0,0,0,0,1
1037,23227,10477,trol,19,0,0,0,0,0,0,1
1052,23228,10477,trol,19,0,0,0,0,0,0,1
1066,23229,10477,trol,19,0,0,0,0,0,0,1
1082,23230,10477,trol,19,0,0,0,0,0,0,1
1096,23231,10477,trol,19,0,0,0,0,0,0,1
1111,23232,10477,trol,19,0,0,0,0,0,0,1
1124,23233,10477,trol,19,0,0,0,0,0,0,1
1142,23234,10477,trol,19,0,0,0,0,0,0,1
1160,23235,10477,trol,19,0,0,0,0,0,0,1
1171,23236,10477,trol,19,0,0,0,0,0,0,1
1187,23237,10477,trol,19,0,0,0,0,0,0,1
1201,23238,10477,trol,19,0,0,0,0,0,0,1
1215,23239,10477,trol,19,0,0,0,0,0,0,1
1222,23240,10477,trol,19,0,0,0,0,0,0,1
1238,23241,10477,trol,19,0,0,0,0,0,0,1
1249,23242,10477,trol,19,0,0,0,0,0,0,1
1262,23243,10477,trol,19,0,0,0,0,0,0,1
1272,23244,10477,trol,19,0,0,0,0,0,0,1
1282,23245,10477,trol,19,0,0,0,0,0,0,1
1297,23246,10477,trol,19,0,0,0,0,0,0,1
1310,23247,10477,trol,19,0,0,0,0,0,0,1
1324,23248,10477,trol,19,0,0,0,0,0,0,1
1339,23249,10477,trol,19,0,0,0,0,0,0,1
1350,23250,10477,trol,19,0,0,0,0,0,0,1
1363,23251,10477,trol,19,0,0,0,0,0,0,1
1378,23252,10477,trol,19,0,0,0,0,0,0,1
1397,23253,10477,trol,19,0,0,0,0,0,0,1
1404,23530,10475,trol,19,1,1,1,1,1,0,0
1419,23531,10475,trol,19,1,1,1,1,1,0,0
329,23598,10477,trol,19,0,0,0,0,0,0,1
356,23599,10477,trol,19,0,0,0,0,0,0,1
