timeInMin,trip_id,service_id,tipas,numeris,pirmadienis,antradienis,treciadienis,ketvirtadienis,penktadienis,sestadienis,sekmadienis 
368,5661,10342,bus,14,0,0,0,0,0,1,1
306,5662,10341,bus,14,1,1,1,1,1,0,0
304,6235,10348,bus,18,1,1,1,1,1,0,0
326,7743,10604,bus,27,1,1,1,1,1,0,0
366,7744,10604,bus,27,1,1,1,1,1,0,0
385,7745,10604,bus,27,1,1,1,1,1,0,0
402,7746,10604,bus,27,1,1,1,1,1,0,0
443,7747,10604,bus,27,1,1,1,1,1,0,0
462,7748,10604,bus,27,1,1,1,1,1,0,0
482,7749,10604,bus,27,1,1,1,1,1,0,0
520,7750,10604,bus,27,1,1,1,1,1,0,0
538,7751,10604,bus,27,1,1,1,1,1,0,0
564,7752,10604,bus,27,1,1,1,1,1,0,0
616,7753,10604,bus,27,1,1,1,1,1,0,0
650,7754,10604,bus,27,1,1,1,1,1,0,0
692,7755,10604,bus,27,1,1,1,1,1,0,0
727,7756,10604,bus,27,1,1,1,1,1,0,0
768,7757,10604,bus,27,1,1,1,1,1,0,0
804,7758,10604,bus,27,1,1,1,1,1,0,0
844,7759,10604,bus,27,1,1,1,1,1,0,0
881,7760,10604,bus,27,1,1,1,1,1,0,0
921,7761,10604,bus,27,1,1,1,1,1,0,0
958,7762,10604,bus,27,1,1,1,1,1,0,0
986,7763,10604,bus,27,1,1,1,1,1,0,0
1017,7764,10604,bus,27,1,1,1,1,1,0,0
1042,7765,10604,bus,27,1,1,1,1,1,0,0
1069,7766,10604,bus,27,1,1,1,1,1,0,0
1100,7767,10604,bus,27,1,1,1,1,1,0,0
1122,7768,10604,bus,27,1,1,1,1,1,0,0
1201,7769,10604,bus,27,1,1,1,1,1,0,0
1225,7770,10604,bus,27,1,1,1,1,1,0,0
1275,7771,10604,bus,27,1,1,1,1,1,0,0
1305,7772,10604,bus,27,1,1,1,1,1,0,0
1349,7773,10604,bus,27,1,1,1,1,1,0,0
1381,7774,10604,bus,27,1,1,1,1,1,0,0
385,7775,10605,bus,27,0,0,0,0,0,1,0
482,7776,10605,bus,27,0,0,0,0,0,1,0
558,7777,10605,bus,27,0,0,0,0,0,1,0
654,7778,10605,bus,27,0,0,0,0,0,1,0
730,7779,10605,bus,27,0,0,0,0,0,1,0
806,7780,10605,bus,27,0,0,0,0,0,1,0
882,7781,10605,bus,27,0,0,0,0,0,1,0
958,7782,10605,bus,27,0,0,0,0,0,1,0
1032,7783,10605,bus,27,0,0,0,0,0,1,0
1106,7784,10605,bus,27,0,0,0,0,0,1,0
1202,7785,10605,bus,27,0,0,0,0,0,1,0
1296,7786,10605,bus,27,0,0,0,0,0,1,0
1372,7787,10605,bus,27,0,0,0,0,0,1,0
385,7788,10606,bus,27,0,0,0,0,0,0,1
482,7789,10606,bus,27,0,0,0,0,0,0,1
558,7790,10606,bus,27,0,0,0,0,0,0,1
654,7791,10606,bus,27,0,0,0,0,0,0,1
730,7792,10606,bus,27,0,0,0,0,0,0,1
806,7793,10606,bus,27,0,0,0,0,0,0,1
882,7794,10606,bus,27,0,0,0,0,0,0,1
958,7795,10606,bus,27,0,0,0,0,0,0,1
1032,7796,10606,bus,27,0,0,0,0,0,0,1
1106,7797,10606,bus,27,0,0,0,0,0,0,1
1202,7798,10606,bus,27,0,0,0,0,0,0,1
1296,7799,10606,bus,27,0,0,0,0,0,0,1
1372,7800,10606,bus,27,0,0,0,0,0,0,1
305,7869,10604,bus,27,1,1,1,1,1,0,0
317,7870,10605,bus,27,0,0,0,0,0,1,0
297,8857,10608,bus,31,1,1,1,1,1,0,0
335,8858,10608,bus,31,1,1,1,1,1,0,0
316,8859,10365,bus,31,0,0,0,0,0,1,0
372,8860,10366,bus,31,0,0,0,0,0,0,1
309,9678,8005,bus,37,1,1,1,1,1,0,0
367,9679,8005,bus,37,1,1,1,1,1,0,0
424,9680,8005,bus,37,1,1,1,1,1,0,0
489,9681,8005,bus,37,1,1,1,1,1,0,0
548,9682,8005,bus,37,1,1,1,1,1,0,0
639,9683,8005,bus,37,1,1,1,1,1,0,0
696,9684,8005,bus,37,1,1,1,1,1,0,0
752,9685,8005,bus,37,1,1,1,1,1,0,0
810,9686,8005,bus,37,1,1,1,1,1,0,0
868,9687,8005,bus,37,1,1,1,1,1,0,0
925,9688,8005,bus,37,1,1,1,1,1,0,0
982,9689,8005,bus,37,1,1,1,1,1,0,0
1042,9690,8005,bus,37,1,1,1,1,1,0,0
1102,9691,8005,bus,37,1,1,1,1,1,0,0
1161,9692,8005,bus,37,1,1,1,1,1,0,0
1256,9693,8005,bus,37,1,1,1,1,1,0,0
1315,9694,8005,bus,37,1,1,1,1,1,0,0
309,9695,10005,bus,37,0,0,0,0,0,1,0
367,9696,10005,bus,37,0,0,0,0,0,1,0
424,9697,10005,bus,37,0,0,0,0,0,1,0
482,9698,10005,bus,37,0,0,0,0,0,1,0
541,9699,10005,bus,37,0,0,0,0,0,1,0
639,9700,10005,bus,37,0,0,0,0,0,1,0
696,9701,10005,bus,37,0,0,0,0,0,1,0
752,9702,10005,bus,37,0,0,0,0,0,1,0
810,9703,10005,bus,37,0,0,0,0,0,1,0
868,9704,10005,bus,37,0,0,0,0,0,1,0
925,9705,10005,bus,37,0,0,0,0,0,1,0
982,9706,10005,bus,37,0,0,0,0,0,1,0
1042,9707,10005,bus,37,0,0,0,0,0,1,0
1102,9708,10005,bus,37,0,0,0,0,0,1,0
1161,9709,10005,bus,37,0,0,0,0,0,1,0
1256,9710,10005,bus,37,0,0,0,0,0,1,0
1315,9711,10005,bus,37,0,0,0,0,0,1,0
367,9712,10006,bus,37,0,0,0,0,0,0,1
424,9713,10006,bus,37,0,0,0,0,0,0,1
482,9714,10006,bus,37,0,0,0,0,0,0,1
541,9715,10006,bus,37,0,0,0,0,0,0,1
639,9716,10006,bus,37,0,0,0,0,0,0,1
696,9717,10006,bus,37,0,0,0,0,0,0,1
752,9718,10006,bus,37,0,0,0,0,0,0,1
810,9719,10006,bus,37,0,0,0,0,0,0,1
868,9720,10006,bus,37,0,0,0,0,0,0,1
925,9721,10006,bus,37,0,0,0,0,0,0,1
982,9722,10006,bus,37,0,0,0,0,0,0,1
1042,9723,10006,bus,37,0,0,0,0,0,0,1
1102,9724,10006,bus,37,0,0,0,0,0,0,1
1161,9725,10006,bus,37,0,0,0,0,0,0,1
1256,9726,10006,bus,37,0,0,0,0,0,0,1
1315,9727,10006,bus,37,0,0,0,0,0,0,1
298,14192,10201,bus,67,1,1,1,1,1,0,0
298,14193,10202,bus,67,0,0,0,0,0,1,0
345,14194,10203,bus,67,0,0,0,0,0,0,1
399,14686,10406,bus,74,0,0,0,0,0,0,1
441,14687,10406,bus,74,0,0,0,0,0,0,1
474,14688,10406,bus,74,0,0,0,0,0,0,1
509,14689,10406,bus,74,0,0,0,0,0,0,1
550,14690,10406,bus,74,0,0,0,0,0,0,1
569,14691,10406,bus,74,0,0,0,0,0,0,1
604,14692,10406,bus,74,0,0,0,0,0,0,1
630,14693,10406,bus,74,0,0,0,0,0,0,1
672,14694,10406,bus,74,0,0,0,0,0,0,1
701,14695,10406,bus,74,0,0,0,0,0,0,1
725,14696,10406,bus,74,0,0,0,0,0,0,1
741,14697,10406,bus,74,0,0,0,0,0,0,1
769,14698,10406,bus,74,0,0,0,0,0,0,1
809,14699,10406,bus,74,0,0,0,0,0,0,1
823,14700,10406,bus,74,0,0,0,0,0,0,1
847,14701,10406,bus,74,0,0,0,0,0,0,1
877,14702,10406,bus,74,0,0,0,0,0,0,1
893,14703,10406,bus,74,0,0,0,0,0,0,1
920,14704,10406,bus,74,0,0,0,0,0,0,1
948,14705,10406,bus,74,0,0,0,0,0,0,1
962,14706,10406,bus,74,0,0,0,0,0,0,1
988,14707,10406,bus,74,0,0,0,0,0,0,1
1018,14708,10406,bus,74,0,0,0,0,0,0,1
1057,14709,10406,bus,74,0,0,0,0,0,0,1
1087,14710,10406,bus,74,0,0,0,0,0,0,1
1126,14711,10406,bus,74,0,0,0,0,0,0,1
1182,14712,10406,bus,74,0,0,0,0,0,0,1
1226,14713,10406,bus,74,0,0,0,0,0,0,1
1255,14714,10406,bus,74,0,0,0,0,0,0,1
1293,14715,10406,bus,74,0,0,0,0,0,0,1
1326,14716,10406,bus,74,0,0,0,0,0,0,1
1362,14717,10406,bus,74,0,0,0,0,0,0,1
1395,14718,10406,bus,74,0,0,0,0,0,0,1
328,14719,10404,bus,74,1,1,1,1,1,0,0
349,14720,10404,bus,74,1,1,1,1,1,0,0
365,14721,10404,bus,74,1,1,1,1,1,0,0
379,14722,10404,bus,74,1,1,1,1,1,0,0
403,14723,10404,bus,74,1,1,1,1,1,0,0
416,14724,10404,bus,74,1,1,1,1,1,0,0
428,14725,10404,bus,74,1,1,1,1,1,0,0
440,14726,10404,bus,74,1,1,1,1,1,0,0
456,14727,10404,bus,74,1,1,1,1,1,0,0
472,14728,10404,bus,74,1,1,1,1,1,0,0
486,14729,10404,bus,74,1,1,1,1,1,0,0
497,14730,10404,bus,74,1,1,1,1,1,0,0
509,14731,10404,bus,74,1,1,1,1,1,0,0
525,14732,10404,bus,74,1,1,1,1,1,0,0
545,14733,10404,bus,74,1,1,1,1,1,0,0
559,14734,10404,bus,74,1,1,1,1,1,0,0
575,14735,10404,bus,74,1,1,1,1,1,0,0
604,14736,10404,bus,74,1,1,1,1,1,0,0
626,14737,10404,bus,74,1,1,1,1,1,0,0
643,14738,10404,bus,74,1,1,1,1,1,0,0
672,14739,10404,bus,74,1,1,1,1,1,0,0
706,14740,10404,bus,74,1,1,1,1,1,0,0
740,14741,10404,bus,74,1,1,1,1,1,0,0
773,14742,10404,bus,74,1,1,1,1,1,0,0
808,14743,10404,bus,74,1,1,1,1,1,0,0
840,14744,10404,bus,74,1,1,1,1,1,0,0
881,14745,10404,bus,74,1,1,1,1,1,0,0
913,14746,10404,bus,74,1,1,1,1,1,0,0
931,14747,10404,bus,74,1,1,1,1,1,0,0
949,14748,10404,bus,74,1,1,1,1,1,0,0
965,14749,10404,bus,74,1,1,1,1,1,0,0
980,14750,10404,bus,74,1,1,1,1,1,0,0
1000,14751,10404,bus,74,1,1,1,1,1,0,0
1019,14752,10404,bus,74,1,1,1,1,1,0,0
1035,14753,10404,bus,74,1,1,1,1,1,0,0
1050,14754,10404,bus,74,1,1,1,1,1,0,0
1060,14755,10404,bus,74,1,1,1,1,1,0,0
1075,14756,10404,bus,74,1,1,1,1,1,0,0
1089,14757,10404,bus,74,1,1,1,1,1,0,0
1105,14758,10404,bus,74,1,1,1,1,1,0,0
1125,14759,10404,bus,74,1,1,1,1,1,0,0
1156,14760,10404,bus,74,1,1,1,1,1,0,0
1185,14761,10404,bus,74,1,1,1,1,1,0,0
1205,14762,10404,bus,74,1,1,1,1,1,0,0
1230,14763,10404,bus,74,1,1,1,1,1,0,0
1252,14764,10404,bus,74,1,1,1,1,1,0,0
1276,14765,10404,bus,74,1,1,1,1,1,0,0
1298,14766,10404,bus,74,1,1,1,1,1,0,0
1318,14767,10404,bus,74,1,1,1,1,1,0,0
1347,14768,10404,bus,74,1,1,1,1,1,0,0
1386,14769,10404,bus,74,1,1,1,1,1,0,0
338,14770,10405,bus,74,0,0,0,0,0,1,0
372,14771,10405,bus,74,0,0,0,0,0,1,0
406,14772,10405,bus,74,0,0,0,0,0,1,0
441,14773,10405,bus,74,0,0,0,0,0,1,0
474,14774,10405,bus,74,0,0,0,0,0,1,0
509,14775,10405,bus,74,0,0,0,0,0,1,0
550,14776,10405,bus,74,0,0,0,0,0,1,0
569,14777,10405,bus,74,0,0,0,0,0,1,0
604,14778,10405,bus,74,0,0,0,0,0,1,0
630,14779,10405,bus,74,0,0,0,0,0,1,0
672,14780,10405,bus,74,0,0,0,0,0,1,0
701,14781,10405,bus,74,0,0,0,0,0,1,0
725,14782,10405,bus,74,0,0,0,0,0,1,0
741,14783,10405,bus,74,0,0,0,0,0,1,0
769,14784,10405,bus,74,0,0,0,0,0,1,0
809,14785,10405,bus,74,0,0,0,0,0,1,0
823,14786,10405,bus,74,0,0,0,0,0,1,0
847,14787,10405,bus,74,0,0,0,0,0,1,0
877,14788,10405,bus,74,0,0,0,0,0,1,0
893,14789,10405,bus,74,0,0,0,0,0,1,0
920,14790,10405,bus,74,0,0,0,0,0,1,0
948,14791,10405,bus,74,0,0,0,0,0,1,0
962,14792,10405,bus,74,0,0,0,0,0,1,0
988,14793,10405,bus,74,0,0,0,0,0,1,0
1018,14794,10405,bus,74,0,0,0,0,0,1,0
1057,14795,10405,bus,74,0,0,0,0,0,1,0
1087,14796,10405,bus,74,0,0,0,0,0,1,0
1126,14797,10405,bus,74,0,0,0,0,0,1,0
1182,14798,10405,bus,74,0,0,0,0,0,1,0
1226,14799,10405,bus,74,0,0,0,0,0,1,0
1255,14800,10405,bus,74,0,0,0,0,0,1,0
1293,14801,10405,bus,74,0,0,0,0,0,1,0
1326,14802,10405,bus,74,0,0,0,0,0,1,0
1362,14803,10405,bus,74,0,0,0,0,0,1,0
1395,14804,10405,bus,74,0,0,0,0,0,1,0
394,14805,10404,bus,74,1,1,1,1,1,0,0
372,14947,10406,bus,74,0,0,0,0,0,0,1
307,14948,10404,bus,74,1,1,1,1,1,0,0
322,14949,10404,bus,74,1,1,1,1,1,0,0
345,14950,10404,bus,74,1,1,1,1,1,0,0
370,14951,10404,bus,74,1,1,1,1,1,0,0
307,14952,10405,bus,74,0,0,0,0,0,1,0
359,16247,10624,bus,115,0,0,0,0,0,0,1
