timeInMin,trip_id,service_id,tipas,numeris,pirmadienis,antradienis,treciadienis,ketvirtadienis,penktadienis,sestadienis,sekmadienis 
361,4692,10337,bus,9,1,1,1,1,1,0,0
404,4693,10337,bus,9,1,1,1,1,1,0,0
447,4694,10337,bus,9,1,1,1,1,1,0,0
487,4695,10337,bus,9,1,1,1,1,1,0,0
543,4696,10337,bus,9,1,1,1,1,1,0,0
957,4697,10337,bus,9,1,1,1,1,1,0,0
1010,4698,10337,bus,9,1,1,1,1,1,0,0
1050,4699,10337,bus,9,1,1,1,1,1,0,0
1095,4700,10337,bus,9,1,1,1,1,1,0,0
