timeInMin,trip_id,service_id,tipas,numeris,pirmadienis,antradienis,treciadienis,ketvirtadienis,penktadienis,sestadienis,sekmadienis 
331,14195,10616,bus,68,1,1,1,1,1,0,0
357,14196,10616,bus,68,1,1,1,1,1,0,0
389,14197,10616,bus,68,1,1,1,1,1,0,0
417,14198,10616,bus,68,1,1,1,1,1,0,0
445,14199,10616,bus,68,1,1,1,1,1,0,0
475,14200,10616,bus,68,1,1,1,1,1,0,0
502,14201,10616,bus,68,1,1,1,1,1,0,0
531,14202,10616,bus,68,1,1,1,1,1,0,0
560,14203,10616,bus,68,1,1,1,1,1,0,0
610,14204,10616,bus,68,1,1,1,1,1,0,0
650,14205,10616,bus,68,1,1,1,1,1,0,0
693,14206,10616,bus,68,1,1,1,1,1,0,0
734,14207,10616,bus,68,1,1,1,1,1,0,0
778,14208,10616,bus,68,1,1,1,1,1,0,0
819,14209,10616,bus,68,1,1,1,1,1,0,0
867,14210,10616,bus,68,1,1,1,1,1,0,0
909,14211,10616,bus,68,1,1,1,1,1,0,0
952,14212,10616,bus,68,1,1,1,1,1,0,0
993,14213,10616,bus,68,1,1,1,1,1,0,0
1020,14214,10616,bus,68,1,1,1,1,1,0,0
1046,14215,10616,bus,68,1,1,1,1,1,0,0
1083,14216,10616,bus,68,1,1,1,1,1,0,0
1111,14217,10616,bus,68,1,1,1,1,1,0,0
1154,14218,10616,bus,68,1,1,1,1,1,0,0
1189,14219,10616,bus,68,1,1,1,1,1,0,0
1236,14220,10616,bus,68,1,1,1,1,1,0,0
1275,14221,10616,bus,68,1,1,1,1,1,0,0
1318,14222,10616,bus,68,1,1,1,1,1,0,0
1356,14223,10616,bus,68,1,1,1,1,1,0,0
337,14224,9989,bus,68,0,0,0,0,0,1,0
421,14225,9989,bus,68,0,0,0,0,0,1,0
504,14226,9989,bus,68,0,0,0,0,0,1,0
557,14227,9989,bus,68,0,0,0,0,0,1,0
613,14228,9989,bus,68,0,0,0,0,0,1,0
641,14229,9989,bus,68,0,0,0,0,0,1,0
697,14230,9989,bus,68,0,0,0,0,0,1,0
750,14231,9989,bus,68,0,0,0,0,0,1,0
808,14232,9989,bus,68,0,0,0,0,0,1,0
858,14233,9989,bus,68,0,0,0,0,0,1,0
901,14234,9989,bus,68,0,0,0,0,0,1,0
942,14235,9989,bus,68,0,0,0,0,0,1,0
984,14236,9989,bus,68,0,0,0,0,0,1,0
1026,14237,9989,bus,68,0,0,0,0,0,1,0
1078,14238,9989,bus,68,0,0,0,0,0,1,0
1187,14239,9989,bus,68,0,0,0,0,0,1,0
1268,14240,9989,bus,68,0,0,0,0,0,1,0
1350,14241,9989,bus,68,0,0,0,0,0,1,0
421,14242,9990,bus,68,0,0,0,0,0,0,1
504,14243,9990,bus,68,0,0,0,0,0,0,1
557,14244,9990,bus,68,0,0,0,0,0,0,1
613,14245,9990,bus,68,0,0,0,0,0,0,1
641,14246,9990,bus,68,0,0,0,0,0,0,1
697,14247,9990,bus,68,0,0,0,0,0,0,1
750,14248,9990,bus,68,0,0,0,0,0,0,1
808,14249,9990,bus,68,0,0,0,0,0,0,1
858,14250,9990,bus,68,0,0,0,0,0,0,1
901,14251,9990,bus,68,0,0,0,0,0,0,1
942,14252,9990,bus,68,0,0,0,0,0,0,1
984,14253,9990,bus,68,0,0,0,0,0,0,1
1026,14254,9990,bus,68,0,0,0,0,0,0,1
1078,14255,9990,bus,68,0,0,0,0,0,0,1
1187,14256,9990,bus,68,0,0,0,0,0,0,1
1268,14257,9990,bus,68,0,0,0,0,0,0,1
1350,14258,9990,bus,68,0,0,0,0,0,0,1
