timeInMin,trip_id,service_id,tipas,numeris,pirmadienis,antradienis,treciadienis,ketvirtadienis,penktadienis,sestadienis,sekmadienis 
337,15412,10053,bus,82,1,1,1,1,1,0,0
411,15413,10053,bus,82,1,1,1,1,1,0,0
483,15414,10053,bus,82,1,1,1,1,1,0,0
582,15415,10053,bus,82,1,1,1,1,1,0,0
657,15416,10053,bus,82,1,1,1,1,1,0,0
732,15417,10053,bus,82,1,1,1,1,1,0,0
804,15418,10053,bus,82,1,1,1,1,1,0,0
880,15419,10053,bus,82,1,1,1,1,1,0,0
954,15420,10053,bus,82,1,1,1,1,1,0,0
1028,15421,10053,bus,82,1,1,1,1,1,0,0
1128,15422,10053,bus,82,1,1,1,1,1,0,0
1202,15423,10053,bus,82,1,1,1,1,1,0,0
1280,15424,10053,bus,82,1,1,1,1,1,0,0
1354,15425,10053,bus,82,1,1,1,1,1,0,0
337,15426,10054,bus,82,0,0,0,0,0,1,0
414,15427,10054,bus,82,0,0,0,0,0,1,0
487,15428,10054,bus,82,0,0,0,0,0,1,0
583,15429,10054,bus,82,0,0,0,0,0,1,0
656,15430,10054,bus,82,0,0,0,0,0,1,0
729,15431,10054,bus,82,0,0,0,0,0,1,0
804,15432,10054,bus,82,0,0,0,0,0,1,0
877,15433,10054,bus,82,0,0,0,0,0,1,0
950,15434,10054,bus,82,0,0,0,0,0,1,0
1023,15435,10054,bus,82,0,0,0,0,0,1,0
1096,15436,10054,bus,82,0,0,0,0,0,1,0
1192,15437,10054,bus,82,0,0,0,0,0,1,0
1265,15438,10054,bus,82,0,0,0,0,0,1,0
1339,15439,10054,bus,82,0,0,0,0,0,1,0
414,15440,10055,bus,82,0,0,0,0,0,0,1
487,15441,10055,bus,82,0,0,0,0,0,0,1
583,15442,10055,bus,82,0,0,0,0,0,0,1
656,15443,10055,bus,82,0,0,0,0,0,0,1
729,15444,10055,bus,82,0,0,0,0,0,0,1
804,15445,10055,bus,82,0,0,0,0,0,0,1
877,15446,10055,bus,82,0,0,0,0,0,0,1
950,15447,10055,bus,82,0,0,0,0,0,0,1
1023,15448,10055,bus,82,0,0,0,0,0,0,1
1096,15449,10055,bus,82,0,0,0,0,0,0,1
1192,15450,10055,bus,82,0,0,0,0,0,0,1
1265,15451,10055,bus,82,0,0,0,0,0,0,1
1339,15452,10055,bus,82,0,0,0,0,0,0,1
