timeInMin,trip_id,service_id,tipas,numeris,pirmadienis,antradienis,treciadienis,ketvirtadienis,penktadienis,sestadienis,sekmadienis 
377,13365,10613,bus,57,1,1,1,1,1,0,0
435,13366,10613,bus,57,1,1,1,1,1,0,0
493,13367,10613,bus,57,1,1,1,1,1,0,0
550,13368,10613,bus,57,1,1,1,1,1,0,0
630,13369,10613,bus,57,1,1,1,1,1,0,0
687,13370,10613,bus,57,1,1,1,1,1,0,0
744,13371,10613,bus,57,1,1,1,1,1,0,0
804,13372,10613,bus,57,1,1,1,1,1,0,0
871,13373,10613,bus,57,1,1,1,1,1,0,0
929,13374,10613,bus,57,1,1,1,1,1,0,0
987,13375,10613,bus,57,1,1,1,1,1,0,0
1047,13376,10613,bus,57,1,1,1,1,1,0,0
1112,13377,10613,bus,57,1,1,1,1,1,0,0
1192,13378,10613,bus,57,1,1,1,1,1,0,0
1258,13379,10613,bus,57,1,1,1,1,1,0,0
1325,13380,10613,bus,57,1,1,1,1,1,0,0
1383,13381,10613,bus,57,1,1,1,1,1,0,0
393,13382,9652,bus,57,0,0,0,0,0,1,0
453,13383,9652,bus,57,0,0,0,0,0,1,0
513,13384,9652,bus,57,0,0,0,0,0,1,0
573,13385,9652,bus,57,0,0,0,0,0,1,0
653,13386,9652,bus,57,0,0,0,0,0,1,0
713,13387,9652,bus,57,0,0,0,0,0,1,0
773,13388,9652,bus,57,0,0,0,0,0,1,0
833,13389,9652,bus,57,0,0,0,0,0,1,0
893,13390,9652,bus,57,0,0,0,0,0,1,0
953,13391,9652,bus,57,0,0,0,0,0,1,0
1013,13392,9652,bus,57,0,0,0,0,0,1,0
1073,13393,9652,bus,57,0,0,0,0,0,1,0
1133,13394,9652,bus,57,0,0,0,0,0,1,0
1213,13395,9652,bus,57,0,0,0,0,0,1,0
1271,13396,9652,bus,57,0,0,0,0,0,1,0
1329,13397,9652,bus,57,0,0,0,0,0,1,0
1387,13398,9652,bus,57,0,0,0,0,0,1,0
453,13399,9653,bus,57,0,0,0,0,0,0,1
513,13400,9653,bus,57,0,0,0,0,0,0,1
573,13401,9653,bus,57,0,0,0,0,0,0,1
653,13402,9653,bus,57,0,0,0,0,0,0,1
713,13403,9653,bus,57,0,0,0,0,0,0,1
773,13404,9653,bus,57,0,0,0,0,0,0,1
833,13405,9653,bus,57,0,0,0,0,0,0,1
893,13406,9653,bus,57,0,0,0,0,0,0,1
953,13407,9653,bus,57,0,0,0,0,0,0,1
1013,13408,9653,bus,57,0,0,0,0,0,0,1
1073,13409,9653,bus,57,0,0,0,0,0,0,1
1133,13410,9653,bus,57,0,0,0,0,0,0,1
1213,13411,9653,bus,57,0,0,0,0,0,0,1
1271,13412,9653,bus,57,0,0,0,0,0,0,1
1329,13413,9653,bus,57,0,0,0,0,0,0,1
1387,13414,9653,bus,57,0,0,0,0,0,0,1
320,13415,10613,bus,57,1,1,1,1,1,0,0
377,13416,10613,bus,57,1,1,1,1,1,0,0
435,13417,10613,bus,57,1,1,1,1,1,0,0
493,13418,10613,bus,57,1,1,1,1,1,0,0
550,13419,10613,bus,57,1,1,1,1,1,0,0
630,13420,10613,bus,57,1,1,1,1,1,0,0
687,13421,10613,bus,57,1,1,1,1,1,0,0
744,13422,10613,bus,57,1,1,1,1,1,0,0
804,13423,10613,bus,57,1,1,1,1,1,0,0
871,13424,10613,bus,57,1,1,1,1,1,0,0
929,13425,10613,bus,57,1,1,1,1,1,0,0
987,13426,10613,bus,57,1,1,1,1,1,0,0
1047,13427,10613,bus,57,1,1,1,1,1,0,0
1112,13428,10613,bus,57,1,1,1,1,1,0,0
1192,13429,10613,bus,57,1,1,1,1,1,0,0
1258,13430,10613,bus,57,1,1,1,1,1,0,0
1325,13431,10613,bus,57,1,1,1,1,1,0,0
333,13432,9652,bus,57,0,0,0,0,0,1,0
393,13433,9652,bus,57,0,0,0,0,0,1,0
453,13434,9652,bus,57,0,0,0,0,0,1,0
513,13435,9652,bus,57,0,0,0,0,0,1,0
573,13436,9652,bus,57,0,0,0,0,0,1,0
653,13437,9652,bus,57,0,0,0,0,0,1,0
713,13438,9652,bus,57,0,0,0,0,0,1,0
773,13439,9652,bus,57,0,0,0,0,0,1,0
833,13440,9652,bus,57,0,0,0,0,0,1,0
893,13441,9652,bus,57,0,0,0,0,0,1,0
953,13442,9652,bus,57,0,0,0,0,0,1,0
1013,13443,9652,bus,57,0,0,0,0,0,1,0
1073,13444,9652,bus,57,0,0,0,0,0,1,0
1133,13445,9652,bus,57,0,0,0,0,0,1,0
1213,13446,9652,bus,57,0,0,0,0,0,1,0
1271,13447,9652,bus,57,0,0,0,0,0,1,0
1329,13448,9652,bus,57,0,0,0,0,0,1,0
393,13449,9653,bus,57,0,0,0,0,0,0,1
453,13450,9653,bus,57,0,0,0,0,0,0,1
513,13451,9653,bus,57,0,0,0,0,0,0,1
573,13452,9653,bus,57,0,0,0,0,0,0,1
653,13453,9653,bus,57,0,0,0,0,0,0,1
713,13454,9653,bus,57,0,0,0,0,0,0,1
773,13455,9653,bus,57,0,0,0,0,0,0,1
833,13456,9653,bus,57,0,0,0,0,0,0,1
893,13457,9653,bus,57,0,0,0,0,0,0,1
953,13458,9653,bus,57,0,0,0,0,0,0,1
1013,13459,9653,bus,57,0,0,0,0,0,0,1
1073,13460,9653,bus,57,0,0,0,0,0,0,1
1133,13461,9653,bus,57,0,0,0,0,0,0,1
1213,13462,9653,bus,57,0,0,0,0,0,0,1
1271,13463,9653,bus,57,0,0,0,0,0,0,1
1329,13464,9653,bus,57,0,0,0,0,0,0,1
1383,13465,10613,bus,57,1,1,1,1,1,0,0
1387,13466,9652,bus,57,0,0,0,0,0,1,0
1387,13467,9653,bus,57,0,0,0,0,0,0,1
320,13468,10613,bus,57,1,1,1,1,1,0,0
333,13469,9652,bus,57,0,0,0,0,0,1,0
393,13470,9653,bus,57,0,0,0,0,0,0,1
