timeInMin,trip_id,service_id,tipas,numeris,pirmadienis,antradienis,treciadienis,ketvirtadienis,penktadienis,sestadienis,sekmadienis 
302,8463,10485,bus,30,1,1,1,1,1,0,0
320,8464,10485,bus,30,1,1,1,1,1,0,0
344,8465,10485,bus,30,1,1,1,1,1,0,0
362,8466,10485,bus,30,1,1,1,1,1,0,0
380,8467,10485,bus,30,1,1,1,1,1,0,0
393,8468,10485,bus,30,1,1,1,1,1,0,0
412,8469,10485,bus,30,1,1,1,1,1,0,0
427,8470,10485,bus,30,1,1,1,1,1,0,0
447,8471,10485,bus,30,1,1,1,1,1,0,0
467,8472,10485,bus,30,1,1,1,1,1,0,0
482,8473,10485,bus,30,1,1,1,1,1,0,0
501,8474,10485,bus,30,1,1,1,1,1,0,0
517,8475,10485,bus,30,1,1,1,1,1,0,0
539,8476,10485,bus,30,1,1,1,1,1,0,0
565,8477,10485,bus,30,1,1,1,1,1,0,0
586,8478,10485,bus,30,1,1,1,1,1,0,0
614,8479,10485,bus,30,1,1,1,1,1,0,0
637,8480,10485,bus,30,1,1,1,1,1,0,0
666,8481,10485,bus,30,1,1,1,1,1,0,0
694,8482,10485,bus,30,1,1,1,1,1,0,0
720,8483,10485,bus,30,1,1,1,1,1,0,0
746,8484,10485,bus,30,1,1,1,1,1,0,0
776,8485,10485,bus,30,1,1,1,1,1,0,0
801,8486,10485,bus,30,1,1,1,1,1,0,0
831,8487,10485,bus,30,1,1,1,1,1,0,0
865,8488,10485,bus,30,1,1,1,1,1,0,0
886,8489,10485,bus,30,1,1,1,1,1,0,0
898,8490,10485,bus,30,1,1,1,1,1,0,0
913,8491,10485,bus,30,1,1,1,1,1,0,0
926,8492,10485,bus,30,1,1,1,1,1,0,0
946,8493,10485,bus,30,1,1,1,1,1,0,0
966,8494,10485,bus,30,1,1,1,1,1,0,0
982,8495,10485,bus,30,1,1,1,1,1,0,0
999,8496,10485,bus,30,1,1,1,1,1,0,0
1013,8497,10485,bus,30,1,1,1,1,1,0,0
1036,8498,10485,bus,30,1,1,1,1,1,0,0
1058,8499,10485,bus,30,1,1,1,1,1,0,0
1078,8500,10485,bus,30,1,1,1,1,1,0,0
1103,8501,10485,bus,30,1,1,1,1,1,0,0
1124,8502,10485,bus,30,1,1,1,1,1,0,0
1150,8503,10485,bus,30,1,1,1,1,1,0,0
1181,8504,10485,bus,30,1,1,1,1,1,0,0
1206,8505,10485,bus,30,1,1,1,1,1,0,0
1237,8506,10485,bus,30,1,1,1,1,1,0,0
1262,8507,10485,bus,30,1,1,1,1,1,0,0
1292,8508,10485,bus,30,1,1,1,1,1,0,0
1317,8509,10485,bus,30,1,1,1,1,1,0,0
1347,8510,10485,bus,30,1,1,1,1,1,0,0
301,8511,10486,bus,30,0,0,0,0,0,1,0
341,8512,10486,bus,30,0,0,0,0,0,1,0
379,8513,10486,bus,30,0,0,0,0,0,1,0
417,8514,10486,bus,30,0,0,0,0,0,1,0
455,8515,10486,bus,30,0,0,0,0,0,1,0
492,8516,10486,bus,30,0,0,0,0,0,1,0
524,8517,10486,bus,30,0,0,0,0,0,1,0
564,8518,10486,bus,30,0,0,0,0,0,1,0
598,8519,10486,bus,30,0,0,0,0,0,1,0
621,8520,10486,bus,30,0,0,0,0,0,1,0
646,8521,10486,bus,30,0,0,0,0,0,1,0
678,8522,10486,bus,30,0,0,0,0,0,1,0
708,8523,10486,bus,30,0,0,0,0,0,1,0
725,8524,10486,bus,30,0,0,0,0,0,1,0
763,8525,10486,bus,30,0,0,0,0,0,1,0
802,8526,10486,bus,30,0,0,0,0,0,1,0
823,8527,10486,bus,30,0,0,0,0,0,1,0
851,8528,10486,bus,30,0,0,0,0,0,1,0
882,8529,10486,bus,30,0,0,0,0,0,1,0
910,8530,10486,bus,30,0,0,0,0,0,1,0
936,8531,10486,bus,30,0,0,0,0,0,1,0
962,8532,10486,bus,30,0,0,0,0,0,1,0
991,8533,10486,bus,30,0,0,0,0,0,1,0
1013,8534,10486,bus,30,0,0,0,0,0,1,0
1045,8535,10486,bus,30,0,0,0,0,0,1,0
1092,8536,10486,bus,30,0,0,0,0,0,1,0
1145,8537,10486,bus,30,0,0,0,0,0,1,0
1197,8538,10486,bus,30,0,0,0,0,0,1,0
1225,8539,10486,bus,30,0,0,0,0,0,1,0
1273,8540,10486,bus,30,0,0,0,0,0,1,0
1306,8541,10486,bus,30,0,0,0,0,0,1,0
1350,8542,10486,bus,30,0,0,0,0,0,1,0
341,8543,10487,bus,30,0,0,0,0,0,0,1
379,8544,10487,bus,30,0,0,0,0,0,0,1
417,8545,10487,bus,30,0,0,0,0,0,0,1
455,8546,10487,bus,30,0,0,0,0,0,0,1
492,8547,10487,bus,30,0,0,0,0,0,0,1
524,8548,10487,bus,30,0,0,0,0,0,0,1
564,8549,10487,bus,30,0,0,0,0,0,0,1
598,8550,10487,bus,30,0,0,0,0,0,0,1
621,8551,10487,bus,30,0,0,0,0,0,0,1
646,8552,10487,bus,30,0,0,0,0,0,0,1
678,8553,10487,bus,30,0,0,0,0,0,0,1
708,8554,10487,bus,30,0,0,0,0,0,0,1
725,8555,10487,bus,30,0,0,0,0,0,0,1
763,8556,10487,bus,30,0,0,0,0,0,0,1
802,8557,10487,bus,30,0,0,0,0,0,0,1
823,8558,10487,bus,30,0,0,0,0,0,0,1
851,8559,10487,bus,30,0,0,0,0,0,0,1
882,8560,10487,bus,30,0,0,0,0,0,0,1
910,8561,10487,bus,30,0,0,0,0,0,0,1
936,8562,10487,bus,30,0,0,0,0,0,0,1
962,8563,10487,bus,30,0,0,0,0,0,0,1
991,8564,10487,bus,30,0,0,0,0,0,0,1
1013,8565,10487,bus,30,0,0,0,0,0,0,1
1045,8566,10487,bus,30,0,0,0,0,0,0,1
1092,8567,10487,bus,30,0,0,0,0,0,0,1
1145,8568,10487,bus,30,0,0,0,0,0,0,1
1197,8569,10487,bus,30,0,0,0,0,0,0,1
1225,8570,10487,bus,30,0,0,0,0,0,0,1
1273,8571,10487,bus,30,0,0,0,0,0,0,1
1306,8572,10487,bus,30,0,0,0,0,0,0,1
1350,8573,10487,bus,30,0,0,0,0,0,0,1
362,8998,10369,bus,33,0,0,0,0,0,0,1
440,8999,10369,bus,33,0,0,0,0,0,0,1
495,9000,10369,bus,33,0,0,0,0,0,0,1
543,9001,10369,bus,33,0,0,0,0,0,0,1
573,9002,10369,bus,33,0,0,0,0,0,0,1
646,9003,10369,bus,33,0,0,0,0,0,0,1
676,9004,10369,bus,33,0,0,0,0,0,0,1
724,9005,10369,bus,33,0,0,0,0,0,0,1
779,9006,10369,bus,33,0,0,0,0,0,0,1
809,9007,10369,bus,33,0,0,0,0,0,0,1
857,9008,10369,bus,33,0,0,0,0,0,0,1
892,9009,10369,bus,33,0,0,0,0,0,0,1
935,9010,10369,bus,33,0,0,0,0,0,0,1
970,9011,10369,bus,33,0,0,0,0,0,0,1
1013,9012,10369,bus,33,0,0,0,0,0,0,1
1073,9013,10369,bus,33,0,0,0,0,0,0,1
1176,9014,10369,bus,33,0,0,0,0,0,0,1
1265,9015,10369,bus,33,0,0,0,0,0,0,1
1351,9016,10369,bus,33,0,0,0,0,0,0,1
303,9017,10367,bus,33,1,1,1,1,1,0,0
331,9018,10367,bus,33,1,1,1,1,1,0,0
363,9019,10367,bus,33,1,1,1,1,1,0,0
395,9020,10367,bus,33,1,1,1,1,1,0,0
420,9021,10367,bus,33,1,1,1,1,1,0,0
448,9022,10367,bus,33,1,1,1,1,1,0,0
482,9023,10367,bus,33,1,1,1,1,1,0,0
522,9024,10367,bus,33,1,1,1,1,1,0,0
562,9025,10367,bus,33,1,1,1,1,1,0,0
599,9026,10367,bus,33,1,1,1,1,1,0,0
643,9027,10367,bus,33,1,1,1,1,1,0,0
682,9028,10367,bus,33,1,1,1,1,1,0,0
724,9029,10367,bus,33,1,1,1,1,1,0,0
765,9030,10367,bus,33,1,1,1,1,1,0,0
807,9031,10367,bus,33,1,1,1,1,1,0,0
850,9032,10367,bus,33,1,1,1,1,1,0,0
893,9033,10367,bus,33,1,1,1,1,1,0,0
931,9034,10367,bus,33,1,1,1,1,1,0,0
976,9035,10367,bus,33,1,1,1,1,1,0,0
1002,9036,10367,bus,33,1,1,1,1,1,0,0
1028,9037,10367,bus,33,1,1,1,1,1,0,0
1062,9038,10367,bus,33,1,1,1,1,1,0,0
1092,9039,10367,bus,33,1,1,1,1,1,0,0
1138,9040,10367,bus,33,1,1,1,1,1,0,0
1179,9041,10367,bus,33,1,1,1,1,1,0,0
1227,9042,10367,bus,33,1,1,1,1,1,0,0
1285,9043,10367,bus,33,1,1,1,1,1,0,0
1319,9044,10367,bus,33,1,1,1,1,1,0,0
1366,9045,10367,bus,33,1,1,1,1,1,0,0
362,9046,10368,bus,33,0,0,0,0,0,1,0
440,9047,10368,bus,33,0,0,0,0,0,1,0
495,9048,10368,bus,33,0,0,0,0,0,1,0
543,9049,10368,bus,33,0,0,0,0,0,1,0
573,9050,10368,bus,33,0,0,0,0,0,1,0
646,9051,10368,bus,33,0,0,0,0,0,1,0
676,9052,10368,bus,33,0,0,0,0,0,1,0
724,9053,10368,bus,33,0,0,0,0,0,1,0
779,9054,10368,bus,33,0,0,0,0,0,1,0
809,9055,10368,bus,33,0,0,0,0,0,1,0
857,9056,10368,bus,33,0,0,0,0,0,1,0
892,9057,10368,bus,33,0,0,0,0,0,1,0
935,9058,10368,bus,33,0,0,0,0,0,1,0
970,9059,10368,bus,33,0,0,0,0,0,1,0
1013,9060,10368,bus,33,0,0,0,0,0,1,0
1073,9061,10368,bus,33,0,0,0,0,0,1,0
1176,9062,10368,bus,33,0,0,0,0,0,1,0
1265,9063,10368,bus,33,0,0,0,0,0,1,0
1351,9064,10368,bus,33,0,0,0,0,0,1,0
