timeInMin,trip_id,service_id,tipas,numeris,pirmadienis,antradienis,treciadienis,ketvirtadienis,penktadienis,sestadienis,sekmadienis 
412,15972,10620,bus,114,1,1,1,1,1,0,0
439,15973,10620,bus,114,1,1,1,1,1,0,0
454,15974,10620,bus,114,1,1,1,1,1,0,0
488,15975,10620,bus,114,1,1,1,1,1,0,0
516,15976,10620,bus,114,1,1,1,1,1,0,0
535,15977,10620,bus,114,1,1,1,1,1,0,0
562,15978,10620,bus,114,1,1,1,1,1,0,0
590,15979,10620,bus,114,1,1,1,1,1,0,0
613,15980,10620,bus,114,1,1,1,1,1,0,0
641,15981,10620,bus,114,1,1,1,1,1,0,0
689,15982,10620,bus,114,1,1,1,1,1,0,0
718,15983,10620,bus,114,1,1,1,1,1,0,0
744,15984,10620,bus,114,1,1,1,1,1,0,0
768,15985,10620,bus,114,1,1,1,1,1,0,0
791,15986,10620,bus,114,1,1,1,1,1,0,0
816,15987,10620,bus,114,1,1,1,1,1,0,0
841,15988,10620,bus,114,1,1,1,1,1,0,0
868,15989,10620,bus,114,1,1,1,1,1,0,0
904,15990,10620,bus,114,1,1,1,1,1,0,0
928,15991,10620,bus,114,1,1,1,1,1,0,0
955,15992,10620,bus,114,1,1,1,1,1,0,0
988,15993,10620,bus,114,1,1,1,1,1,0,0
1013,15994,10620,bus,114,1,1,1,1,1,0,0
1038,15995,10620,bus,114,1,1,1,1,1,0,0
1062,15996,10620,bus,114,1,1,1,1,1,0,0
1089,15997,10620,bus,114,1,1,1,1,1,0,0
1116,15998,10620,bus,114,1,1,1,1,1,0,0
1137,15999,10620,bus,114,1,1,1,1,1,0,0
1163,16000,10620,bus,114,1,1,1,1,1,0,0
1215,16001,10620,bus,114,1,1,1,1,1,0,0
1236,16002,10620,bus,114,1,1,1,1,1,0,0
1262,16003,10620,bus,114,1,1,1,1,1,0,0
1289,16004,10620,bus,114,1,1,1,1,1,0,0
1316,16005,10620,bus,114,1,1,1,1,1,0,0
1337,16006,10620,bus,114,1,1,1,1,1,0,0
1362,16007,10620,bus,114,1,1,1,1,1,0,0
1391,16008,10620,bus,114,1,1,1,1,1,0,0
1411,16009,10620,bus,114,1,1,1,1,1,0,0
404,16010,10621,bus,114,0,0,0,0,0,1,1
440,16011,10621,bus,114,0,0,0,0,0,1,1
483,16012,10621,bus,114,0,0,0,0,0,1,1
514,16013,10621,bus,114,0,0,0,0,0,1,1
557,16014,10621,bus,114,0,0,0,0,0,1,1
593,16015,10621,bus,114,0,0,0,0,0,1,1
656,16016,10621,bus,114,0,0,0,0,0,1,1
694,16017,10621,bus,114,0,0,0,0,0,1,1
733,16018,10621,bus,114,0,0,0,0,0,1,1
777,16019,10621,bus,114,0,0,0,0,0,1,1
808,16020,10621,bus,114,0,0,0,0,0,1,1
851,16021,10621,bus,114,0,0,0,0,0,1,1
886,16022,10621,bus,114,0,0,0,0,0,1,1
928,16023,10621,bus,114,0,0,0,0,0,1,1
963,16024,10621,bus,114,0,0,0,0,0,1,1
1005,16025,10621,bus,114,0,0,0,0,0,1,1
1043,16026,10621,bus,114,0,0,0,0,0,1,1
1085,16027,10621,bus,114,0,0,0,0,0,1,1
1142,16028,10621,bus,114,0,0,0,0,0,1,1
1194,16029,10621,bus,114,0,0,0,0,0,1,1
1224,16030,10621,bus,114,0,0,0,0,0,1,1
1277,16031,10621,bus,114,0,0,0,0,0,1,1
1306,16032,10621,bus,114,0,0,0,0,0,1,1
1357,16033,10621,bus,114,0,0,0,0,0,1,1
1380,16034,10621,bus,114,0,0,0,0,0,1,1
389,16132,10622,bus,115,1,1,1,1,1,0,0
403,16133,10622,bus,115,1,1,1,1,1,0,0
416,16134,10622,bus,115,1,1,1,1,1,0,0
443,16135,10622,bus,115,1,1,1,1,1,0,0
473,16136,10622,bus,115,1,1,1,1,1,0,0
500,16137,10622,bus,115,1,1,1,1,1,0,0
527,16138,10622,bus,115,1,1,1,1,1,0,0
557,16139,10622,bus,115,1,1,1,1,1,0,0
585,16140,10622,bus,115,1,1,1,1,1,0,0
619,16141,10622,bus,115,1,1,1,1,1,0,0
677,16142,10622,bus,115,1,1,1,1,1,0,0
734,16143,10622,bus,115,1,1,1,1,1,0,0
763,16144,10622,bus,115,1,1,1,1,1,0,0
821,16145,10622,bus,115,1,1,1,1,1,0,0
846,16146,10622,bus,115,1,1,1,1,1,0,0
875,16147,10622,bus,115,1,1,1,1,1,0,0
909,16148,10622,bus,115,1,1,1,1,1,0,0
934,16149,10622,bus,115,1,1,1,1,1,0,0
965,16150,10622,bus,115,1,1,1,1,1,0,0
994,16151,10622,bus,115,1,1,1,1,1,0,0
1020,16152,10622,bus,115,1,1,1,1,1,0,0
1048,16153,10622,bus,115,1,1,1,1,1,0,0
1078,16154,10622,bus,115,1,1,1,1,1,0,0
1112,16155,10622,bus,115,1,1,1,1,1,0,0
1143,16156,10622,bus,115,1,1,1,1,1,0,0
1201,16157,10622,bus,115,1,1,1,1,1,0,0
1241,16158,10622,bus,115,1,1,1,1,1,0,0
1297,16159,10622,bus,115,1,1,1,1,1,0,0
1326,16160,10622,bus,115,1,1,1,1,1,0,0
1382,16161,10622,bus,115,1,1,1,1,1,0,0
1416,16162,10622,bus,115,1,1,1,1,1,0,0
398,16163,10623,bus,115,0,0,0,0,0,1,0
488,16164,10623,bus,115,0,0,0,0,0,1,0
577,16165,10623,bus,115,0,0,0,0,0,1,0
632,16166,10623,bus,115,0,0,0,0,0,1,0
688,16167,10623,bus,115,0,0,0,0,0,1,0
720,16168,10623,bus,115,0,0,0,0,0,1,0
771,16169,10623,bus,115,0,0,0,0,0,1,0
830,16170,10623,bus,115,0,0,0,0,0,1,0
900,16171,10623,bus,115,0,0,0,0,0,1,0
948,16172,10623,bus,115,0,0,0,0,0,1,0
988,16173,10623,bus,115,0,0,0,0,0,1,0
1032,16174,10623,bus,115,0,0,0,0,0,1,0
1072,16175,10623,bus,115,0,0,0,0,0,1,0
1123,16176,10623,bus,115,0,0,0,0,0,1,0
1182,16177,10623,bus,115,0,0,0,0,0,1,0
1265,16178,10623,bus,115,0,0,0,0,0,1,0
1348,16179,10623,bus,115,0,0,0,0,0,1,0
1431,16180,10623,bus,115,0,0,0,0,0,1,0
398,16181,10624,bus,115,0,0,0,0,0,0,1
488,16182,10624,bus,115,0,0,0,0,0,0,1
577,16183,10624,bus,115,0,0,0,0,0,0,1
632,16184,10624,bus,115,0,0,0,0,0,0,1
688,16185,10624,bus,115,0,0,0,0,0,0,1
720,16186,10624,bus,115,0,0,0,0,0,0,1
771,16187,10624,bus,115,0,0,0,0,0,0,1
830,16188,10624,bus,115,0,0,0,0,0,0,1
900,16189,10624,bus,115,0,0,0,0,0,0,1
948,16190,10624,bus,115,0,0,0,0,0,0,1
988,16191,10624,bus,115,0,0,0,0,0,0,1
1032,16192,10624,bus,115,0,0,0,0,0,0,1
1072,16193,10624,bus,115,0,0,0,0,0,0,1
1123,16194,10624,bus,115,0,0,0,0,0,0,1
1182,16195,10624,bus,115,0,0,0,0,0,0,1
1265,16196,10624,bus,115,0,0,0,0,0,0,1
1348,16197,10624,bus,115,0,0,0,0,0,0,1
1431,16198,10624,bus,115,0,0,0,0,0,0,1
374,16199,10622,bus,115,1,1,1,1,1,0,0
429,16200,10622,bus,115,1,1,1,1,1,0,0
457,16201,10622,bus,115,1,1,1,1,1,0,0
484,16202,10622,bus,115,1,1,1,1,1,0,0
512,16203,10622,bus,115,1,1,1,1,1,0,0
544,16204,10622,bus,115,1,1,1,1,1,0,0
570,16205,10622,bus,115,1,1,1,1,1,0,0
603,16206,10622,bus,115,1,1,1,1,1,0,0
655,16207,10622,bus,115,1,1,1,1,1,0,0
693,16208,10622,bus,115,1,1,1,1,1,0,0
712,16209,10622,bus,115,1,1,1,1,1,0,0
749,16210,10622,bus,115,1,1,1,1,1,0,0
779,16211,10622,bus,115,1,1,1,1,1,0,0
804,16212,10622,bus,115,1,1,1,1,1,0,0
863,16213,10622,bus,115,1,1,1,1,1,0,0
923,16214,10622,bus,115,1,1,1,1,1,0,0
949,16215,10622,bus,115,1,1,1,1,1,0,0
978,16216,10622,bus,115,1,1,1,1,1,0,0
1007,16217,10622,bus,115,1,1,1,1,1,0,0
1033,16218,10622,bus,115,1,1,1,1,1,0,0
1067,16219,10622,bus,115,1,1,1,1,1,0,0
1097,16220,10622,bus,115,1,1,1,1,1,0,0
1126,16221,10622,bus,115,1,1,1,1,1,0,0
1179,16222,10622,bus,115,1,1,1,1,1,0,0
1226,16223,10622,bus,115,1,1,1,1,1,0,0
1256,16224,10622,bus,115,1,1,1,1,1,0,0
1281,16225,10622,bus,115,1,1,1,1,1,0,0
1311,16226,10622,bus,115,1,1,1,1,1,0,0
1346,16227,10622,bus,115,1,1,1,1,1,0,0
1368,16228,10622,bus,115,1,1,1,1,1,0,0
1401,16229,10622,bus,115,1,1,1,1,1,0,0
