timeInMin,trip_id,service_id,tipas,numeris,pirmadienis,antradienis,treciadienis,ketvirtadienis,penktadienis,sestadienis,sekmadienis 
305,8463,10485,bus,30,1,1,1,1,1,0,0
323,8464,10485,bus,30,1,1,1,1,1,0,0
347,8465,10485,bus,30,1,1,1,1,1,0,0
365,8466,10485,bus,30,1,1,1,1,1,0,0
383,8467,10485,bus,30,1,1,1,1,1,0,0
396,8468,10485,bus,30,1,1,1,1,1,0,0
415,8469,10485,bus,30,1,1,1,1,1,0,0
430,8470,10485,bus,30,1,1,1,1,1,0,0
450,8471,10485,bus,30,1,1,1,1,1,0,0
470,8472,10485,bus,30,1,1,1,1,1,0,0
485,8473,10485,bus,30,1,1,1,1,1,0,0
504,8474,10485,bus,30,1,1,1,1,1,0,0
520,8475,10485,bus,30,1,1,1,1,1,0,0
542,8476,10485,bus,30,1,1,1,1,1,0,0
568,8477,10485,bus,30,1,1,1,1,1,0,0
589,8478,10485,bus,30,1,1,1,1,1,0,0
617,8479,10485,bus,30,1,1,1,1,1,0,0
640,8480,10485,bus,30,1,1,1,1,1,0,0
669,8481,10485,bus,30,1,1,1,1,1,0,0
697,8482,10485,bus,30,1,1,1,1,1,0,0
723,8483,10485,bus,30,1,1,1,1,1,0,0
749,8484,10485,bus,30,1,1,1,1,1,0,0
779,8485,10485,bus,30,1,1,1,1,1,0,0
804,8486,10485,bus,30,1,1,1,1,1,0,0
834,8487,10485,bus,30,1,1,1,1,1,0,0
868,8488,10485,bus,30,1,1,1,1,1,0,0
889,8489,10485,bus,30,1,1,1,1,1,0,0
901,8490,10485,bus,30,1,1,1,1,1,0,0
916,8491,10485,bus,30,1,1,1,1,1,0,0
929,8492,10485,bus,30,1,1,1,1,1,0,0
949,8493,10485,bus,30,1,1,1,1,1,0,0
969,8494,10485,bus,30,1,1,1,1,1,0,0
985,8495,10485,bus,30,1,1,1,1,1,0,0
1002,8496,10485,bus,30,1,1,1,1,1,0,0
1016,8497,10485,bus,30,1,1,1,1,1,0,0
1039,8498,10485,bus,30,1,1,1,1,1,0,0
1061,8499,10485,bus,30,1,1,1,1,1,0,0
1081,8500,10485,bus,30,1,1,1,1,1,0,0
1106,8501,10485,bus,30,1,1,1,1,1,0,0
1127,8502,10485,bus,30,1,1,1,1,1,0,0
1153,8503,10485,bus,30,1,1,1,1,1,0,0
1184,8504,10485,bus,30,1,1,1,1,1,0,0
1209,8505,10485,bus,30,1,1,1,1,1,0,0
1240,8506,10485,bus,30,1,1,1,1,1,0,0
1265,8507,10485,bus,30,1,1,1,1,1,0,0
1295,8508,10485,bus,30,1,1,1,1,1,0,0
1320,8509,10485,bus,30,1,1,1,1,1,0,0
1350,8510,10485,bus,30,1,1,1,1,1,0,0
304,8511,10486,bus,30,0,0,0,0,0,1,0
344,8512,10486,bus,30,0,0,0,0,0,1,0
382,8513,10486,bus,30,0,0,0,0,0,1,0
420,8514,10486,bus,30,0,0,0,0,0,1,0
458,8515,10486,bus,30,0,0,0,0,0,1,0
495,8516,10486,bus,30,0,0,0,0,0,1,0
527,8517,10486,bus,30,0,0,0,0,0,1,0
567,8518,10486,bus,30,0,0,0,0,0,1,0
601,8519,10486,bus,30,0,0,0,0,0,1,0
624,8520,10486,bus,30,0,0,0,0,0,1,0
649,8521,10486,bus,30,0,0,0,0,0,1,0
681,8522,10486,bus,30,0,0,0,0,0,1,0
711,8523,10486,bus,30,0,0,0,0,0,1,0
728,8524,10486,bus,30,0,0,0,0,0,1,0
766,8525,10486,bus,30,0,0,0,0,0,1,0
805,8526,10486,bus,30,0,0,0,0,0,1,0
826,8527,10486,bus,30,0,0,0,0,0,1,0
854,8528,10486,bus,30,0,0,0,0,0,1,0
885,8529,10486,bus,30,0,0,0,0,0,1,0
913,8530,10486,bus,30,0,0,0,0,0,1,0
939,8531,10486,bus,30,0,0,0,0,0,1,0
965,8532,10486,bus,30,0,0,0,0,0,1,0
994,8533,10486,bus,30,0,0,0,0,0,1,0
1016,8534,10486,bus,30,0,0,0,0,0,1,0
1048,8535,10486,bus,30,0,0,0,0,0,1,0
1095,8536,10486,bus,30,0,0,0,0,0,1,0
1148,8537,10486,bus,30,0,0,0,0,0,1,0
1200,8538,10486,bus,30,0,0,0,0,0,1,0
1228,8539,10486,bus,30,0,0,0,0,0,1,0
1276,8540,10486,bus,30,0,0,0,0,0,1,0
1309,8541,10486,bus,30,0,0,0,0,0,1,0
1353,8542,10486,bus,30,0,0,0,0,0,1,0
344,8543,10487,bus,30,0,0,0,0,0,0,1
382,8544,10487,bus,30,0,0,0,0,0,0,1
420,8545,10487,bus,30,0,0,0,0,0,0,1
458,8546,10487,bus,30,0,0,0,0,0,0,1
495,8547,10487,bus,30,0,0,0,0,0,0,1
527,8548,10487,bus,30,0,0,0,0,0,0,1
567,8549,10487,bus,30,0,0,0,0,0,0,1
601,8550,10487,bus,30,0,0,0,0,0,0,1
624,8551,10487,bus,30,0,0,0,0,0,0,1
649,8552,10487,bus,30,0,0,0,0,0,0,1
681,8553,10487,bus,30,0,0,0,0,0,0,1
711,8554,10487,bus,30,0,0,0,0,0,0,1
728,8555,10487,bus,30,0,0,0,0,0,0,1
766,8556,10487,bus,30,0,0,0,0,0,0,1
805,8557,10487,bus,30,0,0,0,0,0,0,1
826,8558,10487,bus,30,0,0,0,0,0,0,1
854,8559,10487,bus,30,0,0,0,0,0,0,1
885,8560,10487,bus,30,0,0,0,0,0,0,1
913,8561,10487,bus,30,0,0,0,0,0,0,1
939,8562,10487,bus,30,0,0,0,0,0,0,1
965,8563,10487,bus,30,0,0,0,0,0,0,1
994,8564,10487,bus,30,0,0,0,0,0,0,1
1016,8565,10487,bus,30,0,0,0,0,0,0,1
1048,8566,10487,bus,30,0,0,0,0,0,0,1
1095,8567,10487,bus,30,0,0,0,0,0,0,1
1148,8568,10487,bus,30,0,0,0,0,0,0,1
1200,8569,10487,bus,30,0,0,0,0,0,0,1
1228,8570,10487,bus,30,0,0,0,0,0,0,1
1276,8571,10487,bus,30,0,0,0,0,0,0,1
1309,8572,10487,bus,30,0,0,0,0,0,0,1
1353,8573,10487,bus,30,0,0,0,0,0,0,1
365,8998,10369,bus,33,0,0,0,0,0,0,1
443,8999,10369,bus,33,0,0,0,0,0,0,1
498,9000,10369,bus,33,0,0,0,0,0,0,1
546,9001,10369,bus,33,0,0,0,0,0,0,1
576,9002,10369,bus,33,0,0,0,0,0,0,1
649,9003,10369,bus,33,0,0,0,0,0,0,1
679,9004,10369,bus,33,0,0,0,0,0,0,1
727,9005,10369,bus,33,0,0,0,0,0,0,1
782,9006,10369,bus,33,0,0,0,0,0,0,1
812,9007,10369,bus,33,0,0,0,0,0,0,1
860,9008,10369,bus,33,0,0,0,0,0,0,1
895,9009,10369,bus,33,0,0,0,0,0,0,1
938,9010,10369,bus,33,0,0,0,0,0,0,1
973,9011,10369,bus,33,0,0,0,0,0,0,1
1016,9012,10369,bus,33,0,0,0,0,0,0,1
1076,9013,10369,bus,33,0,0,0,0,0,0,1
1179,9014,10369,bus,33,0,0,0,0,0,0,1
1268,9015,10369,bus,33,0,0,0,0,0,0,1
1354,9016,10369,bus,33,0,0,0,0,0,0,1
306,9017,10367,bus,33,1,1,1,1,1,0,0
334,9018,10367,bus,33,1,1,1,1,1,0,0
366,9019,10367,bus,33,1,1,1,1,1,0,0
398,9020,10367,bus,33,1,1,1,1,1,0,0
423,9021,10367,bus,33,1,1,1,1,1,0,0
451,9022,10367,bus,33,1,1,1,1,1,0,0
485,9023,10367,bus,33,1,1,1,1,1,0,0
525,9024,10367,bus,33,1,1,1,1,1,0,0
565,9025,10367,bus,33,1,1,1,1,1,0,0
602,9026,10367,bus,33,1,1,1,1,1,0,0
646,9027,10367,bus,33,1,1,1,1,1,0,0
685,9028,10367,bus,33,1,1,1,1,1,0,0
727,9029,10367,bus,33,1,1,1,1,1,0,0
768,9030,10367,bus,33,1,1,1,1,1,0,0
810,9031,10367,bus,33,1,1,1,1,1,0,0
853,9032,10367,bus,33,1,1,1,1,1,0,0
896,9033,10367,bus,33,1,1,1,1,1,0,0
934,9034,10367,bus,33,1,1,1,1,1,0,0
979,9035,10367,bus,33,1,1,1,1,1,0,0
1005,9036,10367,bus,33,1,1,1,1,1,0,0
1031,9037,10367,bus,33,1,1,1,1,1,0,0
1065,9038,10367,bus,33,1,1,1,1,1,0,0
1095,9039,10367,bus,33,1,1,1,1,1,0,0
1141,9040,10367,bus,33,1,1,1,1,1,0,0
1182,9041,10367,bus,33,1,1,1,1,1,0,0
1230,9042,10367,bus,33,1,1,1,1,1,0,0
1288,9043,10367,bus,33,1,1,1,1,1,0,0
1322,9044,10367,bus,33,1,1,1,1,1,0,0
1369,9045,10367,bus,33,1,1,1,1,1,0,0
365,9046,10368,bus,33,0,0,0,0,0,1,0
443,9047,10368,bus,33,0,0,0,0,0,1,0
498,9048,10368,bus,33,0,0,0,0,0,1,0
546,9049,10368,bus,33,0,0,0,0,0,1,0
576,9050,10368,bus,33,0,0,0,0,0,1,0
649,9051,10368,bus,33,0,0,0,0,0,1,0
679,9052,10368,bus,33,0,0,0,0,0,1,0
727,9053,10368,bus,33,0,0,0,0,0,1,0
782,9054,10368,bus,33,0,0,0,0,0,1,0
812,9055,10368,bus,33,0,0,0,0,0,1,0
860,9056,10368,bus,33,0,0,0,0,0,1,0
895,9057,10368,bus,33,0,0,0,0,0,1,0
938,9058,10368,bus,33,0,0,0,0,0,1,0
973,9059,10368,bus,33,0,0,0,0,0,1,0
1016,9060,10368,bus,33,0,0,0,0,0,1,0
1076,9061,10368,bus,33,0,0,0,0,0,1,0
1179,9062,10368,bus,33,0,0,0,0,0,1,0
1268,9063,10368,bus,33,0,0,0,0,0,1,0
1354,9064,10368,bus,33,0,0,0,0,0,1,0
