timeInMin,trip_id,service_id,tipas,numeris,pirmadienis,antradienis,treciadienis,ketvirtadienis,penktadienis,sestadienis,sekmadienis 
348,14259,10616,bus,68,1,1,1,1,1,0,0
375,14260,10616,bus,68,1,1,1,1,1,0,0
408,14261,10616,bus,68,1,1,1,1,1,0,0
436,14262,10616,bus,68,1,1,1,1,1,0,0
466,14263,10616,bus,68,1,1,1,1,1,0,0
494,14264,10616,bus,68,1,1,1,1,1,0,0
520,14265,10616,bus,68,1,1,1,1,1,0,0
553,14266,10616,bus,68,1,1,1,1,1,0,0
583,14267,10616,bus,68,1,1,1,1,1,0,0
629,14268,10616,bus,68,1,1,1,1,1,0,0
670,14269,10616,bus,68,1,1,1,1,1,0,0
714,14270,10616,bus,68,1,1,1,1,1,0,0
756,14271,10616,bus,68,1,1,1,1,1,0,0
799,14272,10616,bus,68,1,1,1,1,1,0,0
840,14273,10616,bus,68,1,1,1,1,1,0,0
886,14274,10616,bus,68,1,1,1,1,1,0,0
928,14275,10616,bus,68,1,1,1,1,1,0,0
971,14276,10616,bus,68,1,1,1,1,1,0,0
1012,14277,10616,bus,68,1,1,1,1,1,0,0
1039,14278,10616,bus,68,1,1,1,1,1,0,0
1065,14279,10616,bus,68,1,1,1,1,1,0,0
1101,14280,10616,bus,68,1,1,1,1,1,0,0
1130,14281,10616,bus,68,1,1,1,1,1,0,0
1173,14282,10616,bus,68,1,1,1,1,1,0,0
1207,14283,10616,bus,68,1,1,1,1,1,0,0
1254,14284,10616,bus,68,1,1,1,1,1,0,0
1293,14285,10616,bus,68,1,1,1,1,1,0,0
1336,14286,10616,bus,68,1,1,1,1,1,0,0
1374,14287,10616,bus,68,1,1,1,1,1,0,0
356,14288,9989,bus,68,0,0,0,0,0,1,0
439,14289,9989,bus,68,0,0,0,0,0,1,0
523,14290,9989,bus,68,0,0,0,0,0,1,0
576,14291,9989,bus,68,0,0,0,0,0,1,0
632,14292,9989,bus,68,0,0,0,0,0,1,0
660,14293,9989,bus,68,0,0,0,0,0,1,0
716,14294,9989,bus,68,0,0,0,0,0,1,0
768,14295,9989,bus,68,0,0,0,0,0,1,0
827,14296,9989,bus,68,0,0,0,0,0,1,0
877,14297,9989,bus,68,0,0,0,0,0,1,0
919,14298,9989,bus,68,0,0,0,0,0,1,0
961,14299,9989,bus,68,0,0,0,0,0,1,0
1003,14300,9989,bus,68,0,0,0,0,0,1,0
1044,14301,9989,bus,68,0,0,0,0,0,1,0
1097,14302,9989,bus,68,0,0,0,0,0,1,0
1205,14303,9989,bus,68,0,0,0,0,0,1,0
1287,14304,9989,bus,68,0,0,0,0,0,1,0
1368,14305,9989,bus,68,0,0,0,0,0,1,0
439,14306,9990,bus,68,0,0,0,0,0,0,1
523,14307,9990,bus,68,0,0,0,0,0,0,1
576,14308,9990,bus,68,0,0,0,0,0,0,1
632,14309,9990,bus,68,0,0,0,0,0,0,1
660,14310,9990,bus,68,0,0,0,0,0,0,1
716,14311,9990,bus,68,0,0,0,0,0,0,1
768,14312,9990,bus,68,0,0,0,0,0,0,1
827,14313,9990,bus,68,0,0,0,0,0,0,1
877,14314,9990,bus,68,0,0,0,0,0,0,1
919,14315,9990,bus,68,0,0,0,0,0,0,1
961,14316,9990,bus,68,0,0,0,0,0,0,1
1003,14317,9990,bus,68,0,0,0,0,0,0,1
1044,14318,9990,bus,68,0,0,0,0,0,0,1
1097,14319,9990,bus,68,0,0,0,0,0,0,1
1205,14320,9990,bus,68,0,0,0,0,0,0,1
1287,14321,9990,bus,68,0,0,0,0,0,0,1
1368,14322,9990,bus,68,0,0,0,0,0,0,1
