timeInMin,trip_id,service_id,tipas,numeris,pirmadienis,antradienis,treciadienis,ketvirtadienis,penktadienis,sestadienis,sekmadienis 
333,1,10571,bus,1,1,1,1,1,1,1,0
385,2,10571,bus,1,1,1,1,1,1,1,0
435,3,10571,bus,1,1,1,1,1,1,1,0
496,4,10571,bus,1,1,1,1,1,1,1,0
575,5,10571,bus,1,1,1,1,1,1,1,0
647,6,10571,bus,1,1,1,1,1,1,1,0
699,7,10571,bus,1,1,1,1,1,1,1,0
752,8,10571,bus,1,1,1,1,1,1,1,0
804,9,10571,bus,1,1,1,1,1,1,1,0
861,10,10571,bus,1,1,1,1,1,1,1,0
926,11,10571,bus,1,1,1,1,1,1,1,0
978,12,10571,bus,1,1,1,1,1,1,1,0
1031,13,10571,bus,1,1,1,1,1,1,1,0
1115,14,10571,bus,1,1,1,1,1,1,1,0
1168,15,10571,bus,1,1,1,1,1,1,1,0
1220,16,10571,bus,1,1,1,1,1,1,1,0
1272,17,10571,bus,1,1,1,1,1,1,1,0
1324,18,10571,bus,1,1,1,1,1,1,1,0
385,19,10572,bus,1,0,0,0,0,0,0,1
435,20,10572,bus,1,0,0,0,0,0,0,1
496,21,10572,bus,1,0,0,0,0,0,0,1
575,22,10572,bus,1,0,0,0,0,0,0,1
647,23,10572,bus,1,0,0,0,0,0,0,1
699,24,10572,bus,1,0,0,0,0,0,0,1
752,25,10572,bus,1,0,0,0,0,0,0,1
804,26,10572,bus,1,0,0,0,0,0,0,1
861,27,10572,bus,1,0,0,0,0,0,0,1
926,28,10572,bus,1,0,0,0,0,0,0,1
978,29,10572,bus,1,0,0,0,0,0,0,1
1031,30,10572,bus,1,0,0,0,0,0,0,1
1115,31,10572,bus,1,0,0,0,0,0,0,1
1168,32,10572,bus,1,0,0,0,0,0,0,1
1220,33,10572,bus,1,0,0,0,0,0,0,1
1272,34,10572,bus,1,0,0,0,0,0,0,1
1324,35,10572,bus,1,0,0,0,0,0,0,1
363,851,10573,bus,2,1,1,1,1,1,1,0
409,852,10573,bus,2,1,1,1,1,1,1,0
460,853,10573,bus,2,1,1,1,1,1,1,0
515,854,10573,bus,2,1,1,1,1,1,1,0
561,855,10573,bus,2,1,1,1,1,1,1,0
631,856,10573,bus,2,1,1,1,1,1,1,0
676,857,10573,bus,2,1,1,1,1,1,1,0
725,858,10573,bus,2,1,1,1,1,1,1,0
767,859,10573,bus,2,1,1,1,1,1,1,0
821,860,10573,bus,2,1,1,1,1,1,1,0
872,861,10573,bus,2,1,1,1,1,1,1,0
914,862,10573,bus,2,1,1,1,1,1,1,0
957,863,10573,bus,2,1,1,1,1,1,1,0
999,864,10573,bus,2,1,1,1,1,1,1,0
1044,865,10573,bus,2,1,1,1,1,1,1,0
1087,866,10573,bus,2,1,1,1,1,1,1,0
1157,867,10573,bus,2,1,1,1,1,1,1,0
1200,868,10573,bus,2,1,1,1,1,1,1,0
1242,869,10573,bus,2,1,1,1,1,1,1,0
1290,870,10573,bus,2,1,1,1,1,1,1,0
1337,871,10573,bus,2,1,1,1,1,1,1,0
387,872,10574,bus,2,0,0,0,0,0,0,1
448,873,10574,bus,2,0,0,0,0,0,0,1
515,874,10574,bus,2,0,0,0,0,0,0,1
561,875,10574,bus,2,0,0,0,0,0,0,1
631,876,10574,bus,2,0,0,0,0,0,0,1
676,877,10574,bus,2,0,0,0,0,0,0,1
725,878,10574,bus,2,0,0,0,0,0,0,1
767,879,10574,bus,2,0,0,0,0,0,0,1
821,880,10574,bus,2,0,0,0,0,0,0,1
872,881,10574,bus,2,0,0,0,0,0,0,1
914,882,10574,bus,2,0,0,0,0,0,0,1
957,883,10574,bus,2,0,0,0,0,0,0,1
999,884,10574,bus,2,0,0,0,0,0,0,1
1044,885,10574,bus,2,0,0,0,0,0,0,1
1087,886,10574,bus,2,0,0,0,0,0,0,1
1157,887,10574,bus,2,0,0,0,0,0,0,1
1200,888,10574,bus,2,0,0,0,0,0,0,1
1242,889,10574,bus,2,0,0,0,0,0,0,1
1290,890,10574,bus,2,0,0,0,0,0,0,1
1337,891,10574,bus,2,0,0,0,0,0,0,1
