timeInMin,trip_id,service_id,tipas,numeris,pirmadienis,antradienis,treciadienis,ketvirtadienis,penktadienis,sestadienis,sekmadienis 
321,13415,10613,bus,57,1,1,1,1,1,0,0
379,13416,10613,bus,57,1,1,1,1,1,0,0
437,13417,10613,bus,57,1,1,1,1,1,0,0
495,13418,10613,bus,57,1,1,1,1,1,0,0
552,13419,10613,bus,57,1,1,1,1,1,0,0
632,13420,10613,bus,57,1,1,1,1,1,0,0
689,13421,10613,bus,57,1,1,1,1,1,0,0
746,13422,10613,bus,57,1,1,1,1,1,0,0
806,13423,10613,bus,57,1,1,1,1,1,0,0
873,13424,10613,bus,57,1,1,1,1,1,0,0
931,13425,10613,bus,57,1,1,1,1,1,0,0
989,13426,10613,bus,57,1,1,1,1,1,0,0
1049,13427,10613,bus,57,1,1,1,1,1,0,0
1114,13428,10613,bus,57,1,1,1,1,1,0,0
1194,13429,10613,bus,57,1,1,1,1,1,0,0
1260,13430,10613,bus,57,1,1,1,1,1,0,0
1327,13431,10613,bus,57,1,1,1,1,1,0,0
335,13432,9652,bus,57,0,0,0,0,0,1,0
395,13433,9652,bus,57,0,0,0,0,0,1,0
455,13434,9652,bus,57,0,0,0,0,0,1,0
515,13435,9652,bus,57,0,0,0,0,0,1,0
575,13436,9652,bus,57,0,0,0,0,0,1,0
655,13437,9652,bus,57,0,0,0,0,0,1,0
715,13438,9652,bus,57,0,0,0,0,0,1,0
775,13439,9652,bus,57,0,0,0,0,0,1,0
835,13440,9652,bus,57,0,0,0,0,0,1,0
895,13441,9652,bus,57,0,0,0,0,0,1,0
955,13442,9652,bus,57,0,0,0,0,0,1,0
1015,13443,9652,bus,57,0,0,0,0,0,1,0
1075,13444,9652,bus,57,0,0,0,0,0,1,0
1135,13445,9652,bus,57,0,0,0,0,0,1,0
1215,13446,9652,bus,57,0,0,0,0,0,1,0
1273,13447,9652,bus,57,0,0,0,0,0,1,0
1331,13448,9652,bus,57,0,0,0,0,0,1,0
395,13449,9653,bus,57,0,0,0,0,0,0,1
455,13450,9653,bus,57,0,0,0,0,0,0,1
515,13451,9653,bus,57,0,0,0,0,0,0,1
575,13452,9653,bus,57,0,0,0,0,0,0,1
655,13453,9653,bus,57,0,0,0,0,0,0,1
715,13454,9653,bus,57,0,0,0,0,0,0,1
775,13455,9653,bus,57,0,0,0,0,0,0,1
835,13456,9653,bus,57,0,0,0,0,0,0,1
895,13457,9653,bus,57,0,0,0,0,0,0,1
955,13458,9653,bus,57,0,0,0,0,0,0,1
1015,13459,9653,bus,57,0,0,0,0,0,0,1
1075,13460,9653,bus,57,0,0,0,0,0,0,1
1135,13461,9653,bus,57,0,0,0,0,0,0,1
1215,13462,9653,bus,57,0,0,0,0,0,0,1
1273,13463,9653,bus,57,0,0,0,0,0,0,1
1331,13464,9653,bus,57,0,0,0,0,0,0,1
1385,13465,10613,bus,57,1,1,1,1,1,0,0
1389,13466,9652,bus,57,0,0,0,0,0,1,0
1389,13467,9653,bus,57,0,0,0,0,0,0,1
